%!PS-Adobe-2.0 EPSF-2.0
%%Title: exc1_3_4_3d_lost_checksum_err_3/protocol4/exc1_3_4_3d_lost_checksum_err_3.tex
%%Creator: gnuplot 5.0 patchlevel 1
%%CreationDate: Mon Nov  2 06:05:00 2015
%%DocumentFonts: 
%%BoundingBox: 50 50 410 482
%%EndComments
%%BeginProlog
/gnudict 256 dict def
gnudict begin
%
% The following true/false flags may be edited by hand if desired.
% The unit line width and grayscale image gamma correction may also be changed.
%
/Color false def
/Blacktext true def
/Solid false def
/Dashlength 1 def
/Landscape false def
/Level1 false def
/Level3 false def
/Rounded false def
/ClipToBoundingBox false def
/SuppressPDFMark false def
/TransparentPatterns false def
/gnulinewidth 5.000 def
/userlinewidth gnulinewidth def
/Gamma 1.0 def
/BackgroundColor {-1.000 -1.000 -1.000} def
%
/vshift -53 def
/dl1 {
  10.0 Dashlength userlinewidth gnulinewidth div mul mul mul
  Rounded { currentlinewidth 0.75 mul sub dup 0 le { pop 0.01 } if } if
} def
/dl2 {
  10.0 Dashlength userlinewidth gnulinewidth div mul mul mul
  Rounded { currentlinewidth 0.75 mul add } if
} def
/hpt_ 31.5 def
/vpt_ 31.5 def
/hpt hpt_ def
/vpt vpt_ def
/doclip {
  ClipToBoundingBox {
    newpath 50 50 moveto 410 50 lineto 410 482 lineto 50 482 lineto closepath
    clip
  } if
} def
%
% Gnuplot Prolog Version 5.0 (Dec 2014)
%
%/SuppressPDFMark true def
%
/M {moveto} bind def
/L {lineto} bind def
/R {rmoveto} bind def
/V {rlineto} bind def
/N {newpath moveto} bind def
/Z {closepath} bind def
/C {setrgbcolor} bind def
/f {rlineto fill} bind def
/g {setgray} bind def
/Gshow {show} def   % May be redefined later in the file to support UTF-8
/vpt2 vpt 2 mul def
/hpt2 hpt 2 mul def
/Lshow {currentpoint stroke M 0 vshift R 
	Blacktext {gsave 0 setgray textshow grestore} {textshow} ifelse} def
/Rshow {currentpoint stroke M dup stringwidth pop neg vshift R
	Blacktext {gsave 0 setgray textshow grestore} {textshow} ifelse} def
/Cshow {currentpoint stroke M dup stringwidth pop -2 div vshift R 
	Blacktext {gsave 0 setgray textshow grestore} {textshow} ifelse} def
/UP {dup vpt_ mul /vpt exch def hpt_ mul /hpt exch def
  /hpt2 hpt 2 mul def /vpt2 vpt 2 mul def} def
/DL {Color {setrgbcolor Solid {pop []} if 0 setdash}
 {pop pop pop 0 setgray Solid {pop []} if 0 setdash} ifelse} def
/BL {stroke userlinewidth 2 mul setlinewidth
	Rounded {1 setlinejoin 1 setlinecap} if} def
/AL {stroke userlinewidth 2 div setlinewidth
	Rounded {1 setlinejoin 1 setlinecap} if} def
/UL {dup gnulinewidth mul /userlinewidth exch def
	dup 1 lt {pop 1} if 10 mul /udl exch def} def
/PL {stroke userlinewidth setlinewidth
	Rounded {1 setlinejoin 1 setlinecap} if} def
3.8 setmiterlimit
% Classic Line colors (version 5.0)
/LCw {1 1 1} def
/LCb {0 0 0} def
/LCa {0 0 0} def
/LC0 {1 0 0} def
/LC1 {0 1 0} def
/LC2 {0 0 1} def
/LC3 {1 0 1} def
/LC4 {0 1 1} def
/LC5 {1 1 0} def
/LC6 {0 0 0} def
/LC7 {1 0.3 0} def
/LC8 {0.5 0.5 0.5} def
% Default dash patterns (version 5.0)
/LTw {PL [] 1 setgray} def
/LTb {BL [] LCb DL} def
/LTa {AL [1 udl mul 2 udl mul] 0 setdash LCa setrgbcolor} def
/LT0 {PL [] LC0 DL} def
/LT1 {PL [2 dl1 3 dl2] LC1 DL} def
/LT2 {PL [1 dl1 1.5 dl2] LC2 DL} def
/LT3 {PL [6 dl1 2 dl2 1 dl1 2 dl2] LC3 DL} def
/LT4 {PL [1 dl1 2 dl2 6 dl1 2 dl2 1 dl1 2 dl2] LC4 DL} def
/LT5 {PL [4 dl1 2 dl2] LC5 DL} def
/LT6 {PL [1.5 dl1 1.5 dl2 1.5 dl1 1.5 dl2 1.5 dl1 6 dl2] LC6 DL} def
/LT7 {PL [3 dl1 3 dl2 1 dl1 3 dl2] LC7 DL} def
/LT8 {PL [2 dl1 2 dl2 2 dl1 6 dl2] LC8 DL} def
/SL {[] 0 setdash} def
/Pnt {stroke [] 0 setdash gsave 1 setlinecap M 0 0 V stroke grestore} def
/Dia {stroke [] 0 setdash 2 copy vpt add M
  hpt neg vpt neg V hpt vpt neg V
  hpt vpt V hpt neg vpt V closepath stroke
  Pnt} def
/Pls {stroke [] 0 setdash vpt sub M 0 vpt2 V
  currentpoint stroke M
  hpt neg vpt neg R hpt2 0 V stroke
 } def
/Box {stroke [] 0 setdash 2 copy exch hpt sub exch vpt add M
  0 vpt2 neg V hpt2 0 V 0 vpt2 V
  hpt2 neg 0 V closepath stroke
  Pnt} def
/Crs {stroke [] 0 setdash exch hpt sub exch vpt add M
  hpt2 vpt2 neg V currentpoint stroke M
  hpt2 neg 0 R hpt2 vpt2 V stroke} def
/TriU {stroke [] 0 setdash 2 copy vpt 1.12 mul add M
  hpt neg vpt -1.62 mul V
  hpt 2 mul 0 V
  hpt neg vpt 1.62 mul V closepath stroke
  Pnt} def
/Star {2 copy Pls Crs} def
/BoxF {stroke [] 0 setdash exch hpt sub exch vpt add M
  0 vpt2 neg V hpt2 0 V 0 vpt2 V
  hpt2 neg 0 V closepath fill} def
/TriUF {stroke [] 0 setdash vpt 1.12 mul add M
  hpt neg vpt -1.62 mul V
  hpt 2 mul 0 V
  hpt neg vpt 1.62 mul V closepath fill} def
/TriD {stroke [] 0 setdash 2 copy vpt 1.12 mul sub M
  hpt neg vpt 1.62 mul V
  hpt 2 mul 0 V
  hpt neg vpt -1.62 mul V closepath stroke
  Pnt} def
/TriDF {stroke [] 0 setdash vpt 1.12 mul sub M
  hpt neg vpt 1.62 mul V
  hpt 2 mul 0 V
  hpt neg vpt -1.62 mul V closepath fill} def
/DiaF {stroke [] 0 setdash vpt add M
  hpt neg vpt neg V hpt vpt neg V
  hpt vpt V hpt neg vpt V closepath fill} def
/Pent {stroke [] 0 setdash 2 copy gsave
  translate 0 hpt M 4 {72 rotate 0 hpt L} repeat
  closepath stroke grestore Pnt} def
/PentF {stroke [] 0 setdash gsave
  translate 0 hpt M 4 {72 rotate 0 hpt L} repeat
  closepath fill grestore} def
/Circle {stroke [] 0 setdash 2 copy
  hpt 0 360 arc stroke Pnt} def
/CircleF {stroke [] 0 setdash hpt 0 360 arc fill} def
/C0 {BL [] 0 setdash 2 copy moveto vpt 90 450 arc} bind def
/C1 {BL [] 0 setdash 2 copy moveto
	2 copy vpt 0 90 arc closepath fill
	vpt 0 360 arc closepath} bind def
/C2 {BL [] 0 setdash 2 copy moveto
	2 copy vpt 90 180 arc closepath fill
	vpt 0 360 arc closepath} bind def
/C3 {BL [] 0 setdash 2 copy moveto
	2 copy vpt 0 180 arc closepath fill
	vpt 0 360 arc closepath} bind def
/C4 {BL [] 0 setdash 2 copy moveto
	2 copy vpt 180 270 arc closepath fill
	vpt 0 360 arc closepath} bind def
/C5 {BL [] 0 setdash 2 copy moveto
	2 copy vpt 0 90 arc
	2 copy moveto
	2 copy vpt 180 270 arc closepath fill
	vpt 0 360 arc} bind def
/C6 {BL [] 0 setdash 2 copy moveto
	2 copy vpt 90 270 arc closepath fill
	vpt 0 360 arc closepath} bind def
/C7 {BL [] 0 setdash 2 copy moveto
	2 copy vpt 0 270 arc closepath fill
	vpt 0 360 arc closepath} bind def
/C8 {BL [] 0 setdash 2 copy moveto
	2 copy vpt 270 360 arc closepath fill
	vpt 0 360 arc closepath} bind def
/C9 {BL [] 0 setdash 2 copy moveto
	2 copy vpt 270 450 arc closepath fill
	vpt 0 360 arc closepath} bind def
/C10 {BL [] 0 setdash 2 copy 2 copy moveto vpt 270 360 arc closepath fill
	2 copy moveto
	2 copy vpt 90 180 arc closepath fill
	vpt 0 360 arc closepath} bind def
/C11 {BL [] 0 setdash 2 copy moveto
	2 copy vpt 0 180 arc closepath fill
	2 copy moveto
	2 copy vpt 270 360 arc closepath fill
	vpt 0 360 arc closepath} bind def
/C12 {BL [] 0 setdash 2 copy moveto
	2 copy vpt 180 360 arc closepath fill
	vpt 0 360 arc closepath} bind def
/C13 {BL [] 0 setdash 2 copy moveto
	2 copy vpt 0 90 arc closepath fill
	2 copy moveto
	2 copy vpt 180 360 arc closepath fill
	vpt 0 360 arc closepath} bind def
/C14 {BL [] 0 setdash 2 copy moveto
	2 copy vpt 90 360 arc closepath fill
	vpt 0 360 arc} bind def
/C15 {BL [] 0 setdash 2 copy vpt 0 360 arc closepath fill
	vpt 0 360 arc closepath} bind def
/Rec {newpath 4 2 roll moveto 1 index 0 rlineto 0 exch rlineto
	neg 0 rlineto closepath} bind def
/Square {dup Rec} bind def
/Bsquare {vpt sub exch vpt sub exch vpt2 Square} bind def
/S0 {BL [] 0 setdash 2 copy moveto 0 vpt rlineto BL Bsquare} bind def
/S1 {BL [] 0 setdash 2 copy vpt Square fill Bsquare} bind def
/S2 {BL [] 0 setdash 2 copy exch vpt sub exch vpt Square fill Bsquare} bind def
/S3 {BL [] 0 setdash 2 copy exch vpt sub exch vpt2 vpt Rec fill Bsquare} bind def
/S4 {BL [] 0 setdash 2 copy exch vpt sub exch vpt sub vpt Square fill Bsquare} bind def
/S5 {BL [] 0 setdash 2 copy 2 copy vpt Square fill
	exch vpt sub exch vpt sub vpt Square fill Bsquare} bind def
/S6 {BL [] 0 setdash 2 copy exch vpt sub exch vpt sub vpt vpt2 Rec fill Bsquare} bind def
/S7 {BL [] 0 setdash 2 copy exch vpt sub exch vpt sub vpt vpt2 Rec fill
	2 copy vpt Square fill Bsquare} bind def
/S8 {BL [] 0 setdash 2 copy vpt sub vpt Square fill Bsquare} bind def
/S9 {BL [] 0 setdash 2 copy vpt sub vpt vpt2 Rec fill Bsquare} bind def
/S10 {BL [] 0 setdash 2 copy vpt sub vpt Square fill 2 copy exch vpt sub exch vpt Square fill
	Bsquare} bind def
/S11 {BL [] 0 setdash 2 copy vpt sub vpt Square fill 2 copy exch vpt sub exch vpt2 vpt Rec fill
	Bsquare} bind def
/S12 {BL [] 0 setdash 2 copy exch vpt sub exch vpt sub vpt2 vpt Rec fill Bsquare} bind def
/S13 {BL [] 0 setdash 2 copy exch vpt sub exch vpt sub vpt2 vpt Rec fill
	2 copy vpt Square fill Bsquare} bind def
/S14 {BL [] 0 setdash 2 copy exch vpt sub exch vpt sub vpt2 vpt Rec fill
	2 copy exch vpt sub exch vpt Square fill Bsquare} bind def
/S15 {BL [] 0 setdash 2 copy Bsquare fill Bsquare} bind def
/D0 {gsave translate 45 rotate 0 0 S0 stroke grestore} bind def
/D1 {gsave translate 45 rotate 0 0 S1 stroke grestore} bind def
/D2 {gsave translate 45 rotate 0 0 S2 stroke grestore} bind def
/D3 {gsave translate 45 rotate 0 0 S3 stroke grestore} bind def
/D4 {gsave translate 45 rotate 0 0 S4 stroke grestore} bind def
/D5 {gsave translate 45 rotate 0 0 S5 stroke grestore} bind def
/D6 {gsave translate 45 rotate 0 0 S6 stroke grestore} bind def
/D7 {gsave translate 45 rotate 0 0 S7 stroke grestore} bind def
/D8 {gsave translate 45 rotate 0 0 S8 stroke grestore} bind def
/D9 {gsave translate 45 rotate 0 0 S9 stroke grestore} bind def
/D10 {gsave translate 45 rotate 0 0 S10 stroke grestore} bind def
/D11 {gsave translate 45 rotate 0 0 S11 stroke grestore} bind def
/D12 {gsave translate 45 rotate 0 0 S12 stroke grestore} bind def
/D13 {gsave translate 45 rotate 0 0 S13 stroke grestore} bind def
/D14 {gsave translate 45 rotate 0 0 S14 stroke grestore} bind def
/D15 {gsave translate 45 rotate 0 0 S15 stroke grestore} bind def
/DiaE {stroke [] 0 setdash vpt add M
  hpt neg vpt neg V hpt vpt neg V
  hpt vpt V hpt neg vpt V closepath stroke} def
/BoxE {stroke [] 0 setdash exch hpt sub exch vpt add M
  0 vpt2 neg V hpt2 0 V 0 vpt2 V
  hpt2 neg 0 V closepath stroke} def
/TriUE {stroke [] 0 setdash vpt 1.12 mul add M
  hpt neg vpt -1.62 mul V
  hpt 2 mul 0 V
  hpt neg vpt 1.62 mul V closepath stroke} def
/TriDE {stroke [] 0 setdash vpt 1.12 mul sub M
  hpt neg vpt 1.62 mul V
  hpt 2 mul 0 V
  hpt neg vpt -1.62 mul V closepath stroke} def
/PentE {stroke [] 0 setdash gsave
  translate 0 hpt M 4 {72 rotate 0 hpt L} repeat
  closepath stroke grestore} def
/CircE {stroke [] 0 setdash 
  hpt 0 360 arc stroke} def
/Opaque {gsave closepath 1 setgray fill grestore 0 setgray closepath} def
/DiaW {stroke [] 0 setdash vpt add M
  hpt neg vpt neg V hpt vpt neg V
  hpt vpt V hpt neg vpt V Opaque stroke} def
/BoxW {stroke [] 0 setdash exch hpt sub exch vpt add M
  0 vpt2 neg V hpt2 0 V 0 vpt2 V
  hpt2 neg 0 V Opaque stroke} def
/TriUW {stroke [] 0 setdash vpt 1.12 mul add M
  hpt neg vpt -1.62 mul V
  hpt 2 mul 0 V
  hpt neg vpt 1.62 mul V Opaque stroke} def
/TriDW {stroke [] 0 setdash vpt 1.12 mul sub M
  hpt neg vpt 1.62 mul V
  hpt 2 mul 0 V
  hpt neg vpt -1.62 mul V Opaque stroke} def
/PentW {stroke [] 0 setdash gsave
  translate 0 hpt M 4 {72 rotate 0 hpt L} repeat
  Opaque stroke grestore} def
/CircW {stroke [] 0 setdash 
  hpt 0 360 arc Opaque stroke} def
/BoxFill {gsave Rec 1 setgray fill grestore} def
/Density {
  /Fillden exch def
  currentrgbcolor
  /ColB exch def /ColG exch def /ColR exch def
  /ColR ColR Fillden mul Fillden sub 1 add def
  /ColG ColG Fillden mul Fillden sub 1 add def
  /ColB ColB Fillden mul Fillden sub 1 add def
  ColR ColG ColB setrgbcolor} def
/BoxColFill {gsave Rec PolyFill} def
/PolyFill {gsave Density fill grestore grestore} def
/h {rlineto rlineto rlineto gsave closepath fill grestore} bind def
%
% PostScript Level 1 Pattern Fill routine for rectangles
% Usage: x y w h s a XX PatternFill
%	x,y = lower left corner of box to be filled
%	w,h = width and height of box
%	  a = angle in degrees between lines and x-axis
%	 XX = 0/1 for no/yes cross-hatch
%
/PatternFill {gsave /PFa [ 9 2 roll ] def
  PFa 0 get PFa 2 get 2 div add PFa 1 get PFa 3 get 2 div add translate
  PFa 2 get -2 div PFa 3 get -2 div PFa 2 get PFa 3 get Rec
  TransparentPatterns {} {gsave 1 setgray fill grestore} ifelse
  clip
  currentlinewidth 0.5 mul setlinewidth
  /PFs PFa 2 get dup mul PFa 3 get dup mul add sqrt def
  0 0 M PFa 5 get rotate PFs -2 div dup translate
  0 1 PFs PFa 4 get div 1 add floor cvi
	{PFa 4 get mul 0 M 0 PFs V} for
  0 PFa 6 get ne {
	0 1 PFs PFa 4 get div 1 add floor cvi
	{PFa 4 get mul 0 2 1 roll M PFs 0 V} for
 } if
  stroke grestore} def
%
/languagelevel where
 {pop languagelevel} {1} ifelse
dup 2 lt
	{/InterpretLevel1 true def
	 /InterpretLevel3 false def}
	{/InterpretLevel1 Level1 def
	 2 gt
	    {/InterpretLevel3 Level3 def}
	    {/InterpretLevel3 false def}
	 ifelse }
 ifelse
%
% PostScript level 2 pattern fill definitions
%
/Level2PatternFill {
/Tile8x8 {/PaintType 2 /PatternType 1 /TilingType 1 /BBox [0 0 8 8] /XStep 8 /YStep 8}
	bind def
/KeepColor {currentrgbcolor [/Pattern /DeviceRGB] setcolorspace} bind def
<< Tile8x8
 /PaintProc {0.5 setlinewidth pop 0 0 M 8 8 L 0 8 M 8 0 L stroke} 
>> matrix makepattern
/Pat1 exch def
<< Tile8x8
 /PaintProc {0.5 setlinewidth pop 0 0 M 8 8 L 0 8 M 8 0 L stroke
	0 4 M 4 8 L 8 4 L 4 0 L 0 4 L stroke}
>> matrix makepattern
/Pat2 exch def
<< Tile8x8
 /PaintProc {0.5 setlinewidth pop 0 0 M 0 8 L
	8 8 L 8 0 L 0 0 L fill}
>> matrix makepattern
/Pat3 exch def
<< Tile8x8
 /PaintProc {0.5 setlinewidth pop -4 8 M 8 -4 L
	0 12 M 12 0 L stroke}
>> matrix makepattern
/Pat4 exch def
<< Tile8x8
 /PaintProc {0.5 setlinewidth pop -4 0 M 8 12 L
	0 -4 M 12 8 L stroke}
>> matrix makepattern
/Pat5 exch def
<< Tile8x8
 /PaintProc {0.5 setlinewidth pop -2 8 M 4 -4 L
	0 12 M 8 -4 L 4 12 M 10 0 L stroke}
>> matrix makepattern
/Pat6 exch def
<< Tile8x8
 /PaintProc {0.5 setlinewidth pop -2 0 M 4 12 L
	0 -4 M 8 12 L 4 -4 M 10 8 L stroke}
>> matrix makepattern
/Pat7 exch def
<< Tile8x8
 /PaintProc {0.5 setlinewidth pop 8 -2 M -4 4 L
	12 0 M -4 8 L 12 4 M 0 10 L stroke}
>> matrix makepattern
/Pat8 exch def
<< Tile8x8
 /PaintProc {0.5 setlinewidth pop 0 -2 M 12 4 L
	-4 0 M 12 8 L -4 4 M 8 10 L stroke}
>> matrix makepattern
/Pat9 exch def
/Pattern1 {PatternBgnd KeepColor Pat1 setpattern} bind def
/Pattern2 {PatternBgnd KeepColor Pat2 setpattern} bind def
/Pattern3 {PatternBgnd KeepColor Pat3 setpattern} bind def
/Pattern4 {PatternBgnd KeepColor Landscape {Pat5} {Pat4} ifelse setpattern} bind def
/Pattern5 {PatternBgnd KeepColor Landscape {Pat4} {Pat5} ifelse setpattern} bind def
/Pattern6 {PatternBgnd KeepColor Landscape {Pat9} {Pat6} ifelse setpattern} bind def
/Pattern7 {PatternBgnd KeepColor Landscape {Pat8} {Pat7} ifelse setpattern} bind def
} def
%
%
%End of PostScript Level 2 code
%
/PatternBgnd {
  TransparentPatterns {} {gsave 1 setgray fill grestore} ifelse
} def
%
% Substitute for Level 2 pattern fill codes with
% grayscale if Level 2 support is not selected.
%
/Level1PatternFill {
/Pattern1 {0.250 Density} bind def
/Pattern2 {0.500 Density} bind def
/Pattern3 {0.750 Density} bind def
/Pattern4 {0.125 Density} bind def
/Pattern5 {0.375 Density} bind def
/Pattern6 {0.625 Density} bind def
/Pattern7 {0.875 Density} bind def
} def
%
% Now test for support of Level 2 code
%
Level1 {Level1PatternFill} {Level2PatternFill} ifelse
%
/Symbol-Oblique /Symbol findfont [1 0 .167 1 0 0] makefont
dup length dict begin {1 index /FID eq {pop pop} {def} ifelse} forall
currentdict end definefont pop
%
Level1 SuppressPDFMark or 
{} {
/SDict 10 dict def
systemdict /pdfmark known not {
  userdict /pdfmark systemdict /cleartomark get put
} if
SDict begin [
  /Title (exc1_3_4_3d_lost_checksum_err_3/protocol4/exc1_3_4_3d_lost_checksum_err_3.tex)
  /Subject (gnuplot plot)
  /Creator (gnuplot 5.0 patchlevel 1)
  /Author (asiron)
%  /Producer (gnuplot)
%  /Keywords ()
  /CreationDate (Mon Nov  2 06:05:00 2015)
  /DOCINFO pdfmark
end
} ifelse
end
%
% Support for boxed text - Ethan A Merritt May 2005
%
/InitTextBox { userdict /TBy2 3 -1 roll put userdict /TBx2 3 -1 roll put
           userdict /TBy1 3 -1 roll put userdict /TBx1 3 -1 roll put
	   /Boxing true def } def
/ExtendTextBox { Boxing
    { gsave dup false charpath pathbbox
      dup TBy2 gt {userdict /TBy2 3 -1 roll put} {pop} ifelse
      dup TBx2 gt {userdict /TBx2 3 -1 roll put} {pop} ifelse
      dup TBy1 lt {userdict /TBy1 3 -1 roll put} {pop} ifelse
      dup TBx1 lt {userdict /TBx1 3 -1 roll put} {pop} ifelse
      grestore } if } def
/PopTextBox { newpath TBx1 TBxmargin sub TBy1 TBymargin sub M
               TBx1 TBxmargin sub TBy2 TBymargin add L
	       TBx2 TBxmargin add TBy2 TBymargin add L
	       TBx2 TBxmargin add TBy1 TBymargin sub L closepath } def
/DrawTextBox { PopTextBox stroke /Boxing false def} def
/FillTextBox { gsave PopTextBox 1 1 1 setrgbcolor fill grestore /Boxing false def} def
0 0 0 0 InitTextBox
/TBxmargin 20 def
/TBymargin 20 def
/Boxing false def
/textshow { ExtendTextBox Gshow } def
%
%%EndProlog
%%Page: 1 1
gnudict begin
gsave
doclip
50 50 translate
0.050 0.050 scale
0 setgray
newpath
1.000 UL
LTb
LCb setrgbcolor
LTb
1.000 UL
LTb
908 2281 M
3365 4031 L
6292 2562 M
3365 4031 L
908 2281 M
0 3957 V
stroke
0.200 UL
LTb
908 2281 M
3365 4031 L
stroke
1.000 UL
LTb
908 2281 M
34 24 V
3365 4031 M
-34 -24 V
stroke
0.200 UL
LTb
1396 2036 M
3852 3786 L
stroke
1.000 UL
LTb
1396 2036 M
34 24 V
3852 3786 M
-34 -24 V
stroke
0.200 UL
LTb
1884 1791 M
4340 3542 L
stroke
1.000 UL
LTb
1884 1791 M
34 24 V
4340 3542 M
-34 -24 V
stroke
0.200 UL
LTb
2372 1546 M
4828 3297 L
stroke
1.000 UL
LTb
2372 1546 M
34 25 V
4828 3297 M
-34 -24 V
stroke
0.200 UL
LTb
2860 1302 M
5316 3052 L
stroke
1.000 UL
LTb
2860 1302 M
34 24 V
5316 3052 M
-34 -24 V
stroke
0.200 UL
LTb
3348 1057 M
5804 2807 L
stroke
1.000 UL
LTb
3348 1057 M
34 24 V
5804 2807 M
-34 -24 V
stroke
0.200 UL
LTb
3835 812 M
6292 2562 L
stroke
1.000 UL
LTb
3835 812 M
34 24 V
6292 2562 M
-34 -24 V
stroke
0.200 UL
LTb
3835 812 M
908 2281 L
stroke
1.000 UL
LTb
3835 812 M
-48 24 V
908 2281 M
48 -24 V
stroke
0.200 UL
LTb
4244 1104 M
1318 2573 L
stroke
1.000 UL
LTb
4244 1104 M
-48 24 V
1318 2573 M
48 -25 V
stroke
0.200 UL
LTb
4654 1396 M
1727 2864 L
stroke
1.000 UL
LTb
4654 1396 M
-48 24 V
1727 2864 M
48 -24 V
stroke
0.200 UL
LTb
5063 1687 M
2137 3156 L
stroke
1.000 UL
LTb
5063 1687 M
-48 24 V
2137 3156 M
48 -24 V
stroke
0.200 UL
LTb
5473 1979 M
2546 3448 L
stroke
1.000 UL
LTb
5473 1979 M
-48 24 V
2546 3448 M
48 -24 V
stroke
0.200 UL
LTb
5882 2271 M
2956 3739 L
stroke
1.000 UL
LTb
5882 2271 M
-48 24 V
2956 3739 M
48 -24 V
stroke
0.200 UL
LTb
6292 2562 M
3365 4031 L
stroke
1.000 UL
LTb
6292 2562 M
-48 25 V
3365 4031 M
48 -24 V
908 2281 M
63 0 V
-63 565 R
63 0 V
-63 566 R
63 0 V
-63 565 R
63 0 V
-63 564 R
63 0 V
-63 566 R
63 0 V
-63 565 R
63 0 V
-63 566 R
63 0 V
1.000 UP
1.000 UP
stroke
0.58 0.00 0.83 C 908 5988 Pls
990 5947 Pls
1072 5931 Pls
1154 5952 Pls
1236 5934 Pls
1318 5906 Pls
1400 5909 Pls
1481 5909 Pls
1563 5845 Pls
1645 5916 Pls
1727 5901 Pls
1809 5960 Pls
1891 6112 Pls
1973 6152 Pls
2055 5852 Pls
2137 5947 Pls
2218 6043 Pls
2300 6044 Pls
2382 6080 Pls
2464 6131 Pls
2546 6136 Pls
2628 6166 Pls
2710 6048 Pls
2792 6215 Pls
2874 6128 Pls
2956 6156 Pls
3037 6192 Pls
3119 6328 Pls
3201 6374 Pls
3283 6297 Pls
3365 6416 Pls
1006 5549 Pls
1088 5618 Pls
1170 5553 Pls
1251 5502 Pls
1333 5480 Pls
1415 5571 Pls
1497 5665 Pls
1579 5681 Pls
1661 5640 Pls
1743 5623 Pls
1825 5611 Pls
1907 5653 Pls
1989 5682 Pls
2070 5648 Pls
2152 5703 Pls
2234 5724 Pls
2316 5709 Pls
2398 5764 Pls
2480 5790 Pls
2562 5881 Pls
2644 5893 Pls
2726 5858 Pls
2807 5974 Pls
2889 5832 Pls
2971 6010 Pls
3053 6009 Pls
3135 6001 Pls
3217 6064 Pls
3299 6111 Pls
3381 6151 Pls
3463 6160 Pls
1103 5171 Pls
1185 5261 Pls
1267 5343 Pls
1349 5344 Pls
1431 5298 Pls
1513 5243 Pls
1595 5309 Pls
1677 5316 Pls
1759 5326 Pls
1840 5317 Pls
1922 5357 Pls
2004 5393 Pls
2086 5461 Pls
2168 5426 Pls
2250 5489 Pls
2332 5457 Pls
2414 5525 Pls
2496 5668 Pls
2577 5625 Pls
2659 5610 Pls
2741 5662 Pls
2823 5767 Pls
2905 5830 Pls
2987 5619 Pls
3069 5793 Pls
3151 5794 Pls
3233 5884 Pls
3314 5960 Pls
3396 6072 Pls
3478 6117 Pls
3560 5961 Pls
1201 4872 Pls
1283 4959 Pls
1365 4956 Pls
1447 5035 Pls
1529 5058 Pls
1610 5090 Pls
1692 5041 Pls
1774 5108 Pls
1856 5132 Pls
1938 5122 Pls
2020 5196 Pls
2102 5175 Pls
2184 5228 Pls
2266 5294 Pls
2347 5275 Pls
2429 5250 Pls
2511 5375 Pls
2593 5343 Pls
2675 5413 Pls
2757 5474 Pls
2839 5479 Pls
2921 5413 Pls
3003 5569 Pls
3085 5553 Pls
3166 5713 Pls
3248 5656 Pls
3330 5640 Pls
3412 5754 Pls
3494 5670 Pls
3576 5823 Pls
3657 5717 Pls
1299 4587 Pls
1380 4714 Pls
1462 4767 Pls
1544 4790 Pls
1626 4785 Pls
1708 4798 Pls
1790 4831 Pls
1872 4824 Pls
1954 4867 Pls
2036 4905 Pls
2118 4944 Pls
2199 5002 Pls
2281 5010 Pls
2363 5077 Pls
2445 5063 Pls
2527 5126 Pls
2609 5197 Pls
2691 5238 Pls
2773 5246 Pls
2855 5254 Pls
2936 5225 Pls
3018 5326 Pls
3100 5294 Pls
3182 5360 Pls
3264 5447 Pls
3346 5499 Pls
3428 5511 Pls
3510 5545 Pls
3592 5574 Pls
3672 5549 Pls
3754 5571 Pls
1396 4364 Pls
1478 4603 Pls
1560 4546 Pls
1642 4564 Pls
1724 4601 Pls
1806 4666 Pls
1888 4700 Pls
1969 4704 Pls
2051 4748 Pls
2133 4727 Pls
2215 4853 Pls
2297 4837 Pls
2379 4893 Pls
2461 4909 Pls
2543 4899 Pls
2625 4910 Pls
2706 4976 Pls
2788 5002 Pls
2870 5052 Pls
2952 5055 Pls
3034 5121 Pls
3116 5155 Pls
3198 5103 Pls
3280 5256 Pls
3362 5234 Pls
3443 5224 Pls
3525 5293 Pls
3606 5299 Pls
3688 5394 Pls
3770 5375 Pls
3852 5437 Pls
1494 4419 Pls
1576 4287 Pls
1658 4451 Pls
1739 4366 Pls
1821 4392 Pls
1903 4446 Pls
1985 4530 Pls
2067 4605 Pls
2149 4544 Pls
2231 4597 Pls
2313 4557 Pls
2395 4622 Pls
2476 4631 Pls
2558 4723 Pls
2640 4798 Pls
2722 4760 Pls
2804 4804 Pls
2886 4866 Pls
2968 4846 Pls
3050 4930 Pls
3132 4933 Pls
3214 5031 Pls
3295 5020 Pls
3377 4999 Pls
3459 5043 Pls
3541 5069 Pls
3622 5130 Pls
3704 5194 Pls
3786 5246 Pls
3868 5236 Pls
3950 5276 Pls
1591 4191 Pls
1673 4080 Pls
1755 4261 Pls
1837 4293 Pls
1919 4218 Pls
2001 4304 Pls
2083 4281 Pls
2165 4379 Pls
2247 4437 Pls
2328 4404 Pls
2410 4457 Pls
2492 4472 Pls
2574 4569 Pls
2656 4578 Pls
2738 4572 Pls
2820 4614 Pls
2902 4668 Pls
2984 4687 Pls
3065 4736 Pls
3147 4797 Pls
3229 4822 Pls
3311 4835 Pls
3393 4870 Pls
3475 4873 Pls
3557 4929 Pls
3638 4973 Pls
3720 4990 Pls
3801 5069 Pls
3883 5135 Pls
3965 5107 Pls
4047 5155 Pls
1689 3851 Pls
1771 4035 Pls
1853 4016 Pls
1935 4086 Pls
2017 4030 Pls
2098 4106 Pls
2180 4155 Pls
2262 4228 Pls
2344 4213 Pls
2426 4252 Pls
2508 4277 Pls
2590 4333 Pls
2672 4384 Pls
2754 4401 Pls
2835 4402 Pls
2917 4477 Pls
2999 4496 Pls
3081 4520 Pls
3163 4563 Pls
3245 4567 Pls
3327 4651 Pls
3409 4638 Pls
3491 4717 Pls
3572 4732 Pls
3653 4780 Pls
3735 4820 Pls
3817 4840 Pls
3899 4859 Pls
3981 4943 Pls
4063 4942 Pls
4145 5002 Pls
1787 3751 Pls
1868 3894 Pls
1950 3868 Pls
2032 3964 Pls
2114 3941 Pls
2196 3926 Pls
2278 4036 Pls
2360 4068 Pls
2442 4120 Pls
2524 4093 Pls
2605 4140 Pls
2687 4196 Pls
2769 4272 Pls
2851 4273 Pls
2933 4302 Pls
3015 4317 Pls
3097 4354 Pls
3179 4378 Pls
3261 4495 Pls
3343 4477 Pls
3424 4512 Pls
3506 4531 Pls
3588 4582 Pls
3669 4617 Pls
3751 4643 Pls
3833 4719 Pls
3915 4742 Pls
3997 4789 Pls
4079 4803 Pls
4160 4853 Pls
4242 4904 Pls
1884 3651 Pls
1966 3681 Pls
2048 3708 Pls
2130 3769 Pls
2212 3801 Pls
2294 3829 Pls
2376 3924 Pls
2457 3920 Pls
2539 3907 Pls
2621 4005 Pls
2703 4026 Pls
2785 4014 Pls
2867 4110 Pls
2949 4187 Pls
3031 4178 Pls
3113 4232 Pls
3194 4226 Pls
3276 4282 Pls
3358 4323 Pls
3440 4361 Pls
3522 4367 Pls
3603 4428 Pls
3685 4458 Pls
3767 4499 Pls
3849 4523 Pls
3930 4557 Pls
4012 4612 Pls
4094 4636 Pls
4176 4684 Pls
4258 4749 Pls
4340 4764 Pls
1982 3537 Pls
2064 3539 Pls
2146 3601 Pls
2227 3646 Pls
2309 3651 Pls
2391 3697 Pls
2473 3735 Pls
2555 3798 Pls
2637 3838 Pls
2719 3871 Pls
2801 3904 Pls
2883 3937 Pls
2964 3973 Pls
3046 4043 Pls
3128 4044 Pls
3210 4067 Pls
3292 4137 Pls
3374 4161 Pls
3456 4220 Pls
3538 4271 Pls
3619 4312 Pls
3700 4339 Pls
3782 4378 Pls
3864 4399 Pls
3946 4422 Pls
4028 4485 Pls
4110 4506 Pls
4192 4576 Pls
4274 4572 Pls
4356 4631 Pls
4437 4681 Pls
2079 3263 Pls
2161 3368 Pls
2243 3437 Pls
2325 3497 Pls
2407 3604 Pls
2489 3627 Pls
2571 3598 Pls
2653 3660 Pls
2734 3710 Pls
2816 3769 Pls
2898 3817 Pls
2980 3848 Pls
3062 3882 Pls
3144 3941 Pls
3226 3967 Pls
3308 3974 Pls
3390 4031 Pls
3472 4080 Pls
3553 4105 Pls
3634 4133 Pls
3716 4157 Pls
3798 4221 Pls
3880 4262 Pls
3962 4277 Pls
4044 4332 Pls
4126 4387 Pls
4208 4419 Pls
4289 4456 Pls
4371 4509 Pls
4453 4515 Pls
4535 4572 Pls
2177 3238 Pls
2259 3386 Pls
2341 3275 Pls
2423 3436 Pls
2505 3458 Pls
2586 3487 Pls
2668 3516 Pls
2750 3553 Pls
2832 3611 Pls
2914 3707 Pls
2996 3687 Pls
3078 3723 Pls
3160 3789 Pls
3242 3817 Pls
3323 3838 Pls
3405 3881 Pls
3487 3914 Pls
3569 3976 Pls
3650 3994 Pls
3732 4022 Pls
3814 4074 Pls
3896 4110 Pls
3978 4155 Pls
4059 4187 Pls
4141 4212 Pls
4223 4278 Pls
4305 4310 Pls
4387 4378 Pls
4469 4427 Pls
4551 4445 Pls
4633 4499 Pls
2275 3076 Pls
2356 3231 Pls
2438 3247 Pls
2520 3282 Pls
2602 3336 Pls
2684 3350 Pls
2766 3426 Pls
2848 3470 Pls
2930 3516 Pls
3012 3521 Pls
3093 3552 Pls
3175 3630 Pls
3257 3679 Pls
3339 3727 Pls
3421 3727 Pls
3503 3765 Pls
3585 3827 Pls
3666 3898 Pls
3748 3879 Pls
3829 3924 Pls
3911 3986 Pls
3993 4023 Pls
4075 4040 Pls
4157 4129 Pls
4239 4149 Pls
4321 4177 Pls
4403 4208 Pls
4485 4263 Pls
4566 4281 Pls
4648 4367 Pls
4730 4386 Pls
2372 2967 Pls
2454 2968 Pls
2536 3095 Pls
2618 3166 Pls
2700 3275 Pls
2782 3269 Pls
2863 3356 Pls
2945 3336 Pls
3027 3403 Pls
3109 3459 Pls
3191 3430 Pls
3273 3512 Pls
3355 3544 Pls
3437 3595 Pls
3519 3633 Pls
3600 3693 Pls
3681 3726 Pls
3763 3757 Pls
3845 3809 Pls
3927 3858 Pls
4009 3880 Pls
4091 3934 Pls
4173 3951 Pls
4255 4006 Pls
4337 4041 Pls
4418 4083 Pls
4500 4126 Pls
4582 4164 Pls
4664 4207 Pls
4746 4245 Pls
4828 4289 Pls
2470 2916 Pls
2552 3011 Pls
2634 3077 Pls
2715 3059 Pls
2797 3090 Pls
2879 3120 Pls
2961 3142 Pls
3043 3233 Pls
3125 3304 Pls
3207 3296 Pls
3289 3345 Pls
3371 3416 Pls
3452 3444 Pls
3534 3528 Pls
3615 3538 Pls
3697 3620 Pls
3779 3633 Pls
3861 3670 Pls
3943 3688 Pls
4025 3727 Pls
4107 3780 Pls
4188 3822 Pls
4270 3856 Pls
4352 3866 Pls
4434 3948 Pls
4516 3997 Pls
4598 4028 Pls
4680 4055 Pls
4762 4121 Pls
4844 4162 Pls
4925 4184 Pls
2567 2734 Pls
2649 2891 Pls
2731 2803 Pls
2813 2965 Pls
2895 2953 Pls
2977 3014 Pls
3059 3061 Pls
3141 3127 Pls
3222 3182 Pls
3304 3246 Pls
3386 3256 Pls
3468 3319 Pls
3550 3360 Pls
3631 3408 Pls
3713 3442 Pls
3795 3505 Pls
3877 3515 Pls
3958 3556 Pls
4040 3614 Pls
4122 3639 Pls
4204 3680 Pls
4286 3733 Pls
4368 3763 Pls
4450 3813 Pls
4532 3841 Pls
4614 3889 Pls
4695 3917 Pls
4777 3983 Pls
4859 4030 Pls
4941 4076 Pls
5023 4094 Pls
2665 2733 Pls
2747 2655 Pls
2829 2808 Pls
2911 2910 Pls
2992 2871 Pls
3074 2853 Pls
3156 3022 Pls
3238 3017 Pls
3320 3082 Pls
3402 3112 Pls
3484 3174 Pls
3566 3196 Pls
3647 3240 Pls
3728 3284 Pls
3810 3344 Pls
3892 3358 Pls
3974 3414 Pls
4056 3463 Pls
4138 3513 Pls
4220 3527 Pls
4302 3589 Pls
4384 3632 Pls
4466 3649 Pls
4547 3715 Pls
4629 3757 Pls
4711 3805 Pls
4793 3820 Pls
4875 3906 Pls
4957 3926 Pls
5039 3961 Pls
5121 4002 Pls
2763 2546 Pls
2844 2677 Pls
2926 2712 Pls
3008 2773 Pls
3090 2768 Pls
3172 2849 Pls
3254 2893 Pls
3336 2946 Pls
3418 2957 Pls
3500 3038 Pls
3581 3060 Pls
3662 3073 Pls
3744 3149 Pls
3826 3207 Pls
3908 3263 Pls
3990 3297 Pls
4072 3333 Pls
4154 3385 Pls
4236 3424 Pls
4317 3473 Pls
4399 3523 Pls
4481 3546 Pls
4563 3578 Pls
4645 3624 Pls
4727 3684 Pls
4809 3728 Pls
4891 3763 Pls
4973 3816 Pls
5054 3832 Pls
5136 3887 Pls
5218 3943 Pls
2860 2533 Pls
2942 2576 Pls
3024 2590 Pls
3106 2657 Pls
3188 2705 Pls
3270 2723 Pls
3351 2768 Pls
3433 2849 Pls
3515 2856 Pls
3597 2897 Pls
3678 2945 Pls
3760 3034 Pls
3842 3044 Pls
3924 3104 Pls
4006 3159 Pls
4087 3191 Pls
4169 3233 Pls
4251 3256 Pls
4333 3341 Pls
4415 3391 Pls
4497 3409 Pls
4579 3451 Pls
4661 3519 Pls
4743 3558 Pls
4824 3589 Pls
4906 3629 Pls
4988 3685 Pls
5070 3739 Pls
5152 3774 Pls
5234 3810 Pls
5316 3858 Pls
2958 2412 Pls
3040 2448 Pls
3121 2527 Pls
3203 2505 Pls
3285 2555 Pls
3367 2638 Pls
3449 2666 Pls
3531 2753 Pls
3612 2815 Pls
3694 2810 Pls
3776 2879 Pls
3857 2922 Pls
3939 2959 Pls
4021 3008 Pls
4103 3060 Pls
4185 3092 Pls
4267 3149 Pls
4349 3188 Pls
4431 3239 Pls
4513 3278 Pls
4595 3340 Pls
4676 3363 Pls
4758 3404 Pls
4840 3466 Pls
4922 3469 Pls
5004 3548 Pls
5086 3578 Pls
5168 3625 Pls
5250 3673 Pls
5332 3709 Pls
5413 3753 Pls
3055 2292 Pls
3137 2353 Pls
3219 2451 Pls
3301 2443 Pls
3383 2488 Pls
3465 2566 Pls
3547 2573 Pls
3628 2630 Pls
3709 2670 Pls
3791 2710 Pls
3873 2772 Pls
3955 2811 Pls
4037 2864 Pls
4119 2900 Pls
4201 2977 Pls
4283 2999 Pls
4365 3025 Pls
4446 3093 Pls
4528 3133 Pls
4610 3184 Pls
4692 3214 Pls
4774 3293 Pls
4856 3317 Pls
4938 3367 Pls
5020 3420 Pls
5102 3467 Pls
5183 3500 Pls
5265 3533 Pls
5347 3581 Pls
5429 3632 Pls
5511 3680 Pls
3153 2185 Pls
3235 2285 Pls
3317 2280 Pls
3399 2330 Pls
3480 2399 Pls
3562 2446 Pls
3643 2477 Pls
3725 2518 Pls
3807 2601 Pls
3889 2617 Pls
3971 2653 Pls
4053 2716 Pls
4135 2762 Pls
4216 2813 Pls
4298 2844 Pls
4380 2893 Pls
4462 2951 Pls
4544 3012 Pls
4626 3064 Pls
4708 3097 Pls
4790 3126 Pls
4872 3177 Pls
4953 3242 Pls
5035 3259 Pls
5117 3301 Pls
5199 3347 Pls
5281 3407 Pls
5363 3447 Pls
5445 3484 Pls
5527 3528 Pls
5609 3565 Pls
3250 2099 Pls
3332 2184 Pls
3414 2179 Pls
3496 2281 Pls
3578 2331 Pls
3659 2338 Pls
3741 2375 Pls
3823 2431 Pls
3905 2512 Pls
3986 2547 Pls
4068 2586 Pls
4150 2641 Pls
4232 2682 Pls
4314 2746 Pls
4396 2784 Pls
4478 2823 Pls
4560 2880 Pls
4642 2932 Pls
4724 2967 Pls
4805 3019 Pls
4887 3045 Pls
4969 3095 Pls
5051 3157 Pls
5133 3196 Pls
5215 3252 Pls
5297 3283 Pls
5379 3361 Pls
5461 3375 Pls
5542 3434 Pls
5624 3468 Pls
5706 3519 Pls
3348 2063 Pls
3430 2083 Pls
3512 2127 Pls
3594 2178 Pls
3675 2208 Pls
3757 2281 Pls
3838 2278 Pls
3920 2385 Pls
4002 2427 Pls
4084 2470 Pls
4166 2486 Pls
4248 2551 Pls
4330 2623 Pls
4412 2636 Pls
4494 2690 Pls
4575 2746 Pls
4657 2789 Pls
4739 2855 Pls
4821 2904 Pls
4903 2919 Pls
4985 2977 Pls
5067 3037 Pls
5149 3040 Pls
5231 3125 Pls
5312 3162 Pls
5394 3208 Pls
5476 3250 Pls
5558 3310 Pls
5640 3378 Pls
5722 3383 Pls
5804 3425 Pls
3446 1970 Pls
3528 1999 Pls
3608 2039 Pls
3690 2111 Pls
3772 2147 Pls
3854 2191 Pls
3936 2236 Pls
4018 2253 Pls
4100 2338 Pls
4182 2364 Pls
4264 2430 Pls
4345 2472 Pls
4427 2516 Pls
4509 2581 Pls
4591 2604 Pls
4673 2652 Pls
4755 2714 Pls
4837 2766 Pls
4919 2807 Pls
5001 2844 Pls
5082 2884 Pls
5164 2960 Pls
5246 3004 Pls
5328 3037 Pls
5410 3081 Pls
5492 3127 Pls
5574 3179 Pls
5656 3227 Pls
5738 3257 Pls
5820 3307 Pls
5901 3368 Pls
3543 1881 Pls
3624 1945 Pls
3706 1969 Pls
3788 1983 Pls
3870 2095 Pls
3952 2128 Pls
4034 2150 Pls
4115 2241 Pls
4197 2235 Pls
4279 2324 Pls
4361 2330 Pls
4443 2391 Pls
4525 2438 Pls
4607 2490 Pls
4689 2562 Pls
4771 2571 Pls
4853 2624 Pls
4934 2682 Pls
5016 2724 Pls
5098 2783 Pls
5180 2814 Pls
5262 2881 Pls
5344 2923 Pls
5426 2947 Pls
5508 3014 Pls
5590 3050 Pls
5671 3096 Pls
5753 3156 Pls
5835 3209 Pls
5917 3251 Pls
5999 3284 Pls
3640 1766 Pls
3722 1786 Pls
3804 1869 Pls
3886 1909 Pls
3967 1971 Pls
4049 2015 Pls
4131 2106 Pls
4213 2146 Pls
4295 2145 Pls
4377 2225 Pls
4459 2265 Pls
4541 2298 Pls
4623 2322 Pls
4704 2402 Pls
4786 2450 Pls
4868 2477 Pls
4950 2551 Pls
5032 2609 Pls
5114 2644 Pls
5196 2687 Pls
5278 2760 Pls
5360 2827 Pls
5441 2832 Pls
5523 2863 Pls
5605 2952 Pls
5687 2983 Pls
5769 3029 Pls
5851 3080 Pls
5933 3127 Pls
6015 3200 Pls
6097 3219 Pls
3737 1696 Pls
3819 1767 Pls
3901 1803 Pls
3983 1846 Pls
4065 1896 Pls
4147 1962 Pls
4229 2005 Pls
4311 2047 Pls
4393 2046 Pls
4474 2142 Pls
4556 2174 Pls
4638 2233 Pls
4720 2293 Pls
4802 2323 Pls
4884 2384 Pls
4966 2436 Pls
5048 2471 Pls
5130 2509 Pls
5211 2571 Pls
5293 2628 Pls
5375 2678 Pls
5457 2730 Pls
5539 2758 Pls
5621 2800 Pls
5703 2862 Pls
5785 2917 Pls
5867 2973 Pls
5949 3013 Pls
6030 3065 Pls
6112 3109 Pls
6194 3149 Pls
3835 1622 Pls
3917 1663 Pls
3999 1751 Pls
4081 1738 Pls
4163 1823 Pls
4244 1870 Pls
4326 1936 Pls
4408 1981 Pls
4490 2025 Pls
4572 2089 Pls
4654 2104 Pls
4736 2153 Pls
4818 2231 Pls
4900 2251 Pls
4982 2289 Pls
5063 2348 Pls
5145 2377 Pls
5227 2445 Pls
5309 2507 Pls
5391 2552 Pls
5473 2616 Pls
5555 2651 Pls
5637 2693 Pls
5719 2734 Pls
5800 2778 Pls
5882 2846 Pls
5964 2888 Pls
6046 2928 Pls
6128 2989 Pls
6210 3019 Pls
6292 3100 Pls
1.000 UL
LTb
LCb setrgbcolor
LTb
6292 2562 M
3835 812 L
908 2281 M
3835 812 L
1.000 UP
stroke
grestore
end
showpage
%%Trailer
