%!PS-Adobe-2.0 EPSF-2.0
%%Title: exc1_3_4_3d_lost_checksum_err_2/protocol3/exc1_3_4_3d_lost_checksum_err_2.tex
%%Creator: gnuplot 5.0 patchlevel 1
%%CreationDate: Mon Nov  2 03:11:47 2015
%%DocumentFonts: 
%%BoundingBox: 50 50 410 482
%%EndComments
%%BeginProlog
/gnudict 256 dict def
gnudict begin
%
% The following true/false flags may be edited by hand if desired.
% The unit line width and grayscale image gamma correction may also be changed.
%
/Color false def
/Blacktext true def
/Solid false def
/Dashlength 1 def
/Landscape false def
/Level1 false def
/Level3 false def
/Rounded false def
/ClipToBoundingBox false def
/SuppressPDFMark false def
/TransparentPatterns false def
/gnulinewidth 5.000 def
/userlinewidth gnulinewidth def
/Gamma 1.0 def
/BackgroundColor {-1.000 -1.000 -1.000} def
%
/vshift -53 def
/dl1 {
  10.0 Dashlength userlinewidth gnulinewidth div mul mul mul
  Rounded { currentlinewidth 0.75 mul sub dup 0 le { pop 0.01 } if } if
} def
/dl2 {
  10.0 Dashlength userlinewidth gnulinewidth div mul mul mul
  Rounded { currentlinewidth 0.75 mul add } if
} def
/hpt_ 31.5 def
/vpt_ 31.5 def
/hpt hpt_ def
/vpt vpt_ def
/doclip {
  ClipToBoundingBox {
    newpath 50 50 moveto 410 50 lineto 410 482 lineto 50 482 lineto closepath
    clip
  } if
} def
%
% Gnuplot Prolog Version 5.0 (Dec 2014)
%
%/SuppressPDFMark true def
%
/M {moveto} bind def
/L {lineto} bind def
/R {rmoveto} bind def
/V {rlineto} bind def
/N {newpath moveto} bind def
/Z {closepath} bind def
/C {setrgbcolor} bind def
/f {rlineto fill} bind def
/g {setgray} bind def
/Gshow {show} def   % May be redefined later in the file to support UTF-8
/vpt2 vpt 2 mul def
/hpt2 hpt 2 mul def
/Lshow {currentpoint stroke M 0 vshift R 
	Blacktext {gsave 0 setgray textshow grestore} {textshow} ifelse} def
/Rshow {currentpoint stroke M dup stringwidth pop neg vshift R
	Blacktext {gsave 0 setgray textshow grestore} {textshow} ifelse} def
/Cshow {currentpoint stroke M dup stringwidth pop -2 div vshift R 
	Blacktext {gsave 0 setgray textshow grestore} {textshow} ifelse} def
/UP {dup vpt_ mul /vpt exch def hpt_ mul /hpt exch def
  /hpt2 hpt 2 mul def /vpt2 vpt 2 mul def} def
/DL {Color {setrgbcolor Solid {pop []} if 0 setdash}
 {pop pop pop 0 setgray Solid {pop []} if 0 setdash} ifelse} def
/BL {stroke userlinewidth 2 mul setlinewidth
	Rounded {1 setlinejoin 1 setlinecap} if} def
/AL {stroke userlinewidth 2 div setlinewidth
	Rounded {1 setlinejoin 1 setlinecap} if} def
/UL {dup gnulinewidth mul /userlinewidth exch def
	dup 1 lt {pop 1} if 10 mul /udl exch def} def
/PL {stroke userlinewidth setlinewidth
	Rounded {1 setlinejoin 1 setlinecap} if} def
3.8 setmiterlimit
% Classic Line colors (version 5.0)
/LCw {1 1 1} def
/LCb {0 0 0} def
/LCa {0 0 0} def
/LC0 {1 0 0} def
/LC1 {0 1 0} def
/LC2 {0 0 1} def
/LC3 {1 0 1} def
/LC4 {0 1 1} def
/LC5 {1 1 0} def
/LC6 {0 0 0} def
/LC7 {1 0.3 0} def
/LC8 {0.5 0.5 0.5} def
% Default dash patterns (version 5.0)
/LTw {PL [] 1 setgray} def
/LTb {BL [] LCb DL} def
/LTa {AL [1 udl mul 2 udl mul] 0 setdash LCa setrgbcolor} def
/LT0 {PL [] LC0 DL} def
/LT1 {PL [2 dl1 3 dl2] LC1 DL} def
/LT2 {PL [1 dl1 1.5 dl2] LC2 DL} def
/LT3 {PL [6 dl1 2 dl2 1 dl1 2 dl2] LC3 DL} def
/LT4 {PL [1 dl1 2 dl2 6 dl1 2 dl2 1 dl1 2 dl2] LC4 DL} def
/LT5 {PL [4 dl1 2 dl2] LC5 DL} def
/LT6 {PL [1.5 dl1 1.5 dl2 1.5 dl1 1.5 dl2 1.5 dl1 6 dl2] LC6 DL} def
/LT7 {PL [3 dl1 3 dl2 1 dl1 3 dl2] LC7 DL} def
/LT8 {PL [2 dl1 2 dl2 2 dl1 6 dl2] LC8 DL} def
/SL {[] 0 setdash} def
/Pnt {stroke [] 0 setdash gsave 1 setlinecap M 0 0 V stroke grestore} def
/Dia {stroke [] 0 setdash 2 copy vpt add M
  hpt neg vpt neg V hpt vpt neg V
  hpt vpt V hpt neg vpt V closepath stroke
  Pnt} def
/Pls {stroke [] 0 setdash vpt sub M 0 vpt2 V
  currentpoint stroke M
  hpt neg vpt neg R hpt2 0 V stroke
 } def
/Box {stroke [] 0 setdash 2 copy exch hpt sub exch vpt add M
  0 vpt2 neg V hpt2 0 V 0 vpt2 V
  hpt2 neg 0 V closepath stroke
  Pnt} def
/Crs {stroke [] 0 setdash exch hpt sub exch vpt add M
  hpt2 vpt2 neg V currentpoint stroke M
  hpt2 neg 0 R hpt2 vpt2 V stroke} def
/TriU {stroke [] 0 setdash 2 copy vpt 1.12 mul add M
  hpt neg vpt -1.62 mul V
  hpt 2 mul 0 V
  hpt neg vpt 1.62 mul V closepath stroke
  Pnt} def
/Star {2 copy Pls Crs} def
/BoxF {stroke [] 0 setdash exch hpt sub exch vpt add M
  0 vpt2 neg V hpt2 0 V 0 vpt2 V
  hpt2 neg 0 V closepath fill} def
/TriUF {stroke [] 0 setdash vpt 1.12 mul add M
  hpt neg vpt -1.62 mul V
  hpt 2 mul 0 V
  hpt neg vpt 1.62 mul V closepath fill} def
/TriD {stroke [] 0 setdash 2 copy vpt 1.12 mul sub M
  hpt neg vpt 1.62 mul V
  hpt 2 mul 0 V
  hpt neg vpt -1.62 mul V closepath stroke
  Pnt} def
/TriDF {stroke [] 0 setdash vpt 1.12 mul sub M
  hpt neg vpt 1.62 mul V
  hpt 2 mul 0 V
  hpt neg vpt -1.62 mul V closepath fill} def
/DiaF {stroke [] 0 setdash vpt add M
  hpt neg vpt neg V hpt vpt neg V
  hpt vpt V hpt neg vpt V closepath fill} def
/Pent {stroke [] 0 setdash 2 copy gsave
  translate 0 hpt M 4 {72 rotate 0 hpt L} repeat
  closepath stroke grestore Pnt} def
/PentF {stroke [] 0 setdash gsave
  translate 0 hpt M 4 {72 rotate 0 hpt L} repeat
  closepath fill grestore} def
/Circle {stroke [] 0 setdash 2 copy
  hpt 0 360 arc stroke Pnt} def
/CircleF {stroke [] 0 setdash hpt 0 360 arc fill} def
/C0 {BL [] 0 setdash 2 copy moveto vpt 90 450 arc} bind def
/C1 {BL [] 0 setdash 2 copy moveto
	2 copy vpt 0 90 arc closepath fill
	vpt 0 360 arc closepath} bind def
/C2 {BL [] 0 setdash 2 copy moveto
	2 copy vpt 90 180 arc closepath fill
	vpt 0 360 arc closepath} bind def
/C3 {BL [] 0 setdash 2 copy moveto
	2 copy vpt 0 180 arc closepath fill
	vpt 0 360 arc closepath} bind def
/C4 {BL [] 0 setdash 2 copy moveto
	2 copy vpt 180 270 arc closepath fill
	vpt 0 360 arc closepath} bind def
/C5 {BL [] 0 setdash 2 copy moveto
	2 copy vpt 0 90 arc
	2 copy moveto
	2 copy vpt 180 270 arc closepath fill
	vpt 0 360 arc} bind def
/C6 {BL [] 0 setdash 2 copy moveto
	2 copy vpt 90 270 arc closepath fill
	vpt 0 360 arc closepath} bind def
/C7 {BL [] 0 setdash 2 copy moveto
	2 copy vpt 0 270 arc closepath fill
	vpt 0 360 arc closepath} bind def
/C8 {BL [] 0 setdash 2 copy moveto
	2 copy vpt 270 360 arc closepath fill
	vpt 0 360 arc closepath} bind def
/C9 {BL [] 0 setdash 2 copy moveto
	2 copy vpt 270 450 arc closepath fill
	vpt 0 360 arc closepath} bind def
/C10 {BL [] 0 setdash 2 copy 2 copy moveto vpt 270 360 arc closepath fill
	2 copy moveto
	2 copy vpt 90 180 arc closepath fill
	vpt 0 360 arc closepath} bind def
/C11 {BL [] 0 setdash 2 copy moveto
	2 copy vpt 0 180 arc closepath fill
	2 copy moveto
	2 copy vpt 270 360 arc closepath fill
	vpt 0 360 arc closepath} bind def
/C12 {BL [] 0 setdash 2 copy moveto
	2 copy vpt 180 360 arc closepath fill
	vpt 0 360 arc closepath} bind def
/C13 {BL [] 0 setdash 2 copy moveto
	2 copy vpt 0 90 arc closepath fill
	2 copy moveto
	2 copy vpt 180 360 arc closepath fill
	vpt 0 360 arc closepath} bind def
/C14 {BL [] 0 setdash 2 copy moveto
	2 copy vpt 90 360 arc closepath fill
	vpt 0 360 arc} bind def
/C15 {BL [] 0 setdash 2 copy vpt 0 360 arc closepath fill
	vpt 0 360 arc closepath} bind def
/Rec {newpath 4 2 roll moveto 1 index 0 rlineto 0 exch rlineto
	neg 0 rlineto closepath} bind def
/Square {dup Rec} bind def
/Bsquare {vpt sub exch vpt sub exch vpt2 Square} bind def
/S0 {BL [] 0 setdash 2 copy moveto 0 vpt rlineto BL Bsquare} bind def
/S1 {BL [] 0 setdash 2 copy vpt Square fill Bsquare} bind def
/S2 {BL [] 0 setdash 2 copy exch vpt sub exch vpt Square fill Bsquare} bind def
/S3 {BL [] 0 setdash 2 copy exch vpt sub exch vpt2 vpt Rec fill Bsquare} bind def
/S4 {BL [] 0 setdash 2 copy exch vpt sub exch vpt sub vpt Square fill Bsquare} bind def
/S5 {BL [] 0 setdash 2 copy 2 copy vpt Square fill
	exch vpt sub exch vpt sub vpt Square fill Bsquare} bind def
/S6 {BL [] 0 setdash 2 copy exch vpt sub exch vpt sub vpt vpt2 Rec fill Bsquare} bind def
/S7 {BL [] 0 setdash 2 copy exch vpt sub exch vpt sub vpt vpt2 Rec fill
	2 copy vpt Square fill Bsquare} bind def
/S8 {BL [] 0 setdash 2 copy vpt sub vpt Square fill Bsquare} bind def
/S9 {BL [] 0 setdash 2 copy vpt sub vpt vpt2 Rec fill Bsquare} bind def
/S10 {BL [] 0 setdash 2 copy vpt sub vpt Square fill 2 copy exch vpt sub exch vpt Square fill
	Bsquare} bind def
/S11 {BL [] 0 setdash 2 copy vpt sub vpt Square fill 2 copy exch vpt sub exch vpt2 vpt Rec fill
	Bsquare} bind def
/S12 {BL [] 0 setdash 2 copy exch vpt sub exch vpt sub vpt2 vpt Rec fill Bsquare} bind def
/S13 {BL [] 0 setdash 2 copy exch vpt sub exch vpt sub vpt2 vpt Rec fill
	2 copy vpt Square fill Bsquare} bind def
/S14 {BL [] 0 setdash 2 copy exch vpt sub exch vpt sub vpt2 vpt Rec fill
	2 copy exch vpt sub exch vpt Square fill Bsquare} bind def
/S15 {BL [] 0 setdash 2 copy Bsquare fill Bsquare} bind def
/D0 {gsave translate 45 rotate 0 0 S0 stroke grestore} bind def
/D1 {gsave translate 45 rotate 0 0 S1 stroke grestore} bind def
/D2 {gsave translate 45 rotate 0 0 S2 stroke grestore} bind def
/D3 {gsave translate 45 rotate 0 0 S3 stroke grestore} bind def
/D4 {gsave translate 45 rotate 0 0 S4 stroke grestore} bind def
/D5 {gsave translate 45 rotate 0 0 S5 stroke grestore} bind def
/D6 {gsave translate 45 rotate 0 0 S6 stroke grestore} bind def
/D7 {gsave translate 45 rotate 0 0 S7 stroke grestore} bind def
/D8 {gsave translate 45 rotate 0 0 S8 stroke grestore} bind def
/D9 {gsave translate 45 rotate 0 0 S9 stroke grestore} bind def
/D10 {gsave translate 45 rotate 0 0 S10 stroke grestore} bind def
/D11 {gsave translate 45 rotate 0 0 S11 stroke grestore} bind def
/D12 {gsave translate 45 rotate 0 0 S12 stroke grestore} bind def
/D13 {gsave translate 45 rotate 0 0 S13 stroke grestore} bind def
/D14 {gsave translate 45 rotate 0 0 S14 stroke grestore} bind def
/D15 {gsave translate 45 rotate 0 0 S15 stroke grestore} bind def
/DiaE {stroke [] 0 setdash vpt add M
  hpt neg vpt neg V hpt vpt neg V
  hpt vpt V hpt neg vpt V closepath stroke} def
/BoxE {stroke [] 0 setdash exch hpt sub exch vpt add M
  0 vpt2 neg V hpt2 0 V 0 vpt2 V
  hpt2 neg 0 V closepath stroke} def
/TriUE {stroke [] 0 setdash vpt 1.12 mul add M
  hpt neg vpt -1.62 mul V
  hpt 2 mul 0 V
  hpt neg vpt 1.62 mul V closepath stroke} def
/TriDE {stroke [] 0 setdash vpt 1.12 mul sub M
  hpt neg vpt 1.62 mul V
  hpt 2 mul 0 V
  hpt neg vpt -1.62 mul V closepath stroke} def
/PentE {stroke [] 0 setdash gsave
  translate 0 hpt M 4 {72 rotate 0 hpt L} repeat
  closepath stroke grestore} def
/CircE {stroke [] 0 setdash 
  hpt 0 360 arc stroke} def
/Opaque {gsave closepath 1 setgray fill grestore 0 setgray closepath} def
/DiaW {stroke [] 0 setdash vpt add M
  hpt neg vpt neg V hpt vpt neg V
  hpt vpt V hpt neg vpt V Opaque stroke} def
/BoxW {stroke [] 0 setdash exch hpt sub exch vpt add M
  0 vpt2 neg V hpt2 0 V 0 vpt2 V
  hpt2 neg 0 V Opaque stroke} def
/TriUW {stroke [] 0 setdash vpt 1.12 mul add M
  hpt neg vpt -1.62 mul V
  hpt 2 mul 0 V
  hpt neg vpt 1.62 mul V Opaque stroke} def
/TriDW {stroke [] 0 setdash vpt 1.12 mul sub M
  hpt neg vpt 1.62 mul V
  hpt 2 mul 0 V
  hpt neg vpt -1.62 mul V Opaque stroke} def
/PentW {stroke [] 0 setdash gsave
  translate 0 hpt M 4 {72 rotate 0 hpt L} repeat
  Opaque stroke grestore} def
/CircW {stroke [] 0 setdash 
  hpt 0 360 arc Opaque stroke} def
/BoxFill {gsave Rec 1 setgray fill grestore} def
/Density {
  /Fillden exch def
  currentrgbcolor
  /ColB exch def /ColG exch def /ColR exch def
  /ColR ColR Fillden mul Fillden sub 1 add def
  /ColG ColG Fillden mul Fillden sub 1 add def
  /ColB ColB Fillden mul Fillden sub 1 add def
  ColR ColG ColB setrgbcolor} def
/BoxColFill {gsave Rec PolyFill} def
/PolyFill {gsave Density fill grestore grestore} def
/h {rlineto rlineto rlineto gsave closepath fill grestore} bind def
%
% PostScript Level 1 Pattern Fill routine for rectangles
% Usage: x y w h s a XX PatternFill
%	x,y = lower left corner of box to be filled
%	w,h = width and height of box
%	  a = angle in degrees between lines and x-axis
%	 XX = 0/1 for no/yes cross-hatch
%
/PatternFill {gsave /PFa [ 9 2 roll ] def
  PFa 0 get PFa 2 get 2 div add PFa 1 get PFa 3 get 2 div add translate
  PFa 2 get -2 div PFa 3 get -2 div PFa 2 get PFa 3 get Rec
  TransparentPatterns {} {gsave 1 setgray fill grestore} ifelse
  clip
  currentlinewidth 0.5 mul setlinewidth
  /PFs PFa 2 get dup mul PFa 3 get dup mul add sqrt def
  0 0 M PFa 5 get rotate PFs -2 div dup translate
  0 1 PFs PFa 4 get div 1 add floor cvi
	{PFa 4 get mul 0 M 0 PFs V} for
  0 PFa 6 get ne {
	0 1 PFs PFa 4 get div 1 add floor cvi
	{PFa 4 get mul 0 2 1 roll M PFs 0 V} for
 } if
  stroke grestore} def
%
/languagelevel where
 {pop languagelevel} {1} ifelse
dup 2 lt
	{/InterpretLevel1 true def
	 /InterpretLevel3 false def}
	{/InterpretLevel1 Level1 def
	 2 gt
	    {/InterpretLevel3 Level3 def}
	    {/InterpretLevel3 false def}
	 ifelse }
 ifelse
%
% PostScript level 2 pattern fill definitions
%
/Level2PatternFill {
/Tile8x8 {/PaintType 2 /PatternType 1 /TilingType 1 /BBox [0 0 8 8] /XStep 8 /YStep 8}
	bind def
/KeepColor {currentrgbcolor [/Pattern /DeviceRGB] setcolorspace} bind def
<< Tile8x8
 /PaintProc {0.5 setlinewidth pop 0 0 M 8 8 L 0 8 M 8 0 L stroke} 
>> matrix makepattern
/Pat1 exch def
<< Tile8x8
 /PaintProc {0.5 setlinewidth pop 0 0 M 8 8 L 0 8 M 8 0 L stroke
	0 4 M 4 8 L 8 4 L 4 0 L 0 4 L stroke}
>> matrix makepattern
/Pat2 exch def
<< Tile8x8
 /PaintProc {0.5 setlinewidth pop 0 0 M 0 8 L
	8 8 L 8 0 L 0 0 L fill}
>> matrix makepattern
/Pat3 exch def
<< Tile8x8
 /PaintProc {0.5 setlinewidth pop -4 8 M 8 -4 L
	0 12 M 12 0 L stroke}
>> matrix makepattern
/Pat4 exch def
<< Tile8x8
 /PaintProc {0.5 setlinewidth pop -4 0 M 8 12 L
	0 -4 M 12 8 L stroke}
>> matrix makepattern
/Pat5 exch def
<< Tile8x8
 /PaintProc {0.5 setlinewidth pop -2 8 M 4 -4 L
	0 12 M 8 -4 L 4 12 M 10 0 L stroke}
>> matrix makepattern
/Pat6 exch def
<< Tile8x8
 /PaintProc {0.5 setlinewidth pop -2 0 M 4 12 L
	0 -4 M 8 12 L 4 -4 M 10 8 L stroke}
>> matrix makepattern
/Pat7 exch def
<< Tile8x8
 /PaintProc {0.5 setlinewidth pop 8 -2 M -4 4 L
	12 0 M -4 8 L 12 4 M 0 10 L stroke}
>> matrix makepattern
/Pat8 exch def
<< Tile8x8
 /PaintProc {0.5 setlinewidth pop 0 -2 M 12 4 L
	-4 0 M 12 8 L -4 4 M 8 10 L stroke}
>> matrix makepattern
/Pat9 exch def
/Pattern1 {PatternBgnd KeepColor Pat1 setpattern} bind def
/Pattern2 {PatternBgnd KeepColor Pat2 setpattern} bind def
/Pattern3 {PatternBgnd KeepColor Pat3 setpattern} bind def
/Pattern4 {PatternBgnd KeepColor Landscape {Pat5} {Pat4} ifelse setpattern} bind def
/Pattern5 {PatternBgnd KeepColor Landscape {Pat4} {Pat5} ifelse setpattern} bind def
/Pattern6 {PatternBgnd KeepColor Landscape {Pat9} {Pat6} ifelse setpattern} bind def
/Pattern7 {PatternBgnd KeepColor Landscape {Pat8} {Pat7} ifelse setpattern} bind def
} def
%
%
%End of PostScript Level 2 code
%
/PatternBgnd {
  TransparentPatterns {} {gsave 1 setgray fill grestore} ifelse
} def
%
% Substitute for Level 2 pattern fill codes with
% grayscale if Level 2 support is not selected.
%
/Level1PatternFill {
/Pattern1 {0.250 Density} bind def
/Pattern2 {0.500 Density} bind def
/Pattern3 {0.750 Density} bind def
/Pattern4 {0.125 Density} bind def
/Pattern5 {0.375 Density} bind def
/Pattern6 {0.625 Density} bind def
/Pattern7 {0.875 Density} bind def
} def
%
% Now test for support of Level 2 code
%
Level1 {Level1PatternFill} {Level2PatternFill} ifelse
%
/Symbol-Oblique /Symbol findfont [1 0 .167 1 0 0] makefont
dup length dict begin {1 index /FID eq {pop pop} {def} ifelse} forall
currentdict end definefont pop
%
Level1 SuppressPDFMark or 
{} {
/SDict 10 dict def
systemdict /pdfmark known not {
  userdict /pdfmark systemdict /cleartomark get put
} if
SDict begin [
  /Title (exc1_3_4_3d_lost_checksum_err_2/protocol3/exc1_3_4_3d_lost_checksum_err_2.tex)
  /Subject (gnuplot plot)
  /Creator (gnuplot 5.0 patchlevel 1)
  /Author (asiron)
%  /Producer (gnuplot)
%  /Keywords ()
  /CreationDate (Mon Nov  2 03:11:47 2015)
  /DOCINFO pdfmark
end
} ifelse
end
%
% Support for boxed text - Ethan A Merritt May 2005
%
/InitTextBox { userdict /TBy2 3 -1 roll put userdict /TBx2 3 -1 roll put
           userdict /TBy1 3 -1 roll put userdict /TBx1 3 -1 roll put
	   /Boxing true def } def
/ExtendTextBox { Boxing
    { gsave dup false charpath pathbbox
      dup TBy2 gt {userdict /TBy2 3 -1 roll put} {pop} ifelse
      dup TBx2 gt {userdict /TBx2 3 -1 roll put} {pop} ifelse
      dup TBy1 lt {userdict /TBy1 3 -1 roll put} {pop} ifelse
      dup TBx1 lt {userdict /TBx1 3 -1 roll put} {pop} ifelse
      grestore } if } def
/PopTextBox { newpath TBx1 TBxmargin sub TBy1 TBymargin sub M
               TBx1 TBxmargin sub TBy2 TBymargin add L
	       TBx2 TBxmargin add TBy2 TBymargin add L
	       TBx2 TBxmargin add TBy1 TBymargin sub L closepath } def
/DrawTextBox { PopTextBox stroke /Boxing false def} def
/FillTextBox { gsave PopTextBox 1 1 1 setrgbcolor fill grestore /Boxing false def} def
0 0 0 0 InitTextBox
/TBxmargin 20 def
/TBymargin 20 def
/Boxing false def
/textshow { ExtendTextBox Gshow } def
%
%%EndProlog
%%Page: 1 1
gnudict begin
gsave
doclip
50 50 translate
0.050 0.050 scale
0 setgray
newpath
1.000 UL
LTb
LCb setrgbcolor
LTb
1.000 UL
LTb
908 2281 M
3365 4031 L
6292 2562 M
3365 4031 L
908 2281 M
0 3957 V
stroke
0.200 UL
LTb
908 2281 M
3365 4031 L
stroke
1.000 UL
LTb
908 2281 M
34 24 V
3365 4031 M
-34 -24 V
stroke
0.200 UL
LTb
1396 2036 M
3852 3786 L
stroke
1.000 UL
LTb
1396 2036 M
34 24 V
3852 3786 M
-34 -24 V
stroke
0.200 UL
LTb
1884 1791 M
4340 3542 L
stroke
1.000 UL
LTb
1884 1791 M
34 24 V
4340 3542 M
-34 -24 V
stroke
0.200 UL
LTb
2372 1546 M
4828 3297 L
stroke
1.000 UL
LTb
2372 1546 M
34 25 V
4828 3297 M
-34 -24 V
stroke
0.200 UL
LTb
2860 1302 M
5316 3052 L
stroke
1.000 UL
LTb
2860 1302 M
34 24 V
5316 3052 M
-34 -24 V
stroke
0.200 UL
LTb
3348 1057 M
5804 2807 L
stroke
1.000 UL
LTb
3348 1057 M
34 24 V
5804 2807 M
-34 -24 V
stroke
0.200 UL
LTb
3835 812 M
6292 2562 L
stroke
1.000 UL
LTb
3835 812 M
34 24 V
6292 2562 M
-34 -24 V
stroke
0.200 UL
LTb
3835 812 M
908 2281 L
stroke
1.000 UL
LTb
3835 812 M
-48 24 V
908 2281 M
48 -24 V
stroke
0.200 UL
LTb
4244 1104 M
1318 2573 L
stroke
1.000 UL
LTb
4244 1104 M
-48 24 V
1318 2573 M
48 -25 V
stroke
0.200 UL
LTb
4654 1396 M
1727 2864 L
stroke
1.000 UL
LTb
4654 1396 M
-48 24 V
1727 2864 M
48 -24 V
stroke
0.200 UL
LTb
5063 1687 M
2137 3156 L
stroke
1.000 UL
LTb
5063 1687 M
-48 24 V
2137 3156 M
48 -24 V
stroke
0.200 UL
LTb
5473 1979 M
2546 3448 L
stroke
1.000 UL
LTb
5473 1979 M
-48 24 V
2546 3448 M
48 -24 V
stroke
0.200 UL
LTb
5882 2271 M
2956 3739 L
stroke
1.000 UL
LTb
5882 2271 M
-48 24 V
2956 3739 M
48 -24 V
stroke
0.200 UL
LTb
6292 2562 M
3365 4031 L
stroke
1.000 UL
LTb
6292 2562 M
-48 25 V
3365 4031 M
48 -24 V
908 2281 M
63 0 V
-63 565 R
63 0 V
-63 566 R
63 0 V
-63 565 R
63 0 V
-63 564 R
63 0 V
-63 566 R
63 0 V
-63 565 R
63 0 V
-63 566 R
63 0 V
1.000 UP
1.000 UP
stroke
0.58 0.00 0.83 C 908 5938 Pls
990 5657 Pls
1072 5472 Pls
1154 5324 Pls
1236 5334 Pls
1318 5271 Pls
1400 5214 Pls
1481 5046 Pls
1563 4946 Pls
1645 4866 Pls
1727 4786 Pls
1809 4765 Pls
1891 4784 Pls
1973 4695 Pls
2055 4668 Pls
2137 4653 Pls
2218 4649 Pls
2300 4674 Pls
2382 4721 Pls
2464 4709 Pls
2546 4705 Pls
2628 4642 Pls
2710 4677 Pls
2792 4659 Pls
2874 4619 Pls
2956 4640 Pls
3037 4656 Pls
3119 4683 Pls
3201 4705 Pls
3283 4687 Pls
3365 4726 Pls
1006 5397 Pls
1088 5303 Pls
1170 5047 Pls
1251 4947 Pls
1333 4836 Pls
1415 4795 Pls
1497 4780 Pls
1579 4703 Pls
1661 4623 Pls
1743 4625 Pls
1825 4556 Pls
1907 4526 Pls
1989 4548 Pls
2070 4530 Pls
2152 4549 Pls
2234 4483 Pls
2316 4519 Pls
2398 4517 Pls
2480 4567 Pls
2562 4572 Pls
2644 4551 Pls
2726 4460 Pls
2807 4481 Pls
2889 4472 Pls
2971 4462 Pls
3053 4507 Pls
3135 4539 Pls
3217 4521 Pls
3299 4577 Pls
3381 4562 Pls
3463 4612 Pls
1103 5051 Pls
1185 5064 Pls
1267 4817 Pls
1349 4661 Pls
1431 4617 Pls
1513 4605 Pls
1595 4525 Pls
1677 4439 Pls
1759 4385 Pls
1840 4376 Pls
1922 4355 Pls
2004 4371 Pls
2086 4390 Pls
2168 4327 Pls
2250 4306 Pls
2332 4268 Pls
2414 4292 Pls
2496 4331 Pls
2577 4355 Pls
2659 4332 Pls
2741 4303 Pls
2823 4307 Pls
2905 4343 Pls
2987 4367 Pls
3069 4372 Pls
3151 4421 Pls
3233 4395 Pls
3314 4427 Pls
3396 4463 Pls
3478 4462 Pls
3560 4503 Pls
1201 4581 Pls
1283 4645 Pls
1365 4554 Pls
1447 4454 Pls
1529 4349 Pls
1610 4376 Pls
1692 4259 Pls
1774 4230 Pls
1856 4235 Pls
1938 4259 Pls
2020 4230 Pls
2102 4217 Pls
2184 4228 Pls
2266 4179 Pls
2347 4189 Pls
2429 4123 Pls
2511 4156 Pls
2593 4172 Pls
2675 4227 Pls
2757 4209 Pls
2839 4203 Pls
2921 4190 Pls
3003 4243 Pls
3085 4279 Pls
3166 4312 Pls
3248 4353 Pls
3330 4338 Pls
3412 4371 Pls
3494 4406 Pls
3576 4397 Pls
3657 4440 Pls
1299 4375 Pls
1380 4435 Pls
1462 4361 Pls
1544 4321 Pls
1626 4252 Pls
1708 4192 Pls
1790 4145 Pls
1872 4142 Pls
1954 4138 Pls
2036 4148 Pls
2118 4105 Pls
2199 4095 Pls
2281 4066 Pls
2363 4056 Pls
2445 4089 Pls
2527 4023 Pls
2609 4045 Pls
2691 4075 Pls
2773 4122 Pls
2855 4118 Pls
2936 4117 Pls
3018 4136 Pls
3100 4171 Pls
3182 4199 Pls
3264 4229 Pls
3346 4267 Pls
3428 4286 Pls
3510 4294 Pls
3592 4329 Pls
3672 4325 Pls
3754 4367 Pls
1396 4190 Pls
1478 4285 Pls
1560 4151 Pls
1642 4099 Pls
1724 4005 Pls
1806 4030 Pls
1888 4026 Pls
1969 4013 Pls
2051 4024 Pls
2133 4023 Pls
2215 4013 Pls
2297 3975 Pls
2379 3977 Pls
2461 4002 Pls
2543 3955 Pls
2625 3912 Pls
2706 3948 Pls
2788 3992 Pls
2870 4039 Pls
2952 4049 Pls
3034 4057 Pls
3116 4036 Pls
3198 4094 Pls
3280 4130 Pls
3362 4163 Pls
3443 4210 Pls
3525 4209 Pls
3606 4228 Pls
3688 4269 Pls
3770 4254 Pls
3852 4298 Pls
1494 3963 Pls
1576 3939 Pls
1658 3910 Pls
1739 3861 Pls
1821 3744 Pls
1903 3794 Pls
1985 3782 Pls
2067 3772 Pls
2149 3783 Pls
2231 3813 Pls
2313 3800 Pls
2395 3746 Pls
2476 3756 Pls
2558 3760 Pls
2640 3796 Pls
2722 3792 Pls
2804 3845 Pls
2886 3884 Pls
2968 3945 Pls
3050 3961 Pls
3132 3948 Pls
3214 3976 Pls
3295 4017 Pls
3377 4070 Pls
3459 4097 Pls
3541 4130 Pls
3622 4129 Pls
3704 4139 Pls
3786 4183 Pls
3868 4163 Pls
3950 4204 Pls
1591 3685 Pls
1673 3738 Pls
1755 3720 Pls
1837 3665 Pls
1919 3613 Pls
2001 3629 Pls
2083 3645 Pls
2165 3687 Pls
2247 3626 Pls
2328 3668 Pls
2410 3678 Pls
2492 3657 Pls
2574 3690 Pls
2656 3686 Pls
2738 3725 Pls
2820 3726 Pls
2902 3776 Pls
2984 3804 Pls
3065 3853 Pls
3147 3838 Pls
3229 3877 Pls
3311 3913 Pls
3393 3957 Pls
3475 3976 Pls
3557 3986 Pls
3638 4027 Pls
3720 4035 Pls
3801 4053 Pls
3883 4100 Pls
3965 4122 Pls
4047 4166 Pls
1689 3467 Pls
1771 3565 Pls
1853 3504 Pls
1935 3441 Pls
2017 3454 Pls
2098 3433 Pls
2180 3424 Pls
2262 3459 Pls
2344 3436 Pls
2426 3489 Pls
2508 3513 Pls
2590 3543 Pls
2672 3582 Pls
2754 3581 Pls
2835 3611 Pls
2917 3601 Pls
2999 3637 Pls
3081 3690 Pls
3163 3731 Pls
3245 3758 Pls
3327 3777 Pls
3409 3790 Pls
3491 3831 Pls
3572 3862 Pls
3653 3883 Pls
3735 3933 Pls
3817 3966 Pls
3899 3985 Pls
3981 4023 Pls
4063 4036 Pls
4145 4078 Pls
1787 3324 Pls
1868 3380 Pls
1950 3342 Pls
2032 3239 Pls
2114 3207 Pls
2196 3246 Pls
2278 3265 Pls
2360 3314 Pls
2442 3330 Pls
2524 3377 Pls
2605 3422 Pls
2687 3452 Pls
2769 3448 Pls
2851 3450 Pls
2933 3468 Pls
3015 3498 Pls
3097 3537 Pls
3179 3578 Pls
3261 3623 Pls
3343 3650 Pls
3424 3669 Pls
3506 3679 Pls
3588 3729 Pls
3669 3773 Pls
3751 3809 Pls
3833 3850 Pls
3915 3869 Pls
3997 3893 Pls
4079 3935 Pls
4160 3928 Pls
4242 3978 Pls
1884 3131 Pls
1966 3255 Pls
2048 3189 Pls
2130 3139 Pls
2212 3113 Pls
2294 3171 Pls
2376 3190 Pls
2457 3243 Pls
2539 3242 Pls
2621 3283 Pls
2703 3319 Pls
2785 3312 Pls
2867 3351 Pls
2949 3358 Pls
3031 3371 Pls
3113 3384 Pls
3194 3440 Pls
3276 3456 Pls
3358 3506 Pls
3440 3539 Pls
3522 3560 Pls
3603 3602 Pls
3685 3646 Pls
3767 3713 Pls
3849 3746 Pls
3930 3776 Pls
4012 3797 Pls
4094 3833 Pls
4176 3877 Pls
4258 3851 Pls
4340 3901 Pls
1982 2983 Pls
2064 3033 Pls
2146 3021 Pls
2227 3011 Pls
2309 3007 Pls
2391 3052 Pls
2473 3087 Pls
2555 3137 Pls
2637 3150 Pls
2719 3189 Pls
2801 3188 Pls
2883 3215 Pls
2964 3248 Pls
3046 3258 Pls
3128 3274 Pls
3210 3307 Pls
3292 3343 Pls
3374 3373 Pls
3456 3437 Pls
3538 3478 Pls
3619 3494 Pls
3700 3533 Pls
3782 3580 Pls
3864 3621 Pls
3946 3651 Pls
4028 3696 Pls
4110 3709 Pls
4192 3750 Pls
4274 3792 Pls
4356 3779 Pls
4437 3838 Pls
2079 2838 Pls
2161 2973 Pls
2243 2876 Pls
2325 2889 Pls
2407 2874 Pls
2489 2904 Pls
2571 2951 Pls
2653 3001 Pls
2734 3034 Pls
2816 3083 Pls
2898 3111 Pls
2980 3144 Pls
3062 3171 Pls
3144 3181 Pls
3226 3191 Pls
3308 3224 Pls
3390 3269 Pls
3472 3310 Pls
3553 3368 Pls
3634 3418 Pls
3716 3448 Pls
3798 3470 Pls
3880 3520 Pls
3962 3541 Pls
4044 3588 Pls
4126 3616 Pls
4208 3654 Pls
4289 3679 Pls
4371 3731 Pls
4453 3727 Pls
4535 3777 Pls
2177 2786 Pls
2259 2814 Pls
2341 2782 Pls
2423 2766 Pls
2505 2768 Pls
2586 2812 Pls
2668 2885 Pls
2750 2921 Pls
2832 2939 Pls
2914 2992 Pls
2996 3011 Pls
3078 3041 Pls
3160 3074 Pls
3242 3090 Pls
3323 3117 Pls
3405 3147 Pls
3487 3197 Pls
3569 3241 Pls
3650 3291 Pls
3732 3338 Pls
3814 3365 Pls
3896 3407 Pls
3978 3445 Pls
4059 3467 Pls
4141 3508 Pls
4223 3499 Pls
4305 3523 Pls
4387 3567 Pls
4469 3612 Pls
4551 3662 Pls
4633 3706 Pls
2275 2672 Pls
2356 2742 Pls
2438 2693 Pls
2520 2664 Pls
2602 2666 Pls
2684 2710 Pls
2766 2788 Pls
2848 2821 Pls
2930 2859 Pls
3012 2904 Pls
3093 2911 Pls
3175 2930 Pls
3257 2982 Pls
3339 3018 Pls
3421 3045 Pls
3503 3084 Pls
3585 3137 Pls
3666 3153 Pls
3748 3205 Pls
3829 3255 Pls
3911 3297 Pls
3993 3324 Pls
4075 3362 Pls
4157 3376 Pls
4239 3397 Pls
4321 3427 Pls
4403 3471 Pls
4485 3504 Pls
4566 3554 Pls
4648 3593 Pls
4730 3645 Pls
2372 2530 Pls
2454 2583 Pls
2536 2585 Pls
2618 2564 Pls
2700 2563 Pls
2782 2613 Pls
2863 2663 Pls
2945 2718 Pls
3027 2765 Pls
3109 2809 Pls
3191 2820 Pls
3273 2855 Pls
3355 2908 Pls
3437 2933 Pls
3519 2968 Pls
3600 3007 Pls
3681 3057 Pls
3763 3073 Pls
3845 3134 Pls
3927 3178 Pls
4009 3217 Pls
4091 3210 Pls
4173 3248 Pls
4255 3276 Pls
4337 3331 Pls
4418 3370 Pls
4500 3414 Pls
4582 3450 Pls
4664 3500 Pls
4746 3535 Pls
4828 3591 Pls
2470 2476 Pls
2552 2542 Pls
2634 2536 Pls
2715 2512 Pls
2797 2503 Pls
2879 2561 Pls
2961 2602 Pls
3043 2666 Pls
3125 2713 Pls
3207 2758 Pls
3289 2768 Pls
3371 2789 Pls
3452 2845 Pls
3534 2872 Pls
3615 2908 Pls
3697 2932 Pls
3779 2979 Pls
3861 3026 Pls
3943 3054 Pls
4025 3101 Pls
4107 3120 Pls
4188 3144 Pls
4270 3177 Pls
4352 3221 Pls
4434 3274 Pls
4516 3310 Pls
4598 3348 Pls
4680 3389 Pls
4762 3442 Pls
4844 3478 Pls
4925 3533 Pls
2567 2421 Pls
2649 2499 Pls
2731 2442 Pls
2813 2441 Pls
2895 2440 Pls
2977 2504 Pls
3059 2514 Pls
3141 2578 Pls
3222 2625 Pls
3304 2672 Pls
3386 2696 Pls
3468 2726 Pls
3550 2779 Pls
3631 2804 Pls
3713 2839 Pls
3795 2875 Pls
3877 2908 Pls
3958 2949 Pls
4040 2974 Pls
4122 3024 Pls
4204 3051 Pls
4286 3072 Pls
4368 3119 Pls
4450 3158 Pls
4532 3214 Pls
4614 3255 Pls
4695 3302 Pls
4777 3343 Pls
4859 3390 Pls
4941 3420 Pls
5023 3470 Pls
2665 2372 Pls
2747 2425 Pls
2829 2350 Pls
2911 2375 Pls
2992 2382 Pls
3074 2409 Pls
3156 2459 Pls
3238 2518 Pls
3320 2559 Pls
3402 2603 Pls
3484 2647 Pls
3566 2672 Pls
3647 2716 Pls
3728 2746 Pls
3810 2773 Pls
3892 2826 Pls
3974 2853 Pls
4056 2895 Pls
4138 2911 Pls
4220 2969 Pls
4302 2999 Pls
4384 3018 Pls
4466 3065 Pls
4547 3103 Pls
4629 3159 Pls
4711 3200 Pls
4793 3247 Pls
4875 3292 Pls
4957 3336 Pls
5039 3366 Pls
5121 3416 Pls
2763 2250 Pls
2844 2316 Pls
2926 2298 Pls
3008 2295 Pls
3090 2302 Pls
3172 2349 Pls
3254 2379 Pls
3336 2440 Pls
3418 2487 Pls
3500 2534 Pls
3581 2579 Pls
3662 2600 Pls
3744 2656 Pls
3826 2689 Pls
3908 2699 Pls
3990 2752 Pls
4072 2796 Pls
4154 2832 Pls
4236 2842 Pls
4317 2900 Pls
4399 2930 Pls
4481 2963 Pls
4563 3007 Pls
4645 3052 Pls
4727 3107 Pls
4809 3149 Pls
4891 3190 Pls
4973 3234 Pls
5054 3278 Pls
5136 3320 Pls
5218 3367 Pls
2860 2150 Pls
2942 2214 Pls
3024 2190 Pls
3106 2217 Pls
3188 2230 Pls
3270 2283 Pls
3351 2322 Pls
3433 2383 Pls
3515 2430 Pls
3597 2477 Pls
3678 2510 Pls
3760 2534 Pls
3842 2590 Pls
3924 2634 Pls
4006 2636 Pls
4087 2686 Pls
4169 2713 Pls
4251 2751 Pls
4333 2790 Pls
4415 2837 Pls
4497 2876 Pls
4579 2906 Pls
4661 2953 Pls
4743 3000 Pls
4824 3038 Pls
4906 3083 Pls
4988 3124 Pls
5070 3174 Pls
5152 3204 Pls
5234 3248 Pls
5316 3306 Pls
2958 2072 Pls
3040 2091 Pls
3121 2110 Pls
3203 2140 Pls
3285 2156 Pls
3367 2206 Pls
3449 2219 Pls
3531 2300 Pls
3612 2344 Pls
3694 2374 Pls
3776 2402 Pls
3857 2429 Pls
3939 2481 Pls
4021 2543 Pls
4103 2519 Pls
4185 2591 Pls
4267 2641 Pls
4349 2683 Pls
4431 2727 Pls
4513 2774 Pls
4595 2810 Pls
4676 2843 Pls
4758 2887 Pls
4840 2934 Pls
4922 2961 Pls
5004 3011 Pls
5086 3055 Pls
5168 3108 Pls
5250 3149 Pls
5332 3188 Pls
5413 3246 Pls
3055 1956 Pls
3137 2023 Pls
3219 2016 Pls
3301 2063 Pls
3383 2073 Pls
3465 2117 Pls
3547 2142 Pls
3628 2231 Pls
3709 2284 Pls
3791 2325 Pls
3873 2353 Pls
3955 2354 Pls
4037 2435 Pls
4119 2457 Pls
4201 2462 Pls
4283 2480 Pls
4365 2544 Pls
4446 2594 Pls
4528 2636 Pls
4610 2685 Pls
4692 2727 Pls
4774 2763 Pls
4856 2801 Pls
4938 2848 Pls
5020 2890 Pls
5102 2939 Pls
5183 2978 Pls
5265 3034 Pls
5347 3069 Pls
5429 3122 Pls
5511 3177 Pls
3153 1850 Pls
3235 1934 Pls
3317 1936 Pls
3399 1921 Pls
3480 1973 Pls
3562 2026 Pls
3643 2042 Pls
3725 2129 Pls
3807 2198 Pls
3889 2242 Pls
3971 2244 Pls
4053 2272 Pls
4135 2302 Pls
4216 2368 Pls
4298 2373 Pls
4380 2429 Pls
4462 2481 Pls
4544 2528 Pls
4626 2573 Pls
4708 2625 Pls
4790 2647 Pls
4872 2688 Pls
4953 2738 Pls
5035 2788 Pls
5117 2835 Pls
5199 2874 Pls
5281 2918 Pls
5363 2973 Pls
5445 3009 Pls
5527 3059 Pls
5609 3114 Pls
3250 1798 Pls
3332 1862 Pls
3414 1867 Pls
3496 1846 Pls
3578 1899 Pls
3659 1949 Pls
3741 1979 Pls
3823 2082 Pls
3905 2073 Pls
3986 2120 Pls
4068 2156 Pls
4150 2172 Pls
4232 2224 Pls
4314 2266 Pls
4396 2313 Pls
4478 2365 Pls
4560 2415 Pls
4642 2465 Pls
4724 2507 Pls
4805 2545 Pls
4887 2584 Pls
4969 2628 Pls
5051 2675 Pls
5133 2719 Pls
5215 2766 Pls
5297 2810 Pls
5379 2860 Pls
5461 2910 Pls
5542 2946 Pls
5624 2993 Pls
5706 3046 Pls
3348 1665 Pls
3430 1723 Pls
3512 1756 Pls
3594 1744 Pls
3675 1788 Pls
3757 1826 Pls
3838 1876 Pls
3920 1932 Pls
4002 2001 Pls
4084 2031 Pls
4166 2081 Pls
4248 2109 Pls
4330 2158 Pls
4412 2197 Pls
4494 2241 Pls
4575 2280 Pls
4657 2347 Pls
4739 2396 Pls
4821 2443 Pls
4903 2496 Pls
4985 2515 Pls
5067 2562 Pls
5149 2606 Pls
5231 2645 Pls
5312 2703 Pls
5394 2744 Pls
5476 2792 Pls
5558 2847 Pls
5640 2883 Pls
5722 2924 Pls
5804 2980 Pls
3446 1553 Pls
3528 1586 Pls
3608 1667 Pls
3690 1661 Pls
3772 1694 Pls
3854 1752 Pls
3936 1819 Pls
4018 1877 Pls
4100 1910 Pls
4182 1954 Pls
4264 1996 Pls
4345 2037 Pls
4427 2098 Pls
4509 2108 Pls
4591 2170 Pls
4673 2217 Pls
4755 2275 Pls
4837 2336 Pls
4919 2386 Pls
5001 2442 Pls
5082 2463 Pls
5164 2499 Pls
5246 2546 Pls
5328 2584 Pls
5410 2640 Pls
5492 2687 Pls
5574 2734 Pls
5656 2790 Pls
5738 2831 Pls
5820 2872 Pls
5901 2925 Pls
3543 1462 Pls
3624 1489 Pls
3706 1531 Pls
3788 1558 Pls
3870 1605 Pls
3952 1661 Pls
4034 1693 Pls
4115 1757 Pls
4197 1796 Pls
4279 1849 Pls
4361 1896 Pls
4443 1934 Pls
4525 1998 Pls
4607 2057 Pls
4689 2098 Pls
4771 2145 Pls
4853 2203 Pls
4934 2253 Pls
5016 2312 Pls
5098 2364 Pls
5180 2389 Pls
5262 2422 Pls
5344 2477 Pls
5426 2521 Pls
5508 2574 Pls
5590 2604 Pls
5671 2657 Pls
5753 2724 Pls
5835 2754 Pls
5917 2812 Pls
5999 2868 Pls
3640 1382 Pls
3722 1423 Pls
3804 1468 Pls
3886 1492 Pls
3967 1553 Pls
4049 1581 Pls
4131 1625 Pls
4213 1677 Pls
4295 1733 Pls
4377 1794 Pls
4459 1833 Pls
4541 1874 Pls
4623 1921 Pls
4704 1979 Pls
4786 2004 Pls
4868 2057 Pls
4950 2109 Pls
5032 2170 Pls
5114 2232 Pls
5196 2290 Pls
5278 2314 Pls
5360 2347 Pls
5441 2397 Pls
5523 2450 Pls
5605 2505 Pls
5687 2544 Pls
5769 2594 Pls
5851 2652 Pls
5933 2708 Pls
6015 2746 Pls
6097 2805 Pls
3737 1277 Pls
3819 1355 Pls
3901 1402 Pls
3983 1432 Pls
4065 1490 Pls
4147 1517 Pls
4229 1550 Pls
4311 1611 Pls
4393 1667 Pls
4474 1723 Pls
4556 1767 Pls
4638 1794 Pls
4720 1861 Pls
4802 1905 Pls
4884 1944 Pls
4966 1993 Pls
5048 2043 Pls
5130 2102 Pls
5211 2163 Pls
5293 2221 Pls
5375 2248 Pls
5457 2290 Pls
5539 2348 Pls
5621 2395 Pls
5703 2442 Pls
5785 2492 Pls
5867 2545 Pls
5949 2595 Pls
6030 2647 Pls
6112 2711 Pls
6194 2764 Pls
3835 1228 Pls
3917 1292 Pls
3999 1336 Pls
4081 1372 Pls
4163 1413 Pls
4244 1460 Pls
4326 1493 Pls
4408 1551 Pls
4490 1601 Pls
4572 1654 Pls
4654 1701 Pls
4736 1739 Pls
4818 1801 Pls
4900 1862 Pls
4982 1889 Pls
5063 1933 Pls
5145 1989 Pls
5227 2039 Pls
5309 2097 Pls
5391 2152 Pls
5473 2194 Pls
5555 2230 Pls
5637 2282 Pls
5719 2338 Pls
5800 2379 Pls
5882 2440 Pls
5964 2493 Pls
6046 2537 Pls
6128 2596 Pls
6210 2648 Pls
6292 2707 Pls
1.000 UL
LTb
LCb setrgbcolor
LTb
6292 2562 M
3835 812 L
908 2281 M
3835 812 L
1.000 UP
stroke
grestore
end
showpage
%%Trailer
