%!PS-Adobe-2.0 EPSF-2.0
%%Title: exc2_5_6_3d_lost_checksum_err_retransmitted/protocol5/exc2_5_6_3d_lost_checksum_err_retransmitted.tex
%%Creator: gnuplot 5.0 patchlevel 1
%%CreationDate: Mon Nov  2 07:59:43 2015
%%DocumentFonts: 
%%BoundingBox: 50 50 410 302
%%EndComments
%%BeginProlog
/gnudict 256 dict def
gnudict begin
%
% The following true/false flags may be edited by hand if desired.
% The unit line width and grayscale image gamma correction may also be changed.
%
/Color false def
/Blacktext true def
/Solid false def
/Dashlength 1 def
/Landscape false def
/Level1 false def
/Level3 false def
/Rounded false def
/ClipToBoundingBox false def
/SuppressPDFMark false def
/TransparentPatterns false def
/gnulinewidth 5.000 def
/userlinewidth gnulinewidth def
/Gamma 1.0 def
/BackgroundColor {-1.000 -1.000 -1.000} def
%
/vshift -73 def
/dl1 {
  10.0 Dashlength userlinewidth gnulinewidth div mul mul mul
  Rounded { currentlinewidth 0.75 mul sub dup 0 le { pop 0.01 } if } if
} def
/dl2 {
  10.0 Dashlength userlinewidth gnulinewidth div mul mul mul
  Rounded { currentlinewidth 0.75 mul add } if
} def
/hpt_ 31.5 def
/vpt_ 31.5 def
/hpt hpt_ def
/vpt vpt_ def
/doclip {
  ClipToBoundingBox {
    newpath 50 50 moveto 410 50 lineto 410 302 lineto 50 302 lineto closepath
    clip
  } if
} def
%
% Gnuplot Prolog Version 5.0 (Dec 2014)
%
%/SuppressPDFMark true def
%
/M {moveto} bind def
/L {lineto} bind def
/R {rmoveto} bind def
/V {rlineto} bind def
/N {newpath moveto} bind def
/Z {closepath} bind def
/C {setrgbcolor} bind def
/f {rlineto fill} bind def
/g {setgray} bind def
/Gshow {show} def   % May be redefined later in the file to support UTF-8
/vpt2 vpt 2 mul def
/hpt2 hpt 2 mul def
/Lshow {currentpoint stroke M 0 vshift R 
	Blacktext {gsave 0 setgray textshow grestore} {textshow} ifelse} def
/Rshow {currentpoint stroke M dup stringwidth pop neg vshift R
	Blacktext {gsave 0 setgray textshow grestore} {textshow} ifelse} def
/Cshow {currentpoint stroke M dup stringwidth pop -2 div vshift R 
	Blacktext {gsave 0 setgray textshow grestore} {textshow} ifelse} def
/UP {dup vpt_ mul /vpt exch def hpt_ mul /hpt exch def
  /hpt2 hpt 2 mul def /vpt2 vpt 2 mul def} def
/DL {Color {setrgbcolor Solid {pop []} if 0 setdash}
 {pop pop pop 0 setgray Solid {pop []} if 0 setdash} ifelse} def
/BL {stroke userlinewidth 2 mul setlinewidth
	Rounded {1 setlinejoin 1 setlinecap} if} def
/AL {stroke userlinewidth 2 div setlinewidth
	Rounded {1 setlinejoin 1 setlinecap} if} def
/UL {dup gnulinewidth mul /userlinewidth exch def
	dup 1 lt {pop 1} if 10 mul /udl exch def} def
/PL {stroke userlinewidth setlinewidth
	Rounded {1 setlinejoin 1 setlinecap} if} def
3.8 setmiterlimit
% Classic Line colors (version 5.0)
/LCw {1 1 1} def
/LCb {0 0 0} def
/LCa {0 0 0} def
/LC0 {1 0 0} def
/LC1 {0 1 0} def
/LC2 {0 0 1} def
/LC3 {1 0 1} def
/LC4 {0 1 1} def
/LC5 {1 1 0} def
/LC6 {0 0 0} def
/LC7 {1 0.3 0} def
/LC8 {0.5 0.5 0.5} def
% Default dash patterns (version 5.0)
/LTw {PL [] 1 setgray} def
/LTb {BL [] LCb DL} def
/LTa {AL [1 udl mul 2 udl mul] 0 setdash LCa setrgbcolor} def
/LT0 {PL [] LC0 DL} def
/LT1 {PL [2 dl1 3 dl2] LC1 DL} def
/LT2 {PL [1 dl1 1.5 dl2] LC2 DL} def
/LT3 {PL [6 dl1 2 dl2 1 dl1 2 dl2] LC3 DL} def
/LT4 {PL [1 dl1 2 dl2 6 dl1 2 dl2 1 dl1 2 dl2] LC4 DL} def
/LT5 {PL [4 dl1 2 dl2] LC5 DL} def
/LT6 {PL [1.5 dl1 1.5 dl2 1.5 dl1 1.5 dl2 1.5 dl1 6 dl2] LC6 DL} def
/LT7 {PL [3 dl1 3 dl2 1 dl1 3 dl2] LC7 DL} def
/LT8 {PL [2 dl1 2 dl2 2 dl1 6 dl2] LC8 DL} def
/SL {[] 0 setdash} def
/Pnt {stroke [] 0 setdash gsave 1 setlinecap M 0 0 V stroke grestore} def
/Dia {stroke [] 0 setdash 2 copy vpt add M
  hpt neg vpt neg V hpt vpt neg V
  hpt vpt V hpt neg vpt V closepath stroke
  Pnt} def
/Pls {stroke [] 0 setdash vpt sub M 0 vpt2 V
  currentpoint stroke M
  hpt neg vpt neg R hpt2 0 V stroke
 } def
/Box {stroke [] 0 setdash 2 copy exch hpt sub exch vpt add M
  0 vpt2 neg V hpt2 0 V 0 vpt2 V
  hpt2 neg 0 V closepath stroke
  Pnt} def
/Crs {stroke [] 0 setdash exch hpt sub exch vpt add M
  hpt2 vpt2 neg V currentpoint stroke M
  hpt2 neg 0 R hpt2 vpt2 V stroke} def
/TriU {stroke [] 0 setdash 2 copy vpt 1.12 mul add M
  hpt neg vpt -1.62 mul V
  hpt 2 mul 0 V
  hpt neg vpt 1.62 mul V closepath stroke
  Pnt} def
/Star {2 copy Pls Crs} def
/BoxF {stroke [] 0 setdash exch hpt sub exch vpt add M
  0 vpt2 neg V hpt2 0 V 0 vpt2 V
  hpt2 neg 0 V closepath fill} def
/TriUF {stroke [] 0 setdash vpt 1.12 mul add M
  hpt neg vpt -1.62 mul V
  hpt 2 mul 0 V
  hpt neg vpt 1.62 mul V closepath fill} def
/TriD {stroke [] 0 setdash 2 copy vpt 1.12 mul sub M
  hpt neg vpt 1.62 mul V
  hpt 2 mul 0 V
  hpt neg vpt -1.62 mul V closepath stroke
  Pnt} def
/TriDF {stroke [] 0 setdash vpt 1.12 mul sub M
  hpt neg vpt 1.62 mul V
  hpt 2 mul 0 V
  hpt neg vpt -1.62 mul V closepath fill} def
/DiaF {stroke [] 0 setdash vpt add M
  hpt neg vpt neg V hpt vpt neg V
  hpt vpt V hpt neg vpt V closepath fill} def
/Pent {stroke [] 0 setdash 2 copy gsave
  translate 0 hpt M 4 {72 rotate 0 hpt L} repeat
  closepath stroke grestore Pnt} def
/PentF {stroke [] 0 setdash gsave
  translate 0 hpt M 4 {72 rotate 0 hpt L} repeat
  closepath fill grestore} def
/Circle {stroke [] 0 setdash 2 copy
  hpt 0 360 arc stroke Pnt} def
/CircleF {stroke [] 0 setdash hpt 0 360 arc fill} def
/C0 {BL [] 0 setdash 2 copy moveto vpt 90 450 arc} bind def
/C1 {BL [] 0 setdash 2 copy moveto
	2 copy vpt 0 90 arc closepath fill
	vpt 0 360 arc closepath} bind def
/C2 {BL [] 0 setdash 2 copy moveto
	2 copy vpt 90 180 arc closepath fill
	vpt 0 360 arc closepath} bind def
/C3 {BL [] 0 setdash 2 copy moveto
	2 copy vpt 0 180 arc closepath fill
	vpt 0 360 arc closepath} bind def
/C4 {BL [] 0 setdash 2 copy moveto
	2 copy vpt 180 270 arc closepath fill
	vpt 0 360 arc closepath} bind def
/C5 {BL [] 0 setdash 2 copy moveto
	2 copy vpt 0 90 arc
	2 copy moveto
	2 copy vpt 180 270 arc closepath fill
	vpt 0 360 arc} bind def
/C6 {BL [] 0 setdash 2 copy moveto
	2 copy vpt 90 270 arc closepath fill
	vpt 0 360 arc closepath} bind def
/C7 {BL [] 0 setdash 2 copy moveto
	2 copy vpt 0 270 arc closepath fill
	vpt 0 360 arc closepath} bind def
/C8 {BL [] 0 setdash 2 copy moveto
	2 copy vpt 270 360 arc closepath fill
	vpt 0 360 arc closepath} bind def
/C9 {BL [] 0 setdash 2 copy moveto
	2 copy vpt 270 450 arc closepath fill
	vpt 0 360 arc closepath} bind def
/C10 {BL [] 0 setdash 2 copy 2 copy moveto vpt 270 360 arc closepath fill
	2 copy moveto
	2 copy vpt 90 180 arc closepath fill
	vpt 0 360 arc closepath} bind def
/C11 {BL [] 0 setdash 2 copy moveto
	2 copy vpt 0 180 arc closepath fill
	2 copy moveto
	2 copy vpt 270 360 arc closepath fill
	vpt 0 360 arc closepath} bind def
/C12 {BL [] 0 setdash 2 copy moveto
	2 copy vpt 180 360 arc closepath fill
	vpt 0 360 arc closepath} bind def
/C13 {BL [] 0 setdash 2 copy moveto
	2 copy vpt 0 90 arc closepath fill
	2 copy moveto
	2 copy vpt 180 360 arc closepath fill
	vpt 0 360 arc closepath} bind def
/C14 {BL [] 0 setdash 2 copy moveto
	2 copy vpt 90 360 arc closepath fill
	vpt 0 360 arc} bind def
/C15 {BL [] 0 setdash 2 copy vpt 0 360 arc closepath fill
	vpt 0 360 arc closepath} bind def
/Rec {newpath 4 2 roll moveto 1 index 0 rlineto 0 exch rlineto
	neg 0 rlineto closepath} bind def
/Square {dup Rec} bind def
/Bsquare {vpt sub exch vpt sub exch vpt2 Square} bind def
/S0 {BL [] 0 setdash 2 copy moveto 0 vpt rlineto BL Bsquare} bind def
/S1 {BL [] 0 setdash 2 copy vpt Square fill Bsquare} bind def
/S2 {BL [] 0 setdash 2 copy exch vpt sub exch vpt Square fill Bsquare} bind def
/S3 {BL [] 0 setdash 2 copy exch vpt sub exch vpt2 vpt Rec fill Bsquare} bind def
/S4 {BL [] 0 setdash 2 copy exch vpt sub exch vpt sub vpt Square fill Bsquare} bind def
/S5 {BL [] 0 setdash 2 copy 2 copy vpt Square fill
	exch vpt sub exch vpt sub vpt Square fill Bsquare} bind def
/S6 {BL [] 0 setdash 2 copy exch vpt sub exch vpt sub vpt vpt2 Rec fill Bsquare} bind def
/S7 {BL [] 0 setdash 2 copy exch vpt sub exch vpt sub vpt vpt2 Rec fill
	2 copy vpt Square fill Bsquare} bind def
/S8 {BL [] 0 setdash 2 copy vpt sub vpt Square fill Bsquare} bind def
/S9 {BL [] 0 setdash 2 copy vpt sub vpt vpt2 Rec fill Bsquare} bind def
/S10 {BL [] 0 setdash 2 copy vpt sub vpt Square fill 2 copy exch vpt sub exch vpt Square fill
	Bsquare} bind def
/S11 {BL [] 0 setdash 2 copy vpt sub vpt Square fill 2 copy exch vpt sub exch vpt2 vpt Rec fill
	Bsquare} bind def
/S12 {BL [] 0 setdash 2 copy exch vpt sub exch vpt sub vpt2 vpt Rec fill Bsquare} bind def
/S13 {BL [] 0 setdash 2 copy exch vpt sub exch vpt sub vpt2 vpt Rec fill
	2 copy vpt Square fill Bsquare} bind def
/S14 {BL [] 0 setdash 2 copy exch vpt sub exch vpt sub vpt2 vpt Rec fill
	2 copy exch vpt sub exch vpt Square fill Bsquare} bind def
/S15 {BL [] 0 setdash 2 copy Bsquare fill Bsquare} bind def
/D0 {gsave translate 45 rotate 0 0 S0 stroke grestore} bind def
/D1 {gsave translate 45 rotate 0 0 S1 stroke grestore} bind def
/D2 {gsave translate 45 rotate 0 0 S2 stroke grestore} bind def
/D3 {gsave translate 45 rotate 0 0 S3 stroke grestore} bind def
/D4 {gsave translate 45 rotate 0 0 S4 stroke grestore} bind def
/D5 {gsave translate 45 rotate 0 0 S5 stroke grestore} bind def
/D6 {gsave translate 45 rotate 0 0 S6 stroke grestore} bind def
/D7 {gsave translate 45 rotate 0 0 S7 stroke grestore} bind def
/D8 {gsave translate 45 rotate 0 0 S8 stroke grestore} bind def
/D9 {gsave translate 45 rotate 0 0 S9 stroke grestore} bind def
/D10 {gsave translate 45 rotate 0 0 S10 stroke grestore} bind def
/D11 {gsave translate 45 rotate 0 0 S11 stroke grestore} bind def
/D12 {gsave translate 45 rotate 0 0 S12 stroke grestore} bind def
/D13 {gsave translate 45 rotate 0 0 S13 stroke grestore} bind def
/D14 {gsave translate 45 rotate 0 0 S14 stroke grestore} bind def
/D15 {gsave translate 45 rotate 0 0 S15 stroke grestore} bind def
/DiaE {stroke [] 0 setdash vpt add M
  hpt neg vpt neg V hpt vpt neg V
  hpt vpt V hpt neg vpt V closepath stroke} def
/BoxE {stroke [] 0 setdash exch hpt sub exch vpt add M
  0 vpt2 neg V hpt2 0 V 0 vpt2 V
  hpt2 neg 0 V closepath stroke} def
/TriUE {stroke [] 0 setdash vpt 1.12 mul add M
  hpt neg vpt -1.62 mul V
  hpt 2 mul 0 V
  hpt neg vpt 1.62 mul V closepath stroke} def
/TriDE {stroke [] 0 setdash vpt 1.12 mul sub M
  hpt neg vpt 1.62 mul V
  hpt 2 mul 0 V
  hpt neg vpt -1.62 mul V closepath stroke} def
/PentE {stroke [] 0 setdash gsave
  translate 0 hpt M 4 {72 rotate 0 hpt L} repeat
  closepath stroke grestore} def
/CircE {stroke [] 0 setdash 
  hpt 0 360 arc stroke} def
/Opaque {gsave closepath 1 setgray fill grestore 0 setgray closepath} def
/DiaW {stroke [] 0 setdash vpt add M
  hpt neg vpt neg V hpt vpt neg V
  hpt vpt V hpt neg vpt V Opaque stroke} def
/BoxW {stroke [] 0 setdash exch hpt sub exch vpt add M
  0 vpt2 neg V hpt2 0 V 0 vpt2 V
  hpt2 neg 0 V Opaque stroke} def
/TriUW {stroke [] 0 setdash vpt 1.12 mul add M
  hpt neg vpt -1.62 mul V
  hpt 2 mul 0 V
  hpt neg vpt 1.62 mul V Opaque stroke} def
/TriDW {stroke [] 0 setdash vpt 1.12 mul sub M
  hpt neg vpt 1.62 mul V
  hpt 2 mul 0 V
  hpt neg vpt -1.62 mul V Opaque stroke} def
/PentW {stroke [] 0 setdash gsave
  translate 0 hpt M 4 {72 rotate 0 hpt L} repeat
  Opaque stroke grestore} def
/CircW {stroke [] 0 setdash 
  hpt 0 360 arc Opaque stroke} def
/BoxFill {gsave Rec 1 setgray fill grestore} def
/Density {
  /Fillden exch def
  currentrgbcolor
  /ColB exch def /ColG exch def /ColR exch def
  /ColR ColR Fillden mul Fillden sub 1 add def
  /ColG ColG Fillden mul Fillden sub 1 add def
  /ColB ColB Fillden mul Fillden sub 1 add def
  ColR ColG ColB setrgbcolor} def
/BoxColFill {gsave Rec PolyFill} def
/PolyFill {gsave Density fill grestore grestore} def
/h {rlineto rlineto rlineto gsave closepath fill grestore} bind def
%
% PostScript Level 1 Pattern Fill routine for rectangles
% Usage: x y w h s a XX PatternFill
%	x,y = lower left corner of box to be filled
%	w,h = width and height of box
%	  a = angle in degrees between lines and x-axis
%	 XX = 0/1 for no/yes cross-hatch
%
/PatternFill {gsave /PFa [ 9 2 roll ] def
  PFa 0 get PFa 2 get 2 div add PFa 1 get PFa 3 get 2 div add translate
  PFa 2 get -2 div PFa 3 get -2 div PFa 2 get PFa 3 get Rec
  TransparentPatterns {} {gsave 1 setgray fill grestore} ifelse
  clip
  currentlinewidth 0.5 mul setlinewidth
  /PFs PFa 2 get dup mul PFa 3 get dup mul add sqrt def
  0 0 M PFa 5 get rotate PFs -2 div dup translate
  0 1 PFs PFa 4 get div 1 add floor cvi
	{PFa 4 get mul 0 M 0 PFs V} for
  0 PFa 6 get ne {
	0 1 PFs PFa 4 get div 1 add floor cvi
	{PFa 4 get mul 0 2 1 roll M PFs 0 V} for
 } if
  stroke grestore} def
%
/languagelevel where
 {pop languagelevel} {1} ifelse
dup 2 lt
	{/InterpretLevel1 true def
	 /InterpretLevel3 false def}
	{/InterpretLevel1 Level1 def
	 2 gt
	    {/InterpretLevel3 Level3 def}
	    {/InterpretLevel3 false def}
	 ifelse }
 ifelse
%
% PostScript level 2 pattern fill definitions
%
/Level2PatternFill {
/Tile8x8 {/PaintType 2 /PatternType 1 /TilingType 1 /BBox [0 0 8 8] /XStep 8 /YStep 8}
	bind def
/KeepColor {currentrgbcolor [/Pattern /DeviceRGB] setcolorspace} bind def
<< Tile8x8
 /PaintProc {0.5 setlinewidth pop 0 0 M 8 8 L 0 8 M 8 0 L stroke} 
>> matrix makepattern
/Pat1 exch def
<< Tile8x8
 /PaintProc {0.5 setlinewidth pop 0 0 M 8 8 L 0 8 M 8 0 L stroke
	0 4 M 4 8 L 8 4 L 4 0 L 0 4 L stroke}
>> matrix makepattern
/Pat2 exch def
<< Tile8x8
 /PaintProc {0.5 setlinewidth pop 0 0 M 0 8 L
	8 8 L 8 0 L 0 0 L fill}
>> matrix makepattern
/Pat3 exch def
<< Tile8x8
 /PaintProc {0.5 setlinewidth pop -4 8 M 8 -4 L
	0 12 M 12 0 L stroke}
>> matrix makepattern
/Pat4 exch def
<< Tile8x8
 /PaintProc {0.5 setlinewidth pop -4 0 M 8 12 L
	0 -4 M 12 8 L stroke}
>> matrix makepattern
/Pat5 exch def
<< Tile8x8
 /PaintProc {0.5 setlinewidth pop -2 8 M 4 -4 L
	0 12 M 8 -4 L 4 12 M 10 0 L stroke}
>> matrix makepattern
/Pat6 exch def
<< Tile8x8
 /PaintProc {0.5 setlinewidth pop -2 0 M 4 12 L
	0 -4 M 8 12 L 4 -4 M 10 8 L stroke}
>> matrix makepattern
/Pat7 exch def
<< Tile8x8
 /PaintProc {0.5 setlinewidth pop 8 -2 M -4 4 L
	12 0 M -4 8 L 12 4 M 0 10 L stroke}
>> matrix makepattern
/Pat8 exch def
<< Tile8x8
 /PaintProc {0.5 setlinewidth pop 0 -2 M 12 4 L
	-4 0 M 12 8 L -4 4 M 8 10 L stroke}
>> matrix makepattern
/Pat9 exch def
/Pattern1 {PatternBgnd KeepColor Pat1 setpattern} bind def
/Pattern2 {PatternBgnd KeepColor Pat2 setpattern} bind def
/Pattern3 {PatternBgnd KeepColor Pat3 setpattern} bind def
/Pattern4 {PatternBgnd KeepColor Landscape {Pat5} {Pat4} ifelse setpattern} bind def
/Pattern5 {PatternBgnd KeepColor Landscape {Pat4} {Pat5} ifelse setpattern} bind def
/Pattern6 {PatternBgnd KeepColor Landscape {Pat9} {Pat6} ifelse setpattern} bind def
/Pattern7 {PatternBgnd KeepColor Landscape {Pat8} {Pat7} ifelse setpattern} bind def
} def
%
%
%End of PostScript Level 2 code
%
/PatternBgnd {
  TransparentPatterns {} {gsave 1 setgray fill grestore} ifelse
} def
%
% Substitute for Level 2 pattern fill codes with
% grayscale if Level 2 support is not selected.
%
/Level1PatternFill {
/Pattern1 {0.250 Density} bind def
/Pattern2 {0.500 Density} bind def
/Pattern3 {0.750 Density} bind def
/Pattern4 {0.125 Density} bind def
/Pattern5 {0.375 Density} bind def
/Pattern6 {0.625 Density} bind def
/Pattern7 {0.875 Density} bind def
} def
%
% Now test for support of Level 2 code
%
Level1 {Level1PatternFill} {Level2PatternFill} ifelse
%
/Symbol-Oblique /Symbol findfont [1 0 .167 1 0 0] makefont
dup length dict begin {1 index /FID eq {pop pop} {def} ifelse} forall
currentdict end definefont pop
%
Level1 SuppressPDFMark or 
{} {
/SDict 10 dict def
systemdict /pdfmark known not {
  userdict /pdfmark systemdict /cleartomark get put
} if
SDict begin [
  /Title (exc2_5_6_3d_lost_checksum_err_retransmitted/protocol5/exc2_5_6_3d_lost_checksum_err_retransmitted.tex)
  /Subject (gnuplot plot)
  /Creator (gnuplot 5.0 patchlevel 1)
  /Author (asiron)
%  /Producer (gnuplot)
%  /Keywords ()
  /CreationDate (Mon Nov  2 07:59:43 2015)
  /DOCINFO pdfmark
end
} ifelse
end
%
% Support for boxed text - Ethan A Merritt May 2005
%
/InitTextBox { userdict /TBy2 3 -1 roll put userdict /TBx2 3 -1 roll put
           userdict /TBy1 3 -1 roll put userdict /TBx1 3 -1 roll put
	   /Boxing true def } def
/ExtendTextBox { Boxing
    { gsave dup false charpath pathbbox
      dup TBy2 gt {userdict /TBy2 3 -1 roll put} {pop} ifelse
      dup TBx2 gt {userdict /TBx2 3 -1 roll put} {pop} ifelse
      dup TBy1 lt {userdict /TBy1 3 -1 roll put} {pop} ifelse
      dup TBx1 lt {userdict /TBx1 3 -1 roll put} {pop} ifelse
      grestore } if } def
/PopTextBox { newpath TBx1 TBxmargin sub TBy1 TBymargin sub M
               TBx1 TBxmargin sub TBy2 TBymargin add L
	       TBx2 TBxmargin add TBy2 TBymargin add L
	       TBx2 TBxmargin add TBy1 TBymargin sub L closepath } def
/DrawTextBox { PopTextBox stroke /Boxing false def} def
/FillTextBox { gsave PopTextBox 1 1 1 setrgbcolor fill grestore /Boxing false def} def
0 0 0 0 InitTextBox
/TBxmargin 20 def
/TBymargin 20 def
/Boxing false def
/textshow { ExtendTextBox Gshow } def
%
%%EndProlog
%%Page: 1 1
gnudict begin
gsave
doclip
50 50 translate
0.050 0.050 scale
0 setgray
newpath
1.000 UL
LTb
LCb setrgbcolor
LTb
1.000 UL
LTb
1046 1384 M
2916 2413 L
6154 1819 M
2916 2413 L
1046 1384 M
0 2057 V
0 -2057 R
50 28 V
2916 2413 M
-50 -27 V
1586 1285 M
49 28 V
3456 2314 M
-50 -27 V
2126 1186 M
49 28 V
3995 2215 M
-50 -27 V
2666 1087 M
49 28 V
4534 2116 M
-49 -27 V
3205 988 M
50 28 V
5074 2017 M
-49 -27 V
3744 889 M
50 28 V
5614 1918 M
-49 -27 V
4284 790 M
50 28 V
6154 1819 M
-50 -27 V
4284 790 M
-55 10 V
1046 1384 M
55 -10 V
4596 962 M
-55 10 V
1358 1556 M
54 -10 V
4907 1133 M
-54 10 V
1669 1727 M
55 -10 V
5219 1305 M
-55 10 V
1981 1899 M
55 -10 V
5531 1476 M
-55 10 V
2293 2070 M
54 -10 V
5842 1648 M
-54 10 V
2604 2242 M
55 -10 V
6154 1819 M
-55 10 V
2916 2413 M
55 -10 V
1046 2070 M
63 0 V
-63 196 R
63 0 V
-63 196 R
63 0 V
-63 195 R
63 0 V
-63 196 R
63 0 V
-63 196 R
63 0 V
-63 196 R
63 0 V
-63 196 R
63 0 V
1.000 UP
1.000 UP
stroke
0.58 0.00 0.83 C 1046 2070 Pls
1108 2242 Pls
1171 2393 Pls
1233 2520 Pls
1295 2616 Pls
1358 2747 Pls
1420 2851 Pls
1482 2922 Pls
1545 3009 Pls
1607 3050 Pls
1669 3167 Pls
1732 3223 Pls
1794 3331 Pls
1856 3368 Pls
1919 3446 Pls
1981 3527 Pls
2043 3581 Pls
2106 3633 Pls
2168 3717 Pls
2230 3747 Pls
2293 3800 Pls
2355 3866 Pls
2417 3913 Pls
2480 3944 Pls
2542 4009 Pls
2604 4058 Pls
2667 4113 Pls
2729 4146 Pls
2791 4213 Pls
2854 4237 Pls
2916 4287 Pls
1154 2192 Pls
1216 2290 Pls
1279 2450 Pls
1341 2547 Pls
1403 2643 Pls
1466 2746 Pls
1528 2852 Pls
1590 2966 Pls
1653 3023 Pls
1715 3097 Pls
1777 3171 Pls
1840 3215 Pls
1902 3302 Pls
1964 3377 Pls
2027 3450 Pls
2089 3527 Pls
2151 3557 Pls
2214 3632 Pls
2276 3705 Pls
2338 3760 Pls
2401 3790 Pls
2463 3844 Pls
2525 3877 Pls
2588 3934 Pls
2650 4018 Pls
2712 4056 Pls
2775 4095 Pls
2837 4145 Pls
2899 4187 Pls
2962 4226 Pls
3024 4268 Pls
1262 2269 Pls
1324 2367 Pls
1387 2431 Pls
1449 2557 Pls
1511 2695 Pls
1574 2788 Pls
1636 2877 Pls
1698 2932 Pls
1761 3039 Pls
1823 3112 Pls
1885 3179 Pls
1948 3237 Pls
2010 3324 Pls
2072 3385 Pls
2135 3445 Pls
2197 3499 Pls
2259 3580 Pls
2322 3626 Pls
2384 3699 Pls
2446 3732 Pls
2509 3784 Pls
2571 3824 Pls
2633 3905 Pls
2696 3947 Pls
2758 3980 Pls
2820 4036 Pls
2883 4097 Pls
2945 4131 Pls
3007 4182 Pls
3070 4215 Pls
3132 4292 Pls
1370 2351 Pls
1432 2444 Pls
1495 2527 Pls
1557 2570 Pls
1619 2687 Pls
1682 2807 Pls
1744 2878 Pls
1806 2999 Pls
1869 3047 Pls
1931 3144 Pls
1993 3174 Pls
2056 3265 Pls
2118 3317 Pls
2180 3401 Pls
2243 3445 Pls
2305 3483 Pls
2367 3557 Pls
2430 3642 Pls
2492 3667 Pls
2554 3726 Pls
2617 3759 Pls
2679 3829 Pls
2741 3869 Pls
2804 3932 Pls
2866 3969 Pls
2928 4044 Pls
2991 4085 Pls
3053 4120 Pls
3115 4161 Pls
3178 4207 Pls
3240 4242 Pls
1478 2419 Pls
1540 2527 Pls
1603 2579 Pls
1665 2647 Pls
1727 2766 Pls
1790 2831 Pls
1852 2909 Pls
1914 2974 Pls
1977 3054 Pls
2039 3116 Pls
2101 3200 Pls
2164 3256 Pls
2226 3301 Pls
2288 3397 Pls
2351 3432 Pls
2413 3511 Pls
2475 3577 Pls
2538 3600 Pls
2600 3655 Pls
2662 3706 Pls
2725 3784 Pls
2787 3839 Pls
2849 3875 Pls
2912 3928 Pls
2974 3954 Pls
3036 4022 Pls
3099 4060 Pls
3161 4093 Pls
3223 4157 Pls
3286 4185 Pls
3348 4229 Pls
1586 2488 Pls
1648 2562 Pls
1711 2623 Pls
1773 2692 Pls
1835 2790 Pls
1898 2774 Pls
1960 2962 Pls
2022 3031 Pls
2085 3079 Pls
2147 3147 Pls
2209 3166 Pls
2272 3265 Pls
2334 3308 Pls
2396 3406 Pls
2459 3415 Pls
2521 3498 Pls
2583 3563 Pls
2646 3612 Pls
2708 3627 Pls
2770 3726 Pls
2833 3806 Pls
2895 3808 Pls
2957 3851 Pls
3020 3913 Pls
3082 3941 Pls
3144 3999 Pls
3207 4054 Pls
3269 4088 Pls
3331 4138 Pls
3394 4181 Pls
3456 4221 Pls
1694 2540 Pls
1756 2619 Pls
1818 2664 Pls
1881 2743 Pls
1943 2764 Pls
2005 2919 Pls
2068 2885 Pls
2130 3027 Pls
2192 3105 Pls
2255 3162 Pls
2317 3240 Pls
2379 3286 Pls
2442 3307 Pls
2504 3381 Pls
2566 3430 Pls
2629 3531 Pls
2691 3559 Pls
2753 3617 Pls
2816 3671 Pls
2878 3724 Pls
2940 3716 Pls
3003 3798 Pls
3065 3853 Pls
3127 3887 Pls
3190 3974 Pls
3252 3992 Pls
3314 4026 Pls
3377 4067 Pls
3439 4115 Pls
3501 4170 Pls
3564 4204 Pls
1802 2561 Pls
1864 2640 Pls
1926 2711 Pls
1989 2785 Pls
2051 2850 Pls
2113 2898 Pls
2176 2925 Pls
2238 3031 Pls
2300 3069 Pls
2363 3171 Pls
2425 3199 Pls
2487 3243 Pls
2550 3337 Pls
2612 3328 Pls
2674 3472 Pls
2737 3494 Pls
2799 3516 Pls
2861 3636 Pls
2924 3633 Pls
2986 3691 Pls
3048 3745 Pls
3111 3776 Pls
3173 3847 Pls
3235 3902 Pls
3298 3935 Pls
3360 3974 Pls
3422 4033 Pls
3485 4053 Pls
3547 4121 Pls
3608 4142 Pls
3671 4195 Pls
1910 2599 Pls
1972 2668 Pls
2034 2717 Pls
2097 2793 Pls
2159 2830 Pls
2221 2905 Pls
2284 2941 Pls
2346 3037 Pls
2408 3106 Pls
2471 3129 Pls
2533 3182 Pls
2595 3289 Pls
2658 3354 Pls
2720 3352 Pls
2782 3435 Pls
2845 3520 Pls
2907 3565 Pls
2969 3565 Pls
3032 3656 Pls
3094 3675 Pls
3156 3734 Pls
3219 3796 Pls
3281 3822 Pls
3343 3893 Pls
3406 3922 Pls
3468 3982 Pls
3530 4034 Pls
3593 4030 Pls
3654 4095 Pls
3716 4134 Pls
3779 4170 Pls
2018 2613 Pls
2080 2691 Pls
2142 2754 Pls
2205 2780 Pls
2267 2881 Pls
2329 2903 Pls
2392 3014 Pls
2454 3016 Pls
2516 3112 Pls
2579 3113 Pls
2641 3238 Pls
2703 3233 Pls
2766 3329 Pls
2828 3400 Pls
2890 3393 Pls
2953 3510 Pls
3015 3516 Pls
3077 3602 Pls
3140 3629 Pls
3202 3654 Pls
3264 3748 Pls
3327 3779 Pls
3389 3811 Pls
3451 3854 Pls
3514 3917 Pls
3576 3960 Pls
3637 3997 Pls
3700 4038 Pls
3762 4071 Pls
3824 4130 Pls
3887 4148 Pls
2126 2664 Pls
2188 2712 Pls
2250 2790 Pls
2313 2846 Pls
2375 2889 Pls
2437 2938 Pls
2500 3015 Pls
2562 3054 Pls
2624 3111 Pls
2687 3194 Pls
2749 3192 Pls
2811 3299 Pls
2874 3353 Pls
2936 3405 Pls
2998 3398 Pls
3061 3517 Pls
3123 3534 Pls
3185 3571 Pls
3248 3648 Pls
3310 3689 Pls
3372 3687 Pls
3435 3781 Pls
3497 3814 Pls
3559 3844 Pls
3621 3881 Pls
3683 3948 Pls
3745 3999 Pls
3808 4026 Pls
3870 4076 Pls
3932 4119 Pls
3995 4135 Pls
2234 2694 Pls
2296 2721 Pls
2358 2775 Pls
2421 2865 Pls
2483 2938 Pls
2545 2945 Pls
2608 2998 Pls
2670 3104 Pls
2732 3115 Pls
2795 3179 Pls
2857 3203 Pls
2919 3233 Pls
2982 3342 Pls
3044 3410 Pls
3106 3390 Pls
3169 3456 Pls
3231 3524 Pls
3293 3588 Pls
3356 3621 Pls
3418 3690 Pls
3480 3720 Pls
3543 3784 Pls
3604 3823 Pls
3666 3843 Pls
3729 3891 Pls
3791 3910 Pls
3853 3980 Pls
3916 3993 Pls
3978 4045 Pls
4040 4083 Pls
4103 4139 Pls
2342 2688 Pls
2404 2752 Pls
2466 2822 Pls
2529 2873 Pls
2591 2918 Pls
2653 2978 Pls
2716 3059 Pls
2778 3078 Pls
2840 3143 Pls
2903 3185 Pls
2965 3214 Pls
3027 3253 Pls
3090 3334 Pls
3152 3371 Pls
3214 3412 Pls
3277 3483 Pls
3339 3498 Pls
3401 3574 Pls
3464 3619 Pls
3526 3623 Pls
3588 3693 Pls
3650 3737 Pls
3712 3814 Pls
3774 3837 Pls
3837 3869 Pls
3899 3918 Pls
3961 3961 Pls
4024 3988 Pls
4086 4035 Pls
4148 4083 Pls
4211 4120 Pls
2450 2714 Pls
2512 2766 Pls
2574 2815 Pls
2637 2865 Pls
2699 2945 Pls
2761 2968 Pls
2824 3041 Pls
2886 3064 Pls
2948 3123 Pls
3011 3179 Pls
3073 3236 Pls
3135 3229 Pls
3198 3347 Pls
3260 3384 Pls
3322 3433 Pls
3385 3470 Pls
3447 3470 Pls
3509 3568 Pls
3572 3610 Pls
3633 3676 Pls
3695 3716 Pls
3758 3738 Pls
3820 3783 Pls
3882 3815 Pls
3945 3890 Pls
4007 3895 Pls
4069 3954 Pls
4132 3971 Pls
4194 4018 Pls
4256 4057 Pls
4319 4094 Pls
2558 2689 Pls
2620 2784 Pls
2682 2843 Pls
2745 2878 Pls
2807 2944 Pls
2869 2996 Pls
2932 3018 Pls
2994 3072 Pls
3056 3138 Pls
3119 3183 Pls
3181 3257 Pls
3243 3238 Pls
3306 3341 Pls
3368 3357 Pls
3430 3417 Pls
3493 3483 Pls
3555 3504 Pls
3616 3556 Pls
3679 3599 Pls
3741 3644 Pls
3803 3666 Pls
3866 3732 Pls
3928 3769 Pls
3990 3817 Pls
4053 3847 Pls
4115 3874 Pls
4177 3926 Pls
4240 3935 Pls
4302 4007 Pls
4364 4050 Pls
4427 4090 Pls
2666 2746 Pls
2728 2800 Pls
2790 2827 Pls
2853 2915 Pls
2915 2931 Pls
2977 2985 Pls
3040 3057 Pls
3102 3090 Pls
3164 3140 Pls
3227 3186 Pls
3289 3225 Pls
3351 3256 Pls
3414 3278 Pls
3476 3326 Pls
3538 3417 Pls
3600 3447 Pls
3662 3475 Pls
3724 3518 Pls
3786 3571 Pls
3849 3582 Pls
3911 3653 Pls
3973 3728 Pls
4036 3734 Pls
4098 3785 Pls
4161 3830 Pls
4223 3867 Pls
4285 3922 Pls
4347 3942 Pls
4410 3999 Pls
4472 4038 Pls
4534 4071 Pls
2773 2740 Pls
2836 2806 Pls
2898 2861 Pls
2960 2910 Pls
3023 2954 Pls
3085 3008 Pls
3147 3058 Pls
3210 3091 Pls
3272 3143 Pls
3334 3158 Pls
3397 3234 Pls
3459 3281 Pls
3521 3322 Pls
3584 3352 Pls
3645 3383 Pls
3707 3463 Pls
3770 3477 Pls
3832 3532 Pls
3894 3575 Pls
3957 3607 Pls
4019 3645 Pls
4081 3702 Pls
4144 3743 Pls
4206 3788 Pls
4268 3842 Pls
4331 3869 Pls
4393 3910 Pls
4455 3929 Pls
4518 3984 Pls
4580 4014 Pls
4642 4062 Pls
2881 2744 Pls
2944 2796 Pls
3006 2875 Pls
3068 2914 Pls
3131 2944 Pls
3193 2985 Pls
3255 3048 Pls
3318 3059 Pls
3380 3129 Pls
3442 3173 Pls
3505 3199 Pls
3567 3294 Pls
3628 3287 Pls
3691 3318 Pls
3753 3392 Pls
3815 3458 Pls
3878 3462 Pls
3940 3536 Pls
4002 3584 Pls
4065 3589 Pls
4127 3605 Pls
4189 3674 Pls
4252 3701 Pls
4314 3739 Pls
4376 3807 Pls
4439 3853 Pls
4501 3881 Pls
4563 3930 Pls
4626 3941 Pls
4688 4004 Pls
4750 4049 Pls
2989 2755 Pls
3052 2816 Pls
3114 2858 Pls
3176 2891 Pls
3239 2953 Pls
3301 3004 Pls
3363 3042 Pls
3426 3089 Pls
3488 3141 Pls
3550 3176 Pls
3612 3202 Pls
3674 3256 Pls
3736 3318 Pls
3799 3356 Pls
3861 3359 Pls
3923 3418 Pls
3986 3452 Pls
4048 3508 Pls
4110 3537 Pls
4173 3576 Pls
4235 3630 Pls
4297 3648 Pls
4360 3722 Pls
4422 3747 Pls
4484 3795 Pls
4547 3839 Pls
4609 3860 Pls
4671 3901 Pls
4734 3950 Pls
4796 3979 Pls
4858 4019 Pls
3097 2757 Pls
3160 2807 Pls
3222 2848 Pls
3284 2903 Pls
3347 2943 Pls
3409 3007 Pls
3471 3036 Pls
3534 3062 Pls
3596 3117 Pls
3657 3165 Pls
3720 3192 Pls
3782 3220 Pls
3844 3294 Pls
3907 3306 Pls
3969 3351 Pls
4031 3379 Pls
4094 3416 Pls
4156 3490 Pls
4218 3538 Pls
4281 3557 Pls
4343 3594 Pls
4405 3633 Pls
4468 3712 Pls
4530 3709 Pls
4592 3763 Pls
4655 3805 Pls
4717 3840 Pls
4779 3891 Pls
4842 3932 Pls
4904 3962 Pls
4966 4007 Pls
3205 2780 Pls
3268 2783 Pls
3330 2847 Pls
3392 2890 Pls
3455 2938 Pls
3517 2989 Pls
3579 3028 Pls
3641 3068 Pls
3703 3109 Pls
3765 3164 Pls
3828 3174 Pls
3890 3279 Pls
3952 3299 Pls
4015 3321 Pls
4077 3366 Pls
4139 3392 Pls
4202 3451 Pls
4264 3465 Pls
4326 3487 Pls
4389 3548 Pls
4451 3576 Pls
4513 3625 Pls
4576 3657 Pls
4638 3701 Pls
4700 3742 Pls
4763 3782 Pls
4825 3834 Pls
4887 3882 Pls
4950 3913 Pls
5012 3937 Pls
5074 3980 Pls
3313 2764 Pls
3376 2804 Pls
3438 2859 Pls
3500 2887 Pls
3563 2944 Pls
3624 2970 Pls
3686 3020 Pls
3749 3042 Pls
3811 3120 Pls
3873 3139 Pls
3936 3191 Pls
3998 3216 Pls
4060 3276 Pls
4123 3313 Pls
4185 3352 Pls
4247 3394 Pls
4310 3423 Pls
4372 3461 Pls
4434 3512 Pls
4497 3564 Pls
4559 3570 Pls
4621 3605 Pls
4684 3668 Pls
4746 3688 Pls
4808 3743 Pls
4871 3773 Pls
4933 3821 Pls
4995 3855 Pls
5058 3895 Pls
5120 3918 Pls
5182 3980 Pls
3421 2741 Pls
3484 2811 Pls
3546 2848 Pls
3607 2889 Pls
3670 2930 Pls
3732 2961 Pls
3794 3022 Pls
3857 3042 Pls
3919 3107 Pls
3981 3116 Pls
4044 3189 Pls
4106 3218 Pls
4168 3252 Pls
4231 3274 Pls
4293 3348 Pls
4355 3373 Pls
4418 3415 Pls
4480 3468 Pls
4542 3476 Pls
4605 3554 Pls
4667 3555 Pls
4729 3614 Pls
4792 3608 Pls
4854 3702 Pls
4916 3716 Pls
4979 3765 Pls
5041 3809 Pls
5103 3841 Pls
5166 3856 Pls
5228 3913 Pls
5290 3957 Pls
3529 2755 Pls
3592 2804 Pls
3653 2862 Pls
3715 2876 Pls
3778 2902 Pls
3840 2970 Pls
3902 3003 Pls
3965 3046 Pls
4027 3086 Pls
4089 3143 Pls
4152 3165 Pls
4214 3219 Pls
4276 3259 Pls
4339 3286 Pls
4401 3308 Pls
4463 3359 Pls
4526 3383 Pls
4588 3446 Pls
4650 3478 Pls
4713 3529 Pls
4775 3537 Pls
4837 3597 Pls
4900 3634 Pls
4962 3681 Pls
5024 3719 Pls
5087 3745 Pls
5149 3787 Pls
5211 3804 Pls
5274 3862 Pls
5336 3892 Pls
5398 3936 Pls
3636 2760 Pls
3699 2798 Pls
3761 2830 Pls
3823 2872 Pls
3886 2925 Pls
3948 2956 Pls
4010 2997 Pls
4073 3034 Pls
4135 3080 Pls
4197 3114 Pls
4260 3166 Pls
4322 3191 Pls
4384 3239 Pls
4447 3280 Pls
4509 3320 Pls
4571 3350 Pls
4634 3394 Pls
4696 3439 Pls
4758 3449 Pls
4821 3477 Pls
4883 3543 Pls
4945 3564 Pls
5008 3613 Pls
5070 3652 Pls
5132 3701 Pls
5195 3746 Pls
5257 3765 Pls
5319 3816 Pls
5382 3842 Pls
5444 3875 Pls
5506 3907 Pls
3744 2750 Pls
3806 2798 Pls
3869 2827 Pls
3931 2872 Pls
3993 2895 Pls
4056 2945 Pls
4118 2994 Pls
4180 3042 Pls
4243 3065 Pls
4305 3120 Pls
4367 3161 Pls
4430 3172 Pls
4492 3224 Pls
4554 3252 Pls
4617 3293 Pls
4679 3329 Pls
4741 3385 Pls
4804 3423 Pls
4866 3433 Pls
4928 3510 Pls
4991 3536 Pls
5053 3566 Pls
5115 3595 Pls
5178 3629 Pls
5240 3670 Pls
5302 3725 Pls
5365 3765 Pls
5427 3785 Pls
5489 3820 Pls
5552 3871 Pls
5614 3906 Pls
3852 2734 Pls
3914 2789 Pls
3977 2818 Pls
4039 2866 Pls
4101 2903 Pls
4164 2938 Pls
4226 2993 Pls
4288 3026 Pls
4351 3055 Pls
4413 3098 Pls
4475 3121 Pls
4538 3170 Pls
4600 3210 Pls
4662 3257 Pls
4725 3288 Pls
4787 3313 Pls
4849 3335 Pls
4912 3410 Pls
4974 3428 Pls
5036 3479 Pls
5099 3530 Pls
5161 3546 Pls
5223 3587 Pls
5286 3623 Pls
5348 3650 Pls
5410 3683 Pls
5473 3733 Pls
5535 3771 Pls
5597 3812 Pls
5660 3844 Pls
5722 3888 Pls
3960 2732 Pls
4022 2768 Pls
4085 2812 Pls
4147 2853 Pls
4209 2890 Pls
4272 2921 Pls
4334 2967 Pls
4396 3009 Pls
4459 3052 Pls
4521 3083 Pls
4583 3105 Pls
4646 3160 Pls
4708 3190 Pls
4770 3238 Pls
4833 3271 Pls
4895 3321 Pls
4957 3358 Pls
5020 3396 Pls
5082 3430 Pls
5144 3462 Pls
5207 3504 Pls
5269 3525 Pls
5331 3580 Pls
5394 3596 Pls
5456 3643 Pls
5518 3685 Pls
5581 3728 Pls
5643 3747 Pls
5705 3797 Pls
5768 3814 Pls
5830 3864 Pls
4068 2729 Pls
4130 2760 Pls
4193 2795 Pls
4255 2840 Pls
4317 2878 Pls
4380 2924 Pls
4442 2974 Pls
4504 2994 Pls
4567 3037 Pls
4629 3083 Pls
4691 3106 Pls
4754 3132 Pls
4816 3197 Pls
4878 3221 Pls
4941 3257 Pls
5003 3293 Pls
5065 3339 Pls
5128 3372 Pls
5190 3400 Pls
5252 3435 Pls
5315 3493 Pls
5377 3519 Pls
5439 3563 Pls
5502 3601 Pls
5564 3630 Pls
5626 3648 Pls
5689 3707 Pls
5751 3736 Pls
5813 3763 Pls
5876 3818 Pls
5938 3851 Pls
4176 2717 Pls
4238 2758 Pls
4301 2786 Pls
4363 2828 Pls
4425 2863 Pls
4488 2909 Pls
4550 2942 Pls
4612 2976 Pls
4675 3014 Pls
4737 3055 Pls
4799 3088 Pls
4862 3147 Pls
4924 3167 Pls
4986 3212 Pls
5049 3238 Pls
5111 3271 Pls
5173 3307 Pls
5236 3354 Pls
5298 3377 Pls
5360 3429 Pls
5423 3461 Pls
5485 3491 Pls
5547 3543 Pls
5610 3592 Pls
5672 3621 Pls
5734 3643 Pls
5797 3687 Pls
5859 3728 Pls
5921 3739 Pls
5984 3771 Pls
6046 3826 Pls
4284 2714 Pls
4346 2728 Pls
4409 2784 Pls
4471 2800 Pls
4533 2852 Pls
4596 2889 Pls
4658 2935 Pls
4720 2969 Pls
4783 3023 Pls
4845 3042 Pls
4907 3079 Pls
4970 3109 Pls
5032 3161 Pls
5094 3182 Pls
5157 3231 Pls
5219 3274 Pls
5281 3286 Pls
5344 3352 Pls
5406 3375 Pls
5468 3416 Pls
5531 3455 Pls
5593 3466 Pls
5655 3511 Pls
5718 3552 Pls
5780 3596 Pls
5842 3611 Pls
5905 3671 Pls
5967 3695 Pls
6029 3741 Pls
6092 3766 Pls
6154 3803 Pls
1.000 UL
LTb
LCb setrgbcolor
LTb
6154 1819 M
4284 790 L
1046 1384 M
4284 790 L
1.000 UP
stroke
grestore
end
showpage
%%Trailer
