%!PS-Adobe-2.0 EPSF-2.0
%%Title: exc2_5_6_timeout_checksum_err_payloads_reord/protocol6_protocol6_reord_agg/exc2_5_6_timeout_checksum_err_payloads_reord.tex
%%Creator: gnuplot 5.0 patchlevel 1
%%CreationDate: Mon Nov  2 12:07:54 2015
%%DocumentFonts: 
%%BoundingBox: 50 50 410 302
%%EndComments
%%BeginProlog
/gnudict 256 dict def
gnudict begin
%
% The following true/false flags may be edited by hand if desired.
% The unit line width and grayscale image gamma correction may also be changed.
%
/Color false def
/Blacktext true def
/Solid false def
/Dashlength 1 def
/Landscape false def
/Level1 false def
/Level3 false def
/Rounded false def
/ClipToBoundingBox false def
/SuppressPDFMark false def
/TransparentPatterns false def
/gnulinewidth 5.000 def
/userlinewidth gnulinewidth def
/Gamma 1.0 def
/BackgroundColor {-1.000 -1.000 -1.000} def
%
/vshift -73 def
/dl1 {
  10.0 Dashlength userlinewidth gnulinewidth div mul mul mul
  Rounded { currentlinewidth 0.75 mul sub dup 0 le { pop 0.01 } if } if
} def
/dl2 {
  10.0 Dashlength userlinewidth gnulinewidth div mul mul mul
  Rounded { currentlinewidth 0.75 mul add } if
} def
/hpt_ 31.5 def
/vpt_ 31.5 def
/hpt hpt_ def
/vpt vpt_ def
/doclip {
  ClipToBoundingBox {
    newpath 50 50 moveto 410 50 lineto 410 302 lineto 50 302 lineto closepath
    clip
  } if
} def
%
% Gnuplot Prolog Version 5.0 (Dec 2014)
%
%/SuppressPDFMark true def
%
/M {moveto} bind def
/L {lineto} bind def
/R {rmoveto} bind def
/V {rlineto} bind def
/N {newpath moveto} bind def
/Z {closepath} bind def
/C {setrgbcolor} bind def
/f {rlineto fill} bind def
/g {setgray} bind def
/Gshow {show} def   % May be redefined later in the file to support UTF-8
/vpt2 vpt 2 mul def
/hpt2 hpt 2 mul def
/Lshow {currentpoint stroke M 0 vshift R 
	Blacktext {gsave 0 setgray textshow grestore} {textshow} ifelse} def
/Rshow {currentpoint stroke M dup stringwidth pop neg vshift R
	Blacktext {gsave 0 setgray textshow grestore} {textshow} ifelse} def
/Cshow {currentpoint stroke M dup stringwidth pop -2 div vshift R 
	Blacktext {gsave 0 setgray textshow grestore} {textshow} ifelse} def
/UP {dup vpt_ mul /vpt exch def hpt_ mul /hpt exch def
  /hpt2 hpt 2 mul def /vpt2 vpt 2 mul def} def
/DL {Color {setrgbcolor Solid {pop []} if 0 setdash}
 {pop pop pop 0 setgray Solid {pop []} if 0 setdash} ifelse} def
/BL {stroke userlinewidth 2 mul setlinewidth
	Rounded {1 setlinejoin 1 setlinecap} if} def
/AL {stroke userlinewidth 2 div setlinewidth
	Rounded {1 setlinejoin 1 setlinecap} if} def
/UL {dup gnulinewidth mul /userlinewidth exch def
	dup 1 lt {pop 1} if 10 mul /udl exch def} def
/PL {stroke userlinewidth setlinewidth
	Rounded {1 setlinejoin 1 setlinecap} if} def
3.8 setmiterlimit
% Classic Line colors (version 5.0)
/LCw {1 1 1} def
/LCb {0 0 0} def
/LCa {0 0 0} def
/LC0 {1 0 0} def
/LC1 {0 1 0} def
/LC2 {0 0 1} def
/LC3 {1 0 1} def
/LC4 {0 1 1} def
/LC5 {1 1 0} def
/LC6 {0 0 0} def
/LC7 {1 0.3 0} def
/LC8 {0.5 0.5 0.5} def
% Default dash patterns (version 5.0)
/LTw {PL [] 1 setgray} def
/LTb {BL [] LCb DL} def
/LTa {AL [1 udl mul 2 udl mul] 0 setdash LCa setrgbcolor} def
/LT0 {PL [] LC0 DL} def
/LT1 {PL [2 dl1 3 dl2] LC1 DL} def
/LT2 {PL [1 dl1 1.5 dl2] LC2 DL} def
/LT3 {PL [6 dl1 2 dl2 1 dl1 2 dl2] LC3 DL} def
/LT4 {PL [1 dl1 2 dl2 6 dl1 2 dl2 1 dl1 2 dl2] LC4 DL} def
/LT5 {PL [4 dl1 2 dl2] LC5 DL} def
/LT6 {PL [1.5 dl1 1.5 dl2 1.5 dl1 1.5 dl2 1.5 dl1 6 dl2] LC6 DL} def
/LT7 {PL [3 dl1 3 dl2 1 dl1 3 dl2] LC7 DL} def
/LT8 {PL [2 dl1 2 dl2 2 dl1 6 dl2] LC8 DL} def
/SL {[] 0 setdash} def
/Pnt {stroke [] 0 setdash gsave 1 setlinecap M 0 0 V stroke grestore} def
/Dia {stroke [] 0 setdash 2 copy vpt add M
  hpt neg vpt neg V hpt vpt neg V
  hpt vpt V hpt neg vpt V closepath stroke
  Pnt} def
/Pls {stroke [] 0 setdash vpt sub M 0 vpt2 V
  currentpoint stroke M
  hpt neg vpt neg R hpt2 0 V stroke
 } def
/Box {stroke [] 0 setdash 2 copy exch hpt sub exch vpt add M
  0 vpt2 neg V hpt2 0 V 0 vpt2 V
  hpt2 neg 0 V closepath stroke
  Pnt} def
/Crs {stroke [] 0 setdash exch hpt sub exch vpt add M
  hpt2 vpt2 neg V currentpoint stroke M
  hpt2 neg 0 R hpt2 vpt2 V stroke} def
/TriU {stroke [] 0 setdash 2 copy vpt 1.12 mul add M
  hpt neg vpt -1.62 mul V
  hpt 2 mul 0 V
  hpt neg vpt 1.62 mul V closepath stroke
  Pnt} def
/Star {2 copy Pls Crs} def
/BoxF {stroke [] 0 setdash exch hpt sub exch vpt add M
  0 vpt2 neg V hpt2 0 V 0 vpt2 V
  hpt2 neg 0 V closepath fill} def
/TriUF {stroke [] 0 setdash vpt 1.12 mul add M
  hpt neg vpt -1.62 mul V
  hpt 2 mul 0 V
  hpt neg vpt 1.62 mul V closepath fill} def
/TriD {stroke [] 0 setdash 2 copy vpt 1.12 mul sub M
  hpt neg vpt 1.62 mul V
  hpt 2 mul 0 V
  hpt neg vpt -1.62 mul V closepath stroke
  Pnt} def
/TriDF {stroke [] 0 setdash vpt 1.12 mul sub M
  hpt neg vpt 1.62 mul V
  hpt 2 mul 0 V
  hpt neg vpt -1.62 mul V closepath fill} def
/DiaF {stroke [] 0 setdash vpt add M
  hpt neg vpt neg V hpt vpt neg V
  hpt vpt V hpt neg vpt V closepath fill} def
/Pent {stroke [] 0 setdash 2 copy gsave
  translate 0 hpt M 4 {72 rotate 0 hpt L} repeat
  closepath stroke grestore Pnt} def
/PentF {stroke [] 0 setdash gsave
  translate 0 hpt M 4 {72 rotate 0 hpt L} repeat
  closepath fill grestore} def
/Circle {stroke [] 0 setdash 2 copy
  hpt 0 360 arc stroke Pnt} def
/CircleF {stroke [] 0 setdash hpt 0 360 arc fill} def
/C0 {BL [] 0 setdash 2 copy moveto vpt 90 450 arc} bind def
/C1 {BL [] 0 setdash 2 copy moveto
	2 copy vpt 0 90 arc closepath fill
	vpt 0 360 arc closepath} bind def
/C2 {BL [] 0 setdash 2 copy moveto
	2 copy vpt 90 180 arc closepath fill
	vpt 0 360 arc closepath} bind def
/C3 {BL [] 0 setdash 2 copy moveto
	2 copy vpt 0 180 arc closepath fill
	vpt 0 360 arc closepath} bind def
/C4 {BL [] 0 setdash 2 copy moveto
	2 copy vpt 180 270 arc closepath fill
	vpt 0 360 arc closepath} bind def
/C5 {BL [] 0 setdash 2 copy moveto
	2 copy vpt 0 90 arc
	2 copy moveto
	2 copy vpt 180 270 arc closepath fill
	vpt 0 360 arc} bind def
/C6 {BL [] 0 setdash 2 copy moveto
	2 copy vpt 90 270 arc closepath fill
	vpt 0 360 arc closepath} bind def
/C7 {BL [] 0 setdash 2 copy moveto
	2 copy vpt 0 270 arc closepath fill
	vpt 0 360 arc closepath} bind def
/C8 {BL [] 0 setdash 2 copy moveto
	2 copy vpt 270 360 arc closepath fill
	vpt 0 360 arc closepath} bind def
/C9 {BL [] 0 setdash 2 copy moveto
	2 copy vpt 270 450 arc closepath fill
	vpt 0 360 arc closepath} bind def
/C10 {BL [] 0 setdash 2 copy 2 copy moveto vpt 270 360 arc closepath fill
	2 copy moveto
	2 copy vpt 90 180 arc closepath fill
	vpt 0 360 arc closepath} bind def
/C11 {BL [] 0 setdash 2 copy moveto
	2 copy vpt 0 180 arc closepath fill
	2 copy moveto
	2 copy vpt 270 360 arc closepath fill
	vpt 0 360 arc closepath} bind def
/C12 {BL [] 0 setdash 2 copy moveto
	2 copy vpt 180 360 arc closepath fill
	vpt 0 360 arc closepath} bind def
/C13 {BL [] 0 setdash 2 copy moveto
	2 copy vpt 0 90 arc closepath fill
	2 copy moveto
	2 copy vpt 180 360 arc closepath fill
	vpt 0 360 arc closepath} bind def
/C14 {BL [] 0 setdash 2 copy moveto
	2 copy vpt 90 360 arc closepath fill
	vpt 0 360 arc} bind def
/C15 {BL [] 0 setdash 2 copy vpt 0 360 arc closepath fill
	vpt 0 360 arc closepath} bind def
/Rec {newpath 4 2 roll moveto 1 index 0 rlineto 0 exch rlineto
	neg 0 rlineto closepath} bind def
/Square {dup Rec} bind def
/Bsquare {vpt sub exch vpt sub exch vpt2 Square} bind def
/S0 {BL [] 0 setdash 2 copy moveto 0 vpt rlineto BL Bsquare} bind def
/S1 {BL [] 0 setdash 2 copy vpt Square fill Bsquare} bind def
/S2 {BL [] 0 setdash 2 copy exch vpt sub exch vpt Square fill Bsquare} bind def
/S3 {BL [] 0 setdash 2 copy exch vpt sub exch vpt2 vpt Rec fill Bsquare} bind def
/S4 {BL [] 0 setdash 2 copy exch vpt sub exch vpt sub vpt Square fill Bsquare} bind def
/S5 {BL [] 0 setdash 2 copy 2 copy vpt Square fill
	exch vpt sub exch vpt sub vpt Square fill Bsquare} bind def
/S6 {BL [] 0 setdash 2 copy exch vpt sub exch vpt sub vpt vpt2 Rec fill Bsquare} bind def
/S7 {BL [] 0 setdash 2 copy exch vpt sub exch vpt sub vpt vpt2 Rec fill
	2 copy vpt Square fill Bsquare} bind def
/S8 {BL [] 0 setdash 2 copy vpt sub vpt Square fill Bsquare} bind def
/S9 {BL [] 0 setdash 2 copy vpt sub vpt vpt2 Rec fill Bsquare} bind def
/S10 {BL [] 0 setdash 2 copy vpt sub vpt Square fill 2 copy exch vpt sub exch vpt Square fill
	Bsquare} bind def
/S11 {BL [] 0 setdash 2 copy vpt sub vpt Square fill 2 copy exch vpt sub exch vpt2 vpt Rec fill
	Bsquare} bind def
/S12 {BL [] 0 setdash 2 copy exch vpt sub exch vpt sub vpt2 vpt Rec fill Bsquare} bind def
/S13 {BL [] 0 setdash 2 copy exch vpt sub exch vpt sub vpt2 vpt Rec fill
	2 copy vpt Square fill Bsquare} bind def
/S14 {BL [] 0 setdash 2 copy exch vpt sub exch vpt sub vpt2 vpt Rec fill
	2 copy exch vpt sub exch vpt Square fill Bsquare} bind def
/S15 {BL [] 0 setdash 2 copy Bsquare fill Bsquare} bind def
/D0 {gsave translate 45 rotate 0 0 S0 stroke grestore} bind def
/D1 {gsave translate 45 rotate 0 0 S1 stroke grestore} bind def
/D2 {gsave translate 45 rotate 0 0 S2 stroke grestore} bind def
/D3 {gsave translate 45 rotate 0 0 S3 stroke grestore} bind def
/D4 {gsave translate 45 rotate 0 0 S4 stroke grestore} bind def
/D5 {gsave translate 45 rotate 0 0 S5 stroke grestore} bind def
/D6 {gsave translate 45 rotate 0 0 S6 stroke grestore} bind def
/D7 {gsave translate 45 rotate 0 0 S7 stroke grestore} bind def
/D8 {gsave translate 45 rotate 0 0 S8 stroke grestore} bind def
/D9 {gsave translate 45 rotate 0 0 S9 stroke grestore} bind def
/D10 {gsave translate 45 rotate 0 0 S10 stroke grestore} bind def
/D11 {gsave translate 45 rotate 0 0 S11 stroke grestore} bind def
/D12 {gsave translate 45 rotate 0 0 S12 stroke grestore} bind def
/D13 {gsave translate 45 rotate 0 0 S13 stroke grestore} bind def
/D14 {gsave translate 45 rotate 0 0 S14 stroke grestore} bind def
/D15 {gsave translate 45 rotate 0 0 S15 stroke grestore} bind def
/DiaE {stroke [] 0 setdash vpt add M
  hpt neg vpt neg V hpt vpt neg V
  hpt vpt V hpt neg vpt V closepath stroke} def
/BoxE {stroke [] 0 setdash exch hpt sub exch vpt add M
  0 vpt2 neg V hpt2 0 V 0 vpt2 V
  hpt2 neg 0 V closepath stroke} def
/TriUE {stroke [] 0 setdash vpt 1.12 mul add M
  hpt neg vpt -1.62 mul V
  hpt 2 mul 0 V
  hpt neg vpt 1.62 mul V closepath stroke} def
/TriDE {stroke [] 0 setdash vpt 1.12 mul sub M
  hpt neg vpt 1.62 mul V
  hpt 2 mul 0 V
  hpt neg vpt -1.62 mul V closepath stroke} def
/PentE {stroke [] 0 setdash gsave
  translate 0 hpt M 4 {72 rotate 0 hpt L} repeat
  closepath stroke grestore} def
/CircE {stroke [] 0 setdash 
  hpt 0 360 arc stroke} def
/Opaque {gsave closepath 1 setgray fill grestore 0 setgray closepath} def
/DiaW {stroke [] 0 setdash vpt add M
  hpt neg vpt neg V hpt vpt neg V
  hpt vpt V hpt neg vpt V Opaque stroke} def
/BoxW {stroke [] 0 setdash exch hpt sub exch vpt add M
  0 vpt2 neg V hpt2 0 V 0 vpt2 V
  hpt2 neg 0 V Opaque stroke} def
/TriUW {stroke [] 0 setdash vpt 1.12 mul add M
  hpt neg vpt -1.62 mul V
  hpt 2 mul 0 V
  hpt neg vpt 1.62 mul V Opaque stroke} def
/TriDW {stroke [] 0 setdash vpt 1.12 mul sub M
  hpt neg vpt 1.62 mul V
  hpt 2 mul 0 V
  hpt neg vpt -1.62 mul V Opaque stroke} def
/PentW {stroke [] 0 setdash gsave
  translate 0 hpt M 4 {72 rotate 0 hpt L} repeat
  Opaque stroke grestore} def
/CircW {stroke [] 0 setdash 
  hpt 0 360 arc Opaque stroke} def
/BoxFill {gsave Rec 1 setgray fill grestore} def
/Density {
  /Fillden exch def
  currentrgbcolor
  /ColB exch def /ColG exch def /ColR exch def
  /ColR ColR Fillden mul Fillden sub 1 add def
  /ColG ColG Fillden mul Fillden sub 1 add def
  /ColB ColB Fillden mul Fillden sub 1 add def
  ColR ColG ColB setrgbcolor} def
/BoxColFill {gsave Rec PolyFill} def
/PolyFill {gsave Density fill grestore grestore} def
/h {rlineto rlineto rlineto gsave closepath fill grestore} bind def
%
% PostScript Level 1 Pattern Fill routine for rectangles
% Usage: x y w h s a XX PatternFill
%	x,y = lower left corner of box to be filled
%	w,h = width and height of box
%	  a = angle in degrees between lines and x-axis
%	 XX = 0/1 for no/yes cross-hatch
%
/PatternFill {gsave /PFa [ 9 2 roll ] def
  PFa 0 get PFa 2 get 2 div add PFa 1 get PFa 3 get 2 div add translate
  PFa 2 get -2 div PFa 3 get -2 div PFa 2 get PFa 3 get Rec
  TransparentPatterns {} {gsave 1 setgray fill grestore} ifelse
  clip
  currentlinewidth 0.5 mul setlinewidth
  /PFs PFa 2 get dup mul PFa 3 get dup mul add sqrt def
  0 0 M PFa 5 get rotate PFs -2 div dup translate
  0 1 PFs PFa 4 get div 1 add floor cvi
	{PFa 4 get mul 0 M 0 PFs V} for
  0 PFa 6 get ne {
	0 1 PFs PFa 4 get div 1 add floor cvi
	{PFa 4 get mul 0 2 1 roll M PFs 0 V} for
 } if
  stroke grestore} def
%
/languagelevel where
 {pop languagelevel} {1} ifelse
dup 2 lt
	{/InterpretLevel1 true def
	 /InterpretLevel3 false def}
	{/InterpretLevel1 Level1 def
	 2 gt
	    {/InterpretLevel3 Level3 def}
	    {/InterpretLevel3 false def}
	 ifelse }
 ifelse
%
% PostScript level 2 pattern fill definitions
%
/Level2PatternFill {
/Tile8x8 {/PaintType 2 /PatternType 1 /TilingType 1 /BBox [0 0 8 8] /XStep 8 /YStep 8}
	bind def
/KeepColor {currentrgbcolor [/Pattern /DeviceRGB] setcolorspace} bind def
<< Tile8x8
 /PaintProc {0.5 setlinewidth pop 0 0 M 8 8 L 0 8 M 8 0 L stroke} 
>> matrix makepattern
/Pat1 exch def
<< Tile8x8
 /PaintProc {0.5 setlinewidth pop 0 0 M 8 8 L 0 8 M 8 0 L stroke
	0 4 M 4 8 L 8 4 L 4 0 L 0 4 L stroke}
>> matrix makepattern
/Pat2 exch def
<< Tile8x8
 /PaintProc {0.5 setlinewidth pop 0 0 M 0 8 L
	8 8 L 8 0 L 0 0 L fill}
>> matrix makepattern
/Pat3 exch def
<< Tile8x8
 /PaintProc {0.5 setlinewidth pop -4 8 M 8 -4 L
	0 12 M 12 0 L stroke}
>> matrix makepattern
/Pat4 exch def
<< Tile8x8
 /PaintProc {0.5 setlinewidth pop -4 0 M 8 12 L
	0 -4 M 12 8 L stroke}
>> matrix makepattern
/Pat5 exch def
<< Tile8x8
 /PaintProc {0.5 setlinewidth pop -2 8 M 4 -4 L
	0 12 M 8 -4 L 4 12 M 10 0 L stroke}
>> matrix makepattern
/Pat6 exch def
<< Tile8x8
 /PaintProc {0.5 setlinewidth pop -2 0 M 4 12 L
	0 -4 M 8 12 L 4 -4 M 10 8 L stroke}
>> matrix makepattern
/Pat7 exch def
<< Tile8x8
 /PaintProc {0.5 setlinewidth pop 8 -2 M -4 4 L
	12 0 M -4 8 L 12 4 M 0 10 L stroke}
>> matrix makepattern
/Pat8 exch def
<< Tile8x8
 /PaintProc {0.5 setlinewidth pop 0 -2 M 12 4 L
	-4 0 M 12 8 L -4 4 M 8 10 L stroke}
>> matrix makepattern
/Pat9 exch def
/Pattern1 {PatternBgnd KeepColor Pat1 setpattern} bind def
/Pattern2 {PatternBgnd KeepColor Pat2 setpattern} bind def
/Pattern3 {PatternBgnd KeepColor Pat3 setpattern} bind def
/Pattern4 {PatternBgnd KeepColor Landscape {Pat5} {Pat4} ifelse setpattern} bind def
/Pattern5 {PatternBgnd KeepColor Landscape {Pat4} {Pat5} ifelse setpattern} bind def
/Pattern6 {PatternBgnd KeepColor Landscape {Pat9} {Pat6} ifelse setpattern} bind def
/Pattern7 {PatternBgnd KeepColor Landscape {Pat8} {Pat7} ifelse setpattern} bind def
} def
%
%
%End of PostScript Level 2 code
%
/PatternBgnd {
  TransparentPatterns {} {gsave 1 setgray fill grestore} ifelse
} def
%
% Substitute for Level 2 pattern fill codes with
% grayscale if Level 2 support is not selected.
%
/Level1PatternFill {
/Pattern1 {0.250 Density} bind def
/Pattern2 {0.500 Density} bind def
/Pattern3 {0.750 Density} bind def
/Pattern4 {0.125 Density} bind def
/Pattern5 {0.375 Density} bind def
/Pattern6 {0.625 Density} bind def
/Pattern7 {0.875 Density} bind def
} def
%
% Now test for support of Level 2 code
%
Level1 {Level1PatternFill} {Level2PatternFill} ifelse
%
/Symbol-Oblique /Symbol findfont [1 0 .167 1 0 0] makefont
dup length dict begin {1 index /FID eq {pop pop} {def} ifelse} forall
currentdict end definefont pop
%
Level1 SuppressPDFMark or 
{} {
/SDict 10 dict def
systemdict /pdfmark known not {
  userdict /pdfmark systemdict /cleartomark get put
} if
SDict begin [
  /Title (exc2_5_6_timeout_checksum_err_payloads_reord/protocol6_protocol6_reord_agg/exc2_5_6_timeout_checksum_err_payloads_reord.tex)
  /Subject (gnuplot plot)
  /Creator (gnuplot 5.0 patchlevel 1)
  /Author (asiron)
%  /Producer (gnuplot)
%  /Keywords ()
  /CreationDate (Mon Nov  2 12:07:54 2015)
  /DOCINFO pdfmark
end
} ifelse
end
%
% Support for boxed text - Ethan A Merritt May 2005
%
/InitTextBox { userdict /TBy2 3 -1 roll put userdict /TBx2 3 -1 roll put
           userdict /TBy1 3 -1 roll put userdict /TBx1 3 -1 roll put
	   /Boxing true def } def
/ExtendTextBox { Boxing
    { gsave dup false charpath pathbbox
      dup TBy2 gt {userdict /TBy2 3 -1 roll put} {pop} ifelse
      dup TBx2 gt {userdict /TBx2 3 -1 roll put} {pop} ifelse
      dup TBy1 lt {userdict /TBy1 3 -1 roll put} {pop} ifelse
      dup TBx1 lt {userdict /TBx1 3 -1 roll put} {pop} ifelse
      grestore } if } def
/PopTextBox { newpath TBx1 TBxmargin sub TBy1 TBymargin sub M
               TBx1 TBxmargin sub TBy2 TBymargin add L
	       TBx2 TBxmargin add TBy2 TBymargin add L
	       TBx2 TBxmargin add TBy1 TBymargin sub L closepath } def
/DrawTextBox { PopTextBox stroke /Boxing false def} def
/FillTextBox { gsave PopTextBox 1 1 1 setrgbcolor fill grestore /Boxing false def} def
0 0 0 0 InitTextBox
/TBxmargin 20 def
/TBymargin 20 def
/Boxing false def
/textshow { ExtendTextBox Gshow } def
%
%%EndProlog
%%Page: 1 1
gnudict begin
gsave
doclip
50 50 translate
0.050 0.050 scale
0 setgray
newpath
1.000 UL
LTb
LCb setrgbcolor
LTb
1078 704 M
63 0 V
5662 0 R
-63 0 V
1078 1286 M
63 0 V
5662 0 R
-63 0 V
1078 1867 M
63 0 V
5662 0 R
-63 0 V
1078 2449 M
63 0 V
5662 0 R
-63 0 V
1078 3030 M
63 0 V
5662 0 R
-63 0 V
1078 3612 M
63 0 V
5662 0 R
-63 0 V
1078 4193 M
63 0 V
5662 0 R
-63 0 V
1078 4775 M
63 0 V
5662 0 R
-63 0 V
1078 704 M
0 63 V
0 4008 R
0 -63 V
1652 704 M
0 31 V
0 4040 R
0 -31 V
1989 704 M
0 31 V
0 4040 R
0 -31 V
2227 704 M
0 31 V
0 4040 R
0 -31 V
2412 704 M
0 31 V
0 4040 R
0 -31 V
2563 704 M
0 31 V
0 4040 R
0 -31 V
2691 704 M
0 31 V
0 4040 R
0 -31 V
2801 704 M
0 31 V
0 4040 R
0 -31 V
2899 704 M
0 31 V
0 4040 R
0 -31 V
2986 704 M
0 63 V
0 4008 R
0 -63 V
3561 704 M
0 31 V
0 4040 R
0 -31 V
3897 704 M
0 31 V
0 4040 R
0 -31 V
4135 704 M
0 31 V
0 4040 R
0 -31 V
4320 704 M
0 31 V
0 4040 R
0 -31 V
4471 704 M
0 31 V
0 4040 R
0 -31 V
4599 704 M
0 31 V
0 4040 R
0 -31 V
4710 704 M
0 31 V
0 4040 R
0 -31 V
4807 704 M
0 31 V
0 4040 R
0 -31 V
4895 704 M
0 63 V
stroke 4895 767 M
0 4008 R
0 -63 V
5469 704 M
0 31 V
0 4040 R
0 -31 V
5805 704 M
0 31 V
0 4040 R
0 -31 V
6044 704 M
0 31 V
0 4040 R
0 -31 V
6229 704 M
0 31 V
0 4040 R
0 -31 V
6380 704 M
0 31 V
0 4040 R
0 -31 V
6507 704 M
0 31 V
0 4040 R
0 -31 V
6618 704 M
0 31 V
0 4040 R
0 -31 V
6716 704 M
0 31 V
0 4040 R
0 -31 V
6803 704 M
0 63 V
0 4008 R
0 -63 V
stroke
1078 4775 N
0 -4071 V
5725 0 V
0 4071 V
-5725 0 V
Z stroke
1.000 UP
1.000 UL
LTb
1.000 UL
LTb
0.58 0.00 0.83 C LCb setrgbcolor
1.000 UL
LTb
0.58 0.00 0.83 C 6368 4594 M
255 0 V
1078 814 M
574 0 V
337 42 V
238 -3 V
185 907 V
151 609 V
128 506 V
110 281 V
98 317 V
87 138 V
79 224 V
72 35 V
67 105 V
61 127 V
57 97 V
54 58 V
50 74 V
47 61 V
45 97 V
43 117 V
40 -14 V
39 43 V
37 43 V
35 5 V
34 -10 V
32 -10 V
32 38 V
30 7 V
29 -5 V
28 -26 V
27 12 V
26 5 V
26 6 V
25 -1 V
24 29 V
23 -26 V
23 6 V
22 -23 V
21 -10 V
21 12 V
21 4 V
20 20 V
19 -1 V
19 -17 V
19 9 V
18 -3 V
18 -7 V
17 -15 V
17 20 V
17 -17 V
151 11 V
128 -31 V
111 29 V
97 4 V
88 5 V
574 7 V
336 -17 V
239 14 V
185 -12 V
151 10 V
127 -2 V
111 5 V
98 5 V
87 -12 V
stroke
LTb
LCb setrgbcolor
LTb
0.00 0.62 0.45 C LCb setrgbcolor
1.000 UL
LTb
0.00 0.62 0.45 C 6368 4358 M
255 0 V
1078 704 M
574 0 V
337 0 V
238 0 V
185 5 V
151 4 V
128 1 V
110 4 V
98 5 V
87 4 V
79 7 V
72 9 V
67 17 V
61 42 V
57 116 V
54 284 V
50 288 V
47 219 V
45 247 V
43 260 V
40 145 V
39 126 V
37 202 V
35 121 V
34 167 V
32 90 V
32 274 V
30 317 V
29 188 V
28 60 V
27 259 V
26 76 V
26 26 V
25 32 V
24 87 V
23 -4 V
23 60 V
22 -57 V
21 86 V
21 0 V
21 -41 V
20 186 V
19 15 V
19 -7 V
19 35 V
18 -3 V
18 6 V
17 -25 V
17 -6 V
17 30 V
151 -35 V
128 -19 V
111 26 V
97 0 V
88 6 V
574 -85 V
336 33 V
239 -109 V
185 91 V
151 -213 V
127 166 V
111 -424 V
98 12 V
87 372 V
stroke
LTb
LCb setrgbcolor
LTb
0.34 0.71 0.91 C LCb setrgbcolor
1.000 UL
LTb
0.34 0.71 0.91 C 6368 4122 M
255 0 V
1078 821 M
574 -4 V
337 39 V
238 -1 V
185 880 V
151 617 V
128 465 V
110 208 V
98 352 V
87 129 V
79 185 V
72 88 V
67 106 V
61 51 V
57 128 V
54 63 V
50 118 V
47 21 V
45 5 V
43 130 V
40 -10 V
39 27 V
37 -22 V
35 37 V
34 9 V
32 16 V
32 -10 V
30 23 V
29 28 V
28 -12 V
27 -41 V
26 23 V
26 14 V
25 19 V
24 12 V
23 -30 V
23 -53 V
22 14 V
21 22 V
21 22 V
21 -6 V
20 -57 V
19 -21 V
19 33 V
19 -20 V
18 -15 V
18 66 V
17 -16 V
17 -13 V
17 -35 V
151 -87 V
128 -51 V
111 -3 V
97 -52 V
88 -119 V
574 -119 V
336 -282 V
239 -290 V
185 -497 V
151 -80 V
127 72 V
111 -262 V
98 -265 V
87 83 V
stroke
LTb
LCb setrgbcolor
LTb
0.90 0.62 0.00 C LCb setrgbcolor
1.000 UL
LTb
0.90 0.62 0.00 C 6368 3886 M
255 0 V
1078 704 M
574 0 V
337 0 V
238 0 V
185 5 V
151 4 V
128 1 V
110 4 V
98 4 V
87 5 V
79 5 V
72 10 V
67 18 V
61 41 V
57 123 V
54 271 V
50 324 V
47 293 V
45 216 V
43 271 V
40 314 V
39 136 V
37 199 V
35 146 V
34 147 V
32 102 V
32 194 V
30 83 V
29 108 V
28 -73 V
27 109 V
26 14 V
26 -7 V
25 22 V
24 -15 V
23 54 V
23 -58 V
22 -34 V
21 36 V
21 -114 V
21 35 V
20 84 V
19 -73 V
19 -26 V
19 85 V
18 -48 V
18 -71 V
17 -72 V
17 145 V
17 -17 V
151 -266 V
128 -49 V
111 -275 V
97 -160 V
88 29 V
574 -648 V
336 -511 V
239 -148 V
185 -278 V
151 -76 V
127 -77 V
111 -98 V
98 -55 V
87 8 V
stroke
LTb
LCb setrgbcolor
LTb
0.94 0.89 0.26 C LCb setrgbcolor
1.000 UL
LTb
0.94 0.89 0.26 C 6368 3650 M
255 0 V
1078 828 M
574 1 V
337 47 V
238 5 V
185 922 V
151 482 V
128 332 V
110 164 V
98 313 V
87 138 V
79 144 V
72 56 V
67 76 V
61 82 V
57 73 V
54 51 V
50 11 V
47 -6 V
45 116 V
43 -41 V
40 22 V
39 31 V
37 21 V
35 14 V
34 -111 V
32 65 V
32 -18 V
30 -35 V
29 -12 V
28 71 V
27 -135 V
26 21 V
26 61 V
25 -96 V
24 -35 V
23 78 V
23 -14 V
22 -137 V
21 1 V
21 89 V
21 -50 V
20 -40 V
19 -53 V
19 5 V
19 -48 V
18 -41 V
18 -13 V
17 22 V
17 -6 V
17 17 V
151 -236 V
128 -86 V
111 -141 V
97 -81 V
88 -102 V
574 -663 V
336 -438 V
239 -331 V
185 -156 V
151 -84 V
127 77 V
111 -191 V
98 -81 V
87 99 V
stroke
LTb
LCb setrgbcolor
LTb
0.00 0.45 0.70 C LCb setrgbcolor
1.000 UL
LTb
0.00 0.45 0.70 C 6368 3414 M
255 0 V
1078 704 M
574 0 V
337 0 V
238 0 V
185 5 V
151 4 V
128 1 V
110 4 V
98 4 V
87 4 V
79 7 V
72 8 V
67 17 V
61 40 V
57 130 V
54 295 V
50 353 V
47 353 V
45 288 V
43 171 V
40 265 V
39 134 V
37 183 V
35 79 V
34 126 V
32 122 V
32 -102 V
30 96 V
29 -4 V
28 58 V
27 -104 V
26 71 V
26 69 V
25 -109 V
24 -34 V
23 40 V
23 -64 V
22 47 V
21 -18 V
21 -43 V
21 -25 V
20 -24 V
19 -2 V
19 -97 V
19 38 V
18 2 V
18 -8 V
17 -106 V
17 -51 V
17 120 V
151 -327 V
128 -99 V
111 -188 V
97 -49 V
88 -154 V
574 -659 V
336 -196 V
239 -231 V
185 -73 V
151 1 V
127 -34 V
111 -51 V
98 -32 V
87 -79 V
stroke
LTb
LCb setrgbcolor
LTb
0.90 0.12 0.06 C LCb setrgbcolor
1.000 UL
LTb
0.90 0.12 0.06 C 6368 3178 M
255 0 V
1078 842 M
574 6 V
337 47 V
238 -11 V
185 873 V
151 279 V
128 243 V
110 147 V
98 180 V
87 57 V
79 149 V
72 64 V
67 7 V
61 18 V
57 72 V
54 -26 V
50 -6 V
47 60 V
45 11 V
43 -122 V
40 27 V
39 -3 V
37 -22 V
35 -19 V
34 -49 V
32 -14 V
32 31 V
30 -73 V
29 17 V
28 17 V
27 -106 V
26 17 V
26 -35 V
25 7 V
24 -89 V
23 9 V
23 22 V
22 -77 V
21 -18 V
21 -26 V
21 -11 V
20 -22 V
19 -68 V
19 -25 V
19 -18 V
18 34 V
18 -93 V
17 -21 V
17 3 V
17 26 V
151 -193 V
128 -147 V
111 -99 V
97 -107 V
88 -90 V
574 -406 V
336 -213 V
239 -50 V
6229 901 L
151 -26 V
127 -51 V
111 14 V
98 -46 V
87 -7 V
stroke
LTb
LCb setrgbcolor
LTb
0.00 0.00 0.00 C LCb setrgbcolor
1.000 UL
LTb
0.00 0.00 0.00 C 6368 2942 M
255 0 V
1078 704 M
574 0 V
337 0 V
238 0 V
185 5 V
151 1 V
128 4 V
110 4 V
98 3 V
87 4 V
79 7 V
72 9 V
67 17 V
61 43 V
57 115 V
54 334 V
50 377 V
47 345 V
45 256 V
43 158 V
40 141 V
39 110 V
37 54 V
35 18 V
34 7 V
32 25 V
32 3 V
30 -31 V
29 -79 V
28 -3 V
27 8 V
26 -67 V
26 22 V
25 -10 V
24 12 V
23 -96 V
23 -25 V
22 22 V
21 -52 V
21 1 V
21 -6 V
20 -26 V
19 -121 V
19 90 V
19 -86 V
18 -4 V
18 -79 V
17 -9 V
17 -19 V
17 69 V
151 -227 V
128 -136 V
111 -113 V
97 -92 V
88 -76 V
574 -418 V
336 -162 V
239 -62 V
185 -44 V
151 -62 V
127 -36 V
111 4 V
98 -17 V
87 15 V
stroke
2.000 UL
LTb
LCb setrgbcolor
LTb
1.000 UL
LTb
1078 4775 N
0 -4071 V
5725 0 V
0 4071 V
-5725 0 V
Z stroke
1.000 UP
1.000 UL
LTb
stroke
grestore
end
showpage
%%Trailer
