%!PS-Adobe-2.0 EPSF-2.0
%%Title: exc2_5_6_3d_lost_checksum_err_payloads/protocol6/exc2_5_6_3d_lost_checksum_err_payloads.tex
%%Creator: gnuplot 5.0 patchlevel 1
%%CreationDate: Mon Nov  2 07:32:47 2015
%%DocumentFonts: 
%%BoundingBox: 50 50 410 302
%%EndComments
%%BeginProlog
/gnudict 256 dict def
gnudict begin
%
% The following true/false flags may be edited by hand if desired.
% The unit line width and grayscale image gamma correction may also be changed.
%
/Color false def
/Blacktext true def
/Solid false def
/Dashlength 1 def
/Landscape false def
/Level1 false def
/Level3 false def
/Rounded false def
/ClipToBoundingBox false def
/SuppressPDFMark false def
/TransparentPatterns false def
/gnulinewidth 5.000 def
/userlinewidth gnulinewidth def
/Gamma 1.0 def
/BackgroundColor {-1.000 -1.000 -1.000} def
%
/vshift -73 def
/dl1 {
  10.0 Dashlength userlinewidth gnulinewidth div mul mul mul
  Rounded { currentlinewidth 0.75 mul sub dup 0 le { pop 0.01 } if } if
} def
/dl2 {
  10.0 Dashlength userlinewidth gnulinewidth div mul mul mul
  Rounded { currentlinewidth 0.75 mul add } if
} def
/hpt_ 31.5 def
/vpt_ 31.5 def
/hpt hpt_ def
/vpt vpt_ def
/doclip {
  ClipToBoundingBox {
    newpath 50 50 moveto 410 50 lineto 410 302 lineto 50 302 lineto closepath
    clip
  } if
} def
%
% Gnuplot Prolog Version 5.0 (Dec 2014)
%
%/SuppressPDFMark true def
%
/M {moveto} bind def
/L {lineto} bind def
/R {rmoveto} bind def
/V {rlineto} bind def
/N {newpath moveto} bind def
/Z {closepath} bind def
/C {setrgbcolor} bind def
/f {rlineto fill} bind def
/g {setgray} bind def
/Gshow {show} def   % May be redefined later in the file to support UTF-8
/vpt2 vpt 2 mul def
/hpt2 hpt 2 mul def
/Lshow {currentpoint stroke M 0 vshift R 
	Blacktext {gsave 0 setgray textshow grestore} {textshow} ifelse} def
/Rshow {currentpoint stroke M dup stringwidth pop neg vshift R
	Blacktext {gsave 0 setgray textshow grestore} {textshow} ifelse} def
/Cshow {currentpoint stroke M dup stringwidth pop -2 div vshift R 
	Blacktext {gsave 0 setgray textshow grestore} {textshow} ifelse} def
/UP {dup vpt_ mul /vpt exch def hpt_ mul /hpt exch def
  /hpt2 hpt 2 mul def /vpt2 vpt 2 mul def} def
/DL {Color {setrgbcolor Solid {pop []} if 0 setdash}
 {pop pop pop 0 setgray Solid {pop []} if 0 setdash} ifelse} def
/BL {stroke userlinewidth 2 mul setlinewidth
	Rounded {1 setlinejoin 1 setlinecap} if} def
/AL {stroke userlinewidth 2 div setlinewidth
	Rounded {1 setlinejoin 1 setlinecap} if} def
/UL {dup gnulinewidth mul /userlinewidth exch def
	dup 1 lt {pop 1} if 10 mul /udl exch def} def
/PL {stroke userlinewidth setlinewidth
	Rounded {1 setlinejoin 1 setlinecap} if} def
3.8 setmiterlimit
% Classic Line colors (version 5.0)
/LCw {1 1 1} def
/LCb {0 0 0} def
/LCa {0 0 0} def
/LC0 {1 0 0} def
/LC1 {0 1 0} def
/LC2 {0 0 1} def
/LC3 {1 0 1} def
/LC4 {0 1 1} def
/LC5 {1 1 0} def
/LC6 {0 0 0} def
/LC7 {1 0.3 0} def
/LC8 {0.5 0.5 0.5} def
% Default dash patterns (version 5.0)
/LTw {PL [] 1 setgray} def
/LTb {BL [] LCb DL} def
/LTa {AL [1 udl mul 2 udl mul] 0 setdash LCa setrgbcolor} def
/LT0 {PL [] LC0 DL} def
/LT1 {PL [2 dl1 3 dl2] LC1 DL} def
/LT2 {PL [1 dl1 1.5 dl2] LC2 DL} def
/LT3 {PL [6 dl1 2 dl2 1 dl1 2 dl2] LC3 DL} def
/LT4 {PL [1 dl1 2 dl2 6 dl1 2 dl2 1 dl1 2 dl2] LC4 DL} def
/LT5 {PL [4 dl1 2 dl2] LC5 DL} def
/LT6 {PL [1.5 dl1 1.5 dl2 1.5 dl1 1.5 dl2 1.5 dl1 6 dl2] LC6 DL} def
/LT7 {PL [3 dl1 3 dl2 1 dl1 3 dl2] LC7 DL} def
/LT8 {PL [2 dl1 2 dl2 2 dl1 6 dl2] LC8 DL} def
/SL {[] 0 setdash} def
/Pnt {stroke [] 0 setdash gsave 1 setlinecap M 0 0 V stroke grestore} def
/Dia {stroke [] 0 setdash 2 copy vpt add M
  hpt neg vpt neg V hpt vpt neg V
  hpt vpt V hpt neg vpt V closepath stroke
  Pnt} def
/Pls {stroke [] 0 setdash vpt sub M 0 vpt2 V
  currentpoint stroke M
  hpt neg vpt neg R hpt2 0 V stroke
 } def
/Box {stroke [] 0 setdash 2 copy exch hpt sub exch vpt add M
  0 vpt2 neg V hpt2 0 V 0 vpt2 V
  hpt2 neg 0 V closepath stroke
  Pnt} def
/Crs {stroke [] 0 setdash exch hpt sub exch vpt add M
  hpt2 vpt2 neg V currentpoint stroke M
  hpt2 neg 0 R hpt2 vpt2 V stroke} def
/TriU {stroke [] 0 setdash 2 copy vpt 1.12 mul add M
  hpt neg vpt -1.62 mul V
  hpt 2 mul 0 V
  hpt neg vpt 1.62 mul V closepath stroke
  Pnt} def
/Star {2 copy Pls Crs} def
/BoxF {stroke [] 0 setdash exch hpt sub exch vpt add M
  0 vpt2 neg V hpt2 0 V 0 vpt2 V
  hpt2 neg 0 V closepath fill} def
/TriUF {stroke [] 0 setdash vpt 1.12 mul add M
  hpt neg vpt -1.62 mul V
  hpt 2 mul 0 V
  hpt neg vpt 1.62 mul V closepath fill} def
/TriD {stroke [] 0 setdash 2 copy vpt 1.12 mul sub M
  hpt neg vpt 1.62 mul V
  hpt 2 mul 0 V
  hpt neg vpt -1.62 mul V closepath stroke
  Pnt} def
/TriDF {stroke [] 0 setdash vpt 1.12 mul sub M
  hpt neg vpt 1.62 mul V
  hpt 2 mul 0 V
  hpt neg vpt -1.62 mul V closepath fill} def
/DiaF {stroke [] 0 setdash vpt add M
  hpt neg vpt neg V hpt vpt neg V
  hpt vpt V hpt neg vpt V closepath fill} def
/Pent {stroke [] 0 setdash 2 copy gsave
  translate 0 hpt M 4 {72 rotate 0 hpt L} repeat
  closepath stroke grestore Pnt} def
/PentF {stroke [] 0 setdash gsave
  translate 0 hpt M 4 {72 rotate 0 hpt L} repeat
  closepath fill grestore} def
/Circle {stroke [] 0 setdash 2 copy
  hpt 0 360 arc stroke Pnt} def
/CircleF {stroke [] 0 setdash hpt 0 360 arc fill} def
/C0 {BL [] 0 setdash 2 copy moveto vpt 90 450 arc} bind def
/C1 {BL [] 0 setdash 2 copy moveto
	2 copy vpt 0 90 arc closepath fill
	vpt 0 360 arc closepath} bind def
/C2 {BL [] 0 setdash 2 copy moveto
	2 copy vpt 90 180 arc closepath fill
	vpt 0 360 arc closepath} bind def
/C3 {BL [] 0 setdash 2 copy moveto
	2 copy vpt 0 180 arc closepath fill
	vpt 0 360 arc closepath} bind def
/C4 {BL [] 0 setdash 2 copy moveto
	2 copy vpt 180 270 arc closepath fill
	vpt 0 360 arc closepath} bind def
/C5 {BL [] 0 setdash 2 copy moveto
	2 copy vpt 0 90 arc
	2 copy moveto
	2 copy vpt 180 270 arc closepath fill
	vpt 0 360 arc} bind def
/C6 {BL [] 0 setdash 2 copy moveto
	2 copy vpt 90 270 arc closepath fill
	vpt 0 360 arc closepath} bind def
/C7 {BL [] 0 setdash 2 copy moveto
	2 copy vpt 0 270 arc closepath fill
	vpt 0 360 arc closepath} bind def
/C8 {BL [] 0 setdash 2 copy moveto
	2 copy vpt 270 360 arc closepath fill
	vpt 0 360 arc closepath} bind def
/C9 {BL [] 0 setdash 2 copy moveto
	2 copy vpt 270 450 arc closepath fill
	vpt 0 360 arc closepath} bind def
/C10 {BL [] 0 setdash 2 copy 2 copy moveto vpt 270 360 arc closepath fill
	2 copy moveto
	2 copy vpt 90 180 arc closepath fill
	vpt 0 360 arc closepath} bind def
/C11 {BL [] 0 setdash 2 copy moveto
	2 copy vpt 0 180 arc closepath fill
	2 copy moveto
	2 copy vpt 270 360 arc closepath fill
	vpt 0 360 arc closepath} bind def
/C12 {BL [] 0 setdash 2 copy moveto
	2 copy vpt 180 360 arc closepath fill
	vpt 0 360 arc closepath} bind def
/C13 {BL [] 0 setdash 2 copy moveto
	2 copy vpt 0 90 arc closepath fill
	2 copy moveto
	2 copy vpt 180 360 arc closepath fill
	vpt 0 360 arc closepath} bind def
/C14 {BL [] 0 setdash 2 copy moveto
	2 copy vpt 90 360 arc closepath fill
	vpt 0 360 arc} bind def
/C15 {BL [] 0 setdash 2 copy vpt 0 360 arc closepath fill
	vpt 0 360 arc closepath} bind def
/Rec {newpath 4 2 roll moveto 1 index 0 rlineto 0 exch rlineto
	neg 0 rlineto closepath} bind def
/Square {dup Rec} bind def
/Bsquare {vpt sub exch vpt sub exch vpt2 Square} bind def
/S0 {BL [] 0 setdash 2 copy moveto 0 vpt rlineto BL Bsquare} bind def
/S1 {BL [] 0 setdash 2 copy vpt Square fill Bsquare} bind def
/S2 {BL [] 0 setdash 2 copy exch vpt sub exch vpt Square fill Bsquare} bind def
/S3 {BL [] 0 setdash 2 copy exch vpt sub exch vpt2 vpt Rec fill Bsquare} bind def
/S4 {BL [] 0 setdash 2 copy exch vpt sub exch vpt sub vpt Square fill Bsquare} bind def
/S5 {BL [] 0 setdash 2 copy 2 copy vpt Square fill
	exch vpt sub exch vpt sub vpt Square fill Bsquare} bind def
/S6 {BL [] 0 setdash 2 copy exch vpt sub exch vpt sub vpt vpt2 Rec fill Bsquare} bind def
/S7 {BL [] 0 setdash 2 copy exch vpt sub exch vpt sub vpt vpt2 Rec fill
	2 copy vpt Square fill Bsquare} bind def
/S8 {BL [] 0 setdash 2 copy vpt sub vpt Square fill Bsquare} bind def
/S9 {BL [] 0 setdash 2 copy vpt sub vpt vpt2 Rec fill Bsquare} bind def
/S10 {BL [] 0 setdash 2 copy vpt sub vpt Square fill 2 copy exch vpt sub exch vpt Square fill
	Bsquare} bind def
/S11 {BL [] 0 setdash 2 copy vpt sub vpt Square fill 2 copy exch vpt sub exch vpt2 vpt Rec fill
	Bsquare} bind def
/S12 {BL [] 0 setdash 2 copy exch vpt sub exch vpt sub vpt2 vpt Rec fill Bsquare} bind def
/S13 {BL [] 0 setdash 2 copy exch vpt sub exch vpt sub vpt2 vpt Rec fill
	2 copy vpt Square fill Bsquare} bind def
/S14 {BL [] 0 setdash 2 copy exch vpt sub exch vpt sub vpt2 vpt Rec fill
	2 copy exch vpt sub exch vpt Square fill Bsquare} bind def
/S15 {BL [] 0 setdash 2 copy Bsquare fill Bsquare} bind def
/D0 {gsave translate 45 rotate 0 0 S0 stroke grestore} bind def
/D1 {gsave translate 45 rotate 0 0 S1 stroke grestore} bind def
/D2 {gsave translate 45 rotate 0 0 S2 stroke grestore} bind def
/D3 {gsave translate 45 rotate 0 0 S3 stroke grestore} bind def
/D4 {gsave translate 45 rotate 0 0 S4 stroke grestore} bind def
/D5 {gsave translate 45 rotate 0 0 S5 stroke grestore} bind def
/D6 {gsave translate 45 rotate 0 0 S6 stroke grestore} bind def
/D7 {gsave translate 45 rotate 0 0 S7 stroke grestore} bind def
/D8 {gsave translate 45 rotate 0 0 S8 stroke grestore} bind def
/D9 {gsave translate 45 rotate 0 0 S9 stroke grestore} bind def
/D10 {gsave translate 45 rotate 0 0 S10 stroke grestore} bind def
/D11 {gsave translate 45 rotate 0 0 S11 stroke grestore} bind def
/D12 {gsave translate 45 rotate 0 0 S12 stroke grestore} bind def
/D13 {gsave translate 45 rotate 0 0 S13 stroke grestore} bind def
/D14 {gsave translate 45 rotate 0 0 S14 stroke grestore} bind def
/D15 {gsave translate 45 rotate 0 0 S15 stroke grestore} bind def
/DiaE {stroke [] 0 setdash vpt add M
  hpt neg vpt neg V hpt vpt neg V
  hpt vpt V hpt neg vpt V closepath stroke} def
/BoxE {stroke [] 0 setdash exch hpt sub exch vpt add M
  0 vpt2 neg V hpt2 0 V 0 vpt2 V
  hpt2 neg 0 V closepath stroke} def
/TriUE {stroke [] 0 setdash vpt 1.12 mul add M
  hpt neg vpt -1.62 mul V
  hpt 2 mul 0 V
  hpt neg vpt 1.62 mul V closepath stroke} def
/TriDE {stroke [] 0 setdash vpt 1.12 mul sub M
  hpt neg vpt 1.62 mul V
  hpt 2 mul 0 V
  hpt neg vpt -1.62 mul V closepath stroke} def
/PentE {stroke [] 0 setdash gsave
  translate 0 hpt M 4 {72 rotate 0 hpt L} repeat
  closepath stroke grestore} def
/CircE {stroke [] 0 setdash 
  hpt 0 360 arc stroke} def
/Opaque {gsave closepath 1 setgray fill grestore 0 setgray closepath} def
/DiaW {stroke [] 0 setdash vpt add M
  hpt neg vpt neg V hpt vpt neg V
  hpt vpt V hpt neg vpt V Opaque stroke} def
/BoxW {stroke [] 0 setdash exch hpt sub exch vpt add M
  0 vpt2 neg V hpt2 0 V 0 vpt2 V
  hpt2 neg 0 V Opaque stroke} def
/TriUW {stroke [] 0 setdash vpt 1.12 mul add M
  hpt neg vpt -1.62 mul V
  hpt 2 mul 0 V
  hpt neg vpt 1.62 mul V Opaque stroke} def
/TriDW {stroke [] 0 setdash vpt 1.12 mul sub M
  hpt neg vpt 1.62 mul V
  hpt 2 mul 0 V
  hpt neg vpt -1.62 mul V Opaque stroke} def
/PentW {stroke [] 0 setdash gsave
  translate 0 hpt M 4 {72 rotate 0 hpt L} repeat
  Opaque stroke grestore} def
/CircW {stroke [] 0 setdash 
  hpt 0 360 arc Opaque stroke} def
/BoxFill {gsave Rec 1 setgray fill grestore} def
/Density {
  /Fillden exch def
  currentrgbcolor
  /ColB exch def /ColG exch def /ColR exch def
  /ColR ColR Fillden mul Fillden sub 1 add def
  /ColG ColG Fillden mul Fillden sub 1 add def
  /ColB ColB Fillden mul Fillden sub 1 add def
  ColR ColG ColB setrgbcolor} def
/BoxColFill {gsave Rec PolyFill} def
/PolyFill {gsave Density fill grestore grestore} def
/h {rlineto rlineto rlineto gsave closepath fill grestore} bind def
%
% PostScript Level 1 Pattern Fill routine for rectangles
% Usage: x y w h s a XX PatternFill
%	x,y = lower left corner of box to be filled
%	w,h = width and height of box
%	  a = angle in degrees between lines and x-axis
%	 XX = 0/1 for no/yes cross-hatch
%
/PatternFill {gsave /PFa [ 9 2 roll ] def
  PFa 0 get PFa 2 get 2 div add PFa 1 get PFa 3 get 2 div add translate
  PFa 2 get -2 div PFa 3 get -2 div PFa 2 get PFa 3 get Rec
  TransparentPatterns {} {gsave 1 setgray fill grestore} ifelse
  clip
  currentlinewidth 0.5 mul setlinewidth
  /PFs PFa 2 get dup mul PFa 3 get dup mul add sqrt def
  0 0 M PFa 5 get rotate PFs -2 div dup translate
  0 1 PFs PFa 4 get div 1 add floor cvi
	{PFa 4 get mul 0 M 0 PFs V} for
  0 PFa 6 get ne {
	0 1 PFs PFa 4 get div 1 add floor cvi
	{PFa 4 get mul 0 2 1 roll M PFs 0 V} for
 } if
  stroke grestore} def
%
/languagelevel where
 {pop languagelevel} {1} ifelse
dup 2 lt
	{/InterpretLevel1 true def
	 /InterpretLevel3 false def}
	{/InterpretLevel1 Level1 def
	 2 gt
	    {/InterpretLevel3 Level3 def}
	    {/InterpretLevel3 false def}
	 ifelse }
 ifelse
%
% PostScript level 2 pattern fill definitions
%
/Level2PatternFill {
/Tile8x8 {/PaintType 2 /PatternType 1 /TilingType 1 /BBox [0 0 8 8] /XStep 8 /YStep 8}
	bind def
/KeepColor {currentrgbcolor [/Pattern /DeviceRGB] setcolorspace} bind def
<< Tile8x8
 /PaintProc {0.5 setlinewidth pop 0 0 M 8 8 L 0 8 M 8 0 L stroke} 
>> matrix makepattern
/Pat1 exch def
<< Tile8x8
 /PaintProc {0.5 setlinewidth pop 0 0 M 8 8 L 0 8 M 8 0 L stroke
	0 4 M 4 8 L 8 4 L 4 0 L 0 4 L stroke}
>> matrix makepattern
/Pat2 exch def
<< Tile8x8
 /PaintProc {0.5 setlinewidth pop 0 0 M 0 8 L
	8 8 L 8 0 L 0 0 L fill}
>> matrix makepattern
/Pat3 exch def
<< Tile8x8
 /PaintProc {0.5 setlinewidth pop -4 8 M 8 -4 L
	0 12 M 12 0 L stroke}
>> matrix makepattern
/Pat4 exch def
<< Tile8x8
 /PaintProc {0.5 setlinewidth pop -4 0 M 8 12 L
	0 -4 M 12 8 L stroke}
>> matrix makepattern
/Pat5 exch def
<< Tile8x8
 /PaintProc {0.5 setlinewidth pop -2 8 M 4 -4 L
	0 12 M 8 -4 L 4 12 M 10 0 L stroke}
>> matrix makepattern
/Pat6 exch def
<< Tile8x8
 /PaintProc {0.5 setlinewidth pop -2 0 M 4 12 L
	0 -4 M 8 12 L 4 -4 M 10 8 L stroke}
>> matrix makepattern
/Pat7 exch def
<< Tile8x8
 /PaintProc {0.5 setlinewidth pop 8 -2 M -4 4 L
	12 0 M -4 8 L 12 4 M 0 10 L stroke}
>> matrix makepattern
/Pat8 exch def
<< Tile8x8
 /PaintProc {0.5 setlinewidth pop 0 -2 M 12 4 L
	-4 0 M 12 8 L -4 4 M 8 10 L stroke}
>> matrix makepattern
/Pat9 exch def
/Pattern1 {PatternBgnd KeepColor Pat1 setpattern} bind def
/Pattern2 {PatternBgnd KeepColor Pat2 setpattern} bind def
/Pattern3 {PatternBgnd KeepColor Pat3 setpattern} bind def
/Pattern4 {PatternBgnd KeepColor Landscape {Pat5} {Pat4} ifelse setpattern} bind def
/Pattern5 {PatternBgnd KeepColor Landscape {Pat4} {Pat5} ifelse setpattern} bind def
/Pattern6 {PatternBgnd KeepColor Landscape {Pat9} {Pat6} ifelse setpattern} bind def
/Pattern7 {PatternBgnd KeepColor Landscape {Pat8} {Pat7} ifelse setpattern} bind def
} def
%
%
%End of PostScript Level 2 code
%
/PatternBgnd {
  TransparentPatterns {} {gsave 1 setgray fill grestore} ifelse
} def
%
% Substitute for Level 2 pattern fill codes with
% grayscale if Level 2 support is not selected.
%
/Level1PatternFill {
/Pattern1 {0.250 Density} bind def
/Pattern2 {0.500 Density} bind def
/Pattern3 {0.750 Density} bind def
/Pattern4 {0.125 Density} bind def
/Pattern5 {0.375 Density} bind def
/Pattern6 {0.625 Density} bind def
/Pattern7 {0.875 Density} bind def
} def
%
% Now test for support of Level 2 code
%
Level1 {Level1PatternFill} {Level2PatternFill} ifelse
%
/Symbol-Oblique /Symbol findfont [1 0 .167 1 0 0] makefont
dup length dict begin {1 index /FID eq {pop pop} {def} ifelse} forall
currentdict end definefont pop
%
Level1 SuppressPDFMark or 
{} {
/SDict 10 dict def
systemdict /pdfmark known not {
  userdict /pdfmark systemdict /cleartomark get put
} if
SDict begin [
  /Title (exc2_5_6_3d_lost_checksum_err_payloads/protocol6/exc2_5_6_3d_lost_checksum_err_payloads.tex)
  /Subject (gnuplot plot)
  /Creator (gnuplot 5.0 patchlevel 1)
  /Author (asiron)
%  /Producer (gnuplot)
%  /Keywords ()
  /CreationDate (Mon Nov  2 07:32:47 2015)
  /DOCINFO pdfmark
end
} ifelse
end
%
% Support for boxed text - Ethan A Merritt May 2005
%
/InitTextBox { userdict /TBy2 3 -1 roll put userdict /TBx2 3 -1 roll put
           userdict /TBy1 3 -1 roll put userdict /TBx1 3 -1 roll put
	   /Boxing true def } def
/ExtendTextBox { Boxing
    { gsave dup false charpath pathbbox
      dup TBy2 gt {userdict /TBy2 3 -1 roll put} {pop} ifelse
      dup TBx2 gt {userdict /TBx2 3 -1 roll put} {pop} ifelse
      dup TBy1 lt {userdict /TBy1 3 -1 roll put} {pop} ifelse
      dup TBx1 lt {userdict /TBx1 3 -1 roll put} {pop} ifelse
      grestore } if } def
/PopTextBox { newpath TBx1 TBxmargin sub TBy1 TBymargin sub M
               TBx1 TBxmargin sub TBy2 TBymargin add L
	       TBx2 TBxmargin add TBy2 TBymargin add L
	       TBx2 TBxmargin add TBy1 TBymargin sub L closepath } def
/DrawTextBox { PopTextBox stroke /Boxing false def} def
/FillTextBox { gsave PopTextBox 1 1 1 setrgbcolor fill grestore /Boxing false def} def
0 0 0 0 InitTextBox
/TBxmargin 20 def
/TBymargin 20 def
/Boxing false def
/textshow { ExtendTextBox Gshow } def
%
%%EndProlog
%%Page: 1 1
gnudict begin
gsave
doclip
50 50 translate
0.050 0.050 scale
0 setgray
newpath
1.000 UL
LTb
LCb setrgbcolor
LTb
1.000 UL
LTb
1046 1384 M
2916 2413 L
6154 1819 M
2916 2413 L
1046 1384 M
0 2057 V
0 -2057 R
50 28 V
2916 2413 M
-50 -27 V
1586 1285 M
49 28 V
3456 2314 M
-50 -27 V
2126 1186 M
49 28 V
3995 2215 M
-50 -27 V
2666 1087 M
49 28 V
4534 2116 M
-49 -27 V
3205 988 M
50 28 V
5074 2017 M
-49 -27 V
3744 889 M
50 28 V
5614 1918 M
-49 -27 V
4284 790 M
50 28 V
6154 1819 M
-50 -27 V
4284 790 M
-55 10 V
1046 1384 M
55 -10 V
4596 962 M
-55 10 V
1358 1556 M
54 -10 V
4907 1133 M
-54 10 V
1669 1727 M
55 -10 V
5219 1305 M
-55 10 V
1981 1899 M
55 -10 V
5531 1476 M
-55 10 V
2293 2070 M
54 -10 V
5842 1648 M
-54 10 V
2604 2242 M
55 -10 V
6154 1819 M
-55 10 V
2916 2413 M
55 -10 V
1046 2070 M
63 0 V
-63 172 R
63 0 V
-63 171 R
63 0 V
-63 172 R
63 0 V
-63 170 R
63 0 V
-63 171 R
63 0 V
-63 172 R
63 0 V
-63 171 R
63 0 V
-63 172 R
63 0 V
1.000 UP
1.000 UP
stroke
0.58 0.00 0.83 C 1046 3368 Pls
1108 3387 Pls
1171 3407 Pls
1233 3410 Pls
1295 3419 Pls
1358 3447 Pls
1420 3436 Pls
1482 3437 Pls
1545 3412 Pls
1607 3422 Pls
1669 3414 Pls
1732 3446 Pls
1794 3431 Pls
1856 3410 Pls
1919 3415 Pls
1981 3402 Pls
2043 3393 Pls
2106 3407 Pls
2168 3386 Pls
2230 3415 Pls
2293 3409 Pls
2355 3429 Pls
2417 3404 Pls
2480 3408 Pls
2542 3443 Pls
2604 3443 Pls
2667 3443 Pls
2729 3464 Pls
2791 3445 Pls
2854 3471 Pls
2916 3494 Pls
1154 3317 Pls
1216 3327 Pls
1279 3368 Pls
1341 3347 Pls
1403 3344 Pls
1466 3360 Pls
1528 3346 Pls
1590 3359 Pls
1653 3325 Pls
1715 3353 Pls
1777 3357 Pls
1840 3370 Pls
1902 3343 Pls
1964 3317 Pls
2027 3332 Pls
2089 3335 Pls
2151 3328 Pls
2214 3350 Pls
2276 3312 Pls
2338 3362 Pls
2401 3354 Pls
2463 3343 Pls
2525 3386 Pls
2588 3383 Pls
2650 3398 Pls
2712 3415 Pls
2775 3427 Pls
2837 3415 Pls
2899 3427 Pls
2962 3444 Pls
3024 3475 Pls
1262 3273 Pls
1324 3282 Pls
1387 3271 Pls
1449 3278 Pls
1511 3267 Pls
1574 3286 Pls
1636 3294 Pls
1698 3297 Pls
1761 3320 Pls
1823 3268 Pls
1885 3298 Pls
1948 3304 Pls
2010 3282 Pls
2072 3301 Pls
2135 3285 Pls
2197 3313 Pls
2259 3294 Pls
2322 3303 Pls
2384 3299 Pls
2446 3314 Pls
2509 3303 Pls
2571 3323 Pls
2633 3310 Pls
2696 3346 Pls
2758 3337 Pls
2820 3353 Pls
2883 3384 Pls
2945 3404 Pls
3007 3383 Pls
3070 3401 Pls
3132 3434 Pls
1370 3220 Pls
1432 3221 Pls
1495 3223 Pls
1557 3191 Pls
1619 3208 Pls
1682 3222 Pls
1744 3235 Pls
1806 3230 Pls
1869 3226 Pls
1931 3219 Pls
1993 3242 Pls
2056 3224 Pls
2118 3248 Pls
2180 3249 Pls
2243 3237 Pls
2305 3247 Pls
2367 3222 Pls
2430 3258 Pls
2492 3257 Pls
2554 3255 Pls
2617 3273 Pls
2679 3281 Pls
2741 3287 Pls
2804 3316 Pls
2866 3317 Pls
2928 3342 Pls
2991 3348 Pls
3053 3366 Pls
3115 3377 Pls
3178 3371 Pls
3240 3397 Pls
1478 3158 Pls
1540 3164 Pls
1603 3162 Pls
1665 3190 Pls
1727 3179 Pls
1790 3196 Pls
1852 3163 Pls
1914 3165 Pls
1977 3185 Pls
2039 3185 Pls
2101 3189 Pls
2164 3174 Pls
2226 3158 Pls
2288 3184 Pls
2351 3200 Pls
2413 3183 Pls
2475 3187 Pls
2538 3196 Pls
2600 3223 Pls
2662 3232 Pls
2725 3229 Pls
2787 3262 Pls
2849 3263 Pls
2912 3283 Pls
2974 3283 Pls
3036 3274 Pls
3099 3306 Pls
3161 3324 Pls
3223 3320 Pls
3286 3331 Pls
3348 3386 Pls
1586 3128 Pls
1648 3121 Pls
1711 3110 Pls
1773 3116 Pls
1835 3108 Pls
1898 3150 Pls
1960 3105 Pls
2022 3107 Pls
2085 3116 Pls
2147 3126 Pls
2209 3129 Pls
2272 3127 Pls
2334 3122 Pls
2396 3141 Pls
2459 3131 Pls
2521 3147 Pls
2583 3152 Pls
2646 3194 Pls
2708 3147 Pls
2770 3154 Pls
2833 3194 Pls
2895 3217 Pls
2957 3211 Pls
3020 3218 Pls
3082 3241 Pls
3144 3244 Pls
3207 3269 Pls
3269 3277 Pls
3331 3340 Pls
3394 3306 Pls
3456 3353 Pls
1694 3086 Pls
1756 3066 Pls
1818 3063 Pls
1881 3051 Pls
1943 3055 Pls
2005 3083 Pls
2068 3094 Pls
2130 3093 Pls
2192 3088 Pls
2255 3053 Pls
2317 3067 Pls
2379 3103 Pls
2442 3089 Pls
2504 3075 Pls
2566 3114 Pls
2629 3088 Pls
2691 3095 Pls
2753 3107 Pls
2816 3133 Pls
2878 3134 Pls
2940 3143 Pls
3003 3164 Pls
3065 3204 Pls
3127 3177 Pls
3190 3215 Pls
3252 3218 Pls
3314 3207 Pls
3377 3252 Pls
3439 3255 Pls
3501 3314 Pls
3564 3307 Pls
1802 2988 Pls
1864 3015 Pls
1926 3013 Pls
1989 3000 Pls
2051 3013 Pls
2113 3042 Pls
2176 3005 Pls
2238 3005 Pls
2300 3046 Pls
2363 3038 Pls
2425 3004 Pls
2487 3018 Pls
2550 3042 Pls
2612 3059 Pls
2674 3067 Pls
2737 3062 Pls
2799 3067 Pls
2861 3067 Pls
2924 3093 Pls
2986 3126 Pls
3048 3084 Pls
3111 3099 Pls
3173 3157 Pls
3235 3171 Pls
3298 3171 Pls
3360 3193 Pls
3422 3214 Pls
3485 3212 Pls
3547 3254 Pls
3608 3260 Pls
3671 3276 Pls
1910 2976 Pls
1972 2960 Pls
2034 2942 Pls
2097 2948 Pls
2159 2961 Pls
2221 2935 Pls
2284 2955 Pls
2346 2966 Pls
2408 2963 Pls
2471 2959 Pls
2533 2952 Pls
2595 2988 Pls
2658 2993 Pls
2720 3002 Pls
2782 2991 Pls
2845 3028 Pls
2907 3028 Pls
2969 3016 Pls
3032 3037 Pls
3094 3082 Pls
3156 3080 Pls
3219 3094 Pls
3281 3089 Pls
3343 3124 Pls
3406 3143 Pls
3468 3177 Pls
3530 3172 Pls
3593 3174 Pls
3654 3228 Pls
3716 3236 Pls
3779 3247 Pls
2018 2900 Pls
2080 2905 Pls
2142 2923 Pls
2205 2895 Pls
2267 2914 Pls
2329 2887 Pls
2392 2919 Pls
2454 2914 Pls
2516 2912 Pls
2579 2925 Pls
2641 2931 Pls
2703 2912 Pls
2766 2931 Pls
2828 2974 Pls
2890 2962 Pls
2953 2984 Pls
3015 2984 Pls
3077 3002 Pls
3140 2997 Pls
3202 3034 Pls
3264 3023 Pls
3327 3042 Pls
3389 3078 Pls
3451 3083 Pls
3514 3112 Pls
3576 3121 Pls
3637 3134 Pls
3700 3161 Pls
3762 3181 Pls
3824 3184 Pls
3887 3203 Pls
2126 2801 Pls
2188 2853 Pls
2250 2827 Pls
2313 2846 Pls
2375 2850 Pls
2437 2813 Pls
2500 2851 Pls
2562 2861 Pls
2624 2870 Pls
2687 2882 Pls
2749 2868 Pls
2811 2900 Pls
2874 2916 Pls
2936 2928 Pls
2998 2921 Pls
3061 2935 Pls
3123 2953 Pls
3185 2971 Pls
3248 2945 Pls
3310 2986 Pls
3372 3001 Pls
3435 3008 Pls
3497 3031 Pls
3559 3052 Pls
3621 3077 Pls
3683 3101 Pls
3745 3088 Pls
3808 3113 Pls
3870 3143 Pls
3932 3168 Pls
3995 3192 Pls
2234 2770 Pls
2296 2781 Pls
2358 2817 Pls
2421 2792 Pls
2483 2769 Pls
2545 2791 Pls
2608 2782 Pls
2670 2808 Pls
2732 2807 Pls
2795 2824 Pls
2857 2853 Pls
2919 2850 Pls
2982 2846 Pls
3044 2869 Pls
3106 2868 Pls
3169 2905 Pls
3231 2916 Pls
3293 2931 Pls
3356 2947 Pls
3418 2967 Pls
3480 2969 Pls
3543 3006 Pls
3604 3002 Pls
3666 2996 Pls
3729 3034 Pls
3791 3071 Pls
3853 3050 Pls
3916 3100 Pls
3978 3128 Pls
4040 3134 Pls
4103 3141 Pls
2342 2684 Pls
2404 2725 Pls
2466 2713 Pls
2529 2739 Pls
2591 2724 Pls
2653 2716 Pls
2716 2743 Pls
2778 2763 Pls
2840 2785 Pls
2903 2782 Pls
2965 2777 Pls
3027 2824 Pls
3090 2813 Pls
3152 2811 Pls
3214 2854 Pls
3277 2838 Pls
3339 2872 Pls
3401 2882 Pls
3464 2904 Pls
3526 2909 Pls
3588 2907 Pls
3650 2952 Pls
3712 2959 Pls
3774 2976 Pls
3837 3004 Pls
3899 3030 Pls
3961 3055 Pls
4024 3073 Pls
4086 3083 Pls
4148 3116 Pls
4211 3118 Pls
2450 2649 Pls
2512 2664 Pls
2574 2680 Pls
2637 2653 Pls
2699 2651 Pls
2761 2682 Pls
2824 2686 Pls
2886 2694 Pls
2948 2739 Pls
3011 2728 Pls
3073 2749 Pls
3135 2772 Pls
3198 2761 Pls
3260 2792 Pls
3322 2815 Pls
3385 2810 Pls
3447 2837 Pls
3509 2839 Pls
3572 2845 Pls
3633 2891 Pls
3695 2879 Pls
3758 2918 Pls
3820 2937 Pls
3882 2954 Pls
3945 2985 Pls
4007 3004 Pls
4069 3004 Pls
4132 3032 Pls
4194 3057 Pls
4256 3077 Pls
4319 3104 Pls
2558 2597 Pls
2620 2618 Pls
2682 2588 Pls
2745 2615 Pls
2807 2637 Pls
2869 2640 Pls
2932 2662 Pls
2994 2643 Pls
3056 2672 Pls
3119 2689 Pls
3181 2697 Pls
3243 2729 Pls
3306 2715 Pls
3368 2763 Pls
3430 2778 Pls
3493 2815 Pls
3555 2788 Pls
3616 2803 Pls
3679 2814 Pls
3741 2825 Pls
3803 2857 Pls
3866 2874 Pls
3928 2887 Pls
3990 2891 Pls
4053 2925 Pls
4115 2965 Pls
4177 2986 Pls
4240 3004 Pls
4302 3030 Pls
4364 3039 Pls
4427 3056 Pls
2666 2558 Pls
2728 2570 Pls
2790 2561 Pls
2853 2542 Pls
2915 2570 Pls
2977 2591 Pls
3040 2603 Pls
3102 2605 Pls
3164 2611 Pls
3227 2637 Pls
3289 2667 Pls
3351 2667 Pls
3414 2689 Pls
3476 2689 Pls
3538 2708 Pls
3600 2726 Pls
3662 2775 Pls
3724 2793 Pls
3786 2775 Pls
3849 2806 Pls
3911 2823 Pls
3973 2857 Pls
4036 2842 Pls
4098 2881 Pls
4161 2882 Pls
4223 2926 Pls
4285 2955 Pls
4347 2969 Pls
4410 3016 Pls
4472 3029 Pls
4534 3027 Pls
2773 2499 Pls
2836 2478 Pls
2898 2516 Pls
2960 2485 Pls
3023 2516 Pls
3085 2534 Pls
3147 2539 Pls
3210 2581 Pls
3272 2606 Pls
3334 2597 Pls
3397 2648 Pls
3459 2605 Pls
3521 2628 Pls
3584 2668 Pls
3645 2684 Pls
3707 2679 Pls
3770 2727 Pls
3832 2720 Pls
3894 2753 Pls
3957 2753 Pls
4019 2797 Pls
4081 2833 Pls
4144 2824 Pls
4206 2850 Pls
4268 2871 Pls
4331 2902 Pls
4393 2925 Pls
4455 2929 Pls
4518 2970 Pls
4580 2979 Pls
4642 3007 Pls
2881 2412 Pls
2944 2419 Pls
3006 2464 Pls
3068 2476 Pls
3131 2474 Pls
3193 2474 Pls
3255 2515 Pls
3318 2529 Pls
3380 2526 Pls
3442 2557 Pls
3505 2582 Pls
3567 2590 Pls
3628 2606 Pls
3691 2620 Pls
3753 2646 Pls
3815 2648 Pls
3878 2637 Pls
3940 2708 Pls
4002 2708 Pls
4065 2749 Pls
4127 2769 Pls
4189 2786 Pls
4252 2804 Pls
4314 2830 Pls
4376 2851 Pls
4439 2856 Pls
4501 2885 Pls
4563 2929 Pls
4626 2919 Pls
4688 2944 Pls
4750 2970 Pls
2989 2416 Pls
3052 2406 Pls
3114 2407 Pls
3176 2399 Pls
3239 2432 Pls
3301 2442 Pls
3363 2459 Pls
3426 2488 Pls
3488 2499 Pls
3550 2532 Pls
3612 2549 Pls
3674 2554 Pls
3736 2557 Pls
3799 2590 Pls
3861 2590 Pls
3923 2624 Pls
3986 2646 Pls
4048 2665 Pls
4110 2657 Pls
4173 2708 Pls
4235 2745 Pls
4297 2740 Pls
4360 2768 Pls
4422 2794 Pls
4484 2809 Pls
4547 2831 Pls
4609 2861 Pls
4671 2887 Pls
4734 2899 Pls
4796 2928 Pls
4858 2949 Pls
3097 2328 Pls
3160 2349 Pls
3222 2345 Pls
3284 2382 Pls
3347 2396 Pls
3409 2399 Pls
3471 2413 Pls
3534 2461 Pls
3596 2455 Pls
3657 2454 Pls
3720 2493 Pls
3782 2508 Pls
3844 2537 Pls
3907 2547 Pls
3969 2568 Pls
4031 2586 Pls
4094 2612 Pls
4156 2625 Pls
4218 2648 Pls
4281 2663 Pls
4343 2703 Pls
4405 2699 Pls
4468 2738 Pls
4530 2755 Pls
4592 2785 Pls
4655 2805 Pls
4717 2815 Pls
4779 2843 Pls
4842 2873 Pls
4904 2906 Pls
4966 2924 Pls
3205 2278 Pls
3268 2297 Pls
3330 2344 Pls
3392 2322 Pls
3455 2323 Pls
3517 2345 Pls
3579 2387 Pls
3641 2397 Pls
3703 2395 Pls
3765 2456 Pls
3828 2430 Pls
3890 2475 Pls
3952 2493 Pls
4015 2511 Pls
4077 2525 Pls
4139 2532 Pls
4202 2561 Pls
4264 2600 Pls
4326 2600 Pls
4389 2623 Pls
4451 2663 Pls
4513 2683 Pls
4576 2695 Pls
4638 2723 Pls
4700 2736 Pls
4763 2758 Pls
4825 2791 Pls
4887 2832 Pls
4950 2839 Pls
5012 2871 Pls
5074 2882 Pls
3313 2256 Pls
3376 2233 Pls
3438 2269 Pls
3500 2292 Pls
3563 2301 Pls
3624 2326 Pls
3686 2332 Pls
3749 2337 Pls
3811 2381 Pls
3873 2418 Pls
3936 2411 Pls
3998 2425 Pls
4060 2432 Pls
4123 2465 Pls
4185 2496 Pls
4247 2504 Pls
4310 2525 Pls
4372 2550 Pls
4434 2575 Pls
4497 2596 Pls
4559 2624 Pls
4621 2639 Pls
4684 2663 Pls
4746 2674 Pls
4808 2733 Pls
4871 2741 Pls
4933 2776 Pls
4995 2793 Pls
5058 2837 Pls
5120 2846 Pls
5182 2865 Pls
3421 2194 Pls
3484 2214 Pls
3546 2227 Pls
3607 2234 Pls
3670 2266 Pls
3732 2288 Pls
3794 2269 Pls
3857 2311 Pls
3919 2343 Pls
3981 2367 Pls
4044 2373 Pls
4106 2376 Pls
4168 2420 Pls
4231 2434 Pls
4293 2458 Pls
4355 2471 Pls
4418 2495 Pls
4480 2521 Pls
4542 2559 Pls
4605 2573 Pls
4667 2591 Pls
4729 2624 Pls
4792 2637 Pls
4854 2672 Pls
4916 2693 Pls
4979 2706 Pls
5041 2739 Pls
5103 2775 Pls
5166 2806 Pls
5228 2817 Pls
5290 2825 Pls
3529 2131 Pls
3592 2179 Pls
3653 2158 Pls
3715 2197 Pls
3778 2230 Pls
3840 2221 Pls
3902 2270 Pls
3965 2269 Pls
4027 2275 Pls
4089 2338 Pls
4152 2337 Pls
4214 2381 Pls
4276 2380 Pls
4339 2394 Pls
4401 2417 Pls
4463 2457 Pls
4526 2469 Pls
4588 2497 Pls
4650 2520 Pls
4713 2534 Pls
4775 2548 Pls
4837 2579 Pls
4900 2630 Pls
4962 2633 Pls
5024 2667 Pls
5087 2695 Pls
5149 2718 Pls
5211 2714 Pls
5274 2752 Pls
5336 2778 Pls
5398 2800 Pls
3636 2103 Pls
3699 2121 Pls
3761 2151 Pls
3823 2177 Pls
3886 2172 Pls
3948 2201 Pls
4010 2214 Pls
4073 2223 Pls
4135 2267 Pls
4197 2280 Pls
4260 2287 Pls
4322 2319 Pls
4384 2351 Pls
4447 2368 Pls
4509 2391 Pls
4571 2406 Pls
4634 2444 Pls
4696 2465 Pls
4758 2488 Pls
4821 2500 Pls
4883 2527 Pls
4945 2576 Pls
5008 2576 Pls
5070 2602 Pls
5132 2638 Pls
5195 2649 Pls
5257 2669 Pls
5319 2717 Pls
5382 2734 Pls
5444 2757 Pls
5506 2782 Pls
3744 2075 Pls
3806 2072 Pls
3869 2080 Pls
3931 2123 Pls
3993 2149 Pls
4056 2151 Pls
4118 2175 Pls
4180 2211 Pls
4243 2218 Pls
4305 2241 Pls
4367 2263 Pls
4430 2275 Pls
4492 2293 Pls
4554 2324 Pls
4617 2342 Pls
4679 2388 Pls
4741 2408 Pls
4804 2436 Pls
4866 2463 Pls
4928 2467 Pls
4991 2511 Pls
5053 2530 Pls
5115 2559 Pls
5178 2578 Pls
5240 2596 Pls
5302 2630 Pls
5365 2647 Pls
5427 2680 Pls
5489 2698 Pls
5552 2733 Pls
5614 2750 Pls
3852 2021 Pls
3914 2042 Pls
3977 2029 Pls
4039 2058 Pls
4101 2086 Pls
4164 2116 Pls
4226 2135 Pls
4288 2163 Pls
4351 2187 Pls
4413 2213 Pls
4475 2223 Pls
4538 2263 Pls
4600 2278 Pls
4662 2292 Pls
4725 2320 Pls
4787 2355 Pls
4849 2364 Pls
4912 2394 Pls
4974 2420 Pls
5036 2442 Pls
5099 2461 Pls
5161 2496 Pls
5223 2539 Pls
5286 2542 Pls
5348 2576 Pls
5410 2590 Pls
5473 2639 Pls
5535 2642 Pls
5597 2662 Pls
5660 2701 Pls
5722 2728 Pls
3960 1988 Pls
4022 2028 Pls
4085 2014 Pls
4147 2040 Pls
4209 2039 Pls
4272 2077 Pls
4334 2080 Pls
4396 2145 Pls
4459 2145 Pls
4521 2183 Pls
4583 2202 Pls
4646 2232 Pls
4708 2245 Pls
4770 2267 Pls
4833 2300 Pls
4895 2316 Pls
4957 2340 Pls
5020 2356 Pls
5082 2400 Pls
5144 2405 Pls
5207 2451 Pls
5269 2464 Pls
5331 2482 Pls
5394 2509 Pls
5456 2561 Pls
5518 2579 Pls
5581 2592 Pls
5643 2630 Pls
5705 2647 Pls
5768 2667 Pls
5830 2702 Pls
4068 1945 Pls
4130 1975 Pls
4193 1993 Pls
4255 1986 Pls
4317 2015 Pls
4380 2041 Pls
4442 2063 Pls
4504 2092 Pls
4567 2121 Pls
4629 2142 Pls
4691 2145 Pls
4754 2192 Pls
4816 2207 Pls
4878 2213 Pls
4941 2271 Pls
5003 2288 Pls
5065 2312 Pls
5128 2318 Pls
5190 2384 Pls
5252 2379 Pls
5315 2410 Pls
5377 2441 Pls
5439 2451 Pls
5502 2497 Pls
5564 2528 Pls
5626 2531 Pls
5689 2575 Pls
5751 2597 Pls
5813 2607 Pls
5876 2645 Pls
5938 2670 Pls
4176 1890 Pls
4238 1910 Pls
4301 1924 Pls
4363 1946 Pls
4425 1980 Pls
4488 2028 Pls
4550 2024 Pls
4612 2072 Pls
4675 2083 Pls
4737 2103 Pls
4799 2126 Pls
4862 2152 Pls
4924 2186 Pls
4986 2207 Pls
5049 2231 Pls
5111 2237 Pls
5173 2274 Pls
5236 2296 Pls
5298 2331 Pls
5360 2348 Pls
5423 2369 Pls
5485 2414 Pls
5547 2435 Pls
5610 2450 Pls
5672 2480 Pls
5734 2501 Pls
5797 2538 Pls
5859 2561 Pls
5921 2594 Pls
5984 2608 Pls
6046 2660 Pls
4284 1839 Pls
4346 1865 Pls
4409 1921 Pls
4471 1919 Pls
4533 1956 Pls
4596 1979 Pls
4658 1990 Pls
4720 1997 Pls
4783 2047 Pls
4845 2069 Pls
4907 2090 Pls
4970 2125 Pls
5032 2138 Pls
5094 2165 Pls
5157 2185 Pls
5219 2220 Pls
5281 2242 Pls
5344 2256 Pls
5406 2317 Pls
5468 2314 Pls
5531 2350 Pls
5593 2376 Pls
5655 2400 Pls
5718 2436 Pls
5780 2461 Pls
5842 2482 Pls
5905 2509 Pls
5967 2538 Pls
6029 2575 Pls
6092 2610 Pls
6154 2623 Pls
1.000 UL
LTb
LCb setrgbcolor
LTb
6154 1819 M
4284 790 L
1046 1384 M
4284 790 L
1.000 UP
stroke
grestore
end
showpage
%%Trailer
