%!PS-Adobe-2.0 EPSF-2.0
%%Title: exc1_3_4_timeout_lost_payloads/protocol4/exc1_3_4_timeout_lost_payloads.tex
%%Creator: gnuplot 5.0 patchlevel 1
%%CreationDate: Mon Nov  2 03:35:38 2015
%%DocumentFonts: 
%%BoundingBox: 50 50 410 302
%%EndComments
%%BeginProlog
/gnudict 256 dict def
gnudict begin
%
% The following true/false flags may be edited by hand if desired.
% The unit line width and grayscale image gamma correction may also be changed.
%
/Color false def
/Blacktext true def
/Solid false def
/Dashlength 1 def
/Landscape false def
/Level1 false def
/Level3 false def
/Rounded false def
/ClipToBoundingBox false def
/SuppressPDFMark false def
/TransparentPatterns false def
/gnulinewidth 5.000 def
/userlinewidth gnulinewidth def
/Gamma 1.0 def
/BackgroundColor {-1.000 -1.000 -1.000} def
%
/vshift -73 def
/dl1 {
  10.0 Dashlength userlinewidth gnulinewidth div mul mul mul
  Rounded { currentlinewidth 0.75 mul sub dup 0 le { pop 0.01 } if } if
} def
/dl2 {
  10.0 Dashlength userlinewidth gnulinewidth div mul mul mul
  Rounded { currentlinewidth 0.75 mul add } if
} def
/hpt_ 31.5 def
/vpt_ 31.5 def
/hpt hpt_ def
/vpt vpt_ def
/doclip {
  ClipToBoundingBox {
    newpath 50 50 moveto 410 50 lineto 410 302 lineto 50 302 lineto closepath
    clip
  } if
} def
%
% Gnuplot Prolog Version 5.0 (Dec 2014)
%
%/SuppressPDFMark true def
%
/M {moveto} bind def
/L {lineto} bind def
/R {rmoveto} bind def
/V {rlineto} bind def
/N {newpath moveto} bind def
/Z {closepath} bind def
/C {setrgbcolor} bind def
/f {rlineto fill} bind def
/g {setgray} bind def
/Gshow {show} def   % May be redefined later in the file to support UTF-8
/vpt2 vpt 2 mul def
/hpt2 hpt 2 mul def
/Lshow {currentpoint stroke M 0 vshift R 
	Blacktext {gsave 0 setgray textshow grestore} {textshow} ifelse} def
/Rshow {currentpoint stroke M dup stringwidth pop neg vshift R
	Blacktext {gsave 0 setgray textshow grestore} {textshow} ifelse} def
/Cshow {currentpoint stroke M dup stringwidth pop -2 div vshift R 
	Blacktext {gsave 0 setgray textshow grestore} {textshow} ifelse} def
/UP {dup vpt_ mul /vpt exch def hpt_ mul /hpt exch def
  /hpt2 hpt 2 mul def /vpt2 vpt 2 mul def} def
/DL {Color {setrgbcolor Solid {pop []} if 0 setdash}
 {pop pop pop 0 setgray Solid {pop []} if 0 setdash} ifelse} def
/BL {stroke userlinewidth 2 mul setlinewidth
	Rounded {1 setlinejoin 1 setlinecap} if} def
/AL {stroke userlinewidth 2 div setlinewidth
	Rounded {1 setlinejoin 1 setlinecap} if} def
/UL {dup gnulinewidth mul /userlinewidth exch def
	dup 1 lt {pop 1} if 10 mul /udl exch def} def
/PL {stroke userlinewidth setlinewidth
	Rounded {1 setlinejoin 1 setlinecap} if} def
3.8 setmiterlimit
% Classic Line colors (version 5.0)
/LCw {1 1 1} def
/LCb {0 0 0} def
/LCa {0 0 0} def
/LC0 {1 0 0} def
/LC1 {0 1 0} def
/LC2 {0 0 1} def
/LC3 {1 0 1} def
/LC4 {0 1 1} def
/LC5 {1 1 0} def
/LC6 {0 0 0} def
/LC7 {1 0.3 0} def
/LC8 {0.5 0.5 0.5} def
% Default dash patterns (version 5.0)
/LTw {PL [] 1 setgray} def
/LTb {BL [] LCb DL} def
/LTa {AL [1 udl mul 2 udl mul] 0 setdash LCa setrgbcolor} def
/LT0 {PL [] LC0 DL} def
/LT1 {PL [2 dl1 3 dl2] LC1 DL} def
/LT2 {PL [1 dl1 1.5 dl2] LC2 DL} def
/LT3 {PL [6 dl1 2 dl2 1 dl1 2 dl2] LC3 DL} def
/LT4 {PL [1 dl1 2 dl2 6 dl1 2 dl2 1 dl1 2 dl2] LC4 DL} def
/LT5 {PL [4 dl1 2 dl2] LC5 DL} def
/LT6 {PL [1.5 dl1 1.5 dl2 1.5 dl1 1.5 dl2 1.5 dl1 6 dl2] LC6 DL} def
/LT7 {PL [3 dl1 3 dl2 1 dl1 3 dl2] LC7 DL} def
/LT8 {PL [2 dl1 2 dl2 2 dl1 6 dl2] LC8 DL} def
/SL {[] 0 setdash} def
/Pnt {stroke [] 0 setdash gsave 1 setlinecap M 0 0 V stroke grestore} def
/Dia {stroke [] 0 setdash 2 copy vpt add M
  hpt neg vpt neg V hpt vpt neg V
  hpt vpt V hpt neg vpt V closepath stroke
  Pnt} def
/Pls {stroke [] 0 setdash vpt sub M 0 vpt2 V
  currentpoint stroke M
  hpt neg vpt neg R hpt2 0 V stroke
 } def
/Box {stroke [] 0 setdash 2 copy exch hpt sub exch vpt add M
  0 vpt2 neg V hpt2 0 V 0 vpt2 V
  hpt2 neg 0 V closepath stroke
  Pnt} def
/Crs {stroke [] 0 setdash exch hpt sub exch vpt add M
  hpt2 vpt2 neg V currentpoint stroke M
  hpt2 neg 0 R hpt2 vpt2 V stroke} def
/TriU {stroke [] 0 setdash 2 copy vpt 1.12 mul add M
  hpt neg vpt -1.62 mul V
  hpt 2 mul 0 V
  hpt neg vpt 1.62 mul V closepath stroke
  Pnt} def
/Star {2 copy Pls Crs} def
/BoxF {stroke [] 0 setdash exch hpt sub exch vpt add M
  0 vpt2 neg V hpt2 0 V 0 vpt2 V
  hpt2 neg 0 V closepath fill} def
/TriUF {stroke [] 0 setdash vpt 1.12 mul add M
  hpt neg vpt -1.62 mul V
  hpt 2 mul 0 V
  hpt neg vpt 1.62 mul V closepath fill} def
/TriD {stroke [] 0 setdash 2 copy vpt 1.12 mul sub M
  hpt neg vpt 1.62 mul V
  hpt 2 mul 0 V
  hpt neg vpt -1.62 mul V closepath stroke
  Pnt} def
/TriDF {stroke [] 0 setdash vpt 1.12 mul sub M
  hpt neg vpt 1.62 mul V
  hpt 2 mul 0 V
  hpt neg vpt -1.62 mul V closepath fill} def
/DiaF {stroke [] 0 setdash vpt add M
  hpt neg vpt neg V hpt vpt neg V
  hpt vpt V hpt neg vpt V closepath fill} def
/Pent {stroke [] 0 setdash 2 copy gsave
  translate 0 hpt M 4 {72 rotate 0 hpt L} repeat
  closepath stroke grestore Pnt} def
/PentF {stroke [] 0 setdash gsave
  translate 0 hpt M 4 {72 rotate 0 hpt L} repeat
  closepath fill grestore} def
/Circle {stroke [] 0 setdash 2 copy
  hpt 0 360 arc stroke Pnt} def
/CircleF {stroke [] 0 setdash hpt 0 360 arc fill} def
/C0 {BL [] 0 setdash 2 copy moveto vpt 90 450 arc} bind def
/C1 {BL [] 0 setdash 2 copy moveto
	2 copy vpt 0 90 arc closepath fill
	vpt 0 360 arc closepath} bind def
/C2 {BL [] 0 setdash 2 copy moveto
	2 copy vpt 90 180 arc closepath fill
	vpt 0 360 arc closepath} bind def
/C3 {BL [] 0 setdash 2 copy moveto
	2 copy vpt 0 180 arc closepath fill
	vpt 0 360 arc closepath} bind def
/C4 {BL [] 0 setdash 2 copy moveto
	2 copy vpt 180 270 arc closepath fill
	vpt 0 360 arc closepath} bind def
/C5 {BL [] 0 setdash 2 copy moveto
	2 copy vpt 0 90 arc
	2 copy moveto
	2 copy vpt 180 270 arc closepath fill
	vpt 0 360 arc} bind def
/C6 {BL [] 0 setdash 2 copy moveto
	2 copy vpt 90 270 arc closepath fill
	vpt 0 360 arc closepath} bind def
/C7 {BL [] 0 setdash 2 copy moveto
	2 copy vpt 0 270 arc closepath fill
	vpt 0 360 arc closepath} bind def
/C8 {BL [] 0 setdash 2 copy moveto
	2 copy vpt 270 360 arc closepath fill
	vpt 0 360 arc closepath} bind def
/C9 {BL [] 0 setdash 2 copy moveto
	2 copy vpt 270 450 arc closepath fill
	vpt 0 360 arc closepath} bind def
/C10 {BL [] 0 setdash 2 copy 2 copy moveto vpt 270 360 arc closepath fill
	2 copy moveto
	2 copy vpt 90 180 arc closepath fill
	vpt 0 360 arc closepath} bind def
/C11 {BL [] 0 setdash 2 copy moveto
	2 copy vpt 0 180 arc closepath fill
	2 copy moveto
	2 copy vpt 270 360 arc closepath fill
	vpt 0 360 arc closepath} bind def
/C12 {BL [] 0 setdash 2 copy moveto
	2 copy vpt 180 360 arc closepath fill
	vpt 0 360 arc closepath} bind def
/C13 {BL [] 0 setdash 2 copy moveto
	2 copy vpt 0 90 arc closepath fill
	2 copy moveto
	2 copy vpt 180 360 arc closepath fill
	vpt 0 360 arc closepath} bind def
/C14 {BL [] 0 setdash 2 copy moveto
	2 copy vpt 90 360 arc closepath fill
	vpt 0 360 arc} bind def
/C15 {BL [] 0 setdash 2 copy vpt 0 360 arc closepath fill
	vpt 0 360 arc closepath} bind def
/Rec {newpath 4 2 roll moveto 1 index 0 rlineto 0 exch rlineto
	neg 0 rlineto closepath} bind def
/Square {dup Rec} bind def
/Bsquare {vpt sub exch vpt sub exch vpt2 Square} bind def
/S0 {BL [] 0 setdash 2 copy moveto 0 vpt rlineto BL Bsquare} bind def
/S1 {BL [] 0 setdash 2 copy vpt Square fill Bsquare} bind def
/S2 {BL [] 0 setdash 2 copy exch vpt sub exch vpt Square fill Bsquare} bind def
/S3 {BL [] 0 setdash 2 copy exch vpt sub exch vpt2 vpt Rec fill Bsquare} bind def
/S4 {BL [] 0 setdash 2 copy exch vpt sub exch vpt sub vpt Square fill Bsquare} bind def
/S5 {BL [] 0 setdash 2 copy 2 copy vpt Square fill
	exch vpt sub exch vpt sub vpt Square fill Bsquare} bind def
/S6 {BL [] 0 setdash 2 copy exch vpt sub exch vpt sub vpt vpt2 Rec fill Bsquare} bind def
/S7 {BL [] 0 setdash 2 copy exch vpt sub exch vpt sub vpt vpt2 Rec fill
	2 copy vpt Square fill Bsquare} bind def
/S8 {BL [] 0 setdash 2 copy vpt sub vpt Square fill Bsquare} bind def
/S9 {BL [] 0 setdash 2 copy vpt sub vpt vpt2 Rec fill Bsquare} bind def
/S10 {BL [] 0 setdash 2 copy vpt sub vpt Square fill 2 copy exch vpt sub exch vpt Square fill
	Bsquare} bind def
/S11 {BL [] 0 setdash 2 copy vpt sub vpt Square fill 2 copy exch vpt sub exch vpt2 vpt Rec fill
	Bsquare} bind def
/S12 {BL [] 0 setdash 2 copy exch vpt sub exch vpt sub vpt2 vpt Rec fill Bsquare} bind def
/S13 {BL [] 0 setdash 2 copy exch vpt sub exch vpt sub vpt2 vpt Rec fill
	2 copy vpt Square fill Bsquare} bind def
/S14 {BL [] 0 setdash 2 copy exch vpt sub exch vpt sub vpt2 vpt Rec fill
	2 copy exch vpt sub exch vpt Square fill Bsquare} bind def
/S15 {BL [] 0 setdash 2 copy Bsquare fill Bsquare} bind def
/D0 {gsave translate 45 rotate 0 0 S0 stroke grestore} bind def
/D1 {gsave translate 45 rotate 0 0 S1 stroke grestore} bind def
/D2 {gsave translate 45 rotate 0 0 S2 stroke grestore} bind def
/D3 {gsave translate 45 rotate 0 0 S3 stroke grestore} bind def
/D4 {gsave translate 45 rotate 0 0 S4 stroke grestore} bind def
/D5 {gsave translate 45 rotate 0 0 S5 stroke grestore} bind def
/D6 {gsave translate 45 rotate 0 0 S6 stroke grestore} bind def
/D7 {gsave translate 45 rotate 0 0 S7 stroke grestore} bind def
/D8 {gsave translate 45 rotate 0 0 S8 stroke grestore} bind def
/D9 {gsave translate 45 rotate 0 0 S9 stroke grestore} bind def
/D10 {gsave translate 45 rotate 0 0 S10 stroke grestore} bind def
/D11 {gsave translate 45 rotate 0 0 S11 stroke grestore} bind def
/D12 {gsave translate 45 rotate 0 0 S12 stroke grestore} bind def
/D13 {gsave translate 45 rotate 0 0 S13 stroke grestore} bind def
/D14 {gsave translate 45 rotate 0 0 S14 stroke grestore} bind def
/D15 {gsave translate 45 rotate 0 0 S15 stroke grestore} bind def
/DiaE {stroke [] 0 setdash vpt add M
  hpt neg vpt neg V hpt vpt neg V
  hpt vpt V hpt neg vpt V closepath stroke} def
/BoxE {stroke [] 0 setdash exch hpt sub exch vpt add M
  0 vpt2 neg V hpt2 0 V 0 vpt2 V
  hpt2 neg 0 V closepath stroke} def
/TriUE {stroke [] 0 setdash vpt 1.12 mul add M
  hpt neg vpt -1.62 mul V
  hpt 2 mul 0 V
  hpt neg vpt 1.62 mul V closepath stroke} def
/TriDE {stroke [] 0 setdash vpt 1.12 mul sub M
  hpt neg vpt 1.62 mul V
  hpt 2 mul 0 V
  hpt neg vpt -1.62 mul V closepath stroke} def
/PentE {stroke [] 0 setdash gsave
  translate 0 hpt M 4 {72 rotate 0 hpt L} repeat
  closepath stroke grestore} def
/CircE {stroke [] 0 setdash 
  hpt 0 360 arc stroke} def
/Opaque {gsave closepath 1 setgray fill grestore 0 setgray closepath} def
/DiaW {stroke [] 0 setdash vpt add M
  hpt neg vpt neg V hpt vpt neg V
  hpt vpt V hpt neg vpt V Opaque stroke} def
/BoxW {stroke [] 0 setdash exch hpt sub exch vpt add M
  0 vpt2 neg V hpt2 0 V 0 vpt2 V
  hpt2 neg 0 V Opaque stroke} def
/TriUW {stroke [] 0 setdash vpt 1.12 mul add M
  hpt neg vpt -1.62 mul V
  hpt 2 mul 0 V
  hpt neg vpt 1.62 mul V Opaque stroke} def
/TriDW {stroke [] 0 setdash vpt 1.12 mul sub M
  hpt neg vpt 1.62 mul V
  hpt 2 mul 0 V
  hpt neg vpt -1.62 mul V Opaque stroke} def
/PentW {stroke [] 0 setdash gsave
  translate 0 hpt M 4 {72 rotate 0 hpt L} repeat
  Opaque stroke grestore} def
/CircW {stroke [] 0 setdash 
  hpt 0 360 arc Opaque stroke} def
/BoxFill {gsave Rec 1 setgray fill grestore} def
/Density {
  /Fillden exch def
  currentrgbcolor
  /ColB exch def /ColG exch def /ColR exch def
  /ColR ColR Fillden mul Fillden sub 1 add def
  /ColG ColG Fillden mul Fillden sub 1 add def
  /ColB ColB Fillden mul Fillden sub 1 add def
  ColR ColG ColB setrgbcolor} def
/BoxColFill {gsave Rec PolyFill} def
/PolyFill {gsave Density fill grestore grestore} def
/h {rlineto rlineto rlineto gsave closepath fill grestore} bind def
%
% PostScript Level 1 Pattern Fill routine for rectangles
% Usage: x y w h s a XX PatternFill
%	x,y = lower left corner of box to be filled
%	w,h = width and height of box
%	  a = angle in degrees between lines and x-axis
%	 XX = 0/1 for no/yes cross-hatch
%
/PatternFill {gsave /PFa [ 9 2 roll ] def
  PFa 0 get PFa 2 get 2 div add PFa 1 get PFa 3 get 2 div add translate
  PFa 2 get -2 div PFa 3 get -2 div PFa 2 get PFa 3 get Rec
  TransparentPatterns {} {gsave 1 setgray fill grestore} ifelse
  clip
  currentlinewidth 0.5 mul setlinewidth
  /PFs PFa 2 get dup mul PFa 3 get dup mul add sqrt def
  0 0 M PFa 5 get rotate PFs -2 div dup translate
  0 1 PFs PFa 4 get div 1 add floor cvi
	{PFa 4 get mul 0 M 0 PFs V} for
  0 PFa 6 get ne {
	0 1 PFs PFa 4 get div 1 add floor cvi
	{PFa 4 get mul 0 2 1 roll M PFs 0 V} for
 } if
  stroke grestore} def
%
/languagelevel where
 {pop languagelevel} {1} ifelse
dup 2 lt
	{/InterpretLevel1 true def
	 /InterpretLevel3 false def}
	{/InterpretLevel1 Level1 def
	 2 gt
	    {/InterpretLevel3 Level3 def}
	    {/InterpretLevel3 false def}
	 ifelse }
 ifelse
%
% PostScript level 2 pattern fill definitions
%
/Level2PatternFill {
/Tile8x8 {/PaintType 2 /PatternType 1 /TilingType 1 /BBox [0 0 8 8] /XStep 8 /YStep 8}
	bind def
/KeepColor {currentrgbcolor [/Pattern /DeviceRGB] setcolorspace} bind def
<< Tile8x8
 /PaintProc {0.5 setlinewidth pop 0 0 M 8 8 L 0 8 M 8 0 L stroke} 
>> matrix makepattern
/Pat1 exch def
<< Tile8x8
 /PaintProc {0.5 setlinewidth pop 0 0 M 8 8 L 0 8 M 8 0 L stroke
	0 4 M 4 8 L 8 4 L 4 0 L 0 4 L stroke}
>> matrix makepattern
/Pat2 exch def
<< Tile8x8
 /PaintProc {0.5 setlinewidth pop 0 0 M 0 8 L
	8 8 L 8 0 L 0 0 L fill}
>> matrix makepattern
/Pat3 exch def
<< Tile8x8
 /PaintProc {0.5 setlinewidth pop -4 8 M 8 -4 L
	0 12 M 12 0 L stroke}
>> matrix makepattern
/Pat4 exch def
<< Tile8x8
 /PaintProc {0.5 setlinewidth pop -4 0 M 8 12 L
	0 -4 M 12 8 L stroke}
>> matrix makepattern
/Pat5 exch def
<< Tile8x8
 /PaintProc {0.5 setlinewidth pop -2 8 M 4 -4 L
	0 12 M 8 -4 L 4 12 M 10 0 L stroke}
>> matrix makepattern
/Pat6 exch def
<< Tile8x8
 /PaintProc {0.5 setlinewidth pop -2 0 M 4 12 L
	0 -4 M 8 12 L 4 -4 M 10 8 L stroke}
>> matrix makepattern
/Pat7 exch def
<< Tile8x8
 /PaintProc {0.5 setlinewidth pop 8 -2 M -4 4 L
	12 0 M -4 8 L 12 4 M 0 10 L stroke}
>> matrix makepattern
/Pat8 exch def
<< Tile8x8
 /PaintProc {0.5 setlinewidth pop 0 -2 M 12 4 L
	-4 0 M 12 8 L -4 4 M 8 10 L stroke}
>> matrix makepattern
/Pat9 exch def
/Pattern1 {PatternBgnd KeepColor Pat1 setpattern} bind def
/Pattern2 {PatternBgnd KeepColor Pat2 setpattern} bind def
/Pattern3 {PatternBgnd KeepColor Pat3 setpattern} bind def
/Pattern4 {PatternBgnd KeepColor Landscape {Pat5} {Pat4} ifelse setpattern} bind def
/Pattern5 {PatternBgnd KeepColor Landscape {Pat4} {Pat5} ifelse setpattern} bind def
/Pattern6 {PatternBgnd KeepColor Landscape {Pat9} {Pat6} ifelse setpattern} bind def
/Pattern7 {PatternBgnd KeepColor Landscape {Pat8} {Pat7} ifelse setpattern} bind def
} def
%
%
%End of PostScript Level 2 code
%
/PatternBgnd {
  TransparentPatterns {} {gsave 1 setgray fill grestore} ifelse
} def
%
% Substitute for Level 2 pattern fill codes with
% grayscale if Level 2 support is not selected.
%
/Level1PatternFill {
/Pattern1 {0.250 Density} bind def
/Pattern2 {0.500 Density} bind def
/Pattern3 {0.750 Density} bind def
/Pattern4 {0.125 Density} bind def
/Pattern5 {0.375 Density} bind def
/Pattern6 {0.625 Density} bind def
/Pattern7 {0.875 Density} bind def
} def
%
% Now test for support of Level 2 code
%
Level1 {Level1PatternFill} {Level2PatternFill} ifelse
%
/Symbol-Oblique /Symbol findfont [1 0 .167 1 0 0] makefont
dup length dict begin {1 index /FID eq {pop pop} {def} ifelse} forall
currentdict end definefont pop
%
Level1 SuppressPDFMark or 
{} {
/SDict 10 dict def
systemdict /pdfmark known not {
  userdict /pdfmark systemdict /cleartomark get put
} if
SDict begin [
  /Title (exc1_3_4_timeout_lost_payloads/protocol4/exc1_3_4_timeout_lost_payloads.tex)
  /Subject (gnuplot plot)
  /Creator (gnuplot 5.0 patchlevel 1)
  /Author (asiron)
%  /Producer (gnuplot)
%  /Keywords ()
  /CreationDate (Mon Nov  2 03:35:38 2015)
  /DOCINFO pdfmark
end
} ifelse
end
%
% Support for boxed text - Ethan A Merritt May 2005
%
/InitTextBox { userdict /TBy2 3 -1 roll put userdict /TBx2 3 -1 roll put
           userdict /TBy1 3 -1 roll put userdict /TBx1 3 -1 roll put
	   /Boxing true def } def
/ExtendTextBox { Boxing
    { gsave dup false charpath pathbbox
      dup TBy2 gt {userdict /TBy2 3 -1 roll put} {pop} ifelse
      dup TBx2 gt {userdict /TBx2 3 -1 roll put} {pop} ifelse
      dup TBy1 lt {userdict /TBy1 3 -1 roll put} {pop} ifelse
      dup TBx1 lt {userdict /TBx1 3 -1 roll put} {pop} ifelse
      grestore } if } def
/PopTextBox { newpath TBx1 TBxmargin sub TBy1 TBymargin sub M
               TBx1 TBxmargin sub TBy2 TBymargin add L
	       TBx2 TBxmargin add TBy2 TBymargin add L
	       TBx2 TBxmargin add TBy1 TBymargin sub L closepath } def
/DrawTextBox { PopTextBox stroke /Boxing false def} def
/FillTextBox { gsave PopTextBox 1 1 1 setrgbcolor fill grestore /Boxing false def} def
0 0 0 0 InitTextBox
/TBxmargin 20 def
/TBymargin 20 def
/Boxing false def
/textshow { ExtendTextBox Gshow } def
%
%%EndProlog
%%Page: 1 1
gnudict begin
gsave
doclip
50 50 translate
0.050 0.050 scale
0 setgray
newpath
1.000 UL
LTb
LCb setrgbcolor
LTb
1078 704 M
63 0 V
5662 0 R
-63 0 V
1078 1286 M
63 0 V
5662 0 R
-63 0 V
1078 1867 M
63 0 V
5662 0 R
-63 0 V
1078 2449 M
63 0 V
5662 0 R
-63 0 V
1078 3030 M
63 0 V
5662 0 R
-63 0 V
1078 3612 M
63 0 V
5662 0 R
-63 0 V
1078 4193 M
63 0 V
5662 0 R
-63 0 V
1078 4775 M
63 0 V
5662 0 R
-63 0 V
1078 704 M
0 63 V
0 4008 R
0 -63 V
1652 704 M
0 31 V
0 4040 R
0 -31 V
1989 704 M
0 31 V
0 4040 R
0 -31 V
2227 704 M
0 31 V
0 4040 R
0 -31 V
2412 704 M
0 31 V
0 4040 R
0 -31 V
2563 704 M
0 31 V
0 4040 R
0 -31 V
2691 704 M
0 31 V
0 4040 R
0 -31 V
2801 704 M
0 31 V
0 4040 R
0 -31 V
2899 704 M
0 31 V
0 4040 R
0 -31 V
2986 704 M
0 63 V
0 4008 R
0 -63 V
3561 704 M
0 31 V
0 4040 R
0 -31 V
3897 704 M
0 31 V
0 4040 R
0 -31 V
4135 704 M
0 31 V
0 4040 R
0 -31 V
4320 704 M
0 31 V
0 4040 R
0 -31 V
4471 704 M
0 31 V
0 4040 R
0 -31 V
4599 704 M
0 31 V
0 4040 R
0 -31 V
4710 704 M
0 31 V
0 4040 R
0 -31 V
4807 704 M
0 31 V
0 4040 R
0 -31 V
4895 704 M
0 63 V
stroke 4895 767 M
0 4008 R
0 -63 V
5469 704 M
0 31 V
0 4040 R
0 -31 V
5805 704 M
0 31 V
0 4040 R
0 -31 V
6044 704 M
0 31 V
0 4040 R
0 -31 V
6229 704 M
0 31 V
0 4040 R
0 -31 V
6380 704 M
0 31 V
0 4040 R
0 -31 V
6507 704 M
0 31 V
0 4040 R
0 -31 V
6618 704 M
0 31 V
0 4040 R
0 -31 V
6716 704 M
0 31 V
0 4040 R
0 -31 V
6803 704 M
0 63 V
0 4008 R
0 -63 V
stroke
1078 4775 N
0 -4071 V
5725 0 V
0 4071 V
-5725 0 V
Z stroke
1.000 UP
1.000 UL
LTb
1.000 UL
LTb
0.58 0.00 0.83 C LCb setrgbcolor
1.000 UL
LTb
0.58 0.00 0.83 C 6368 4594 M
255 0 V
1078 770 M
574 27 V
337 22 V
238 30 V
185 25 V
151 12 V
128 26 V
110 8 V
98 3 V
87 12 V
79 0 V
72 0 V
67 5 V
61 2 V
57 11 V
54 26 V
50 -19 V
47 19 V
45 63 V
43 94 V
40 -24 V
39 120 V
37 -85 V
35 235 V
34 -29 V
32 338 V
32 766 V
30 1160 V
29 -30 V
28 288 V
27 -152 V
26 497 V
26 49 V
25 -32 V
24 -21 V
23 -211 V
23 88 V
22 53 V
21 88 V
21 -14 V
21 -99 V
20 15 V
19 106 V
19 -98 V
19 78 V
18 -72 V
18 -36 V
17 -5 V
17 109 V
17 -129 V
151 52 V
128 9 V
111 5 V
97 -8 V
88 8 V
574 -80 V
336 142 V
239 -85 V
185 -12 V
151 -13 V
127 27 V
111 -31 V
98 34 V
87 -13 V
stroke
LTb
LCb setrgbcolor
LTb
0.00 0.62 0.45 C LCb setrgbcolor
1.000 UL
LTb
0.00 0.62 0.45 C 6368 4358 M
255 0 V
1078 995 M
574 199 V
337 143 V
238 184 V
185 139 V
151 77 V
128 127 V
110 78 V
98 22 V
87 111 V
79 93 V
72 133 V
67 304 V
61 538 V
57 421 V
54 96 V
50 271 V
47 -92 V
45 47 V
43 52 V
40 44 V
39 61 V
37 -161 V
35 6 V
34 45 V
32 -45 V
32 7 V
30 -9 V
29 -55 V
28 81 V
27 -91 V
26 10 V
26 -83 V
25 53 V
24 -14 V
23 -51 V
23 -29 V
22 -36 V
21 51 V
21 -23 V
21 -57 V
20 -9 V
19 0 V
19 -42 V
19 4 V
18 -65 V
18 -1 V
17 30 V
17 -39 V
17 -69 V
151 -96 V
128 -174 V
111 -105 V
97 -116 V
88 -84 V
574 -725 V
336 -390 V
239 -139 V
185 -265 V
151 -93 V
127 -68 V
111 -57 V
98 -57 V
87 -24 V
stroke
LTb
LCb setrgbcolor
LTb
0.34 0.71 0.91 C LCb setrgbcolor
1.000 UL
LTb
0.34 0.71 0.91 C 6368 4122 M
255 0 V
1078 1224 M
574 322 V
337 308 V
238 241 V
185 145 V
151 142 V
128 164 V
110 114 V
98 136 V
87 139 V
79 135 V
72 527 V
67 -81 V
61 128 V
57 -2 V
54 153 V
50 51 V
47 30 V
45 -102 V
43 102 V
40 -57 V
39 -103 V
37 -80 V
35 183 V
34 -212 V
32 -104 V
32 193 V
30 -156 V
29 -43 V
28 -18 V
27 101 V
26 -163 V
26 -49 V
25 7 V
24 108 V
23 20 V
23 -196 V
22 -102 V
21 -37 V
21 -48 V
21 323 V
20 -248 V
19 28 V
19 -29 V
19 71 V
18 -260 V
18 -27 V
17 273 V
17 -4 V
17 -55 V
151 -429 V
128 -54 V
111 -9 V
97 -368 V
88 -60 V
574 -650 V
336 -278 V
239 -108 V
185 4 V
151 -197 V
127 -34 V
111 -56 V
98 -30 V
87 -8 V
stroke
LTb
LCb setrgbcolor
LTb
0.90 0.62 0.00 C LCb setrgbcolor
1.000 UL
LTb
0.90 0.62 0.00 C 6368 3886 M
255 0 V
1078 1480 M
574 391 V
337 346 V
238 244 V
185 174 V
151 142 V
128 170 V
110 80 V
98 142 V
87 171 V
79 61 V
72 225 V
67 -83 V
61 115 V
57 109 V
54 -87 V
50 -12 V
47 69 V
45 -103 V
43 -102 V
40 85 V
39 -118 V
37 14 V
35 -126 V
34 -5 V
32 -114 V
32 122 V
30 -56 V
29 -83 V
28 78 V
27 -70 V
26 -18 V
26 -176 V
25 64 V
24 -150 V
23 178 V
23 -120 V
22 -152 V
21 13 V
21 154 V
21 -290 V
20 176 V
19 -48 V
19 50 V
19 -98 V
18 -124 V
18 -5 V
17 -104 V
17 140 V
17 -83 V
151 -275 V
128 -189 V
111 32 V
97 -61 V
88 -185 V
574 -579 V
336 -48 V
239 -302 V
6229 957 L
151 -24 V
127 -32 V
111 -25 V
98 -5 V
87 14 V
stroke
LTb
LCb setrgbcolor
LTb
0.94 0.89 0.26 C LCb setrgbcolor
1.000 UL
LTb
0.94 0.89 0.26 C 6368 3650 M
255 0 V
1078 1669 M
574 498 V
337 292 V
238 293 V
185 220 V
151 91 V
128 103 V
110 86 V
98 113 V
87 61 V
79 74 V
72 96 V
67 -4 V
61 11 V
57 -42 V
54 62 V
50 -55 V
47 -46 V
45 -101 V
43 8 V
40 -77 V
39 27 V
37 -167 V
35 51 V
34 -43 V
32 -160 V
32 69 V
30 -87 V
29 -93 V
28 74 V
27 -106 V
26 -133 V
26 104 V
25 -120 V
24 22 V
23 -9 V
23 13 V
22 -23 V
21 34 V
21 -79 V
21 -126 V
20 -92 V
19 36 V
19 -73 V
19 72 V
18 -109 V
18 76 V
17 -129 V
17 114 V
17 -84 V
151 -76 V
128 -267 V
111 -79 V
97 -122 V
88 -150 V
574 -465 V
336 -173 V
239 -87 V
185 -37 V
151 -55 V
127 29 V
111 -52 V
98 -42 V
87 -28 V
stroke
LTb
LCb setrgbcolor
LTb
0.00 0.45 0.70 C LCb setrgbcolor
1.000 UL
LTb
0.00 0.45 0.70 C 6368 3414 M
255 0 V
1078 1888 M
574 552 V
337 259 V
238 248 V
185 153 V
151 111 V
128 103 V
110 68 V
98 90 V
87 37 V
79 -20 V
72 72 V
67 -24 V
61 -27 V
57 -33 V
54 -24 V
50 -90 V
47 -19 V
45 -50 V
43 -92 V
40 59 V
39 -146 V
37 -113 V
35 -93 V
34 104 V
32 -12 V
32 -44 V
30 -49 V
29 -156 V
28 -31 V
27 -112 V
26 7 V
26 -32 V
25 72 V
24 -204 V
23 94 V
23 -18 V
22 -48 V
21 74 V
21 -127 V
21 -25 V
20 32 V
19 -30 V
19 -7 V
19 -197 V
18 -12 V
18 19 V
17 -75 V
17 29 V
17 -4 V
151 -229 V
128 -25 V
111 -66 V
97 -153 V
88 -78 V
574 -498 V
336 -66 V
6044 909 L
185 -50 V
151 19 V
127 -30 V
111 -22 V
98 -14 V
87 -27 V
stroke
LTb
LCb setrgbcolor
LTb
0.90 0.12 0.06 C LCb setrgbcolor
1.000 UL
LTb
0.90 0.12 0.06 C 6368 3178 M
255 0 V
1078 2120 M
574 522 V
337 324 V
238 145 V
185 133 V
151 57 V
128 93 V
110 4 V
98 17 V
87 46 V
79 5 V
72 -32 V
67 -58 V
61 1 V
57 -6 V
54 -133 V
50 -55 V
47 -40 V
45 -7 V
43 -120 V
40 -49 V
39 2 V
37 -72 V
35 -28 V
34 -85 V
32 -96 V
32 53 V
30 -99 V
29 -18 V
28 -44 V
27 -98 V
26 -23 V
26 40 V
25 -104 V
24 15 V
23 -30 V
23 23 V
22 -103 V
21 37 V
21 -67 V
21 -17 V
20 -63 V
19 -34 V
19 97 V
19 -53 V
18 -88 V
18 -62 V
17 73 V
17 -161 V
17 15 V
151 -99 V
128 -66 V
111 -93 V
97 -136 V
88 -166 V
574 -298 V
336 -101 V
6044 897 L
185 -30 V
151 -58 V
127 32 V
111 1 V
98 -30 V
87 -23 V
stroke
LTb
LCb setrgbcolor
LTb
0.00 0.00 0.00 C LCb setrgbcolor
1.000 UL
LTb
0.00 0.00 0.00 C 6368 2942 M
255 0 V
1078 2320 M
574 493 V
337 323 V
238 126 V
185 28 V
151 44 V
128 71 V
110 22 V
98 -8 V
87 -7 V
79 -35 V
72 -52 V
67 -40 V
61 -17 V
57 -98 V
54 -58 V
50 -81 V
47 -66 V
45 -81 V
43 11 V
40 -139 V
39 -69 V
37 97 V
35 -130 V
34 -129 V
32 32 V
32 -87 V
30 -29 V
29 -6 V
28 24 V
27 -68 V
26 -52 V
26 13 V
25 -63 V
24 -51 V
23 -38 V
23 11 V
22 -65 V
21 15 V
21 -75 V
21 35 V
20 -32 V
19 -51 V
19 -45 V
19 63 V
18 -183 V
18 119 V
17 -57 V
17 -13 V
17 -29 V
151 -143 V
128 -182 V
111 -46 V
97 -162 V
88 43 V
574 -374 V
336 -86 V
239 -75 V
185 -30 V
151 -3 V
127 -13 V
111 -21 V
98 -41 V
87 15 V
stroke
2.000 UL
LTb
LCb setrgbcolor
LTb
1.000 UL
LTb
1078 4775 N
0 -4071 V
5725 0 V
0 4071 V
-5725 0 V
Z stroke
1.000 UP
1.000 UL
LTb
stroke
grestore
end
showpage
%%Trailer
