%!PS-Adobe-2.0 EPSF-2.0
%%Title: exc2_5_6_3d_lost_checksum_err_efficiency/protocol5/exc2_5_6_3d_lost_checksum_err_efficiency.tex
%%Creator: gnuplot 5.0 patchlevel 1
%%CreationDate: Mon Nov  2 07:41:37 2015
%%DocumentFonts: 
%%BoundingBox: 50 50 410 302
%%EndComments
%%BeginProlog
/gnudict 256 dict def
gnudict begin
%
% The following true/false flags may be edited by hand if desired.
% The unit line width and grayscale image gamma correction may also be changed.
%
/Color false def
/Blacktext true def
/Solid false def
/Dashlength 1 def
/Landscape false def
/Level1 false def
/Level3 false def
/Rounded false def
/ClipToBoundingBox false def
/SuppressPDFMark false def
/TransparentPatterns false def
/gnulinewidth 5.000 def
/userlinewidth gnulinewidth def
/Gamma 1.0 def
/BackgroundColor {-1.000 -1.000 -1.000} def
%
/vshift -73 def
/dl1 {
  10.0 Dashlength userlinewidth gnulinewidth div mul mul mul
  Rounded { currentlinewidth 0.75 mul sub dup 0 le { pop 0.01 } if } if
} def
/dl2 {
  10.0 Dashlength userlinewidth gnulinewidth div mul mul mul
  Rounded { currentlinewidth 0.75 mul add } if
} def
/hpt_ 31.5 def
/vpt_ 31.5 def
/hpt hpt_ def
/vpt vpt_ def
/doclip {
  ClipToBoundingBox {
    newpath 50 50 moveto 410 50 lineto 410 302 lineto 50 302 lineto closepath
    clip
  } if
} def
%
% Gnuplot Prolog Version 5.0 (Dec 2014)
%
%/SuppressPDFMark true def
%
/M {moveto} bind def
/L {lineto} bind def
/R {rmoveto} bind def
/V {rlineto} bind def
/N {newpath moveto} bind def
/Z {closepath} bind def
/C {setrgbcolor} bind def
/f {rlineto fill} bind def
/g {setgray} bind def
/Gshow {show} def   % May be redefined later in the file to support UTF-8
/vpt2 vpt 2 mul def
/hpt2 hpt 2 mul def
/Lshow {currentpoint stroke M 0 vshift R 
	Blacktext {gsave 0 setgray textshow grestore} {textshow} ifelse} def
/Rshow {currentpoint stroke M dup stringwidth pop neg vshift R
	Blacktext {gsave 0 setgray textshow grestore} {textshow} ifelse} def
/Cshow {currentpoint stroke M dup stringwidth pop -2 div vshift R 
	Blacktext {gsave 0 setgray textshow grestore} {textshow} ifelse} def
/UP {dup vpt_ mul /vpt exch def hpt_ mul /hpt exch def
  /hpt2 hpt 2 mul def /vpt2 vpt 2 mul def} def
/DL {Color {setrgbcolor Solid {pop []} if 0 setdash}
 {pop pop pop 0 setgray Solid {pop []} if 0 setdash} ifelse} def
/BL {stroke userlinewidth 2 mul setlinewidth
	Rounded {1 setlinejoin 1 setlinecap} if} def
/AL {stroke userlinewidth 2 div setlinewidth
	Rounded {1 setlinejoin 1 setlinecap} if} def
/UL {dup gnulinewidth mul /userlinewidth exch def
	dup 1 lt {pop 1} if 10 mul /udl exch def} def
/PL {stroke userlinewidth setlinewidth
	Rounded {1 setlinejoin 1 setlinecap} if} def
3.8 setmiterlimit
% Classic Line colors (version 5.0)
/LCw {1 1 1} def
/LCb {0 0 0} def
/LCa {0 0 0} def
/LC0 {1 0 0} def
/LC1 {0 1 0} def
/LC2 {0 0 1} def
/LC3 {1 0 1} def
/LC4 {0 1 1} def
/LC5 {1 1 0} def
/LC6 {0 0 0} def
/LC7 {1 0.3 0} def
/LC8 {0.5 0.5 0.5} def
% Default dash patterns (version 5.0)
/LTw {PL [] 1 setgray} def
/LTb {BL [] LCb DL} def
/LTa {AL [1 udl mul 2 udl mul] 0 setdash LCa setrgbcolor} def
/LT0 {PL [] LC0 DL} def
/LT1 {PL [2 dl1 3 dl2] LC1 DL} def
/LT2 {PL [1 dl1 1.5 dl2] LC2 DL} def
/LT3 {PL [6 dl1 2 dl2 1 dl1 2 dl2] LC3 DL} def
/LT4 {PL [1 dl1 2 dl2 6 dl1 2 dl2 1 dl1 2 dl2] LC4 DL} def
/LT5 {PL [4 dl1 2 dl2] LC5 DL} def
/LT6 {PL [1.5 dl1 1.5 dl2 1.5 dl1 1.5 dl2 1.5 dl1 6 dl2] LC6 DL} def
/LT7 {PL [3 dl1 3 dl2 1 dl1 3 dl2] LC7 DL} def
/LT8 {PL [2 dl1 2 dl2 2 dl1 6 dl2] LC8 DL} def
/SL {[] 0 setdash} def
/Pnt {stroke [] 0 setdash gsave 1 setlinecap M 0 0 V stroke grestore} def
/Dia {stroke [] 0 setdash 2 copy vpt add M
  hpt neg vpt neg V hpt vpt neg V
  hpt vpt V hpt neg vpt V closepath stroke
  Pnt} def
/Pls {stroke [] 0 setdash vpt sub M 0 vpt2 V
  currentpoint stroke M
  hpt neg vpt neg R hpt2 0 V stroke
 } def
/Box {stroke [] 0 setdash 2 copy exch hpt sub exch vpt add M
  0 vpt2 neg V hpt2 0 V 0 vpt2 V
  hpt2 neg 0 V closepath stroke
  Pnt} def
/Crs {stroke [] 0 setdash exch hpt sub exch vpt add M
  hpt2 vpt2 neg V currentpoint stroke M
  hpt2 neg 0 R hpt2 vpt2 V stroke} def
/TriU {stroke [] 0 setdash 2 copy vpt 1.12 mul add M
  hpt neg vpt -1.62 mul V
  hpt 2 mul 0 V
  hpt neg vpt 1.62 mul V closepath stroke
  Pnt} def
/Star {2 copy Pls Crs} def
/BoxF {stroke [] 0 setdash exch hpt sub exch vpt add M
  0 vpt2 neg V hpt2 0 V 0 vpt2 V
  hpt2 neg 0 V closepath fill} def
/TriUF {stroke [] 0 setdash vpt 1.12 mul add M
  hpt neg vpt -1.62 mul V
  hpt 2 mul 0 V
  hpt neg vpt 1.62 mul V closepath fill} def
/TriD {stroke [] 0 setdash 2 copy vpt 1.12 mul sub M
  hpt neg vpt 1.62 mul V
  hpt 2 mul 0 V
  hpt neg vpt -1.62 mul V closepath stroke
  Pnt} def
/TriDF {stroke [] 0 setdash vpt 1.12 mul sub M
  hpt neg vpt 1.62 mul V
  hpt 2 mul 0 V
  hpt neg vpt -1.62 mul V closepath fill} def
/DiaF {stroke [] 0 setdash vpt add M
  hpt neg vpt neg V hpt vpt neg V
  hpt vpt V hpt neg vpt V closepath fill} def
/Pent {stroke [] 0 setdash 2 copy gsave
  translate 0 hpt M 4 {72 rotate 0 hpt L} repeat
  closepath stroke grestore Pnt} def
/PentF {stroke [] 0 setdash gsave
  translate 0 hpt M 4 {72 rotate 0 hpt L} repeat
  closepath fill grestore} def
/Circle {stroke [] 0 setdash 2 copy
  hpt 0 360 arc stroke Pnt} def
/CircleF {stroke [] 0 setdash hpt 0 360 arc fill} def
/C0 {BL [] 0 setdash 2 copy moveto vpt 90 450 arc} bind def
/C1 {BL [] 0 setdash 2 copy moveto
	2 copy vpt 0 90 arc closepath fill
	vpt 0 360 arc closepath} bind def
/C2 {BL [] 0 setdash 2 copy moveto
	2 copy vpt 90 180 arc closepath fill
	vpt 0 360 arc closepath} bind def
/C3 {BL [] 0 setdash 2 copy moveto
	2 copy vpt 0 180 arc closepath fill
	vpt 0 360 arc closepath} bind def
/C4 {BL [] 0 setdash 2 copy moveto
	2 copy vpt 180 270 arc closepath fill
	vpt 0 360 arc closepath} bind def
/C5 {BL [] 0 setdash 2 copy moveto
	2 copy vpt 0 90 arc
	2 copy moveto
	2 copy vpt 180 270 arc closepath fill
	vpt 0 360 arc} bind def
/C6 {BL [] 0 setdash 2 copy moveto
	2 copy vpt 90 270 arc closepath fill
	vpt 0 360 arc closepath} bind def
/C7 {BL [] 0 setdash 2 copy moveto
	2 copy vpt 0 270 arc closepath fill
	vpt 0 360 arc closepath} bind def
/C8 {BL [] 0 setdash 2 copy moveto
	2 copy vpt 270 360 arc closepath fill
	vpt 0 360 arc closepath} bind def
/C9 {BL [] 0 setdash 2 copy moveto
	2 copy vpt 270 450 arc closepath fill
	vpt 0 360 arc closepath} bind def
/C10 {BL [] 0 setdash 2 copy 2 copy moveto vpt 270 360 arc closepath fill
	2 copy moveto
	2 copy vpt 90 180 arc closepath fill
	vpt 0 360 arc closepath} bind def
/C11 {BL [] 0 setdash 2 copy moveto
	2 copy vpt 0 180 arc closepath fill
	2 copy moveto
	2 copy vpt 270 360 arc closepath fill
	vpt 0 360 arc closepath} bind def
/C12 {BL [] 0 setdash 2 copy moveto
	2 copy vpt 180 360 arc closepath fill
	vpt 0 360 arc closepath} bind def
/C13 {BL [] 0 setdash 2 copy moveto
	2 copy vpt 0 90 arc closepath fill
	2 copy moveto
	2 copy vpt 180 360 arc closepath fill
	vpt 0 360 arc closepath} bind def
/C14 {BL [] 0 setdash 2 copy moveto
	2 copy vpt 90 360 arc closepath fill
	vpt 0 360 arc} bind def
/C15 {BL [] 0 setdash 2 copy vpt 0 360 arc closepath fill
	vpt 0 360 arc closepath} bind def
/Rec {newpath 4 2 roll moveto 1 index 0 rlineto 0 exch rlineto
	neg 0 rlineto closepath} bind def
/Square {dup Rec} bind def
/Bsquare {vpt sub exch vpt sub exch vpt2 Square} bind def
/S0 {BL [] 0 setdash 2 copy moveto 0 vpt rlineto BL Bsquare} bind def
/S1 {BL [] 0 setdash 2 copy vpt Square fill Bsquare} bind def
/S2 {BL [] 0 setdash 2 copy exch vpt sub exch vpt Square fill Bsquare} bind def
/S3 {BL [] 0 setdash 2 copy exch vpt sub exch vpt2 vpt Rec fill Bsquare} bind def
/S4 {BL [] 0 setdash 2 copy exch vpt sub exch vpt sub vpt Square fill Bsquare} bind def
/S5 {BL [] 0 setdash 2 copy 2 copy vpt Square fill
	exch vpt sub exch vpt sub vpt Square fill Bsquare} bind def
/S6 {BL [] 0 setdash 2 copy exch vpt sub exch vpt sub vpt vpt2 Rec fill Bsquare} bind def
/S7 {BL [] 0 setdash 2 copy exch vpt sub exch vpt sub vpt vpt2 Rec fill
	2 copy vpt Square fill Bsquare} bind def
/S8 {BL [] 0 setdash 2 copy vpt sub vpt Square fill Bsquare} bind def
/S9 {BL [] 0 setdash 2 copy vpt sub vpt vpt2 Rec fill Bsquare} bind def
/S10 {BL [] 0 setdash 2 copy vpt sub vpt Square fill 2 copy exch vpt sub exch vpt Square fill
	Bsquare} bind def
/S11 {BL [] 0 setdash 2 copy vpt sub vpt Square fill 2 copy exch vpt sub exch vpt2 vpt Rec fill
	Bsquare} bind def
/S12 {BL [] 0 setdash 2 copy exch vpt sub exch vpt sub vpt2 vpt Rec fill Bsquare} bind def
/S13 {BL [] 0 setdash 2 copy exch vpt sub exch vpt sub vpt2 vpt Rec fill
	2 copy vpt Square fill Bsquare} bind def
/S14 {BL [] 0 setdash 2 copy exch vpt sub exch vpt sub vpt2 vpt Rec fill
	2 copy exch vpt sub exch vpt Square fill Bsquare} bind def
/S15 {BL [] 0 setdash 2 copy Bsquare fill Bsquare} bind def
/D0 {gsave translate 45 rotate 0 0 S0 stroke grestore} bind def
/D1 {gsave translate 45 rotate 0 0 S1 stroke grestore} bind def
/D2 {gsave translate 45 rotate 0 0 S2 stroke grestore} bind def
/D3 {gsave translate 45 rotate 0 0 S3 stroke grestore} bind def
/D4 {gsave translate 45 rotate 0 0 S4 stroke grestore} bind def
/D5 {gsave translate 45 rotate 0 0 S5 stroke grestore} bind def
/D6 {gsave translate 45 rotate 0 0 S6 stroke grestore} bind def
/D7 {gsave translate 45 rotate 0 0 S7 stroke grestore} bind def
/D8 {gsave translate 45 rotate 0 0 S8 stroke grestore} bind def
/D9 {gsave translate 45 rotate 0 0 S9 stroke grestore} bind def
/D10 {gsave translate 45 rotate 0 0 S10 stroke grestore} bind def
/D11 {gsave translate 45 rotate 0 0 S11 stroke grestore} bind def
/D12 {gsave translate 45 rotate 0 0 S12 stroke grestore} bind def
/D13 {gsave translate 45 rotate 0 0 S13 stroke grestore} bind def
/D14 {gsave translate 45 rotate 0 0 S14 stroke grestore} bind def
/D15 {gsave translate 45 rotate 0 0 S15 stroke grestore} bind def
/DiaE {stroke [] 0 setdash vpt add M
  hpt neg vpt neg V hpt vpt neg V
  hpt vpt V hpt neg vpt V closepath stroke} def
/BoxE {stroke [] 0 setdash exch hpt sub exch vpt add M
  0 vpt2 neg V hpt2 0 V 0 vpt2 V
  hpt2 neg 0 V closepath stroke} def
/TriUE {stroke [] 0 setdash vpt 1.12 mul add M
  hpt neg vpt -1.62 mul V
  hpt 2 mul 0 V
  hpt neg vpt 1.62 mul V closepath stroke} def
/TriDE {stroke [] 0 setdash vpt 1.12 mul sub M
  hpt neg vpt 1.62 mul V
  hpt 2 mul 0 V
  hpt neg vpt -1.62 mul V closepath stroke} def
/PentE {stroke [] 0 setdash gsave
  translate 0 hpt M 4 {72 rotate 0 hpt L} repeat
  closepath stroke grestore} def
/CircE {stroke [] 0 setdash 
  hpt 0 360 arc stroke} def
/Opaque {gsave closepath 1 setgray fill grestore 0 setgray closepath} def
/DiaW {stroke [] 0 setdash vpt add M
  hpt neg vpt neg V hpt vpt neg V
  hpt vpt V hpt neg vpt V Opaque stroke} def
/BoxW {stroke [] 0 setdash exch hpt sub exch vpt add M
  0 vpt2 neg V hpt2 0 V 0 vpt2 V
  hpt2 neg 0 V Opaque stroke} def
/TriUW {stroke [] 0 setdash vpt 1.12 mul add M
  hpt neg vpt -1.62 mul V
  hpt 2 mul 0 V
  hpt neg vpt 1.62 mul V Opaque stroke} def
/TriDW {stroke [] 0 setdash vpt 1.12 mul sub M
  hpt neg vpt 1.62 mul V
  hpt 2 mul 0 V
  hpt neg vpt -1.62 mul V Opaque stroke} def
/PentW {stroke [] 0 setdash gsave
  translate 0 hpt M 4 {72 rotate 0 hpt L} repeat
  Opaque stroke grestore} def
/CircW {stroke [] 0 setdash 
  hpt 0 360 arc Opaque stroke} def
/BoxFill {gsave Rec 1 setgray fill grestore} def
/Density {
  /Fillden exch def
  currentrgbcolor
  /ColB exch def /ColG exch def /ColR exch def
  /ColR ColR Fillden mul Fillden sub 1 add def
  /ColG ColG Fillden mul Fillden sub 1 add def
  /ColB ColB Fillden mul Fillden sub 1 add def
  ColR ColG ColB setrgbcolor} def
/BoxColFill {gsave Rec PolyFill} def
/PolyFill {gsave Density fill grestore grestore} def
/h {rlineto rlineto rlineto gsave closepath fill grestore} bind def
%
% PostScript Level 1 Pattern Fill routine for rectangles
% Usage: x y w h s a XX PatternFill
%	x,y = lower left corner of box to be filled
%	w,h = width and height of box
%	  a = angle in degrees between lines and x-axis
%	 XX = 0/1 for no/yes cross-hatch
%
/PatternFill {gsave /PFa [ 9 2 roll ] def
  PFa 0 get PFa 2 get 2 div add PFa 1 get PFa 3 get 2 div add translate
  PFa 2 get -2 div PFa 3 get -2 div PFa 2 get PFa 3 get Rec
  TransparentPatterns {} {gsave 1 setgray fill grestore} ifelse
  clip
  currentlinewidth 0.5 mul setlinewidth
  /PFs PFa 2 get dup mul PFa 3 get dup mul add sqrt def
  0 0 M PFa 5 get rotate PFs -2 div dup translate
  0 1 PFs PFa 4 get div 1 add floor cvi
	{PFa 4 get mul 0 M 0 PFs V} for
  0 PFa 6 get ne {
	0 1 PFs PFa 4 get div 1 add floor cvi
	{PFa 4 get mul 0 2 1 roll M PFs 0 V} for
 } if
  stroke grestore} def
%
/languagelevel where
 {pop languagelevel} {1} ifelse
dup 2 lt
	{/InterpretLevel1 true def
	 /InterpretLevel3 false def}
	{/InterpretLevel1 Level1 def
	 2 gt
	    {/InterpretLevel3 Level3 def}
	    {/InterpretLevel3 false def}
	 ifelse }
 ifelse
%
% PostScript level 2 pattern fill definitions
%
/Level2PatternFill {
/Tile8x8 {/PaintType 2 /PatternType 1 /TilingType 1 /BBox [0 0 8 8] /XStep 8 /YStep 8}
	bind def
/KeepColor {currentrgbcolor [/Pattern /DeviceRGB] setcolorspace} bind def
<< Tile8x8
 /PaintProc {0.5 setlinewidth pop 0 0 M 8 8 L 0 8 M 8 0 L stroke} 
>> matrix makepattern
/Pat1 exch def
<< Tile8x8
 /PaintProc {0.5 setlinewidth pop 0 0 M 8 8 L 0 8 M 8 0 L stroke
	0 4 M 4 8 L 8 4 L 4 0 L 0 4 L stroke}
>> matrix makepattern
/Pat2 exch def
<< Tile8x8
 /PaintProc {0.5 setlinewidth pop 0 0 M 0 8 L
	8 8 L 8 0 L 0 0 L fill}
>> matrix makepattern
/Pat3 exch def
<< Tile8x8
 /PaintProc {0.5 setlinewidth pop -4 8 M 8 -4 L
	0 12 M 12 0 L stroke}
>> matrix makepattern
/Pat4 exch def
<< Tile8x8
 /PaintProc {0.5 setlinewidth pop -4 0 M 8 12 L
	0 -4 M 12 8 L stroke}
>> matrix makepattern
/Pat5 exch def
<< Tile8x8
 /PaintProc {0.5 setlinewidth pop -2 8 M 4 -4 L
	0 12 M 8 -4 L 4 12 M 10 0 L stroke}
>> matrix makepattern
/Pat6 exch def
<< Tile8x8
 /PaintProc {0.5 setlinewidth pop -2 0 M 4 12 L
	0 -4 M 8 12 L 4 -4 M 10 8 L stroke}
>> matrix makepattern
/Pat7 exch def
<< Tile8x8
 /PaintProc {0.5 setlinewidth pop 8 -2 M -4 4 L
	12 0 M -4 8 L 12 4 M 0 10 L stroke}
>> matrix makepattern
/Pat8 exch def
<< Tile8x8
 /PaintProc {0.5 setlinewidth pop 0 -2 M 12 4 L
	-4 0 M 12 8 L -4 4 M 8 10 L stroke}
>> matrix makepattern
/Pat9 exch def
/Pattern1 {PatternBgnd KeepColor Pat1 setpattern} bind def
/Pattern2 {PatternBgnd KeepColor Pat2 setpattern} bind def
/Pattern3 {PatternBgnd KeepColor Pat3 setpattern} bind def
/Pattern4 {PatternBgnd KeepColor Landscape {Pat5} {Pat4} ifelse setpattern} bind def
/Pattern5 {PatternBgnd KeepColor Landscape {Pat4} {Pat5} ifelse setpattern} bind def
/Pattern6 {PatternBgnd KeepColor Landscape {Pat9} {Pat6} ifelse setpattern} bind def
/Pattern7 {PatternBgnd KeepColor Landscape {Pat8} {Pat7} ifelse setpattern} bind def
} def
%
%
%End of PostScript Level 2 code
%
/PatternBgnd {
  TransparentPatterns {} {gsave 1 setgray fill grestore} ifelse
} def
%
% Substitute for Level 2 pattern fill codes with
% grayscale if Level 2 support is not selected.
%
/Level1PatternFill {
/Pattern1 {0.250 Density} bind def
/Pattern2 {0.500 Density} bind def
/Pattern3 {0.750 Density} bind def
/Pattern4 {0.125 Density} bind def
/Pattern5 {0.375 Density} bind def
/Pattern6 {0.625 Density} bind def
/Pattern7 {0.875 Density} bind def
} def
%
% Now test for support of Level 2 code
%
Level1 {Level1PatternFill} {Level2PatternFill} ifelse
%
/Symbol-Oblique /Symbol findfont [1 0 .167 1 0 0] makefont
dup length dict begin {1 index /FID eq {pop pop} {def} ifelse} forall
currentdict end definefont pop
%
Level1 SuppressPDFMark or 
{} {
/SDict 10 dict def
systemdict /pdfmark known not {
  userdict /pdfmark systemdict /cleartomark get put
} if
SDict begin [
  /Title (exc2_5_6_3d_lost_checksum_err_efficiency/protocol5/exc2_5_6_3d_lost_checksum_err_efficiency.tex)
  /Subject (gnuplot plot)
  /Creator (gnuplot 5.0 patchlevel 1)
  /Author (asiron)
%  /Producer (gnuplot)
%  /Keywords ()
  /CreationDate (Mon Nov  2 07:41:37 2015)
  /DOCINFO pdfmark
end
} ifelse
end
%
% Support for boxed text - Ethan A Merritt May 2005
%
/InitTextBox { userdict /TBy2 3 -1 roll put userdict /TBx2 3 -1 roll put
           userdict /TBy1 3 -1 roll put userdict /TBx1 3 -1 roll put
	   /Boxing true def } def
/ExtendTextBox { Boxing
    { gsave dup false charpath pathbbox
      dup TBy2 gt {userdict /TBy2 3 -1 roll put} {pop} ifelse
      dup TBx2 gt {userdict /TBx2 3 -1 roll put} {pop} ifelse
      dup TBy1 lt {userdict /TBy1 3 -1 roll put} {pop} ifelse
      dup TBx1 lt {userdict /TBx1 3 -1 roll put} {pop} ifelse
      grestore } if } def
/PopTextBox { newpath TBx1 TBxmargin sub TBy1 TBymargin sub M
               TBx1 TBxmargin sub TBy2 TBymargin add L
	       TBx2 TBxmargin add TBy2 TBymargin add L
	       TBx2 TBxmargin add TBy1 TBymargin sub L closepath } def
/DrawTextBox { PopTextBox stroke /Boxing false def} def
/FillTextBox { gsave PopTextBox 1 1 1 setrgbcolor fill grestore /Boxing false def} def
0 0 0 0 InitTextBox
/TBxmargin 20 def
/TBymargin 20 def
/Boxing false def
/textshow { ExtendTextBox Gshow } def
%
%%EndProlog
%%Page: 1 1
gnudict begin
gsave
doclip
50 50 translate
0.050 0.050 scale
0 setgray
newpath
1.000 UL
LTb
LCb setrgbcolor
LTb
1.000 UL
LTb
1046 1384 M
2916 2413 L
6154 1819 M
2916 2413 L
1046 1384 M
0 2057 V
0 -2057 R
50 28 V
2916 2413 M
-50 -27 V
1586 1285 M
49 28 V
3456 2314 M
-50 -27 V
2126 1186 M
49 28 V
3995 2215 M
-50 -27 V
2666 1087 M
49 28 V
4534 2116 M
-49 -27 V
3205 988 M
50 28 V
5074 2017 M
-49 -27 V
3744 889 M
50 28 V
5614 1918 M
-49 -27 V
4284 790 M
50 28 V
6154 1819 M
-50 -27 V
4284 790 M
-55 10 V
1046 1384 M
55 -10 V
4596 962 M
-55 10 V
1358 1556 M
54 -10 V
4907 1133 M
-54 10 V
1669 1727 M
55 -10 V
5219 1305 M
-55 10 V
1981 1899 M
55 -10 V
5531 1476 M
-55 10 V
2293 2070 M
54 -10 V
5842 1648 M
-54 10 V
2604 2242 M
55 -10 V
6154 1819 M
-55 10 V
2916 2413 M
55 -10 V
1046 2070 M
63 0 V
-63 153 R
63 0 V
-63 152 R
63 0 V
-63 152 R
63 0 V
-63 152 R
63 0 V
-63 152 R
63 0 V
-63 153 R
63 0 V
-63 152 R
63 0 V
-63 152 R
63 0 V
-63 153 R
63 0 V
1.000 UP
1.000 UP
stroke
0.58 0.00 0.83 C 1046 3441 Pls
1108 3353 Pls
1171 3281 Pls
1233 3254 Pls
1295 3212 Pls
1358 3170 Pls
1420 3144 Pls
1482 3132 Pls
1545 3121 Pls
1607 3125 Pls
1669 3098 Pls
1732 3102 Pls
1794 3106 Pls
1856 3109 Pls
1919 3113 Pls
1981 3102 Pls
2043 3121 Pls
2106 3125 Pls
2168 3128 Pls
2230 3148 Pls
2293 3167 Pls
2355 3170 Pls
2417 3189 Pls
2480 3193 Pls
2542 3212 Pls
2604 3231 Pls
2667 3250 Pls
2729 3254 Pls
2791 3288 Pls
2854 3308 Pls
2916 3327 Pls
1154 3299 Pls
1216 3273 Pls
1279 3231 Pls
1341 3189 Pls
1403 3147 Pls
1466 3120 Pls
1528 3093 Pls
1590 3097 Pls
1653 3101 Pls
1715 3074 Pls
1777 3078 Pls
1840 3067 Pls
1902 3071 Pls
1964 3059 Pls
2027 3078 Pls
2089 3067 Pls
2151 3071 Pls
2214 3105 Pls
2276 3093 Pls
2338 3097 Pls
2401 3132 Pls
2463 3135 Pls
2525 3139 Pls
2588 3158 Pls
2650 3177 Pls
2712 3212 Pls
2775 3215 Pls
2837 3250 Pls
2899 3253 Pls
2962 3273 Pls
3024 3322 Pls
1262 3173 Pls
1324 3176 Pls
1387 3150 Pls
1449 3093 Pls
1511 3112 Pls
1574 3070 Pls
1636 3028 Pls
1698 3047 Pls
1761 3036 Pls
1823 3009 Pls
1885 3028 Pls
1948 3032 Pls
2010 3020 Pls
2072 3039 Pls
2135 3013 Pls
2197 3016 Pls
2259 3051 Pls
2322 3070 Pls
2384 3058 Pls
2446 3077 Pls
2509 3112 Pls
2571 3100 Pls
2633 3119 Pls
2696 3123 Pls
2758 3157 Pls
2820 3161 Pls
2883 3196 Pls
2945 3215 Pls
3007 3218 Pls
3070 3237 Pls
3132 3272 Pls
1370 3077 Pls
1432 3080 Pls
1495 3054 Pls
1557 3027 Pls
1619 3000 Pls
1682 3035 Pls
1744 3008 Pls
1806 2981 Pls
1869 3000 Pls
1931 2959 Pls
1993 2978 Pls
2056 2966 Pls
2118 2955 Pls
2180 2974 Pls
2243 3008 Pls
2305 2981 Pls
2367 3000 Pls
2430 3004 Pls
2492 3039 Pls
2554 3058 Pls
2617 3061 Pls
2679 3050 Pls
2741 3100 Pls
2804 3103 Pls
2866 3122 Pls
2928 3126 Pls
2991 3176 Pls
3053 3180 Pls
3115 3199 Pls
3178 3233 Pls
3240 3237 Pls
1478 2981 Pls
1540 2969 Pls
1603 2958 Pls
1665 2977 Pls
1727 3026 Pls
1790 2969 Pls
1852 2943 Pls
1914 2946 Pls
1977 2920 Pls
2039 2908 Pls
2101 2943 Pls
2164 2977 Pls
2226 2935 Pls
2288 2954 Pls
2351 2973 Pls
2413 2931 Pls
2475 2981 Pls
2538 3000 Pls
2600 2988 Pls
2662 2992 Pls
2725 3026 Pls
2787 3030 Pls
2849 3064 Pls
2912 3068 Pls
2974 3087 Pls
3036 3122 Pls
3099 3156 Pls
3161 3145 Pls
3223 3194 Pls
3286 3183 Pls
3348 3217 Pls
1586 2885 Pls
1648 2888 Pls
1711 2923 Pls
1773 2881 Pls
1835 2915 Pls
1898 2858 Pls
1960 2847 Pls
2022 2942 Pls
2085 2839 Pls
2147 2904 Pls
2209 2877 Pls
2272 2881 Pls
2334 2885 Pls
2396 2934 Pls
2459 2923 Pls
2521 2927 Pls
2583 2946 Pls
2646 2919 Pls
2708 2953 Pls
2770 2972 Pls
2833 2991 Pls
2895 3026 Pls
2957 2999 Pls
3020 3049 Pls
3082 3052 Pls
3144 3087 Pls
3207 3106 Pls
3269 3109 Pls
3331 3144 Pls
3394 3148 Pls
3456 3182 Pls
1694 2850 Pls
1756 2838 Pls
1818 2812 Pls
1881 2815 Pls
1943 2819 Pls
2005 2869 Pls
2068 2857 Pls
2130 2800 Pls
2192 2850 Pls
2255 2838 Pls
2317 2842 Pls
2379 2861 Pls
2442 2834 Pls
2504 2869 Pls
2566 2903 Pls
2629 2876 Pls
2691 2895 Pls
2753 2930 Pls
2816 2933 Pls
2878 2937 Pls
2940 2926 Pls
3003 2960 Pls
3065 2979 Pls
3127 3029 Pls
3190 3017 Pls
3252 3067 Pls
3314 3086 Pls
3377 3105 Pls
3439 3109 Pls
3501 3128 Pls
3564 3162 Pls
1802 2723 Pls
1864 2757 Pls
1926 2776 Pls
1989 2750 Pls
2051 2769 Pls
2113 2788 Pls
2176 2746 Pls
2238 2780 Pls
2300 2830 Pls
2363 2803 Pls
2425 2807 Pls
2487 2856 Pls
2550 2830 Pls
2612 2788 Pls
2674 2822 Pls
2737 2872 Pls
2799 2860 Pls
2861 2849 Pls
2924 2883 Pls
2986 2902 Pls
3048 2967 Pls
3111 2925 Pls
3173 2959 Pls
3235 2978 Pls
3298 2997 Pls
3360 3032 Pls
3422 3066 Pls
3485 3055 Pls
3547 3074 Pls
3608 3093 Pls
3671 3142 Pls
1910 2673 Pls
1972 2692 Pls
2034 2696 Pls
2097 2684 Pls
2159 2703 Pls
2221 2738 Pls
2284 2757 Pls
2346 2745 Pls
2408 2719 Pls
2471 2783 Pls
2533 2757 Pls
2595 2730 Pls
2658 2749 Pls
2720 2783 Pls
2782 2757 Pls
2845 2821 Pls
2907 2840 Pls
2969 2829 Pls
3032 2879 Pls
3094 2882 Pls
3156 2901 Pls
3219 2905 Pls
3281 2955 Pls
3343 2943 Pls
3406 2978 Pls
3468 2997 Pls
3530 3001 Pls
3593 3035 Pls
3654 3069 Pls
3716 3073 Pls
3779 3107 Pls
2018 2638 Pls
2080 2642 Pls
2142 2645 Pls
2205 2664 Pls
2267 2668 Pls
2329 2657 Pls
2392 2645 Pls
2454 2664 Pls
2516 2714 Pls
2579 2733 Pls
2641 2706 Pls
2703 2756 Pls
2766 2744 Pls
2828 2733 Pls
2890 2752 Pls
2953 2771 Pls
3015 2805 Pls
3077 2825 Pls
3140 2844 Pls
3202 2847 Pls
3264 2851 Pls
3327 2885 Pls
3389 2889 Pls
3451 2908 Pls
3514 2927 Pls
3576 2977 Pls
3637 2981 Pls
3700 3015 Pls
3762 3019 Pls
3824 3068 Pls
3887 3087 Pls
2126 2558 Pls
2188 2577 Pls
2250 2596 Pls
2313 2585 Pls
2375 2604 Pls
2437 2592 Pls
2500 2611 Pls
2562 2660 Pls
2624 2664 Pls
2687 2623 Pls
2749 2656 Pls
2811 2675 Pls
2874 2679 Pls
2936 2728 Pls
2998 2702 Pls
3061 2736 Pls
3123 2755 Pls
3185 2789 Pls
3248 2824 Pls
3310 2828 Pls
3372 2831 Pls
3435 2866 Pls
3497 2869 Pls
3559 2889 Pls
3621 2908 Pls
3683 2927 Pls
3745 2961 Pls
3808 3010 Pls
3870 3014 Pls
3932 3033 Pls
3995 3052 Pls
2234 2508 Pls
2296 2527 Pls
2358 2515 Pls
2421 2550 Pls
2483 2538 Pls
2545 2542 Pls
2608 2561 Pls
2670 2565 Pls
2732 2614 Pls
2795 2663 Pls
2857 2592 Pls
2919 2640 Pls
2982 2630 Pls
3044 2663 Pls
3106 2682 Pls
3169 2686 Pls
3231 2720 Pls
3293 2724 Pls
3356 2789 Pls
3418 2793 Pls
3480 2812 Pls
3543 2815 Pls
3604 2850 Pls
3666 2853 Pls
3729 2873 Pls
3791 2892 Pls
3853 2926 Pls
3916 2945 Pls
3978 2979 Pls
4040 3014 Pls
4103 3033 Pls
2342 2442 Pls
2404 2446 Pls
2466 2465 Pls
2529 2469 Pls
2591 2473 Pls
2653 2492 Pls
2716 2496 Pls
2778 2530 Pls
2840 2564 Pls
2903 2583 Pls
2965 2572 Pls
3027 2560 Pls
3090 2655 Pls
3152 2643 Pls
3214 2632 Pls
3277 2666 Pls
3339 2700 Pls
3401 2704 Pls
3464 2723 Pls
3526 2757 Pls
3588 2761 Pls
3650 2780 Pls
3712 2815 Pls
3774 2834 Pls
3837 2838 Pls
3899 2872 Pls
3961 2891 Pls
4024 2910 Pls
4086 2959 Pls
4148 2963 Pls
4211 3013 Pls
2450 2392 Pls
2512 2411 Pls
2574 2430 Pls
2637 2434 Pls
2699 2438 Pls
2761 2441 Pls
2824 2476 Pls
2886 2480 Pls
2948 2514 Pls
3011 2548 Pls
3073 2552 Pls
3135 2556 Pls
3198 2575 Pls
3260 2579 Pls
3322 2628 Pls
3385 2617 Pls
3447 2650 Pls
3509 2654 Pls
3572 2673 Pls
3633 2753 Pls
3695 2711 Pls
3758 2730 Pls
3820 2780 Pls
3882 2829 Pls
3945 2818 Pls
4007 2852 Pls
4069 2886 Pls
4132 2890 Pls
4194 2924 Pls
4256 2959 Pls
4319 2978 Pls
2558 2357 Pls
2620 2345 Pls
2682 2349 Pls
2745 2384 Pls
2807 2387 Pls
2869 2406 Pls
2932 2441 Pls
2994 2445 Pls
3056 2448 Pls
3119 2483 Pls
3181 2517 Pls
3243 2536 Pls
3306 2540 Pls
3368 2574 Pls
3430 2593 Pls
3493 2642 Pls
3555 2630 Pls
3616 2680 Pls
3679 2684 Pls
3741 2672 Pls
3803 2676 Pls
3866 2710 Pls
3928 2745 Pls
3990 2764 Pls
4053 2798 Pls
4115 2832 Pls
4177 2821 Pls
4240 2886 Pls
4302 2905 Pls
4364 2939 Pls
4427 2943 Pls
2666 2276 Pls
2728 2280 Pls
2790 2314 Pls
2853 2333 Pls
2915 2322 Pls
2977 2371 Pls
3040 2375 Pls
3102 2379 Pls
3164 2429 Pls
3227 2432 Pls
3289 2482 Pls
3351 2486 Pls
3414 2505 Pls
3476 2524 Pls
3538 2558 Pls
3600 2547 Pls
3662 2596 Pls
3724 2630 Pls
3786 2633 Pls
3849 2652 Pls
3911 2687 Pls
3973 2706 Pls
4036 2725 Pls
4098 2759 Pls
4161 2763 Pls
4223 2797 Pls
4285 2831 Pls
4347 2835 Pls
4410 2885 Pls
4472 2889 Pls
4534 2923 Pls
2773 2226 Pls
2836 2260 Pls
2898 2279 Pls
2960 2283 Pls
3023 2302 Pls
3085 2321 Pls
3147 2325 Pls
3210 2374 Pls
3272 2363 Pls
3334 2413 Pls
3397 2432 Pls
3459 2451 Pls
3521 2470 Pls
3584 2519 Pls
3645 2508 Pls
3707 2542 Pls
3770 2576 Pls
3832 2611 Pls
3894 2630 Pls
3957 2648 Pls
4019 2622 Pls
4081 2671 Pls
4144 2690 Pls
4206 2724 Pls
4268 2728 Pls
4331 2762 Pls
4393 2781 Pls
4455 2831 Pls
4518 2850 Pls
4580 2854 Pls
4642 2888 Pls
2881 2176 Pls
2944 2195 Pls
3006 2229 Pls
3068 2248 Pls
3131 2267 Pls
3193 2286 Pls
3255 2305 Pls
3318 2324 Pls
3380 2343 Pls
3442 2393 Pls
3505 2381 Pls
3567 2416 Pls
3628 2419 Pls
3691 2469 Pls
3753 2503 Pls
3815 2507 Pls
3878 2572 Pls
3940 2591 Pls
4002 2610 Pls
4065 2583 Pls
4127 2647 Pls
4189 2651 Pls
4252 2655 Pls
4314 2719 Pls
4376 2723 Pls
4439 2727 Pls
4501 2777 Pls
4563 2796 Pls
4626 2830 Pls
4688 2819 Pls
4750 2868 Pls
2989 2156 Pls
3052 2175 Pls
3114 2163 Pls
3176 2198 Pls
3239 2232 Pls
3301 2236 Pls
3363 2255 Pls
3426 2289 Pls
3488 2323 Pls
3550 2342 Pls
3612 2362 Pls
3674 2365 Pls
3736 2415 Pls
3799 2449 Pls
3861 2468 Pls
3923 2472 Pls
3986 2522 Pls
4048 2525 Pls
4110 2575 Pls
4173 2579 Pls
4235 2598 Pls
4297 2646 Pls
4360 2650 Pls
4422 2654 Pls
4484 2688 Pls
4547 2707 Pls
4609 2726 Pls
4671 2761 Pls
4734 2780 Pls
4796 2799 Pls
4858 2848 Pls
3097 2121 Pls
3160 2125 Pls
3222 2144 Pls
3284 2163 Pls
3347 2197 Pls
3409 2216 Pls
3471 2235 Pls
3534 2254 Pls
3596 2273 Pls
3657 2307 Pls
3720 2342 Pls
3782 2346 Pls
3844 2349 Pls
3907 2399 Pls
3969 2448 Pls
4031 2483 Pls
4094 2471 Pls
4156 2490 Pls
4218 2525 Pls
4281 2574 Pls
4343 2547 Pls
4405 2582 Pls
4468 2616 Pls
4530 2634 Pls
4592 2653 Pls
4655 2703 Pls
4717 2707 Pls
4779 2741 Pls
4842 2760 Pls
4904 2794 Pls
4966 2813 Pls
3205 2070 Pls
3268 2074 Pls
3330 2093 Pls
3392 2112 Pls
3455 2147 Pls
3517 2166 Pls
3579 2185 Pls
3641 2219 Pls
3703 2238 Pls
3765 2272 Pls
3828 2276 Pls
3890 2280 Pls
3952 2330 Pls
4015 2349 Pls
4077 2398 Pls
4139 2432 Pls
4202 2467 Pls
4264 2455 Pls
4326 2520 Pls
4389 2493 Pls
4451 2558 Pls
4513 2577 Pls
4576 2596 Pls
4638 2600 Pls
4700 2649 Pls
4763 2652 Pls
4825 2687 Pls
4887 2706 Pls
4950 2740 Pls
5012 2774 Pls
5074 2778 Pls
3313 2005 Pls
3376 2054 Pls
3438 2058 Pls
3500 2077 Pls
3563 2112 Pls
3624 2146 Pls
3686 2165 Pls
3749 2169 Pls
3811 2203 Pls
3873 2237 Pls
3936 2256 Pls
3998 2291 Pls
4060 2295 Pls
4123 2329 Pls
4185 2363 Pls
4247 2367 Pls
4310 2416 Pls
4372 2435 Pls
4434 2470 Pls
4497 2474 Pls
4559 2523 Pls
4621 2527 Pls
4684 2561 Pls
4746 2611 Pls
4808 2615 Pls
4871 2648 Pls
4933 2652 Pls
4995 2686 Pls
5058 2720 Pls
5120 2739 Pls
5182 2758 Pls
3421 1985 Pls
3484 2004 Pls
3546 2038 Pls
3607 2058 Pls
3670 2077 Pls
3732 2111 Pls
3794 2099 Pls
3857 2149 Pls
3919 2183 Pls
3981 2187 Pls
4044 2206 Pls
4106 2240 Pls
4168 2275 Pls
4231 2309 Pls
4293 2328 Pls
4355 2347 Pls
4418 2381 Pls
4480 2400 Pls
4542 2420 Pls
4605 2439 Pls
4667 2458 Pls
4729 2492 Pls
4792 2526 Pls
4854 2576 Pls
4916 2595 Pls
4979 2599 Pls
5041 2662 Pls
5103 2666 Pls
5166 2685 Pls
5228 2720 Pls
5290 2739 Pls
3529 1935 Pls
3592 1954 Pls
3653 1988 Pls
3715 2022 Pls
3778 2042 Pls
3840 2045 Pls
3902 2080 Pls
3965 2099 Pls
4027 2133 Pls
4089 2152 Pls
4152 2171 Pls
4214 2190 Pls
4276 2224 Pls
4339 2274 Pls
4401 2293 Pls
4463 2312 Pls
4526 2346 Pls
4588 2350 Pls
4650 2384 Pls
4713 2419 Pls
4775 2438 Pls
4837 2472 Pls
4900 2506 Pls
4962 2525 Pls
5024 2575 Pls
5087 2579 Pls
5149 2598 Pls
5211 2631 Pls
5274 2681 Pls
5336 2684 Pls
5398 2704 Pls
3636 1915 Pls
3699 1919 Pls
3761 1953 Pls
3823 1987 Pls
3886 1991 Pls
3948 2010 Pls
4010 2045 Pls
4073 2079 Pls
4135 2098 Pls
4197 2132 Pls
4260 2136 Pls
4322 2186 Pls
4384 2189 Pls
4447 2239 Pls
4509 2258 Pls
4571 2277 Pls
4634 2311 Pls
4696 2346 Pls
4758 2365 Pls
4821 2384 Pls
4883 2418 Pls
4945 2452 Pls
5008 2471 Pls
5070 2506 Pls
5132 2509 Pls
5195 2574 Pls
5257 2578 Pls
5319 2597 Pls
5382 2630 Pls
5444 2665 Pls
5506 2684 Pls
3744 1865 Pls
3806 1884 Pls
3869 1918 Pls
3931 1937 Pls
3993 1971 Pls
4056 1990 Pls
4118 2025 Pls
4180 2044 Pls
4243 2078 Pls
4305 2097 Pls
4367 2116 Pls
4430 2135 Pls
4492 2185 Pls
4554 2204 Pls
4617 2208 Pls
4679 2242 Pls
4741 2261 Pls
4804 2295 Pls
4866 2330 Pls
4928 2379 Pls
4991 2413 Pls
5053 2417 Pls
5115 2467 Pls
5178 2471 Pls
5240 2505 Pls
5302 2509 Pls
5365 2558 Pls
5427 2608 Pls
5489 2612 Pls
5552 2630 Pls
5614 2664 Pls
3852 1830 Pls
3914 1864 Pls
3977 1868 Pls
4039 1902 Pls
4101 1936 Pls
4164 1971 Pls
4226 1974 Pls
4288 2009 Pls
4351 2043 Pls
4413 2062 Pls
4475 2081 Pls
4538 2115 Pls
4600 2150 Pls
4662 2169 Pls
4725 2188 Pls
4787 2237 Pls
4849 2272 Pls
4912 2306 Pls
4974 2310 Pls
5036 2344 Pls
5099 2363 Pls
5161 2382 Pls
5223 2417 Pls
5286 2420 Pls
5348 2455 Pls
5410 2519 Pls
5473 2523 Pls
5535 2557 Pls
5597 2592 Pls
5660 2596 Pls
5722 2630 Pls
3960 1810 Pls
4022 1829 Pls
4085 1848 Pls
4147 1867 Pls
4209 1901 Pls
4272 1920 Pls
4334 1939 Pls
4396 1974 Pls
4459 2008 Pls
4521 2027 Pls
4583 2061 Pls
4646 2080 Pls
4708 2099 Pls
4770 2149 Pls
4833 2168 Pls
4895 2202 Pls
4957 2237 Pls
5020 2256 Pls
5082 2290 Pls
5144 2309 Pls
5207 2343 Pls
5269 2347 Pls
5331 2381 Pls
5394 2416 Pls
5456 2420 Pls
5518 2500 Pls
5581 2519 Pls
5643 2538 Pls
5705 2572 Pls
5768 2591 Pls
5830 2610 Pls
4068 1775 Pls
4130 1794 Pls
4193 1813 Pls
4255 1832 Pls
4317 1866 Pls
4380 1885 Pls
4442 1920 Pls
4504 1939 Pls
4567 1973 Pls
4629 1992 Pls
4691 2026 Pls
4754 2061 Pls
4816 2095 Pls
4878 2114 Pls
4941 2148 Pls
5003 2167 Pls
5065 2202 Pls
5128 2221 Pls
5190 2240 Pls
5252 2259 Pls
5315 2308 Pls
5377 2327 Pls
5439 2362 Pls
5502 2396 Pls
5564 2430 Pls
5626 2465 Pls
5689 2468 Pls
5751 2503 Pls
5813 2552 Pls
5876 2556 Pls
5938 2590 Pls
4176 1740 Pls
4238 1744 Pls
4301 1793 Pls
4363 1812 Pls
4425 1831 Pls
4488 1866 Pls
4550 1869 Pls
4612 1904 Pls
4675 1938 Pls
4737 1972 Pls
4799 2007 Pls
4862 2026 Pls
4924 2060 Pls
4986 2094 Pls
5049 2113 Pls
5111 2163 Pls
5173 2167 Pls
5236 2201 Pls
5298 2220 Pls
5360 2254 Pls
5423 2289 Pls
5485 2323 Pls
5547 2357 Pls
5610 2361 Pls
5672 2395 Pls
5734 2430 Pls
5797 2464 Pls
5859 2483 Pls
5921 2502 Pls
5984 2551 Pls
6046 2570 Pls
4284 1690 Pls
4346 1739 Pls
4409 1758 Pls
4471 1777 Pls
4533 1796 Pls
4596 1846 Pls
4658 1865 Pls
4720 1884 Pls
4783 1918 Pls
4845 1937 Pls
4907 1972 Pls
4970 1991 Pls
5032 2025 Pls
5094 2059 Pls
5157 2078 Pls
5219 2128 Pls
5281 2132 Pls
5344 2181 Pls
5406 2215 Pls
5468 2234 Pls
5531 2253 Pls
5593 2273 Pls
5655 2322 Pls
5718 2356 Pls
5780 2345 Pls
5842 2394 Pls
5905 2414 Pls
5967 2463 Pls
6029 2467 Pls
6092 2532 Pls
6154 2535 Pls
1.000 UL
LTb
LCb setrgbcolor
LTb
6154 1819 M
4284 790 L
1046 1384 M
4284 790 L
1.000 UP
stroke
grestore
end
showpage
%%Trailer
