%!PS-Adobe-2.0 EPSF-2.0
%%Title: exc1_3_4_3d_lost_checksum_err_2/protocol4/exc1_3_4_3d_lost_checksum_err_2.tex
%%Creator: gnuplot 5.0 patchlevel 1
%%CreationDate: Mon Nov  2 04:41:27 2015
%%DocumentFonts: 
%%BoundingBox: 50 50 410 482
%%EndComments
%%BeginProlog
/gnudict 256 dict def
gnudict begin
%
% The following true/false flags may be edited by hand if desired.
% The unit line width and grayscale image gamma correction may also be changed.
%
/Color false def
/Blacktext true def
/Solid false def
/Dashlength 1 def
/Landscape false def
/Level1 false def
/Level3 false def
/Rounded false def
/ClipToBoundingBox false def
/SuppressPDFMark false def
/TransparentPatterns false def
/gnulinewidth 5.000 def
/userlinewidth gnulinewidth def
/Gamma 1.0 def
/BackgroundColor {-1.000 -1.000 -1.000} def
%
/vshift -53 def
/dl1 {
  10.0 Dashlength userlinewidth gnulinewidth div mul mul mul
  Rounded { currentlinewidth 0.75 mul sub dup 0 le { pop 0.01 } if } if
} def
/dl2 {
  10.0 Dashlength userlinewidth gnulinewidth div mul mul mul
  Rounded { currentlinewidth 0.75 mul add } if
} def
/hpt_ 31.5 def
/vpt_ 31.5 def
/hpt hpt_ def
/vpt vpt_ def
/doclip {
  ClipToBoundingBox {
    newpath 50 50 moveto 410 50 lineto 410 482 lineto 50 482 lineto closepath
    clip
  } if
} def
%
% Gnuplot Prolog Version 5.0 (Dec 2014)
%
%/SuppressPDFMark true def
%
/M {moveto} bind def
/L {lineto} bind def
/R {rmoveto} bind def
/V {rlineto} bind def
/N {newpath moveto} bind def
/Z {closepath} bind def
/C {setrgbcolor} bind def
/f {rlineto fill} bind def
/g {setgray} bind def
/Gshow {show} def   % May be redefined later in the file to support UTF-8
/vpt2 vpt 2 mul def
/hpt2 hpt 2 mul def
/Lshow {currentpoint stroke M 0 vshift R 
	Blacktext {gsave 0 setgray textshow grestore} {textshow} ifelse} def
/Rshow {currentpoint stroke M dup stringwidth pop neg vshift R
	Blacktext {gsave 0 setgray textshow grestore} {textshow} ifelse} def
/Cshow {currentpoint stroke M dup stringwidth pop -2 div vshift R 
	Blacktext {gsave 0 setgray textshow grestore} {textshow} ifelse} def
/UP {dup vpt_ mul /vpt exch def hpt_ mul /hpt exch def
  /hpt2 hpt 2 mul def /vpt2 vpt 2 mul def} def
/DL {Color {setrgbcolor Solid {pop []} if 0 setdash}
 {pop pop pop 0 setgray Solid {pop []} if 0 setdash} ifelse} def
/BL {stroke userlinewidth 2 mul setlinewidth
	Rounded {1 setlinejoin 1 setlinecap} if} def
/AL {stroke userlinewidth 2 div setlinewidth
	Rounded {1 setlinejoin 1 setlinecap} if} def
/UL {dup gnulinewidth mul /userlinewidth exch def
	dup 1 lt {pop 1} if 10 mul /udl exch def} def
/PL {stroke userlinewidth setlinewidth
	Rounded {1 setlinejoin 1 setlinecap} if} def
3.8 setmiterlimit
% Classic Line colors (version 5.0)
/LCw {1 1 1} def
/LCb {0 0 0} def
/LCa {0 0 0} def
/LC0 {1 0 0} def
/LC1 {0 1 0} def
/LC2 {0 0 1} def
/LC3 {1 0 1} def
/LC4 {0 1 1} def
/LC5 {1 1 0} def
/LC6 {0 0 0} def
/LC7 {1 0.3 0} def
/LC8 {0.5 0.5 0.5} def
% Default dash patterns (version 5.0)
/LTw {PL [] 1 setgray} def
/LTb {BL [] LCb DL} def
/LTa {AL [1 udl mul 2 udl mul] 0 setdash LCa setrgbcolor} def
/LT0 {PL [] LC0 DL} def
/LT1 {PL [2 dl1 3 dl2] LC1 DL} def
/LT2 {PL [1 dl1 1.5 dl2] LC2 DL} def
/LT3 {PL [6 dl1 2 dl2 1 dl1 2 dl2] LC3 DL} def
/LT4 {PL [1 dl1 2 dl2 6 dl1 2 dl2 1 dl1 2 dl2] LC4 DL} def
/LT5 {PL [4 dl1 2 dl2] LC5 DL} def
/LT6 {PL [1.5 dl1 1.5 dl2 1.5 dl1 1.5 dl2 1.5 dl1 6 dl2] LC6 DL} def
/LT7 {PL [3 dl1 3 dl2 1 dl1 3 dl2] LC7 DL} def
/LT8 {PL [2 dl1 2 dl2 2 dl1 6 dl2] LC8 DL} def
/SL {[] 0 setdash} def
/Pnt {stroke [] 0 setdash gsave 1 setlinecap M 0 0 V stroke grestore} def
/Dia {stroke [] 0 setdash 2 copy vpt add M
  hpt neg vpt neg V hpt vpt neg V
  hpt vpt V hpt neg vpt V closepath stroke
  Pnt} def
/Pls {stroke [] 0 setdash vpt sub M 0 vpt2 V
  currentpoint stroke M
  hpt neg vpt neg R hpt2 0 V stroke
 } def
/Box {stroke [] 0 setdash 2 copy exch hpt sub exch vpt add M
  0 vpt2 neg V hpt2 0 V 0 vpt2 V
  hpt2 neg 0 V closepath stroke
  Pnt} def
/Crs {stroke [] 0 setdash exch hpt sub exch vpt add M
  hpt2 vpt2 neg V currentpoint stroke M
  hpt2 neg 0 R hpt2 vpt2 V stroke} def
/TriU {stroke [] 0 setdash 2 copy vpt 1.12 mul add M
  hpt neg vpt -1.62 mul V
  hpt 2 mul 0 V
  hpt neg vpt 1.62 mul V closepath stroke
  Pnt} def
/Star {2 copy Pls Crs} def
/BoxF {stroke [] 0 setdash exch hpt sub exch vpt add M
  0 vpt2 neg V hpt2 0 V 0 vpt2 V
  hpt2 neg 0 V closepath fill} def
/TriUF {stroke [] 0 setdash vpt 1.12 mul add M
  hpt neg vpt -1.62 mul V
  hpt 2 mul 0 V
  hpt neg vpt 1.62 mul V closepath fill} def
/TriD {stroke [] 0 setdash 2 copy vpt 1.12 mul sub M
  hpt neg vpt 1.62 mul V
  hpt 2 mul 0 V
  hpt neg vpt -1.62 mul V closepath stroke
  Pnt} def
/TriDF {stroke [] 0 setdash vpt 1.12 mul sub M
  hpt neg vpt 1.62 mul V
  hpt 2 mul 0 V
  hpt neg vpt -1.62 mul V closepath fill} def
/DiaF {stroke [] 0 setdash vpt add M
  hpt neg vpt neg V hpt vpt neg V
  hpt vpt V hpt neg vpt V closepath fill} def
/Pent {stroke [] 0 setdash 2 copy gsave
  translate 0 hpt M 4 {72 rotate 0 hpt L} repeat
  closepath stroke grestore Pnt} def
/PentF {stroke [] 0 setdash gsave
  translate 0 hpt M 4 {72 rotate 0 hpt L} repeat
  closepath fill grestore} def
/Circle {stroke [] 0 setdash 2 copy
  hpt 0 360 arc stroke Pnt} def
/CircleF {stroke [] 0 setdash hpt 0 360 arc fill} def
/C0 {BL [] 0 setdash 2 copy moveto vpt 90 450 arc} bind def
/C1 {BL [] 0 setdash 2 copy moveto
	2 copy vpt 0 90 arc closepath fill
	vpt 0 360 arc closepath} bind def
/C2 {BL [] 0 setdash 2 copy moveto
	2 copy vpt 90 180 arc closepath fill
	vpt 0 360 arc closepath} bind def
/C3 {BL [] 0 setdash 2 copy moveto
	2 copy vpt 0 180 arc closepath fill
	vpt 0 360 arc closepath} bind def
/C4 {BL [] 0 setdash 2 copy moveto
	2 copy vpt 180 270 arc closepath fill
	vpt 0 360 arc closepath} bind def
/C5 {BL [] 0 setdash 2 copy moveto
	2 copy vpt 0 90 arc
	2 copy moveto
	2 copy vpt 180 270 arc closepath fill
	vpt 0 360 arc} bind def
/C6 {BL [] 0 setdash 2 copy moveto
	2 copy vpt 90 270 arc closepath fill
	vpt 0 360 arc closepath} bind def
/C7 {BL [] 0 setdash 2 copy moveto
	2 copy vpt 0 270 arc closepath fill
	vpt 0 360 arc closepath} bind def
/C8 {BL [] 0 setdash 2 copy moveto
	2 copy vpt 270 360 arc closepath fill
	vpt 0 360 arc closepath} bind def
/C9 {BL [] 0 setdash 2 copy moveto
	2 copy vpt 270 450 arc closepath fill
	vpt 0 360 arc closepath} bind def
/C10 {BL [] 0 setdash 2 copy 2 copy moveto vpt 270 360 arc closepath fill
	2 copy moveto
	2 copy vpt 90 180 arc closepath fill
	vpt 0 360 arc closepath} bind def
/C11 {BL [] 0 setdash 2 copy moveto
	2 copy vpt 0 180 arc closepath fill
	2 copy moveto
	2 copy vpt 270 360 arc closepath fill
	vpt 0 360 arc closepath} bind def
/C12 {BL [] 0 setdash 2 copy moveto
	2 copy vpt 180 360 arc closepath fill
	vpt 0 360 arc closepath} bind def
/C13 {BL [] 0 setdash 2 copy moveto
	2 copy vpt 0 90 arc closepath fill
	2 copy moveto
	2 copy vpt 180 360 arc closepath fill
	vpt 0 360 arc closepath} bind def
/C14 {BL [] 0 setdash 2 copy moveto
	2 copy vpt 90 360 arc closepath fill
	vpt 0 360 arc} bind def
/C15 {BL [] 0 setdash 2 copy vpt 0 360 arc closepath fill
	vpt 0 360 arc closepath} bind def
/Rec {newpath 4 2 roll moveto 1 index 0 rlineto 0 exch rlineto
	neg 0 rlineto closepath} bind def
/Square {dup Rec} bind def
/Bsquare {vpt sub exch vpt sub exch vpt2 Square} bind def
/S0 {BL [] 0 setdash 2 copy moveto 0 vpt rlineto BL Bsquare} bind def
/S1 {BL [] 0 setdash 2 copy vpt Square fill Bsquare} bind def
/S2 {BL [] 0 setdash 2 copy exch vpt sub exch vpt Square fill Bsquare} bind def
/S3 {BL [] 0 setdash 2 copy exch vpt sub exch vpt2 vpt Rec fill Bsquare} bind def
/S4 {BL [] 0 setdash 2 copy exch vpt sub exch vpt sub vpt Square fill Bsquare} bind def
/S5 {BL [] 0 setdash 2 copy 2 copy vpt Square fill
	exch vpt sub exch vpt sub vpt Square fill Bsquare} bind def
/S6 {BL [] 0 setdash 2 copy exch vpt sub exch vpt sub vpt vpt2 Rec fill Bsquare} bind def
/S7 {BL [] 0 setdash 2 copy exch vpt sub exch vpt sub vpt vpt2 Rec fill
	2 copy vpt Square fill Bsquare} bind def
/S8 {BL [] 0 setdash 2 copy vpt sub vpt Square fill Bsquare} bind def
/S9 {BL [] 0 setdash 2 copy vpt sub vpt vpt2 Rec fill Bsquare} bind def
/S10 {BL [] 0 setdash 2 copy vpt sub vpt Square fill 2 copy exch vpt sub exch vpt Square fill
	Bsquare} bind def
/S11 {BL [] 0 setdash 2 copy vpt sub vpt Square fill 2 copy exch vpt sub exch vpt2 vpt Rec fill
	Bsquare} bind def
/S12 {BL [] 0 setdash 2 copy exch vpt sub exch vpt sub vpt2 vpt Rec fill Bsquare} bind def
/S13 {BL [] 0 setdash 2 copy exch vpt sub exch vpt sub vpt2 vpt Rec fill
	2 copy vpt Square fill Bsquare} bind def
/S14 {BL [] 0 setdash 2 copy exch vpt sub exch vpt sub vpt2 vpt Rec fill
	2 copy exch vpt sub exch vpt Square fill Bsquare} bind def
/S15 {BL [] 0 setdash 2 copy Bsquare fill Bsquare} bind def
/D0 {gsave translate 45 rotate 0 0 S0 stroke grestore} bind def
/D1 {gsave translate 45 rotate 0 0 S1 stroke grestore} bind def
/D2 {gsave translate 45 rotate 0 0 S2 stroke grestore} bind def
/D3 {gsave translate 45 rotate 0 0 S3 stroke grestore} bind def
/D4 {gsave translate 45 rotate 0 0 S4 stroke grestore} bind def
/D5 {gsave translate 45 rotate 0 0 S5 stroke grestore} bind def
/D6 {gsave translate 45 rotate 0 0 S6 stroke grestore} bind def
/D7 {gsave translate 45 rotate 0 0 S7 stroke grestore} bind def
/D8 {gsave translate 45 rotate 0 0 S8 stroke grestore} bind def
/D9 {gsave translate 45 rotate 0 0 S9 stroke grestore} bind def
/D10 {gsave translate 45 rotate 0 0 S10 stroke grestore} bind def
/D11 {gsave translate 45 rotate 0 0 S11 stroke grestore} bind def
/D12 {gsave translate 45 rotate 0 0 S12 stroke grestore} bind def
/D13 {gsave translate 45 rotate 0 0 S13 stroke grestore} bind def
/D14 {gsave translate 45 rotate 0 0 S14 stroke grestore} bind def
/D15 {gsave translate 45 rotate 0 0 S15 stroke grestore} bind def
/DiaE {stroke [] 0 setdash vpt add M
  hpt neg vpt neg V hpt vpt neg V
  hpt vpt V hpt neg vpt V closepath stroke} def
/BoxE {stroke [] 0 setdash exch hpt sub exch vpt add M
  0 vpt2 neg V hpt2 0 V 0 vpt2 V
  hpt2 neg 0 V closepath stroke} def
/TriUE {stroke [] 0 setdash vpt 1.12 mul add M
  hpt neg vpt -1.62 mul V
  hpt 2 mul 0 V
  hpt neg vpt 1.62 mul V closepath stroke} def
/TriDE {stroke [] 0 setdash vpt 1.12 mul sub M
  hpt neg vpt 1.62 mul V
  hpt 2 mul 0 V
  hpt neg vpt -1.62 mul V closepath stroke} def
/PentE {stroke [] 0 setdash gsave
  translate 0 hpt M 4 {72 rotate 0 hpt L} repeat
  closepath stroke grestore} def
/CircE {stroke [] 0 setdash 
  hpt 0 360 arc stroke} def
/Opaque {gsave closepath 1 setgray fill grestore 0 setgray closepath} def
/DiaW {stroke [] 0 setdash vpt add M
  hpt neg vpt neg V hpt vpt neg V
  hpt vpt V hpt neg vpt V Opaque stroke} def
/BoxW {stroke [] 0 setdash exch hpt sub exch vpt add M
  0 vpt2 neg V hpt2 0 V 0 vpt2 V
  hpt2 neg 0 V Opaque stroke} def
/TriUW {stroke [] 0 setdash vpt 1.12 mul add M
  hpt neg vpt -1.62 mul V
  hpt 2 mul 0 V
  hpt neg vpt 1.62 mul V Opaque stroke} def
/TriDW {stroke [] 0 setdash vpt 1.12 mul sub M
  hpt neg vpt 1.62 mul V
  hpt 2 mul 0 V
  hpt neg vpt -1.62 mul V Opaque stroke} def
/PentW {stroke [] 0 setdash gsave
  translate 0 hpt M 4 {72 rotate 0 hpt L} repeat
  Opaque stroke grestore} def
/CircW {stroke [] 0 setdash 
  hpt 0 360 arc Opaque stroke} def
/BoxFill {gsave Rec 1 setgray fill grestore} def
/Density {
  /Fillden exch def
  currentrgbcolor
  /ColB exch def /ColG exch def /ColR exch def
  /ColR ColR Fillden mul Fillden sub 1 add def
  /ColG ColG Fillden mul Fillden sub 1 add def
  /ColB ColB Fillden mul Fillden sub 1 add def
  ColR ColG ColB setrgbcolor} def
/BoxColFill {gsave Rec PolyFill} def
/PolyFill {gsave Density fill grestore grestore} def
/h {rlineto rlineto rlineto gsave closepath fill grestore} bind def
%
% PostScript Level 1 Pattern Fill routine for rectangles
% Usage: x y w h s a XX PatternFill
%	x,y = lower left corner of box to be filled
%	w,h = width and height of box
%	  a = angle in degrees between lines and x-axis
%	 XX = 0/1 for no/yes cross-hatch
%
/PatternFill {gsave /PFa [ 9 2 roll ] def
  PFa 0 get PFa 2 get 2 div add PFa 1 get PFa 3 get 2 div add translate
  PFa 2 get -2 div PFa 3 get -2 div PFa 2 get PFa 3 get Rec
  TransparentPatterns {} {gsave 1 setgray fill grestore} ifelse
  clip
  currentlinewidth 0.5 mul setlinewidth
  /PFs PFa 2 get dup mul PFa 3 get dup mul add sqrt def
  0 0 M PFa 5 get rotate PFs -2 div dup translate
  0 1 PFs PFa 4 get div 1 add floor cvi
	{PFa 4 get mul 0 M 0 PFs V} for
  0 PFa 6 get ne {
	0 1 PFs PFa 4 get div 1 add floor cvi
	{PFa 4 get mul 0 2 1 roll M PFs 0 V} for
 } if
  stroke grestore} def
%
/languagelevel where
 {pop languagelevel} {1} ifelse
dup 2 lt
	{/InterpretLevel1 true def
	 /InterpretLevel3 false def}
	{/InterpretLevel1 Level1 def
	 2 gt
	    {/InterpretLevel3 Level3 def}
	    {/InterpretLevel3 false def}
	 ifelse }
 ifelse
%
% PostScript level 2 pattern fill definitions
%
/Level2PatternFill {
/Tile8x8 {/PaintType 2 /PatternType 1 /TilingType 1 /BBox [0 0 8 8] /XStep 8 /YStep 8}
	bind def
/KeepColor {currentrgbcolor [/Pattern /DeviceRGB] setcolorspace} bind def
<< Tile8x8
 /PaintProc {0.5 setlinewidth pop 0 0 M 8 8 L 0 8 M 8 0 L stroke} 
>> matrix makepattern
/Pat1 exch def
<< Tile8x8
 /PaintProc {0.5 setlinewidth pop 0 0 M 8 8 L 0 8 M 8 0 L stroke
	0 4 M 4 8 L 8 4 L 4 0 L 0 4 L stroke}
>> matrix makepattern
/Pat2 exch def
<< Tile8x8
 /PaintProc {0.5 setlinewidth pop 0 0 M 0 8 L
	8 8 L 8 0 L 0 0 L fill}
>> matrix makepattern
/Pat3 exch def
<< Tile8x8
 /PaintProc {0.5 setlinewidth pop -4 8 M 8 -4 L
	0 12 M 12 0 L stroke}
>> matrix makepattern
/Pat4 exch def
<< Tile8x8
 /PaintProc {0.5 setlinewidth pop -4 0 M 8 12 L
	0 -4 M 12 8 L stroke}
>> matrix makepattern
/Pat5 exch def
<< Tile8x8
 /PaintProc {0.5 setlinewidth pop -2 8 M 4 -4 L
	0 12 M 8 -4 L 4 12 M 10 0 L stroke}
>> matrix makepattern
/Pat6 exch def
<< Tile8x8
 /PaintProc {0.5 setlinewidth pop -2 0 M 4 12 L
	0 -4 M 8 12 L 4 -4 M 10 8 L stroke}
>> matrix makepattern
/Pat7 exch def
<< Tile8x8
 /PaintProc {0.5 setlinewidth pop 8 -2 M -4 4 L
	12 0 M -4 8 L 12 4 M 0 10 L stroke}
>> matrix makepattern
/Pat8 exch def
<< Tile8x8
 /PaintProc {0.5 setlinewidth pop 0 -2 M 12 4 L
	-4 0 M 12 8 L -4 4 M 8 10 L stroke}
>> matrix makepattern
/Pat9 exch def
/Pattern1 {PatternBgnd KeepColor Pat1 setpattern} bind def
/Pattern2 {PatternBgnd KeepColor Pat2 setpattern} bind def
/Pattern3 {PatternBgnd KeepColor Pat3 setpattern} bind def
/Pattern4 {PatternBgnd KeepColor Landscape {Pat5} {Pat4} ifelse setpattern} bind def
/Pattern5 {PatternBgnd KeepColor Landscape {Pat4} {Pat5} ifelse setpattern} bind def
/Pattern6 {PatternBgnd KeepColor Landscape {Pat9} {Pat6} ifelse setpattern} bind def
/Pattern7 {PatternBgnd KeepColor Landscape {Pat8} {Pat7} ifelse setpattern} bind def
} def
%
%
%End of PostScript Level 2 code
%
/PatternBgnd {
  TransparentPatterns {} {gsave 1 setgray fill grestore} ifelse
} def
%
% Substitute for Level 2 pattern fill codes with
% grayscale if Level 2 support is not selected.
%
/Level1PatternFill {
/Pattern1 {0.250 Density} bind def
/Pattern2 {0.500 Density} bind def
/Pattern3 {0.750 Density} bind def
/Pattern4 {0.125 Density} bind def
/Pattern5 {0.375 Density} bind def
/Pattern6 {0.625 Density} bind def
/Pattern7 {0.875 Density} bind def
} def
%
% Now test for support of Level 2 code
%
Level1 {Level1PatternFill} {Level2PatternFill} ifelse
%
/Symbol-Oblique /Symbol findfont [1 0 .167 1 0 0] makefont
dup length dict begin {1 index /FID eq {pop pop} {def} ifelse} forall
currentdict end definefont pop
%
Level1 SuppressPDFMark or 
{} {
/SDict 10 dict def
systemdict /pdfmark known not {
  userdict /pdfmark systemdict /cleartomark get put
} if
SDict begin [
  /Title (exc1_3_4_3d_lost_checksum_err_2/protocol4/exc1_3_4_3d_lost_checksum_err_2.tex)
  /Subject (gnuplot plot)
  /Creator (gnuplot 5.0 patchlevel 1)
  /Author (asiron)
%  /Producer (gnuplot)
%  /Keywords ()
  /CreationDate (Mon Nov  2 04:41:27 2015)
  /DOCINFO pdfmark
end
} ifelse
end
%
% Support for boxed text - Ethan A Merritt May 2005
%
/InitTextBox { userdict /TBy2 3 -1 roll put userdict /TBx2 3 -1 roll put
           userdict /TBy1 3 -1 roll put userdict /TBx1 3 -1 roll put
	   /Boxing true def } def
/ExtendTextBox { Boxing
    { gsave dup false charpath pathbbox
      dup TBy2 gt {userdict /TBy2 3 -1 roll put} {pop} ifelse
      dup TBx2 gt {userdict /TBx2 3 -1 roll put} {pop} ifelse
      dup TBy1 lt {userdict /TBy1 3 -1 roll put} {pop} ifelse
      dup TBx1 lt {userdict /TBx1 3 -1 roll put} {pop} ifelse
      grestore } if } def
/PopTextBox { newpath TBx1 TBxmargin sub TBy1 TBymargin sub M
               TBx1 TBxmargin sub TBy2 TBymargin add L
	       TBx2 TBxmargin add TBy2 TBymargin add L
	       TBx2 TBxmargin add TBy1 TBymargin sub L closepath } def
/DrawTextBox { PopTextBox stroke /Boxing false def} def
/FillTextBox { gsave PopTextBox 1 1 1 setrgbcolor fill grestore /Boxing false def} def
0 0 0 0 InitTextBox
/TBxmargin 20 def
/TBymargin 20 def
/Boxing false def
/textshow { ExtendTextBox Gshow } def
%
%%EndProlog
%%Page: 1 1
gnudict begin
gsave
doclip
50 50 translate
0.050 0.050 scale
0 setgray
newpath
1.000 UL
LTb
LCb setrgbcolor
LTb
1.000 UL
LTb
908 2281 M
3365 4031 L
6292 2562 M
3365 4031 L
908 2281 M
0 3957 V
stroke
0.200 UL
LTb
908 2281 M
3365 4031 L
stroke
1.000 UL
LTb
908 2281 M
34 24 V
3365 4031 M
-34 -24 V
stroke
0.200 UL
LTb
1396 2036 M
3852 3786 L
stroke
1.000 UL
LTb
1396 2036 M
34 24 V
3852 3786 M
-34 -24 V
stroke
0.200 UL
LTb
1884 1791 M
4340 3542 L
stroke
1.000 UL
LTb
1884 1791 M
34 24 V
4340 3542 M
-34 -24 V
stroke
0.200 UL
LTb
2372 1546 M
4828 3297 L
stroke
1.000 UL
LTb
2372 1546 M
34 25 V
4828 3297 M
-34 -24 V
stroke
0.200 UL
LTb
2860 1302 M
5316 3052 L
stroke
1.000 UL
LTb
2860 1302 M
34 24 V
5316 3052 M
-34 -24 V
stroke
0.200 UL
LTb
3348 1057 M
5804 2807 L
stroke
1.000 UL
LTb
3348 1057 M
34 24 V
5804 2807 M
-34 -24 V
stroke
0.200 UL
LTb
3835 812 M
6292 2562 L
stroke
1.000 UL
LTb
3835 812 M
34 24 V
6292 2562 M
-34 -24 V
stroke
0.200 UL
LTb
3835 812 M
908 2281 L
stroke
1.000 UL
LTb
3835 812 M
-48 24 V
908 2281 M
48 -24 V
stroke
0.200 UL
LTb
4244 1104 M
1318 2573 L
stroke
1.000 UL
LTb
4244 1104 M
-48 24 V
1318 2573 M
48 -25 V
stroke
0.200 UL
LTb
4654 1396 M
1727 2864 L
stroke
1.000 UL
LTb
4654 1396 M
-48 24 V
1727 2864 M
48 -24 V
stroke
0.200 UL
LTb
5063 1687 M
2137 3156 L
stroke
1.000 UL
LTb
5063 1687 M
-48 24 V
2137 3156 M
48 -24 V
stroke
0.200 UL
LTb
5473 1979 M
2546 3448 L
stroke
1.000 UL
LTb
5473 1979 M
-48 24 V
2546 3448 M
48 -24 V
stroke
0.200 UL
LTb
5882 2271 M
2956 3739 L
stroke
1.000 UL
LTb
5882 2271 M
-48 24 V
2956 3739 M
48 -24 V
stroke
0.200 UL
LTb
6292 2562 M
3365 4031 L
stroke
1.000 UL
LTb
6292 2562 M
-48 25 V
3365 4031 M
48 -24 V
908 2281 M
63 0 V
-63 659 R
63 0 V
-63 660 R
63 0 V
-63 660 R
63 0 V
-63 658 R
63 0 V
-63 660 R
63 0 V
-63 660 R
63 0 V
1.000 UP
1.000 UP
stroke
0.58 0.00 0.83 C 908 6155 Pls
990 6138 Pls
1072 6219 Pls
1154 6221 Pls
1236 6233 Pls
1318 6246 Pls
1400 6274 Pls
1481 6300 Pls
1563 6421 Pls
1645 6430 Pls
1727 6379 Pls
1809 6385 Pls
1891 6420 Pls
1973 6419 Pls
2055 6448 Pls
2137 6480 Pls
2218 6485 Pls
2300 6534 Pls
2382 6533 Pls
2464 6594 Pls
2546 6633 Pls
2628 6625 Pls
2710 6654 Pls
2792 6656 Pls
2874 6695 Pls
2956 6677 Pls
3037 6729 Pls
3119 6715 Pls
3201 6750 Pls
3283 6762 Pls
3365 6801 Pls
1006 5575 Pls
1088 6019 Pls
1170 5923 Pls
1251 5691 Pls
1333 5743 Pls
1415 5738 Pls
1497 5783 Pls
1579 5984 Pls
1661 5913 Pls
1743 6011 Pls
1825 6023 Pls
1907 6009 Pls
1989 6028 Pls
2070 6014 Pls
2152 6052 Pls
2234 6219 Pls
2316 6123 Pls
2398 6086 Pls
2480 6200 Pls
2562 6159 Pls
2644 6178 Pls
2726 6157 Pls
2807 6176 Pls
2889 6409 Pls
2971 6210 Pls
3053 6476 Pls
3135 6337 Pls
3217 6329 Pls
3299 6523 Pls
3381 6387 Pls
3463 6313 Pls
1103 5440 Pls
1185 5545 Pls
1267 5501 Pls
1349 5586 Pls
1431 5525 Pls
1513 5587 Pls
1595 5626 Pls
1677 5618 Pls
1759 5548 Pls
1840 5636 Pls
1922 5707 Pls
2004 5601 Pls
2086 5702 Pls
2168 5721 Pls
2250 5667 Pls
2332 5676 Pls
2414 5794 Pls
2496 5987 Pls
2577 5815 Pls
2659 6104 Pls
2741 6076 Pls
2823 5963 Pls
2905 5860 Pls
2987 5978 Pls
3069 5894 Pls
3151 6190 Pls
3233 5882 Pls
3314 6066 Pls
3396 6121 Pls
3478 6133 Pls
3560 6211 Pls
1201 5134 Pls
1283 5282 Pls
1365 5353 Pls
1447 5332 Pls
1529 5269 Pls
1610 5301 Pls
1692 5524 Pls
1774 5335 Pls
1856 5344 Pls
1938 5399 Pls
2020 5375 Pls
2102 5562 Pls
2184 5392 Pls
2266 5596 Pls
2347 5539 Pls
2429 5653 Pls
2511 5527 Pls
2593 5654 Pls
2675 5525 Pls
2757 5692 Pls
2839 5589 Pls
2921 5733 Pls
3003 6042 Pls
3085 5995 Pls
3166 5819 Pls
3248 5989 Pls
3330 5675 Pls
3412 5839 Pls
3494 6105 Pls
3576 6213 Pls
3657 6166 Pls
1299 5032 Pls
1380 4985 Pls
1462 5143 Pls
1544 5056 Pls
1626 5141 Pls
1708 5202 Pls
1790 5198 Pls
1872 5197 Pls
1954 5074 Pls
2036 5231 Pls
2118 5184 Pls
2199 5255 Pls
2281 5330 Pls
2363 5309 Pls
2445 5371 Pls
2527 5307 Pls
2609 5369 Pls
2691 5480 Pls
2773 5393 Pls
2855 5633 Pls
2936 5537 Pls
3018 5664 Pls
3100 5699 Pls
3182 5619 Pls
3264 5767 Pls
3346 5759 Pls
3428 5867 Pls
3510 5747 Pls
3592 5723 Pls
3672 5752 Pls
3754 5912 Pls
1396 4766 Pls
1478 4903 Pls
1560 4975 Pls
1642 5017 Pls
1724 4900 Pls
1806 4982 Pls
1888 5024 Pls
1969 5125 Pls
2051 5051 Pls
2133 5077 Pls
2215 5102 Pls
2297 5078 Pls
2379 5176 Pls
2461 5119 Pls
2543 5319 Pls
2625 5176 Pls
2706 5264 Pls
2788 5359 Pls
2870 5391 Pls
2952 5307 Pls
3034 5339 Pls
3116 5404 Pls
3198 5588 Pls
3280 5452 Pls
3362 5622 Pls
3443 5515 Pls
3525 5653 Pls
3606 5665 Pls
3688 5681 Pls
3770 5739 Pls
3852 5824 Pls
1494 4420 Pls
1576 4650 Pls
1658 4745 Pls
1739 4740 Pls
1821 4881 Pls
1903 4821 Pls
1985 4737 Pls
2067 4927 Pls
2149 4834 Pls
2231 4906 Pls
2313 4835 Pls
2395 4989 Pls
2476 4919 Pls
2558 5066 Pls
2640 5098 Pls
2722 5111 Pls
2804 5034 Pls
2886 5122 Pls
2968 5167 Pls
3050 5245 Pls
3132 5336 Pls
3214 5286 Pls
3295 5453 Pls
3377 5340 Pls
3459 5342 Pls
3541 5394 Pls
3622 5446 Pls
3704 5484 Pls
3786 5516 Pls
3868 5443 Pls
3950 5428 Pls
1591 4293 Pls
1673 4423 Pls
1755 4610 Pls
1837 4609 Pls
1919 4595 Pls
2001 4617 Pls
2083 4635 Pls
2165 4694 Pls
2247 4713 Pls
2328 4758 Pls
2410 4803 Pls
2492 4838 Pls
2574 4672 Pls
2656 4717 Pls
2738 4908 Pls
2820 4808 Pls
2902 4902 Pls
2984 4918 Pls
3065 4993 Pls
3147 5041 Pls
3229 5050 Pls
3311 5092 Pls
3393 5170 Pls
3475 5182 Pls
3557 5280 Pls
3638 5269 Pls
3720 5347 Pls
3801 5326 Pls
3883 5398 Pls
3965 5535 Pls
4047 5472 Pls
1689 4066 Pls
1771 4335 Pls
1853 4442 Pls
1935 4438 Pls
2017 4266 Pls
2098 4498 Pls
2180 4428 Pls
2262 4483 Pls
2344 4446 Pls
2426 4537 Pls
2508 4599 Pls
2590 4598 Pls
2672 4541 Pls
2754 4665 Pls
2835 4750 Pls
2917 4660 Pls
2999 4616 Pls
3081 4842 Pls
3163 4762 Pls
3245 4929 Pls
3327 4787 Pls
3409 5023 Pls
3491 4808 Pls
3572 4932 Pls
3653 5050 Pls
3735 5078 Pls
3817 5160 Pls
3899 5195 Pls
3981 5046 Pls
4063 5242 Pls
4145 5304 Pls
1787 3872 Pls
1868 4059 Pls
1950 4107 Pls
2032 4040 Pls
2114 4231 Pls
2196 4348 Pls
2278 4321 Pls
2360 4373 Pls
2442 4437 Pls
2524 4377 Pls
2605 4356 Pls
2687 4392 Pls
2769 4528 Pls
2851 4557 Pls
2933 4592 Pls
3015 4525 Pls
3097 4653 Pls
3179 4576 Pls
3261 4637 Pls
3343 4772 Pls
3424 4658 Pls
3506 4714 Pls
3588 4825 Pls
3669 4863 Pls
3751 4974 Pls
3833 4901 Pls
3915 5075 Pls
3997 4928 Pls
4079 4970 Pls
4160 5065 Pls
4242 5262 Pls
1884 3879 Pls
1966 3950 Pls
2048 3798 Pls
2130 3879 Pls
2212 3891 Pls
2294 3930 Pls
2376 3985 Pls
2457 4179 Pls
2539 4141 Pls
2621 4272 Pls
2703 4340 Pls
2785 4353 Pls
2867 4295 Pls
2949 4344 Pls
3031 4336 Pls
3113 4496 Pls
3194 4387 Pls
3276 4418 Pls
3358 4453 Pls
3440 4564 Pls
3522 4656 Pls
3603 4698 Pls
3685 4753 Pls
3767 4761 Pls
3849 4899 Pls
3930 4802 Pls
4012 4946 Pls
4094 4942 Pls
4176 5000 Pls
4258 5059 Pls
4340 4972 Pls
1982 3949 Pls
2064 3779 Pls
2146 3656 Pls
2227 3801 Pls
2309 3730 Pls
2391 3841 Pls
2473 3985 Pls
2555 4024 Pls
2637 4076 Pls
2719 4111 Pls
2801 4262 Pls
2883 4201 Pls
2964 4250 Pls
3046 4285 Pls
3128 4317 Pls
3210 4362 Pls
3292 4400 Pls
3374 4363 Pls
3456 4467 Pls
3538 4449 Pls
3619 4528 Pls
3700 4556 Pls
3782 4611 Pls
3864 4610 Pls
3946 4718 Pls
4028 4737 Pls
4110 4792 Pls
4192 4685 Pls
4274 4839 Pls
4356 4941 Pls
4437 4996 Pls
2079 3768 Pls
2161 3612 Pls
2243 3607 Pls
2325 3663 Pls
2407 3849 Pls
2489 3753 Pls
2571 3933 Pls
2653 3883 Pls
2734 4004 Pls
2816 3943 Pls
2898 3916 Pls
2980 4113 Pls
3062 4089 Pls
3144 4048 Pls
3226 4103 Pls
3308 4152 Pls
3390 4190 Pls
3472 4347 Pls
3553 4307 Pls
3634 4306 Pls
3716 4429 Pls
3798 4373 Pls
3880 4421 Pls
3962 4492 Pls
4044 4550 Pls
4126 4596 Pls
4208 4674 Pls
4289 4603 Pls
4371 4682 Pls
4453 4836 Pls
4535 4841 Pls
2177 3297 Pls
2259 3527 Pls
2341 3496 Pls
2423 3630 Pls
2505 3619 Pls
2586 3625 Pls
2668 3709 Pls
2750 3712 Pls
2832 3777 Pls
2914 3720 Pls
2996 3837 Pls
3078 3902 Pls
3160 3881 Pls
3242 3979 Pls
3323 3968 Pls
3405 4089 Pls
3487 4135 Pls
3569 4021 Pls
3650 4156 Pls
3732 4250 Pls
3814 4177 Pls
3896 4294 Pls
3978 4297 Pls
4059 4375 Pls
4141 4384 Pls
4223 4393 Pls
4305 4430 Pls
4387 4541 Pls
4469 4507 Pls
4551 4559 Pls
4633 4601 Pls
2275 3277 Pls
2356 3207 Pls
2438 3364 Pls
2520 3185 Pls
2602 3260 Pls
2684 3579 Pls
2766 3575 Pls
2848 3458 Pls
2930 3695 Pls
3012 3687 Pls
3093 3637 Pls
3175 3791 Pls
3257 3819 Pls
3339 3861 Pls
3421 3844 Pls
3503 3918 Pls
3585 3934 Pls
3666 4042 Pls
3748 4054 Pls
3829 4076 Pls
3911 4065 Pls
3993 4203 Pls
4075 4178 Pls
4157 4296 Pls
4239 4279 Pls
4321 4340 Pls
4403 4366 Pls
4485 4338 Pls
4566 4415 Pls
4648 4428 Pls
4730 4456 Pls
2372 3073 Pls
2454 3066 Pls
2536 3266 Pls
2618 3225 Pls
2700 3294 Pls
2782 3385 Pls
2863 3384 Pls
2945 3485 Pls
3027 3530 Pls
3109 3493 Pls
3191 3568 Pls
3273 3672 Pls
3355 3605 Pls
3437 3753 Pls
3519 3755 Pls
3600 3807 Pls
3681 3852 Pls
3763 3927 Pls
3845 3936 Pls
3927 4050 Pls
4009 3980 Pls
4091 4045 Pls
4173 4123 Pls
4255 4155 Pls
4337 4088 Pls
4418 4216 Pls
4500 4287 Pls
4582 4395 Pls
4664 4397 Pls
4746 4307 Pls
4828 4407 Pls
2470 2962 Pls
2552 3010 Pls
2634 3138 Pls
2715 3236 Pls
2797 3235 Pls
2879 3244 Pls
2961 3229 Pls
3043 3433 Pls
3125 3465 Pls
3207 3411 Pls
3289 3552 Pls
3371 3564 Pls
3452 3560 Pls
3534 3625 Pls
3615 3634 Pls
3697 3715 Pls
3779 3770 Pls
3861 3815 Pls
3943 3850 Pls
4025 3922 Pls
4107 3977 Pls
4188 3979 Pls
4270 4008 Pls
4352 4073 Pls
4434 4059 Pls
4516 4078 Pls
4598 4159 Pls
4680 4293 Pls
4762 4325 Pls
4844 4242 Pls
4925 4353 Pls
2567 3068 Pls
2649 3060 Pls
2731 3059 Pls
2813 3048 Pls
2895 3189 Pls
2977 3290 Pls
3059 3260 Pls
3141 3394 Pls
3222 3327 Pls
3304 3422 Pls
3386 3331 Pls
3468 3456 Pls
3550 3494 Pls
3631 3546 Pls
3713 3502 Pls
3795 3600 Pls
3877 3589 Pls
3958 3750 Pls
4040 3762 Pls
4122 3791 Pls
4204 3776 Pls
4286 3825 Pls
4368 3903 Pls
4450 4001 Pls
4532 4006 Pls
4614 4121 Pls
4695 4080 Pls
4777 4152 Pls
4859 4164 Pls
4941 4170 Pls
5023 4261 Pls
2665 3002 Pls
2747 2982 Pls
2829 3066 Pls
2911 3112 Pls
2992 3025 Pls
3074 3113 Pls
3156 3178 Pls
3238 3206 Pls
3320 3350 Pls
3402 3313 Pls
3484 3302 Pls
3566 3374 Pls
3647 3435 Pls
3728 3540 Pls
3810 3546 Pls
3892 3571 Pls
3974 3586 Pls
4056 3668 Pls
4138 3729 Pls
4220 3768 Pls
4302 3830 Pls
4384 3799 Pls
4466 3811 Pls
4547 3889 Pls
4629 3888 Pls
4711 4003 Pls
4793 4058 Pls
4875 4086 Pls
4957 4138 Pls
5039 4074 Pls
5121 4205 Pls
2763 2696 Pls
2844 2999 Pls
2926 2852 Pls
3008 2921 Pls
3090 2933 Pls
3172 2995 Pls
3254 3096 Pls
3336 3128 Pls
3418 3140 Pls
3500 3178 Pls
3581 3174 Pls
3662 3249 Pls
3744 3340 Pls
3826 3333 Pls
3908 3457 Pls
3990 3489 Pls
4072 3531 Pls
4154 3553 Pls
4236 3598 Pls
4317 3617 Pls
4399 3771 Pls
4481 3707 Pls
4563 3762 Pls
4645 3830 Pls
4727 3836 Pls
4809 3868 Pls
4891 3900 Pls
4973 3958 Pls
5054 3994 Pls
5136 4006 Pls
5218 4130 Pls
2860 2548 Pls
2942 2729 Pls
3024 2777 Pls
3106 2773 Pls
3188 2960 Pls
3270 2942 Pls
3351 2856 Pls
3433 2934 Pls
3515 2999 Pls
3597 3110 Pls
3678 3211 Pls
3760 3220 Pls
3842 3248 Pls
3924 3304 Pls
4006 3352 Pls
4087 3397 Pls
4169 3390 Pls
4251 3501 Pls
4333 3566 Pls
4415 3558 Pls
4497 3606 Pls
4579 3658 Pls
4661 3657 Pls
4743 3669 Pls
4824 3827 Pls
4906 3786 Pls
4988 3834 Pls
5070 3880 Pls
5152 3971 Pls
5234 3930 Pls
5316 4032 Pls
2958 2552 Pls
3040 2577 Pls
3121 2669 Pls
3203 2707 Pls
3285 2776 Pls
3367 2745 Pls
3449 2863 Pls
3531 2891 Pls
3612 2960 Pls
3694 2988 Pls
3776 2941 Pls
3857 3062 Pls
3939 3140 Pls
4021 3152 Pls
4103 3290 Pls
4185 3269 Pls
4267 3284 Pls
4349 3343 Pls
4431 3477 Pls
4513 3407 Pls
4595 3548 Pls
4676 3560 Pls
4758 3546 Pls
4840 3620 Pls
4922 3695 Pls
5004 3750 Pls
5086 3759 Pls
5168 3745 Pls
5250 3820 Pls
5332 3835 Pls
5413 3867 Pls
3055 2506 Pls
3137 2644 Pls
3219 2326 Pls
3301 2556 Pls
3383 2641 Pls
3465 2640 Pls
3547 2830 Pls
3628 2763 Pls
3709 2775 Pls
3791 2817 Pls
3873 2998 Pls
3955 2921 Pls
4037 3005 Pls
4119 3031 Pls
4201 3073 Pls
4283 3161 Pls
4365 3133 Pls
4446 3231 Pls
4528 3336 Pls
4610 3285 Pls
4692 3347 Pls
4774 3379 Pls
4856 3470 Pls
4938 3479 Pls
5020 3547 Pls
5102 3556 Pls
5183 3605 Pls
5265 3703 Pls
5347 3708 Pls
5429 3776 Pls
5511 3812 Pls
3153 2372 Pls
3235 2440 Pls
3317 2462 Pls
3399 2418 Pls
3480 2496 Pls
3562 2578 Pls
3643 2643 Pls
3725 2602 Pls
3807 2684 Pls
3889 2709 Pls
3971 2820 Pls
4053 2839 Pls
4135 2917 Pls
4216 2988 Pls
4298 2997 Pls
4380 2986 Pls
4462 3018 Pls
4544 3172 Pls
4626 3234 Pls
4708 3279 Pls
4790 3258 Pls
4872 3376 Pls
4953 3362 Pls
5035 3447 Pls
5117 3462 Pls
5199 3454 Pls
5281 3493 Pls
5363 3614 Pls
5445 3633 Pls
5527 3724 Pls
5609 3693 Pls
3250 2214 Pls
3332 2170 Pls
3414 2294 Pls
3496 2369 Pls
3578 2434 Pls
3659 2456 Pls
3741 2491 Pls
3823 2705 Pls
3905 2595 Pls
3986 2548 Pls
4068 2791 Pls
4150 2740 Pls
4232 2733 Pls
4314 2808 Pls
4396 2849 Pls
4478 2862 Pls
4560 2976 Pls
4642 2975 Pls
4724 3086 Pls
4805 3121 Pls
4887 3170 Pls
4969 3192 Pls
5051 3194 Pls
5133 3345 Pls
5215 3416 Pls
5297 3438 Pls
5379 3398 Pls
5461 3463 Pls
5542 3518 Pls
5624 3550 Pls
5706 3578 Pls
3348 2214 Pls
3430 2154 Pls
3512 2295 Pls
3594 2310 Pls
3675 2339 Pls
3757 2378 Pls
3838 2416 Pls
3920 2590 Pls
4002 2384 Pls
4084 2565 Pls
4166 2584 Pls
4248 2738 Pls
4330 2727 Pls
4412 2755 Pls
4494 2840 Pls
4575 2806 Pls
4657 2878 Pls
4739 2999 Pls
4821 3021 Pls
4903 3082 Pls
4985 3118 Pls
5067 3107 Pls
5149 3208 Pls
5231 3240 Pls
5312 3285 Pls
5394 3317 Pls
5476 3342 Pls
5558 3470 Pls
5640 3469 Pls
5722 3524 Pls
5804 3503 Pls
3446 2076 Pls
3528 2141 Pls
3608 2117 Pls
3690 2281 Pls
3772 2181 Pls
3854 2226 Pls
3936 2380 Pls
4018 2449 Pls
4100 2415 Pls
4182 2493 Pls
4264 2485 Pls
4345 2524 Pls
4427 2542 Pls
4509 2611 Pls
4591 2748 Pls
4673 2727 Pls
4755 2740 Pls
4837 2748 Pls
4919 2866 Pls
5001 2905 Pls
5082 2963 Pls
5164 3048 Pls
5246 3103 Pls
5328 3148 Pls
5410 3180 Pls
5492 3153 Pls
5574 3237 Pls
5656 3302 Pls
5738 3275 Pls
5820 3350 Pls
5901 3464 Pls
3543 1892 Pls
3624 1961 Pls
3706 1930 Pls
3788 2048 Pls
3870 2205 Pls
3952 2148 Pls
4034 2173 Pls
4115 2291 Pls
4197 2234 Pls
4279 2361 Pls
4361 2403 Pls
4443 2389 Pls
4525 2477 Pls
4607 2555 Pls
4689 2567 Pls
4771 2576 Pls
4853 2664 Pls
4934 2756 Pls
5016 2788 Pls
5098 2819 Pls
5180 2868 Pls
5262 2920 Pls
5344 2998 Pls
5426 3030 Pls
5508 3062 Pls
5590 3117 Pls
5671 3126 Pls
5753 3184 Pls
5835 3199 Pls
5917 3278 Pls
5999 3310 Pls
3640 1982 Pls
3722 1961 Pls
3804 1930 Pls
3886 2051 Pls
3967 1971 Pls
4049 2095 Pls
4131 2114 Pls
4213 2150 Pls
4295 2290 Pls
4377 2316 Pls
4459 2305 Pls
4541 2399 Pls
4623 2481 Pls
4704 2542 Pls
4786 2499 Pls
4868 2567 Pls
4950 2612 Pls
5032 2621 Pls
5114 2689 Pls
5196 2774 Pls
5278 2882 Pls
5360 2904 Pls
5441 2893 Pls
5523 2971 Pls
5605 3006 Pls
5687 3071 Pls
5769 3034 Pls
5851 3168 Pls
5933 3190 Pls
6015 3222 Pls
6097 3294 Pls
3737 1742 Pls
3819 1896 Pls
3901 1796 Pls
3983 1960 Pls
4065 1985 Pls
4147 1981 Pls
4229 2092 Pls
4311 2104 Pls
4393 2165 Pls
4474 2224 Pls
4556 2249 Pls
4638 2258 Pls
4720 2297 Pls
4802 2355 Pls
4884 2440 Pls
4966 2478 Pls
5048 2527 Pls
5130 2605 Pls
5211 2627 Pls
5293 2679 Pls
5375 2734 Pls
5457 2762 Pls
5539 2821 Pls
5621 2896 Pls
5703 2921 Pls
5785 2963 Pls
5867 3024 Pls
5949 3050 Pls
6030 3144 Pls
6112 3117 Pls
6194 3156 Pls
3835 1597 Pls
3917 1797 Pls
3999 1720 Pls
4081 1930 Pls
4163 1890 Pls
4244 1889 Pls
4326 2026 Pls
4408 2029 Pls
4490 2008 Pls
4572 2106 Pls
4654 2171 Pls
4736 2216 Pls
4818 2254 Pls
4900 2306 Pls
4982 2335 Pls
5063 2439 Pls
5145 2474 Pls
5227 2506 Pls
5309 2575 Pls
5391 2620 Pls
5473 2665 Pls
5555 2737 Pls
5637 2736 Pls
5719 2807 Pls
5800 2796 Pls
5882 2871 Pls
5964 2919 Pls
6046 2945 Pls
6128 3039 Pls
6210 3032 Pls
6292 3196 Pls
1.000 UL
LTb
LCb setrgbcolor
LTb
6292 2562 M
3835 812 L
908 2281 M
3835 812 L
1.000 UP
stroke
grestore
end
showpage
%%Trailer
