1 14 16 14 17 14
2 18 13 10 14 14
3 14 14 20 24 21
4 9 14 20 24 21
5 18 14 20 21 21
6 20 16 20 24 39
7 14 16 11 26 28
8 18 16 18 29 64
9 20 16 18 41 58
10 18 16 18 56 90
11 21 23 51 44 108
12 541 649 796 868 923
13 1369 1512 1785 1678 1093
14 2139 2154 2275 1866 1136
15 2356 2521 2392 2031 1145
16 2714 2811 2604 2112 1150
17 2960 3082 2800 2133 1155
18 3059 3234 2819 2171 1181
19 3328 3305 2844 2206 1188
20 3256 3288 2842 2205 1178
21 3641 3337 2916 2241 1171
22 3401 3375 2880 2226 1184
23 3343 3540 2955 2253 1181
24 3374 3430 2899 2250 1189
25 3594 3497 2984 2250 1179
26 3514 3518 2876 2264 1191
27 3678 3431 2862 2188 1186
28 3679 3327 2895 2211 1182
29 3370 3420 2904 2210 1182
30 3818 3263 2886 2195 1175
31 3524 3274 2950 2163 1179
32 3407 3158 2862 2163 1178
33 3298 3232 2844 2135 1176
34 3461 3114 2789 2123 1156
35 3250 3059 2833 2144 1176
36 3159 3037 2750 2133 1153
37 3134 2939 2774 2164 1160
38 3459 2982 2725 2148 1172
39 3160 2838 2757 2105 1145
40 3205 3003 2716 2117 1131
41 3276 2747 2729 2071 1148
42 3085 2870 2646 1994 1154
43 3214 2626 2577 2014 1150
44 2772 2757 2517 1966 1157
45 2819 2759 2492 1973 1150
46 2782 2680 2468 1947 1134
47 3111 2776 2375 1952 1128
48 2782 2645 2344 1931 1143
49 2743 2596 2381 1980 1096
50 2554 2671 2308 1936 1096
60 2393 2309 2051 1805 1081
70 2136 2122 1918 1661 1047
80 1982 1917 1647 1441 989
90 1712 1776 1550 1373 935
100 1685 1700 1396 1300 890
200 947 832 786 769 594
300 568 656 547 501 414
400 486 463 398 400 329
500 390 303 356 312 323
600 299 290 295 292 254
700 362 280 203 238 232
800 200 219 213 187 141
900 175 166 183 190 182
1000 171 172 187 190 154
