%!PS-Adobe-2.0 EPSF-2.0
%%Title: exc2_5_6_3d_lost_checksum_err_payloads/protocol5/exc2_5_6_3d_lost_checksum_err_payloads.tex
%%Creator: gnuplot 5.0 patchlevel 1
%%CreationDate: Mon Nov  2 07:24:01 2015
%%DocumentFonts: 
%%BoundingBox: 50 50 410 302
%%EndComments
%%BeginProlog
/gnudict 256 dict def
gnudict begin
%
% The following true/false flags may be edited by hand if desired.
% The unit line width and grayscale image gamma correction may also be changed.
%
/Color false def
/Blacktext true def
/Solid false def
/Dashlength 1 def
/Landscape false def
/Level1 false def
/Level3 false def
/Rounded false def
/ClipToBoundingBox false def
/SuppressPDFMark false def
/TransparentPatterns false def
/gnulinewidth 5.000 def
/userlinewidth gnulinewidth def
/Gamma 1.0 def
/BackgroundColor {-1.000 -1.000 -1.000} def
%
/vshift -73 def
/dl1 {
  10.0 Dashlength userlinewidth gnulinewidth div mul mul mul
  Rounded { currentlinewidth 0.75 mul sub dup 0 le { pop 0.01 } if } if
} def
/dl2 {
  10.0 Dashlength userlinewidth gnulinewidth div mul mul mul
  Rounded { currentlinewidth 0.75 mul add } if
} def
/hpt_ 31.5 def
/vpt_ 31.5 def
/hpt hpt_ def
/vpt vpt_ def
/doclip {
  ClipToBoundingBox {
    newpath 50 50 moveto 410 50 lineto 410 302 lineto 50 302 lineto closepath
    clip
  } if
} def
%
% Gnuplot Prolog Version 5.0 (Dec 2014)
%
%/SuppressPDFMark true def
%
/M {moveto} bind def
/L {lineto} bind def
/R {rmoveto} bind def
/V {rlineto} bind def
/N {newpath moveto} bind def
/Z {closepath} bind def
/C {setrgbcolor} bind def
/f {rlineto fill} bind def
/g {setgray} bind def
/Gshow {show} def   % May be redefined later in the file to support UTF-8
/vpt2 vpt 2 mul def
/hpt2 hpt 2 mul def
/Lshow {currentpoint stroke M 0 vshift R 
	Blacktext {gsave 0 setgray textshow grestore} {textshow} ifelse} def
/Rshow {currentpoint stroke M dup stringwidth pop neg vshift R
	Blacktext {gsave 0 setgray textshow grestore} {textshow} ifelse} def
/Cshow {currentpoint stroke M dup stringwidth pop -2 div vshift R 
	Blacktext {gsave 0 setgray textshow grestore} {textshow} ifelse} def
/UP {dup vpt_ mul /vpt exch def hpt_ mul /hpt exch def
  /hpt2 hpt 2 mul def /vpt2 vpt 2 mul def} def
/DL {Color {setrgbcolor Solid {pop []} if 0 setdash}
 {pop pop pop 0 setgray Solid {pop []} if 0 setdash} ifelse} def
/BL {stroke userlinewidth 2 mul setlinewidth
	Rounded {1 setlinejoin 1 setlinecap} if} def
/AL {stroke userlinewidth 2 div setlinewidth
	Rounded {1 setlinejoin 1 setlinecap} if} def
/UL {dup gnulinewidth mul /userlinewidth exch def
	dup 1 lt {pop 1} if 10 mul /udl exch def} def
/PL {stroke userlinewidth setlinewidth
	Rounded {1 setlinejoin 1 setlinecap} if} def
3.8 setmiterlimit
% Classic Line colors (version 5.0)
/LCw {1 1 1} def
/LCb {0 0 0} def
/LCa {0 0 0} def
/LC0 {1 0 0} def
/LC1 {0 1 0} def
/LC2 {0 0 1} def
/LC3 {1 0 1} def
/LC4 {0 1 1} def
/LC5 {1 1 0} def
/LC6 {0 0 0} def
/LC7 {1 0.3 0} def
/LC8 {0.5 0.5 0.5} def
% Default dash patterns (version 5.0)
/LTw {PL [] 1 setgray} def
/LTb {BL [] LCb DL} def
/LTa {AL [1 udl mul 2 udl mul] 0 setdash LCa setrgbcolor} def
/LT0 {PL [] LC0 DL} def
/LT1 {PL [2 dl1 3 dl2] LC1 DL} def
/LT2 {PL [1 dl1 1.5 dl2] LC2 DL} def
/LT3 {PL [6 dl1 2 dl2 1 dl1 2 dl2] LC3 DL} def
/LT4 {PL [1 dl1 2 dl2 6 dl1 2 dl2 1 dl1 2 dl2] LC4 DL} def
/LT5 {PL [4 dl1 2 dl2] LC5 DL} def
/LT6 {PL [1.5 dl1 1.5 dl2 1.5 dl1 1.5 dl2 1.5 dl1 6 dl2] LC6 DL} def
/LT7 {PL [3 dl1 3 dl2 1 dl1 3 dl2] LC7 DL} def
/LT8 {PL [2 dl1 2 dl2 2 dl1 6 dl2] LC8 DL} def
/SL {[] 0 setdash} def
/Pnt {stroke [] 0 setdash gsave 1 setlinecap M 0 0 V stroke grestore} def
/Dia {stroke [] 0 setdash 2 copy vpt add M
  hpt neg vpt neg V hpt vpt neg V
  hpt vpt V hpt neg vpt V closepath stroke
  Pnt} def
/Pls {stroke [] 0 setdash vpt sub M 0 vpt2 V
  currentpoint stroke M
  hpt neg vpt neg R hpt2 0 V stroke
 } def
/Box {stroke [] 0 setdash 2 copy exch hpt sub exch vpt add M
  0 vpt2 neg V hpt2 0 V 0 vpt2 V
  hpt2 neg 0 V closepath stroke
  Pnt} def
/Crs {stroke [] 0 setdash exch hpt sub exch vpt add M
  hpt2 vpt2 neg V currentpoint stroke M
  hpt2 neg 0 R hpt2 vpt2 V stroke} def
/TriU {stroke [] 0 setdash 2 copy vpt 1.12 mul add M
  hpt neg vpt -1.62 mul V
  hpt 2 mul 0 V
  hpt neg vpt 1.62 mul V closepath stroke
  Pnt} def
/Star {2 copy Pls Crs} def
/BoxF {stroke [] 0 setdash exch hpt sub exch vpt add M
  0 vpt2 neg V hpt2 0 V 0 vpt2 V
  hpt2 neg 0 V closepath fill} def
/TriUF {stroke [] 0 setdash vpt 1.12 mul add M
  hpt neg vpt -1.62 mul V
  hpt 2 mul 0 V
  hpt neg vpt 1.62 mul V closepath fill} def
/TriD {stroke [] 0 setdash 2 copy vpt 1.12 mul sub M
  hpt neg vpt 1.62 mul V
  hpt 2 mul 0 V
  hpt neg vpt -1.62 mul V closepath stroke
  Pnt} def
/TriDF {stroke [] 0 setdash vpt 1.12 mul sub M
  hpt neg vpt 1.62 mul V
  hpt 2 mul 0 V
  hpt neg vpt -1.62 mul V closepath fill} def
/DiaF {stroke [] 0 setdash vpt add M
  hpt neg vpt neg V hpt vpt neg V
  hpt vpt V hpt neg vpt V closepath fill} def
/Pent {stroke [] 0 setdash 2 copy gsave
  translate 0 hpt M 4 {72 rotate 0 hpt L} repeat
  closepath stroke grestore Pnt} def
/PentF {stroke [] 0 setdash gsave
  translate 0 hpt M 4 {72 rotate 0 hpt L} repeat
  closepath fill grestore} def
/Circle {stroke [] 0 setdash 2 copy
  hpt 0 360 arc stroke Pnt} def
/CircleF {stroke [] 0 setdash hpt 0 360 arc fill} def
/C0 {BL [] 0 setdash 2 copy moveto vpt 90 450 arc} bind def
/C1 {BL [] 0 setdash 2 copy moveto
	2 copy vpt 0 90 arc closepath fill
	vpt 0 360 arc closepath} bind def
/C2 {BL [] 0 setdash 2 copy moveto
	2 copy vpt 90 180 arc closepath fill
	vpt 0 360 arc closepath} bind def
/C3 {BL [] 0 setdash 2 copy moveto
	2 copy vpt 0 180 arc closepath fill
	vpt 0 360 arc closepath} bind def
/C4 {BL [] 0 setdash 2 copy moveto
	2 copy vpt 180 270 arc closepath fill
	vpt 0 360 arc closepath} bind def
/C5 {BL [] 0 setdash 2 copy moveto
	2 copy vpt 0 90 arc
	2 copy moveto
	2 copy vpt 180 270 arc closepath fill
	vpt 0 360 arc} bind def
/C6 {BL [] 0 setdash 2 copy moveto
	2 copy vpt 90 270 arc closepath fill
	vpt 0 360 arc closepath} bind def
/C7 {BL [] 0 setdash 2 copy moveto
	2 copy vpt 0 270 arc closepath fill
	vpt 0 360 arc closepath} bind def
/C8 {BL [] 0 setdash 2 copy moveto
	2 copy vpt 270 360 arc closepath fill
	vpt 0 360 arc closepath} bind def
/C9 {BL [] 0 setdash 2 copy moveto
	2 copy vpt 270 450 arc closepath fill
	vpt 0 360 arc closepath} bind def
/C10 {BL [] 0 setdash 2 copy 2 copy moveto vpt 270 360 arc closepath fill
	2 copy moveto
	2 copy vpt 90 180 arc closepath fill
	vpt 0 360 arc closepath} bind def
/C11 {BL [] 0 setdash 2 copy moveto
	2 copy vpt 0 180 arc closepath fill
	2 copy moveto
	2 copy vpt 270 360 arc closepath fill
	vpt 0 360 arc closepath} bind def
/C12 {BL [] 0 setdash 2 copy moveto
	2 copy vpt 180 360 arc closepath fill
	vpt 0 360 arc closepath} bind def
/C13 {BL [] 0 setdash 2 copy moveto
	2 copy vpt 0 90 arc closepath fill
	2 copy moveto
	2 copy vpt 180 360 arc closepath fill
	vpt 0 360 arc closepath} bind def
/C14 {BL [] 0 setdash 2 copy moveto
	2 copy vpt 90 360 arc closepath fill
	vpt 0 360 arc} bind def
/C15 {BL [] 0 setdash 2 copy vpt 0 360 arc closepath fill
	vpt 0 360 arc closepath} bind def
/Rec {newpath 4 2 roll moveto 1 index 0 rlineto 0 exch rlineto
	neg 0 rlineto closepath} bind def
/Square {dup Rec} bind def
/Bsquare {vpt sub exch vpt sub exch vpt2 Square} bind def
/S0 {BL [] 0 setdash 2 copy moveto 0 vpt rlineto BL Bsquare} bind def
/S1 {BL [] 0 setdash 2 copy vpt Square fill Bsquare} bind def
/S2 {BL [] 0 setdash 2 copy exch vpt sub exch vpt Square fill Bsquare} bind def
/S3 {BL [] 0 setdash 2 copy exch vpt sub exch vpt2 vpt Rec fill Bsquare} bind def
/S4 {BL [] 0 setdash 2 copy exch vpt sub exch vpt sub vpt Square fill Bsquare} bind def
/S5 {BL [] 0 setdash 2 copy 2 copy vpt Square fill
	exch vpt sub exch vpt sub vpt Square fill Bsquare} bind def
/S6 {BL [] 0 setdash 2 copy exch vpt sub exch vpt sub vpt vpt2 Rec fill Bsquare} bind def
/S7 {BL [] 0 setdash 2 copy exch vpt sub exch vpt sub vpt vpt2 Rec fill
	2 copy vpt Square fill Bsquare} bind def
/S8 {BL [] 0 setdash 2 copy vpt sub vpt Square fill Bsquare} bind def
/S9 {BL [] 0 setdash 2 copy vpt sub vpt vpt2 Rec fill Bsquare} bind def
/S10 {BL [] 0 setdash 2 copy vpt sub vpt Square fill 2 copy exch vpt sub exch vpt Square fill
	Bsquare} bind def
/S11 {BL [] 0 setdash 2 copy vpt sub vpt Square fill 2 copy exch vpt sub exch vpt2 vpt Rec fill
	Bsquare} bind def
/S12 {BL [] 0 setdash 2 copy exch vpt sub exch vpt sub vpt2 vpt Rec fill Bsquare} bind def
/S13 {BL [] 0 setdash 2 copy exch vpt sub exch vpt sub vpt2 vpt Rec fill
	2 copy vpt Square fill Bsquare} bind def
/S14 {BL [] 0 setdash 2 copy exch vpt sub exch vpt sub vpt2 vpt Rec fill
	2 copy exch vpt sub exch vpt Square fill Bsquare} bind def
/S15 {BL [] 0 setdash 2 copy Bsquare fill Bsquare} bind def
/D0 {gsave translate 45 rotate 0 0 S0 stroke grestore} bind def
/D1 {gsave translate 45 rotate 0 0 S1 stroke grestore} bind def
/D2 {gsave translate 45 rotate 0 0 S2 stroke grestore} bind def
/D3 {gsave translate 45 rotate 0 0 S3 stroke grestore} bind def
/D4 {gsave translate 45 rotate 0 0 S4 stroke grestore} bind def
/D5 {gsave translate 45 rotate 0 0 S5 stroke grestore} bind def
/D6 {gsave translate 45 rotate 0 0 S6 stroke grestore} bind def
/D7 {gsave translate 45 rotate 0 0 S7 stroke grestore} bind def
/D8 {gsave translate 45 rotate 0 0 S8 stroke grestore} bind def
/D9 {gsave translate 45 rotate 0 0 S9 stroke grestore} bind def
/D10 {gsave translate 45 rotate 0 0 S10 stroke grestore} bind def
/D11 {gsave translate 45 rotate 0 0 S11 stroke grestore} bind def
/D12 {gsave translate 45 rotate 0 0 S12 stroke grestore} bind def
/D13 {gsave translate 45 rotate 0 0 S13 stroke grestore} bind def
/D14 {gsave translate 45 rotate 0 0 S14 stroke grestore} bind def
/D15 {gsave translate 45 rotate 0 0 S15 stroke grestore} bind def
/DiaE {stroke [] 0 setdash vpt add M
  hpt neg vpt neg V hpt vpt neg V
  hpt vpt V hpt neg vpt V closepath stroke} def
/BoxE {stroke [] 0 setdash exch hpt sub exch vpt add M
  0 vpt2 neg V hpt2 0 V 0 vpt2 V
  hpt2 neg 0 V closepath stroke} def
/TriUE {stroke [] 0 setdash vpt 1.12 mul add M
  hpt neg vpt -1.62 mul V
  hpt 2 mul 0 V
  hpt neg vpt 1.62 mul V closepath stroke} def
/TriDE {stroke [] 0 setdash vpt 1.12 mul sub M
  hpt neg vpt 1.62 mul V
  hpt 2 mul 0 V
  hpt neg vpt -1.62 mul V closepath stroke} def
/PentE {stroke [] 0 setdash gsave
  translate 0 hpt M 4 {72 rotate 0 hpt L} repeat
  closepath stroke grestore} def
/CircE {stroke [] 0 setdash 
  hpt 0 360 arc stroke} def
/Opaque {gsave closepath 1 setgray fill grestore 0 setgray closepath} def
/DiaW {stroke [] 0 setdash vpt add M
  hpt neg vpt neg V hpt vpt neg V
  hpt vpt V hpt neg vpt V Opaque stroke} def
/BoxW {stroke [] 0 setdash exch hpt sub exch vpt add M
  0 vpt2 neg V hpt2 0 V 0 vpt2 V
  hpt2 neg 0 V Opaque stroke} def
/TriUW {stroke [] 0 setdash vpt 1.12 mul add M
  hpt neg vpt -1.62 mul V
  hpt 2 mul 0 V
  hpt neg vpt 1.62 mul V Opaque stroke} def
/TriDW {stroke [] 0 setdash vpt 1.12 mul sub M
  hpt neg vpt 1.62 mul V
  hpt 2 mul 0 V
  hpt neg vpt -1.62 mul V Opaque stroke} def
/PentW {stroke [] 0 setdash gsave
  translate 0 hpt M 4 {72 rotate 0 hpt L} repeat
  Opaque stroke grestore} def
/CircW {stroke [] 0 setdash 
  hpt 0 360 arc Opaque stroke} def
/BoxFill {gsave Rec 1 setgray fill grestore} def
/Density {
  /Fillden exch def
  currentrgbcolor
  /ColB exch def /ColG exch def /ColR exch def
  /ColR ColR Fillden mul Fillden sub 1 add def
  /ColG ColG Fillden mul Fillden sub 1 add def
  /ColB ColB Fillden mul Fillden sub 1 add def
  ColR ColG ColB setrgbcolor} def
/BoxColFill {gsave Rec PolyFill} def
/PolyFill {gsave Density fill grestore grestore} def
/h {rlineto rlineto rlineto gsave closepath fill grestore} bind def
%
% PostScript Level 1 Pattern Fill routine for rectangles
% Usage: x y w h s a XX PatternFill
%	x,y = lower left corner of box to be filled
%	w,h = width and height of box
%	  a = angle in degrees between lines and x-axis
%	 XX = 0/1 for no/yes cross-hatch
%
/PatternFill {gsave /PFa [ 9 2 roll ] def
  PFa 0 get PFa 2 get 2 div add PFa 1 get PFa 3 get 2 div add translate
  PFa 2 get -2 div PFa 3 get -2 div PFa 2 get PFa 3 get Rec
  TransparentPatterns {} {gsave 1 setgray fill grestore} ifelse
  clip
  currentlinewidth 0.5 mul setlinewidth
  /PFs PFa 2 get dup mul PFa 3 get dup mul add sqrt def
  0 0 M PFa 5 get rotate PFs -2 div dup translate
  0 1 PFs PFa 4 get div 1 add floor cvi
	{PFa 4 get mul 0 M 0 PFs V} for
  0 PFa 6 get ne {
	0 1 PFs PFa 4 get div 1 add floor cvi
	{PFa 4 get mul 0 2 1 roll M PFs 0 V} for
 } if
  stroke grestore} def
%
/languagelevel where
 {pop languagelevel} {1} ifelse
dup 2 lt
	{/InterpretLevel1 true def
	 /InterpretLevel3 false def}
	{/InterpretLevel1 Level1 def
	 2 gt
	    {/InterpretLevel3 Level3 def}
	    {/InterpretLevel3 false def}
	 ifelse }
 ifelse
%
% PostScript level 2 pattern fill definitions
%
/Level2PatternFill {
/Tile8x8 {/PaintType 2 /PatternType 1 /TilingType 1 /BBox [0 0 8 8] /XStep 8 /YStep 8}
	bind def
/KeepColor {currentrgbcolor [/Pattern /DeviceRGB] setcolorspace} bind def
<< Tile8x8
 /PaintProc {0.5 setlinewidth pop 0 0 M 8 8 L 0 8 M 8 0 L stroke} 
>> matrix makepattern
/Pat1 exch def
<< Tile8x8
 /PaintProc {0.5 setlinewidth pop 0 0 M 8 8 L 0 8 M 8 0 L stroke
	0 4 M 4 8 L 8 4 L 4 0 L 0 4 L stroke}
>> matrix makepattern
/Pat2 exch def
<< Tile8x8
 /PaintProc {0.5 setlinewidth pop 0 0 M 0 8 L
	8 8 L 8 0 L 0 0 L fill}
>> matrix makepattern
/Pat3 exch def
<< Tile8x8
 /PaintProc {0.5 setlinewidth pop -4 8 M 8 -4 L
	0 12 M 12 0 L stroke}
>> matrix makepattern
/Pat4 exch def
<< Tile8x8
 /PaintProc {0.5 setlinewidth pop -4 0 M 8 12 L
	0 -4 M 12 8 L stroke}
>> matrix makepattern
/Pat5 exch def
<< Tile8x8
 /PaintProc {0.5 setlinewidth pop -2 8 M 4 -4 L
	0 12 M 8 -4 L 4 12 M 10 0 L stroke}
>> matrix makepattern
/Pat6 exch def
<< Tile8x8
 /PaintProc {0.5 setlinewidth pop -2 0 M 4 12 L
	0 -4 M 8 12 L 4 -4 M 10 8 L stroke}
>> matrix makepattern
/Pat7 exch def
<< Tile8x8
 /PaintProc {0.5 setlinewidth pop 8 -2 M -4 4 L
	12 0 M -4 8 L 12 4 M 0 10 L stroke}
>> matrix makepattern
/Pat8 exch def
<< Tile8x8
 /PaintProc {0.5 setlinewidth pop 0 -2 M 12 4 L
	-4 0 M 12 8 L -4 4 M 8 10 L stroke}
>> matrix makepattern
/Pat9 exch def
/Pattern1 {PatternBgnd KeepColor Pat1 setpattern} bind def
/Pattern2 {PatternBgnd KeepColor Pat2 setpattern} bind def
/Pattern3 {PatternBgnd KeepColor Pat3 setpattern} bind def
/Pattern4 {PatternBgnd KeepColor Landscape {Pat5} {Pat4} ifelse setpattern} bind def
/Pattern5 {PatternBgnd KeepColor Landscape {Pat4} {Pat5} ifelse setpattern} bind def
/Pattern6 {PatternBgnd KeepColor Landscape {Pat9} {Pat6} ifelse setpattern} bind def
/Pattern7 {PatternBgnd KeepColor Landscape {Pat8} {Pat7} ifelse setpattern} bind def
} def
%
%
%End of PostScript Level 2 code
%
/PatternBgnd {
  TransparentPatterns {} {gsave 1 setgray fill grestore} ifelse
} def
%
% Substitute for Level 2 pattern fill codes with
% grayscale if Level 2 support is not selected.
%
/Level1PatternFill {
/Pattern1 {0.250 Density} bind def
/Pattern2 {0.500 Density} bind def
/Pattern3 {0.750 Density} bind def
/Pattern4 {0.125 Density} bind def
/Pattern5 {0.375 Density} bind def
/Pattern6 {0.625 Density} bind def
/Pattern7 {0.875 Density} bind def
} def
%
% Now test for support of Level 2 code
%
Level1 {Level1PatternFill} {Level2PatternFill} ifelse
%
/Symbol-Oblique /Symbol findfont [1 0 .167 1 0 0] makefont
dup length dict begin {1 index /FID eq {pop pop} {def} ifelse} forall
currentdict end definefont pop
%
Level1 SuppressPDFMark or 
{} {
/SDict 10 dict def
systemdict /pdfmark known not {
  userdict /pdfmark systemdict /cleartomark get put
} if
SDict begin [
  /Title (exc2_5_6_3d_lost_checksum_err_payloads/protocol5/exc2_5_6_3d_lost_checksum_err_payloads.tex)
  /Subject (gnuplot plot)
  /Creator (gnuplot 5.0 patchlevel 1)
  /Author (asiron)
%  /Producer (gnuplot)
%  /Keywords ()
  /CreationDate (Mon Nov  2 07:24:01 2015)
  /DOCINFO pdfmark
end
} ifelse
end
%
% Support for boxed text - Ethan A Merritt May 2005
%
/InitTextBox { userdict /TBy2 3 -1 roll put userdict /TBx2 3 -1 roll put
           userdict /TBy1 3 -1 roll put userdict /TBx1 3 -1 roll put
	   /Boxing true def } def
/ExtendTextBox { Boxing
    { gsave dup false charpath pathbbox
      dup TBy2 gt {userdict /TBy2 3 -1 roll put} {pop} ifelse
      dup TBx2 gt {userdict /TBx2 3 -1 roll put} {pop} ifelse
      dup TBy1 lt {userdict /TBy1 3 -1 roll put} {pop} ifelse
      dup TBx1 lt {userdict /TBx1 3 -1 roll put} {pop} ifelse
      grestore } if } def
/PopTextBox { newpath TBx1 TBxmargin sub TBy1 TBymargin sub M
               TBx1 TBxmargin sub TBy2 TBymargin add L
	       TBx2 TBxmargin add TBy2 TBymargin add L
	       TBx2 TBxmargin add TBy1 TBymargin sub L closepath } def
/DrawTextBox { PopTextBox stroke /Boxing false def} def
/FillTextBox { gsave PopTextBox 1 1 1 setrgbcolor fill grestore /Boxing false def} def
0 0 0 0 InitTextBox
/TBxmargin 20 def
/TBymargin 20 def
/Boxing false def
/textshow { ExtendTextBox Gshow } def
%
%%EndProlog
%%Page: 1 1
gnudict begin
gsave
doclip
50 50 translate
0.050 0.050 scale
0 setgray
newpath
1.000 UL
LTb
LCb setrgbcolor
LTb
1.000 UL
LTb
1046 1384 M
2916 2413 L
6154 1819 M
2916 2413 L
1046 1384 M
0 2057 V
0 -2057 R
50 28 V
2916 2413 M
-50 -27 V
1586 1285 M
49 28 V
3456 2314 M
-50 -27 V
2126 1186 M
49 28 V
3995 2215 M
-50 -27 V
2666 1087 M
49 28 V
4534 2116 M
-49 -27 V
3205 988 M
50 28 V
5074 2017 M
-49 -27 V
3744 889 M
50 28 V
5614 1918 M
-49 -27 V
4284 790 M
50 28 V
6154 1819 M
-50 -27 V
4284 790 M
-55 10 V
1046 1384 M
55 -10 V
4596 962 M
-55 10 V
1358 1556 M
54 -10 V
4907 1133 M
-54 10 V
1669 1727 M
55 -10 V
5219 1305 M
-55 10 V
1981 1899 M
55 -10 V
5531 1476 M
-55 10 V
2293 2070 M
54 -10 V
5842 1648 M
-54 10 V
2604 2242 M
55 -10 V
6154 1819 M
-55 10 V
2916 2413 M
55 -10 V
1046 2070 M
63 0 V
-63 137 R
63 0 V
-63 137 R
63 0 V
-63 138 R
63 0 V
-63 137 R
63 0 V
-63 136 R
63 0 V
-63 137 R
63 0 V
-63 137 R
63 0 V
-63 138 R
63 0 V
-63 137 R
63 0 V
-63 137 R
63 0 V
1.000 UP
1.000 UP
stroke
0.58 0.00 0.83 C 1046 3407 Pls
1108 3304 Pls
1171 3244 Pls
1233 3182 Pls
1295 3156 Pls
1358 3139 Pls
1420 3124 Pls
1482 3073 Pls
1545 3088 Pls
1607 3103 Pls
1669 3067 Pls
1732 3089 Pls
1794 3085 Pls
1856 3092 Pls
1919 3123 Pls
1981 3102 Pls
2043 3129 Pls
2106 3134 Pls
2168 3156 Pls
2230 3189 Pls
2293 3199 Pls
2355 3205 Pls
2417 3223 Pls
2480 3244 Pls
2542 3252 Pls
2604 3272 Pls
2667 3283 Pls
2729 3325 Pls
2791 3343 Pls
2854 3352 Pls
2916 3394 Pls
1154 3247 Pls
1216 3263 Pls
1279 3176 Pls
1341 3153 Pls
1403 3121 Pls
1466 3115 Pls
1528 3085 Pls
1590 3066 Pls
1653 3065 Pls
1715 3065 Pls
1777 3058 Pls
1840 3027 Pls
1902 3049 Pls
1964 3075 Pls
2027 3103 Pls
2089 3075 Pls
2151 3081 Pls
2214 3096 Pls
2276 3121 Pls
2338 3153 Pls
2401 3189 Pls
2463 3185 Pls
2525 3194 Pls
2588 3208 Pls
2650 3242 Pls
2712 3248 Pls
2775 3274 Pls
2837 3295 Pls
2899 3298 Pls
2962 3340 Pls
3024 3359 Pls
1262 3148 Pls
1324 3120 Pls
1387 3111 Pls
1449 3089 Pls
1511 3078 Pls
1574 3022 Pls
1636 3030 Pls
1698 3007 Pls
1761 3028 Pls
1823 3030 Pls
1885 3018 Pls
1948 3007 Pls
2010 3003 Pls
2072 3038 Pls
2135 3044 Pls
2197 3040 Pls
2259 3059 Pls
2322 3060 Pls
2384 3091 Pls
2446 3116 Pls
2509 3141 Pls
2571 3126 Pls
2633 3163 Pls
2696 3179 Pls
2758 3169 Pls
2820 3228 Pls
2883 3258 Pls
2945 3269 Pls
3007 3287 Pls
3070 3304 Pls
3132 3330 Pls
1370 3033 Pls
1432 3040 Pls
1495 3018 Pls
1557 3022 Pls
1619 3010 Pls
1682 2942 Pls
1744 2971 Pls
1806 2968 Pls
1869 2939 Pls
1931 2978 Pls
1993 2955 Pls
2056 2981 Pls
2118 3008 Pls
2180 2983 Pls
2243 3021 Pls
2305 3033 Pls
2367 3016 Pls
2430 3033 Pls
2492 3058 Pls
2554 3074 Pls
2617 3112 Pls
2679 3098 Pls
2741 3119 Pls
2804 3133 Pls
2866 3162 Pls
2928 3194 Pls
2991 3213 Pls
3053 3217 Pls
3115 3257 Pls
3178 3268 Pls
3240 3316 Pls
1478 2967 Pls
1540 2956 Pls
1603 2954 Pls
1665 2912 Pls
1727 2956 Pls
1790 2932 Pls
1852 2924 Pls
1914 2912 Pls
1977 2938 Pls
2039 2938 Pls
2101 2930 Pls
2164 2933 Pls
2226 2982 Pls
2288 2986 Pls
2351 2978 Pls
2413 2975 Pls
2475 2996 Pls
2538 3007 Pls
2600 3011 Pls
2662 3047 Pls
2725 3073 Pls
2787 3074 Pls
2849 3125 Pls
2912 3124 Pls
2974 3154 Pls
3036 3155 Pls
3099 3186 Pls
3161 3201 Pls
3223 3213 Pls
3286 3247 Pls
3348 3288 Pls
1586 2870 Pls
1648 2854 Pls
1711 2886 Pls
1773 2863 Pls
1835 2892 Pls
1898 2889 Pls
1960 2876 Pls
2022 2839 Pls
2085 2884 Pls
2147 2881 Pls
2209 2868 Pls
2272 2883 Pls
2334 2884 Pls
2396 2941 Pls
2459 2945 Pls
2521 2932 Pls
2583 2971 Pls
2646 2952 Pls
2708 2988 Pls
2770 3013 Pls
2833 3052 Pls
2895 3051 Pls
2957 3062 Pls
3020 3104 Pls
3082 3096 Pls
3144 3125 Pls
3207 3151 Pls
3269 3160 Pls
3331 3208 Pls
3394 3220 Pls
3456 3255 Pls
1694 2785 Pls
1756 2806 Pls
1818 2805 Pls
1881 2794 Pls
1943 2829 Pls
2005 2840 Pls
2068 2851 Pls
2130 2843 Pls
2192 2847 Pls
2255 2838 Pls
2317 2846 Pls
2379 2871 Pls
2442 2899 Pls
2504 2912 Pls
2566 2904 Pls
2629 2895 Pls
2691 2914 Pls
2753 2936 Pls
2816 2972 Pls
2878 2980 Pls
2940 2997 Pls
3003 3014 Pls
3065 3045 Pls
3127 3057 Pls
3190 3072 Pls
3252 3120 Pls
3314 3138 Pls
3377 3147 Pls
3439 3169 Pls
3501 3206 Pls
3564 3221 Pls
1802 2747 Pls
1864 2742 Pls
1926 2748 Pls
1989 2748 Pls
2051 2729 Pls
2113 2767 Pls
2176 2744 Pls
2238 2758 Pls
2300 2807 Pls
2363 2805 Pls
2425 2802 Pls
2487 2857 Pls
2550 2832 Pls
2612 2855 Pls
2674 2840 Pls
2737 2868 Pls
2799 2891 Pls
2861 2909 Pls
2924 2939 Pls
2986 2967 Pls
3048 2980 Pls
3111 2962 Pls
3173 3029 Pls
3235 3027 Pls
3298 3068 Pls
3360 3078 Pls
3422 3104 Pls
3485 3131 Pls
3547 3148 Pls
3608 3181 Pls
3671 3202 Pls
1910 2671 Pls
1972 2680 Pls
2034 2681 Pls
2097 2689 Pls
2159 2686 Pls
2221 2683 Pls
2284 2727 Pls
2346 2728 Pls
2408 2787 Pls
2471 2715 Pls
2533 2784 Pls
2595 2776 Pls
2658 2803 Pls
2720 2792 Pls
2782 2833 Pls
2845 2855 Pls
2907 2868 Pls
2969 2862 Pls
3032 2910 Pls
3094 2918 Pls
3156 2933 Pls
3219 2959 Pls
3281 2965 Pls
3343 3008 Pls
3406 3029 Pls
3468 3036 Pls
3530 3061 Pls
3593 3101 Pls
3654 3124 Pls
3716 3132 Pls
3779 3182 Pls
2018 2616 Pls
2080 2637 Pls
2142 2643 Pls
2205 2639 Pls
2267 2645 Pls
2329 2656 Pls
2392 2700 Pls
2454 2727 Pls
2516 2691 Pls
2579 2719 Pls
2641 2720 Pls
2703 2743 Pls
2766 2731 Pls
2828 2813 Pls
2890 2833 Pls
2953 2788 Pls
3015 2820 Pls
3077 2858 Pls
3140 2883 Pls
3202 2917 Pls
3264 2937 Pls
3327 2958 Pls
3389 2968 Pls
3451 2973 Pls
3514 3016 Pls
3576 3018 Pls
3637 3059 Pls
3700 3080 Pls
3762 3097 Pls
3824 3112 Pls
3887 3155 Pls
2126 2555 Pls
2188 2584 Pls
2250 2567 Pls
2313 2588 Pls
2375 2598 Pls
2437 2613 Pls
2500 2612 Pls
2562 2644 Pls
2624 2656 Pls
2687 2684 Pls
2749 2724 Pls
2811 2705 Pls
2874 2743 Pls
2936 2764 Pls
2998 2736 Pls
3061 2795 Pls
3123 2799 Pls
3185 2832 Pls
3248 2850 Pls
3310 2849 Pls
3372 2879 Pls
3435 2923 Pls
3497 2929 Pls
3559 2948 Pls
3621 2982 Pls
3683 2994 Pls
3745 3032 Pls
3808 3045 Pls
3870 3071 Pls
3932 3106 Pls
3995 3146 Pls
2234 2505 Pls
2296 2535 Pls
2358 2529 Pls
2421 2509 Pls
2483 2560 Pls
2545 2551 Pls
2608 2578 Pls
2670 2599 Pls
2732 2630 Pls
2795 2609 Pls
2857 2642 Pls
2919 2713 Pls
2982 2721 Pls
3044 2678 Pls
3106 2716 Pls
3169 2772 Pls
3231 2741 Pls
3293 2822 Pls
3356 2807 Pls
3418 2813 Pls
3480 2857 Pls
3543 2876 Pls
3604 2888 Pls
3666 2900 Pls
3729 2947 Pls
3791 2977 Pls
3853 2990 Pls
3916 3011 Pls
3978 3058 Pls
4040 3079 Pls
4103 3111 Pls
2342 2468 Pls
2404 2472 Pls
2466 2486 Pls
2529 2489 Pls
2591 2539 Pls
2653 2510 Pls
2716 2554 Pls
2778 2545 Pls
2840 2541 Pls
2903 2569 Pls
2965 2603 Pls
3027 2615 Pls
3090 2653 Pls
3152 2668 Pls
3214 2696 Pls
3277 2698 Pls
3339 2725 Pls
3401 2746 Pls
3464 2765 Pls
3526 2776 Pls
3588 2805 Pls
3650 2818 Pls
3712 2875 Pls
3774 2891 Pls
3837 2910 Pls
3899 2952 Pls
3961 2995 Pls
4024 3001 Pls
4086 3027 Pls
4148 3046 Pls
4211 3066 Pls
2450 2412 Pls
2512 2416 Pls
2574 2463 Pls
2637 2436 Pls
2699 2455 Pls
2761 2468 Pls
2824 2515 Pls
2886 2504 Pls
2948 2530 Pls
3011 2599 Pls
3073 2586 Pls
3135 2585 Pls
3198 2598 Pls
3260 2637 Pls
3322 2679 Pls
3385 2665 Pls
3447 2686 Pls
3509 2708 Pls
3572 2761 Pls
3633 2762 Pls
3695 2795 Pls
3758 2813 Pls
3820 2836 Pls
3882 2862 Pls
3945 2905 Pls
4007 2918 Pls
4069 2942 Pls
4132 2970 Pls
4194 2992 Pls
4256 3029 Pls
4319 3062 Pls
2558 2378 Pls
2620 2387 Pls
2682 2396 Pls
2745 2392 Pls
2807 2403 Pls
2869 2438 Pls
2932 2446 Pls
2994 2474 Pls
3056 2494 Pls
3119 2533 Pls
3181 2534 Pls
3243 2567 Pls
3306 2593 Pls
3368 2602 Pls
3430 2634 Pls
3493 2677 Pls
3555 2653 Pls
3616 2684 Pls
3679 2722 Pls
3741 2745 Pls
3803 2766 Pls
3866 2798 Pls
3928 2830 Pls
3990 2832 Pls
4053 2854 Pls
4115 2897 Pls
4177 2930 Pls
4240 2945 Pls
4302 3000 Pls
4364 3009 Pls
4427 3057 Pls
2666 2321 Pls
2728 2331 Pls
2790 2332 Pls
2853 2360 Pls
2915 2377 Pls
2977 2394 Pls
3040 2425 Pls
3102 2417 Pls
3164 2465 Pls
3227 2467 Pls
3289 2511 Pls
3351 2537 Pls
3414 2548 Pls
3476 2563 Pls
3538 2586 Pls
3600 2643 Pls
3662 2637 Pls
3724 2702 Pls
3786 2680 Pls
3849 2738 Pls
3911 2748 Pls
3973 2780 Pls
4036 2783 Pls
4098 2805 Pls
4161 2831 Pls
4223 2872 Pls
4285 2889 Pls
4347 2931 Pls
4410 2937 Pls
4472 2974 Pls
4534 2996 Pls
2773 2280 Pls
2836 2293 Pls
2898 2293 Pls
2960 2322 Pls
3023 2343 Pls
3085 2350 Pls
3147 2377 Pls
3210 2406 Pls
3272 2419 Pls
3334 2455 Pls
3397 2469 Pls
3459 2491 Pls
3521 2520 Pls
3584 2545 Pls
3645 2567 Pls
3707 2588 Pls
3770 2635 Pls
3832 2640 Pls
3894 2671 Pls
3957 2664 Pls
4019 2716 Pls
4081 2768 Pls
4144 2753 Pls
4206 2784 Pls
4268 2819 Pls
4331 2851 Pls
4393 2874 Pls
4455 2887 Pls
4518 2902 Pls
4580 2940 Pls
4642 2964 Pls
2881 2227 Pls
2944 2239 Pls
3006 2258 Pls
3068 2294 Pls
3131 2304 Pls
3193 2338 Pls
3255 2354 Pls
3318 2385 Pls
3380 2393 Pls
3442 2395 Pls
3505 2443 Pls
3567 2450 Pls
3628 2491 Pls
3691 2513 Pls
3753 2533 Pls
3815 2586 Pls
3878 2614 Pls
3940 2629 Pls
4002 2647 Pls
4065 2658 Pls
4127 2692 Pls
4189 2722 Pls
4252 2741 Pls
4314 2767 Pls
4376 2785 Pls
4439 2808 Pls
4501 2838 Pls
4563 2867 Pls
4626 2897 Pls
4688 2945 Pls
4750 2950 Pls
2989 2176 Pls
3052 2209 Pls
3114 2229 Pls
3176 2245 Pls
3239 2266 Pls
3301 2290 Pls
3363 2318 Pls
3426 2318 Pls
3488 2345 Pls
3550 2386 Pls
3612 2387 Pls
3674 2447 Pls
3736 2459 Pls
3799 2476 Pls
3861 2501 Pls
3923 2518 Pls
3986 2559 Pls
4048 2603 Pls
4110 2597 Pls
4173 2624 Pls
4235 2681 Pls
4297 2674 Pls
4360 2719 Pls
4422 2719 Pls
4484 2758 Pls
4547 2821 Pls
4609 2817 Pls
4671 2844 Pls
4734 2881 Pls
4796 2891 Pls
4858 2935 Pls
3097 2147 Pls
3160 2157 Pls
3222 2184 Pls
3284 2237 Pls
3347 2217 Pls
3409 2273 Pls
3471 2294 Pls
3534 2299 Pls
3596 2320 Pls
3657 2343 Pls
3720 2388 Pls
3782 2420 Pls
3844 2442 Pls
3907 2452 Pls
3969 2468 Pls
4031 2492 Pls
4094 2537 Pls
4156 2528 Pls
4218 2590 Pls
4281 2635 Pls
4343 2624 Pls
4405 2666 Pls
4468 2698 Pls
4530 2709 Pls
4592 2752 Pls
4655 2757 Pls
4717 2777 Pls
4779 2808 Pls
4842 2840 Pls
4904 2878 Pls
4966 2896 Pls
3205 2105 Pls
3268 2130 Pls
3330 2148 Pls
3392 2166 Pls
3455 2180 Pls
3517 2217 Pls
3579 2250 Pls
3641 2262 Pls
3703 2277 Pls
3765 2306 Pls
3828 2336 Pls
3890 2372 Pls
3952 2404 Pls
4015 2405 Pls
4077 2451 Pls
4139 2461 Pls
4202 2507 Pls
4264 2525 Pls
4326 2563 Pls
4389 2583 Pls
4451 2592 Pls
4513 2627 Pls
4576 2649 Pls
4638 2672 Pls
4700 2709 Pls
4763 2736 Pls
4825 2774 Pls
4887 2798 Pls
4950 2825 Pls
5012 2841 Pls
5074 2885 Pls
3313 2069 Pls
3376 2089 Pls
3438 2102 Pls
3500 2139 Pls
3563 2163 Pls
3624 2188 Pls
3686 2207 Pls
3749 2230 Pls
3811 2247 Pls
3873 2279 Pls
3936 2310 Pls
3998 2344 Pls
4060 2369 Pls
4123 2393 Pls
4185 2420 Pls
4247 2472 Pls
4310 2466 Pls
4372 2495 Pls
4434 2538 Pls
4497 2545 Pls
4559 2598 Pls
4621 2600 Pls
4684 2658 Pls
4746 2659 Pls
4808 2695 Pls
4871 2714 Pls
4933 2731 Pls
4995 2779 Pls
5058 2803 Pls
5120 2830 Pls
5182 2835 Pls
3421 2026 Pls
3484 2060 Pls
3546 2083 Pls
3607 2099 Pls
3670 2115 Pls
3732 2153 Pls
3794 2182 Pls
3857 2188 Pls
3919 2226 Pls
3981 2249 Pls
4044 2267 Pls
4106 2297 Pls
4168 2347 Pls
4231 2353 Pls
4293 2381 Pls
4355 2420 Pls
4418 2417 Pls
4480 2460 Pls
4542 2489 Pls
4605 2512 Pls
4667 2553 Pls
4729 2599 Pls
4792 2618 Pls
4854 2638 Pls
4916 2669 Pls
4979 2702 Pls
5041 2736 Pls
5103 2740 Pls
5166 2771 Pls
5228 2800 Pls
5290 2832 Pls
3529 1990 Pls
3592 2026 Pls
3653 2038 Pls
3715 2083 Pls
3778 2095 Pls
3840 2105 Pls
3902 2145 Pls
3965 2160 Pls
4027 2185 Pls
4089 2217 Pls
4152 2238 Pls
4214 2261 Pls
4276 2298 Pls
4339 2316 Pls
4401 2354 Pls
4463 2394 Pls
4526 2399 Pls
4588 2442 Pls
4650 2452 Pls
4713 2499 Pls
4775 2513 Pls
4837 2556 Pls
4900 2564 Pls
4962 2614 Pls
5024 2619 Pls
5087 2653 Pls
5149 2693 Pls
5211 2713 Pls
5274 2733 Pls
5336 2777 Pls
5398 2809 Pls
3636 1944 Pls
3699 1985 Pls
3761 1990 Pls
3823 2014 Pls
3886 2042 Pls
3948 2079 Pls
4010 2098 Pls
4073 2126 Pls
4135 2156 Pls
4197 2183 Pls
4260 2226 Pls
4322 2225 Pls
4384 2272 Pls
4447 2290 Pls
4509 2331 Pls
4571 2354 Pls
4634 2385 Pls
4696 2412 Pls
4758 2446 Pls
4821 2482 Pls
4883 2499 Pls
4945 2530 Pls
5008 2574 Pls
5070 2580 Pls
5132 2630 Pls
5195 2632 Pls
5257 2665 Pls
5319 2684 Pls
5382 2727 Pls
5444 2752 Pls
5506 2799 Pls
3744 1924 Pls
3806 1951 Pls
3869 1970 Pls
3931 2000 Pls
3993 2025 Pls
4056 2046 Pls
4118 2088 Pls
4180 2102 Pls
4243 2132 Pls
4305 2165 Pls
4367 2192 Pls
4430 2207 Pls
4492 2239 Pls
4554 2272 Pls
4617 2294 Pls
4679 2319 Pls
4741 2348 Pls
4804 2369 Pls
4866 2413 Pls
4928 2435 Pls
4991 2469 Pls
5053 2490 Pls
5115 2510 Pls
5178 2543 Pls
5240 2591 Pls
5302 2611 Pls
5365 2629 Pls
5427 2662 Pls
5489 2694 Pls
5552 2743 Pls
5614 2764 Pls
3852 1886 Pls
3914 1912 Pls
3977 1937 Pls
4039 1963 Pls
4101 1987 Pls
4164 2000 Pls
4226 2055 Pls
4288 2080 Pls
4351 2097 Pls
4413 2115 Pls
4475 2150 Pls
4538 2190 Pls
4600 2201 Pls
4662 2239 Pls
4725 2271 Pls
4787 2317 Pls
4849 2326 Pls
4912 2352 Pls
4974 2381 Pls
5036 2393 Pls
5099 2434 Pls
5161 2480 Pls
5223 2496 Pls
5286 2529 Pls
5348 2540 Pls
5410 2576 Pls
5473 2610 Pls
5535 2638 Pls
5597 2670 Pls
5660 2724 Pls
5722 2739 Pls
3960 1854 Pls
4022 1890 Pls
4085 1902 Pls
4147 1939 Pls
4209 1954 Pls
4272 1986 Pls
4334 2015 Pls
4396 2040 Pls
4459 2076 Pls
4521 2101 Pls
4583 2140 Pls
4646 2171 Pls
4708 2181 Pls
4770 2228 Pls
4833 2235 Pls
4895 2269 Pls
4957 2294 Pls
5020 2321 Pls
5082 2368 Pls
5144 2395 Pls
5207 2414 Pls
5269 2437 Pls
5331 2474 Pls
5394 2493 Pls
5456 2537 Pls
5518 2558 Pls
5581 2610 Pls
5643 2629 Pls
5705 2648 Pls
5768 2683 Pls
5830 2712 Pls
4068 1821 Pls
4130 1842 Pls
4193 1879 Pls
4255 1918 Pls
4317 1930 Pls
4380 1953 Pls
4442 1981 Pls
4504 2011 Pls
4567 2048 Pls
4629 2067 Pls
4691 2102 Pls
4754 2128 Pls
4816 2154 Pls
4878 2189 Pls
4941 2212 Pls
5003 2241 Pls
5065 2277 Pls
5128 2298 Pls
5190 2338 Pls
5252 2360 Pls
5315 2410 Pls
5377 2416 Pls
5439 2466 Pls
5502 2462 Pls
5564 2511 Pls
5626 2546 Pls
5689 2567 Pls
5751 2601 Pls
5813 2626 Pls
5876 2663 Pls
5938 2693 Pls
4176 1788 Pls
4238 1811 Pls
4301 1861 Pls
4363 1876 Pls
4425 1898 Pls
4488 1953 Pls
4550 1974 Pls
4612 1979 Pls
4675 2013 Pls
4737 2043 Pls
4799 2078 Pls
4862 2092 Pls
4924 2124 Pls
4986 2165 Pls
5049 2191 Pls
5111 2216 Pls
5173 2241 Pls
5236 2293 Pls
5298 2309 Pls
5360 2336 Pls
5423 2369 Pls
5485 2406 Pls
5547 2428 Pls
5610 2449 Pls
5672 2480 Pls
5734 2522 Pls
5797 2549 Pls
5859 2578 Pls
5921 2628 Pls
5984 2643 Pls
6046 2655 Pls
4284 1761 Pls
4346 1781 Pls
4409 1816 Pls
4471 1840 Pls
4533 1870 Pls
4596 1902 Pls
4658 1926 Pls
4720 1953 Pls
4783 2000 Pls
4845 2015 Pls
4907 2044 Pls
4970 2064 Pls
5032 2108 Pls
5094 2135 Pls
5157 2168 Pls
5219 2190 Pls
5281 2213 Pls
5344 2244 Pls
5406 2287 Pls
5468 2326 Pls
5531 2334 Pls
5593 2364 Pls
5655 2387 Pls
5718 2438 Pls
5780 2453 Pls
5842 2485 Pls
5905 2516 Pls
5967 2549 Pls
6029 2571 Pls
6092 2615 Pls
6154 2636 Pls
1.000 UL
LTb
LCb setrgbcolor
LTb
6154 1819 M
4284 790 L
1046 1384 M
4284 790 L
1.000 UP
stroke
grestore
end
showpage
%%Trailer
