%!PS-Adobe-2.0 EPSF-2.0
%%Title: exc2_5_6_timeout_lost_retransmitted/protocol5/exc2_5_6_timeout_lost_retransmitted.tex
%%Creator: gnuplot 5.0 patchlevel 1
%%CreationDate: Mon Nov  2 08:54:27 2015
%%DocumentFonts: 
%%BoundingBox: 50 50 410 302
%%EndComments
%%BeginProlog
/gnudict 256 dict def
gnudict begin
%
% The following true/false flags may be edited by hand if desired.
% The unit line width and grayscale image gamma correction may also be changed.
%
/Color false def
/Blacktext true def
/Solid false def
/Dashlength 1 def
/Landscape false def
/Level1 false def
/Level3 false def
/Rounded false def
/ClipToBoundingBox false def
/SuppressPDFMark false def
/TransparentPatterns false def
/gnulinewidth 5.000 def
/userlinewidth gnulinewidth def
/Gamma 1.0 def
/BackgroundColor {-1.000 -1.000 -1.000} def
%
/vshift -73 def
/dl1 {
  10.0 Dashlength userlinewidth gnulinewidth div mul mul mul
  Rounded { currentlinewidth 0.75 mul sub dup 0 le { pop 0.01 } if } if
} def
/dl2 {
  10.0 Dashlength userlinewidth gnulinewidth div mul mul mul
  Rounded { currentlinewidth 0.75 mul add } if
} def
/hpt_ 31.5 def
/vpt_ 31.5 def
/hpt hpt_ def
/vpt vpt_ def
/doclip {
  ClipToBoundingBox {
    newpath 50 50 moveto 410 50 lineto 410 302 lineto 50 302 lineto closepath
    clip
  } if
} def
%
% Gnuplot Prolog Version 5.0 (Dec 2014)
%
%/SuppressPDFMark true def
%
/M {moveto} bind def
/L {lineto} bind def
/R {rmoveto} bind def
/V {rlineto} bind def
/N {newpath moveto} bind def
/Z {closepath} bind def
/C {setrgbcolor} bind def
/f {rlineto fill} bind def
/g {setgray} bind def
/Gshow {show} def   % May be redefined later in the file to support UTF-8
/vpt2 vpt 2 mul def
/hpt2 hpt 2 mul def
/Lshow {currentpoint stroke M 0 vshift R 
	Blacktext {gsave 0 setgray textshow grestore} {textshow} ifelse} def
/Rshow {currentpoint stroke M dup stringwidth pop neg vshift R
	Blacktext {gsave 0 setgray textshow grestore} {textshow} ifelse} def
/Cshow {currentpoint stroke M dup stringwidth pop -2 div vshift R 
	Blacktext {gsave 0 setgray textshow grestore} {textshow} ifelse} def
/UP {dup vpt_ mul /vpt exch def hpt_ mul /hpt exch def
  /hpt2 hpt 2 mul def /vpt2 vpt 2 mul def} def
/DL {Color {setrgbcolor Solid {pop []} if 0 setdash}
 {pop pop pop 0 setgray Solid {pop []} if 0 setdash} ifelse} def
/BL {stroke userlinewidth 2 mul setlinewidth
	Rounded {1 setlinejoin 1 setlinecap} if} def
/AL {stroke userlinewidth 2 div setlinewidth
	Rounded {1 setlinejoin 1 setlinecap} if} def
/UL {dup gnulinewidth mul /userlinewidth exch def
	dup 1 lt {pop 1} if 10 mul /udl exch def} def
/PL {stroke userlinewidth setlinewidth
	Rounded {1 setlinejoin 1 setlinecap} if} def
3.8 setmiterlimit
% Classic Line colors (version 5.0)
/LCw {1 1 1} def
/LCb {0 0 0} def
/LCa {0 0 0} def
/LC0 {1 0 0} def
/LC1 {0 1 0} def
/LC2 {0 0 1} def
/LC3 {1 0 1} def
/LC4 {0 1 1} def
/LC5 {1 1 0} def
/LC6 {0 0 0} def
/LC7 {1 0.3 0} def
/LC8 {0.5 0.5 0.5} def
% Default dash patterns (version 5.0)
/LTw {PL [] 1 setgray} def
/LTb {BL [] LCb DL} def
/LTa {AL [1 udl mul 2 udl mul] 0 setdash LCa setrgbcolor} def
/LT0 {PL [] LC0 DL} def
/LT1 {PL [2 dl1 3 dl2] LC1 DL} def
/LT2 {PL [1 dl1 1.5 dl2] LC2 DL} def
/LT3 {PL [6 dl1 2 dl2 1 dl1 2 dl2] LC3 DL} def
/LT4 {PL [1 dl1 2 dl2 6 dl1 2 dl2 1 dl1 2 dl2] LC4 DL} def
/LT5 {PL [4 dl1 2 dl2] LC5 DL} def
/LT6 {PL [1.5 dl1 1.5 dl2 1.5 dl1 1.5 dl2 1.5 dl1 6 dl2] LC6 DL} def
/LT7 {PL [3 dl1 3 dl2 1 dl1 3 dl2] LC7 DL} def
/LT8 {PL [2 dl1 2 dl2 2 dl1 6 dl2] LC8 DL} def
/SL {[] 0 setdash} def
/Pnt {stroke [] 0 setdash gsave 1 setlinecap M 0 0 V stroke grestore} def
/Dia {stroke [] 0 setdash 2 copy vpt add M
  hpt neg vpt neg V hpt vpt neg V
  hpt vpt V hpt neg vpt V closepath stroke
  Pnt} def
/Pls {stroke [] 0 setdash vpt sub M 0 vpt2 V
  currentpoint stroke M
  hpt neg vpt neg R hpt2 0 V stroke
 } def
/Box {stroke [] 0 setdash 2 copy exch hpt sub exch vpt add M
  0 vpt2 neg V hpt2 0 V 0 vpt2 V
  hpt2 neg 0 V closepath stroke
  Pnt} def
/Crs {stroke [] 0 setdash exch hpt sub exch vpt add M
  hpt2 vpt2 neg V currentpoint stroke M
  hpt2 neg 0 R hpt2 vpt2 V stroke} def
/TriU {stroke [] 0 setdash 2 copy vpt 1.12 mul add M
  hpt neg vpt -1.62 mul V
  hpt 2 mul 0 V
  hpt neg vpt 1.62 mul V closepath stroke
  Pnt} def
/Star {2 copy Pls Crs} def
/BoxF {stroke [] 0 setdash exch hpt sub exch vpt add M
  0 vpt2 neg V hpt2 0 V 0 vpt2 V
  hpt2 neg 0 V closepath fill} def
/TriUF {stroke [] 0 setdash vpt 1.12 mul add M
  hpt neg vpt -1.62 mul V
  hpt 2 mul 0 V
  hpt neg vpt 1.62 mul V closepath fill} def
/TriD {stroke [] 0 setdash 2 copy vpt 1.12 mul sub M
  hpt neg vpt 1.62 mul V
  hpt 2 mul 0 V
  hpt neg vpt -1.62 mul V closepath stroke
  Pnt} def
/TriDF {stroke [] 0 setdash vpt 1.12 mul sub M
  hpt neg vpt 1.62 mul V
  hpt 2 mul 0 V
  hpt neg vpt -1.62 mul V closepath fill} def
/DiaF {stroke [] 0 setdash vpt add M
  hpt neg vpt neg V hpt vpt neg V
  hpt vpt V hpt neg vpt V closepath fill} def
/Pent {stroke [] 0 setdash 2 copy gsave
  translate 0 hpt M 4 {72 rotate 0 hpt L} repeat
  closepath stroke grestore Pnt} def
/PentF {stroke [] 0 setdash gsave
  translate 0 hpt M 4 {72 rotate 0 hpt L} repeat
  closepath fill grestore} def
/Circle {stroke [] 0 setdash 2 copy
  hpt 0 360 arc stroke Pnt} def
/CircleF {stroke [] 0 setdash hpt 0 360 arc fill} def
/C0 {BL [] 0 setdash 2 copy moveto vpt 90 450 arc} bind def
/C1 {BL [] 0 setdash 2 copy moveto
	2 copy vpt 0 90 arc closepath fill
	vpt 0 360 arc closepath} bind def
/C2 {BL [] 0 setdash 2 copy moveto
	2 copy vpt 90 180 arc closepath fill
	vpt 0 360 arc closepath} bind def
/C3 {BL [] 0 setdash 2 copy moveto
	2 copy vpt 0 180 arc closepath fill
	vpt 0 360 arc closepath} bind def
/C4 {BL [] 0 setdash 2 copy moveto
	2 copy vpt 180 270 arc closepath fill
	vpt 0 360 arc closepath} bind def
/C5 {BL [] 0 setdash 2 copy moveto
	2 copy vpt 0 90 arc
	2 copy moveto
	2 copy vpt 180 270 arc closepath fill
	vpt 0 360 arc} bind def
/C6 {BL [] 0 setdash 2 copy moveto
	2 copy vpt 90 270 arc closepath fill
	vpt 0 360 arc closepath} bind def
/C7 {BL [] 0 setdash 2 copy moveto
	2 copy vpt 0 270 arc closepath fill
	vpt 0 360 arc closepath} bind def
/C8 {BL [] 0 setdash 2 copy moveto
	2 copy vpt 270 360 arc closepath fill
	vpt 0 360 arc closepath} bind def
/C9 {BL [] 0 setdash 2 copy moveto
	2 copy vpt 270 450 arc closepath fill
	vpt 0 360 arc closepath} bind def
/C10 {BL [] 0 setdash 2 copy 2 copy moveto vpt 270 360 arc closepath fill
	2 copy moveto
	2 copy vpt 90 180 arc closepath fill
	vpt 0 360 arc closepath} bind def
/C11 {BL [] 0 setdash 2 copy moveto
	2 copy vpt 0 180 arc closepath fill
	2 copy moveto
	2 copy vpt 270 360 arc closepath fill
	vpt 0 360 arc closepath} bind def
/C12 {BL [] 0 setdash 2 copy moveto
	2 copy vpt 180 360 arc closepath fill
	vpt 0 360 arc closepath} bind def
/C13 {BL [] 0 setdash 2 copy moveto
	2 copy vpt 0 90 arc closepath fill
	2 copy moveto
	2 copy vpt 180 360 arc closepath fill
	vpt 0 360 arc closepath} bind def
/C14 {BL [] 0 setdash 2 copy moveto
	2 copy vpt 90 360 arc closepath fill
	vpt 0 360 arc} bind def
/C15 {BL [] 0 setdash 2 copy vpt 0 360 arc closepath fill
	vpt 0 360 arc closepath} bind def
/Rec {newpath 4 2 roll moveto 1 index 0 rlineto 0 exch rlineto
	neg 0 rlineto closepath} bind def
/Square {dup Rec} bind def
/Bsquare {vpt sub exch vpt sub exch vpt2 Square} bind def
/S0 {BL [] 0 setdash 2 copy moveto 0 vpt rlineto BL Bsquare} bind def
/S1 {BL [] 0 setdash 2 copy vpt Square fill Bsquare} bind def
/S2 {BL [] 0 setdash 2 copy exch vpt sub exch vpt Square fill Bsquare} bind def
/S3 {BL [] 0 setdash 2 copy exch vpt sub exch vpt2 vpt Rec fill Bsquare} bind def
/S4 {BL [] 0 setdash 2 copy exch vpt sub exch vpt sub vpt Square fill Bsquare} bind def
/S5 {BL [] 0 setdash 2 copy 2 copy vpt Square fill
	exch vpt sub exch vpt sub vpt Square fill Bsquare} bind def
/S6 {BL [] 0 setdash 2 copy exch vpt sub exch vpt sub vpt vpt2 Rec fill Bsquare} bind def
/S7 {BL [] 0 setdash 2 copy exch vpt sub exch vpt sub vpt vpt2 Rec fill
	2 copy vpt Square fill Bsquare} bind def
/S8 {BL [] 0 setdash 2 copy vpt sub vpt Square fill Bsquare} bind def
/S9 {BL [] 0 setdash 2 copy vpt sub vpt vpt2 Rec fill Bsquare} bind def
/S10 {BL [] 0 setdash 2 copy vpt sub vpt Square fill 2 copy exch vpt sub exch vpt Square fill
	Bsquare} bind def
/S11 {BL [] 0 setdash 2 copy vpt sub vpt Square fill 2 copy exch vpt sub exch vpt2 vpt Rec fill
	Bsquare} bind def
/S12 {BL [] 0 setdash 2 copy exch vpt sub exch vpt sub vpt2 vpt Rec fill Bsquare} bind def
/S13 {BL [] 0 setdash 2 copy exch vpt sub exch vpt sub vpt2 vpt Rec fill
	2 copy vpt Square fill Bsquare} bind def
/S14 {BL [] 0 setdash 2 copy exch vpt sub exch vpt sub vpt2 vpt Rec fill
	2 copy exch vpt sub exch vpt Square fill Bsquare} bind def
/S15 {BL [] 0 setdash 2 copy Bsquare fill Bsquare} bind def
/D0 {gsave translate 45 rotate 0 0 S0 stroke grestore} bind def
/D1 {gsave translate 45 rotate 0 0 S1 stroke grestore} bind def
/D2 {gsave translate 45 rotate 0 0 S2 stroke grestore} bind def
/D3 {gsave translate 45 rotate 0 0 S3 stroke grestore} bind def
/D4 {gsave translate 45 rotate 0 0 S4 stroke grestore} bind def
/D5 {gsave translate 45 rotate 0 0 S5 stroke grestore} bind def
/D6 {gsave translate 45 rotate 0 0 S6 stroke grestore} bind def
/D7 {gsave translate 45 rotate 0 0 S7 stroke grestore} bind def
/D8 {gsave translate 45 rotate 0 0 S8 stroke grestore} bind def
/D9 {gsave translate 45 rotate 0 0 S9 stroke grestore} bind def
/D10 {gsave translate 45 rotate 0 0 S10 stroke grestore} bind def
/D11 {gsave translate 45 rotate 0 0 S11 stroke grestore} bind def
/D12 {gsave translate 45 rotate 0 0 S12 stroke grestore} bind def
/D13 {gsave translate 45 rotate 0 0 S13 stroke grestore} bind def
/D14 {gsave translate 45 rotate 0 0 S14 stroke grestore} bind def
/D15 {gsave translate 45 rotate 0 0 S15 stroke grestore} bind def
/DiaE {stroke [] 0 setdash vpt add M
  hpt neg vpt neg V hpt vpt neg V
  hpt vpt V hpt neg vpt V closepath stroke} def
/BoxE {stroke [] 0 setdash exch hpt sub exch vpt add M
  0 vpt2 neg V hpt2 0 V 0 vpt2 V
  hpt2 neg 0 V closepath stroke} def
/TriUE {stroke [] 0 setdash vpt 1.12 mul add M
  hpt neg vpt -1.62 mul V
  hpt 2 mul 0 V
  hpt neg vpt 1.62 mul V closepath stroke} def
/TriDE {stroke [] 0 setdash vpt 1.12 mul sub M
  hpt neg vpt 1.62 mul V
  hpt 2 mul 0 V
  hpt neg vpt -1.62 mul V closepath stroke} def
/PentE {stroke [] 0 setdash gsave
  translate 0 hpt M 4 {72 rotate 0 hpt L} repeat
  closepath stroke grestore} def
/CircE {stroke [] 0 setdash 
  hpt 0 360 arc stroke} def
/Opaque {gsave closepath 1 setgray fill grestore 0 setgray closepath} def
/DiaW {stroke [] 0 setdash vpt add M
  hpt neg vpt neg V hpt vpt neg V
  hpt vpt V hpt neg vpt V Opaque stroke} def
/BoxW {stroke [] 0 setdash exch hpt sub exch vpt add M
  0 vpt2 neg V hpt2 0 V 0 vpt2 V
  hpt2 neg 0 V Opaque stroke} def
/TriUW {stroke [] 0 setdash vpt 1.12 mul add M
  hpt neg vpt -1.62 mul V
  hpt 2 mul 0 V
  hpt neg vpt 1.62 mul V Opaque stroke} def
/TriDW {stroke [] 0 setdash vpt 1.12 mul sub M
  hpt neg vpt 1.62 mul V
  hpt 2 mul 0 V
  hpt neg vpt -1.62 mul V Opaque stroke} def
/PentW {stroke [] 0 setdash gsave
  translate 0 hpt M 4 {72 rotate 0 hpt L} repeat
  Opaque stroke grestore} def
/CircW {stroke [] 0 setdash 
  hpt 0 360 arc Opaque stroke} def
/BoxFill {gsave Rec 1 setgray fill grestore} def
/Density {
  /Fillden exch def
  currentrgbcolor
  /ColB exch def /ColG exch def /ColR exch def
  /ColR ColR Fillden mul Fillden sub 1 add def
  /ColG ColG Fillden mul Fillden sub 1 add def
  /ColB ColB Fillden mul Fillden sub 1 add def
  ColR ColG ColB setrgbcolor} def
/BoxColFill {gsave Rec PolyFill} def
/PolyFill {gsave Density fill grestore grestore} def
/h {rlineto rlineto rlineto gsave closepath fill grestore} bind def
%
% PostScript Level 1 Pattern Fill routine for rectangles
% Usage: x y w h s a XX PatternFill
%	x,y = lower left corner of box to be filled
%	w,h = width and height of box
%	  a = angle in degrees between lines and x-axis
%	 XX = 0/1 for no/yes cross-hatch
%
/PatternFill {gsave /PFa [ 9 2 roll ] def
  PFa 0 get PFa 2 get 2 div add PFa 1 get PFa 3 get 2 div add translate
  PFa 2 get -2 div PFa 3 get -2 div PFa 2 get PFa 3 get Rec
  TransparentPatterns {} {gsave 1 setgray fill grestore} ifelse
  clip
  currentlinewidth 0.5 mul setlinewidth
  /PFs PFa 2 get dup mul PFa 3 get dup mul add sqrt def
  0 0 M PFa 5 get rotate PFs -2 div dup translate
  0 1 PFs PFa 4 get div 1 add floor cvi
	{PFa 4 get mul 0 M 0 PFs V} for
  0 PFa 6 get ne {
	0 1 PFs PFa 4 get div 1 add floor cvi
	{PFa 4 get mul 0 2 1 roll M PFs 0 V} for
 } if
  stroke grestore} def
%
/languagelevel where
 {pop languagelevel} {1} ifelse
dup 2 lt
	{/InterpretLevel1 true def
	 /InterpretLevel3 false def}
	{/InterpretLevel1 Level1 def
	 2 gt
	    {/InterpretLevel3 Level3 def}
	    {/InterpretLevel3 false def}
	 ifelse }
 ifelse
%
% PostScript level 2 pattern fill definitions
%
/Level2PatternFill {
/Tile8x8 {/PaintType 2 /PatternType 1 /TilingType 1 /BBox [0 0 8 8] /XStep 8 /YStep 8}
	bind def
/KeepColor {currentrgbcolor [/Pattern /DeviceRGB] setcolorspace} bind def
<< Tile8x8
 /PaintProc {0.5 setlinewidth pop 0 0 M 8 8 L 0 8 M 8 0 L stroke} 
>> matrix makepattern
/Pat1 exch def
<< Tile8x8
 /PaintProc {0.5 setlinewidth pop 0 0 M 8 8 L 0 8 M 8 0 L stroke
	0 4 M 4 8 L 8 4 L 4 0 L 0 4 L stroke}
>> matrix makepattern
/Pat2 exch def
<< Tile8x8
 /PaintProc {0.5 setlinewidth pop 0 0 M 0 8 L
	8 8 L 8 0 L 0 0 L fill}
>> matrix makepattern
/Pat3 exch def
<< Tile8x8
 /PaintProc {0.5 setlinewidth pop -4 8 M 8 -4 L
	0 12 M 12 0 L stroke}
>> matrix makepattern
/Pat4 exch def
<< Tile8x8
 /PaintProc {0.5 setlinewidth pop -4 0 M 8 12 L
	0 -4 M 12 8 L stroke}
>> matrix makepattern
/Pat5 exch def
<< Tile8x8
 /PaintProc {0.5 setlinewidth pop -2 8 M 4 -4 L
	0 12 M 8 -4 L 4 12 M 10 0 L stroke}
>> matrix makepattern
/Pat6 exch def
<< Tile8x8
 /PaintProc {0.5 setlinewidth pop -2 0 M 4 12 L
	0 -4 M 8 12 L 4 -4 M 10 8 L stroke}
>> matrix makepattern
/Pat7 exch def
<< Tile8x8
 /PaintProc {0.5 setlinewidth pop 8 -2 M -4 4 L
	12 0 M -4 8 L 12 4 M 0 10 L stroke}
>> matrix makepattern
/Pat8 exch def
<< Tile8x8
 /PaintProc {0.5 setlinewidth pop 0 -2 M 12 4 L
	-4 0 M 12 8 L -4 4 M 8 10 L stroke}
>> matrix makepattern
/Pat9 exch def
/Pattern1 {PatternBgnd KeepColor Pat1 setpattern} bind def
/Pattern2 {PatternBgnd KeepColor Pat2 setpattern} bind def
/Pattern3 {PatternBgnd KeepColor Pat3 setpattern} bind def
/Pattern4 {PatternBgnd KeepColor Landscape {Pat5} {Pat4} ifelse setpattern} bind def
/Pattern5 {PatternBgnd KeepColor Landscape {Pat4} {Pat5} ifelse setpattern} bind def
/Pattern6 {PatternBgnd KeepColor Landscape {Pat9} {Pat6} ifelse setpattern} bind def
/Pattern7 {PatternBgnd KeepColor Landscape {Pat8} {Pat7} ifelse setpattern} bind def
} def
%
%
%End of PostScript Level 2 code
%
/PatternBgnd {
  TransparentPatterns {} {gsave 1 setgray fill grestore} ifelse
} def
%
% Substitute for Level 2 pattern fill codes with
% grayscale if Level 2 support is not selected.
%
/Level1PatternFill {
/Pattern1 {0.250 Density} bind def
/Pattern2 {0.500 Density} bind def
/Pattern3 {0.750 Density} bind def
/Pattern4 {0.125 Density} bind def
/Pattern5 {0.375 Density} bind def
/Pattern6 {0.625 Density} bind def
/Pattern7 {0.875 Density} bind def
} def
%
% Now test for support of Level 2 code
%
Level1 {Level1PatternFill} {Level2PatternFill} ifelse
%
/Symbol-Oblique /Symbol findfont [1 0 .167 1 0 0] makefont
dup length dict begin {1 index /FID eq {pop pop} {def} ifelse} forall
currentdict end definefont pop
%
Level1 SuppressPDFMark or 
{} {
/SDict 10 dict def
systemdict /pdfmark known not {
  userdict /pdfmark systemdict /cleartomark get put
} if
SDict begin [
  /Title (exc2_5_6_timeout_lost_retransmitted/protocol5/exc2_5_6_timeout_lost_retransmitted.tex)
  /Subject (gnuplot plot)
  /Creator (gnuplot 5.0 patchlevel 1)
  /Author (asiron)
%  /Producer (gnuplot)
%  /Keywords ()
  /CreationDate (Mon Nov  2 08:54:27 2015)
  /DOCINFO pdfmark
end
} ifelse
end
%
% Support for boxed text - Ethan A Merritt May 2005
%
/InitTextBox { userdict /TBy2 3 -1 roll put userdict /TBx2 3 -1 roll put
           userdict /TBy1 3 -1 roll put userdict /TBx1 3 -1 roll put
	   /Boxing true def } def
/ExtendTextBox { Boxing
    { gsave dup false charpath pathbbox
      dup TBy2 gt {userdict /TBy2 3 -1 roll put} {pop} ifelse
      dup TBx2 gt {userdict /TBx2 3 -1 roll put} {pop} ifelse
      dup TBy1 lt {userdict /TBy1 3 -1 roll put} {pop} ifelse
      dup TBx1 lt {userdict /TBx1 3 -1 roll put} {pop} ifelse
      grestore } if } def
/PopTextBox { newpath TBx1 TBxmargin sub TBy1 TBymargin sub M
               TBx1 TBxmargin sub TBy2 TBymargin add L
	       TBx2 TBxmargin add TBy2 TBymargin add L
	       TBx2 TBxmargin add TBy1 TBymargin sub L closepath } def
/DrawTextBox { PopTextBox stroke /Boxing false def} def
/FillTextBox { gsave PopTextBox 1 1 1 setrgbcolor fill grestore /Boxing false def} def
0 0 0 0 InitTextBox
/TBxmargin 20 def
/TBymargin 20 def
/Boxing false def
/textshow { ExtendTextBox Gshow } def
%
%%EndProlog
%%Page: 1 1
gnudict begin
gsave
doclip
50 50 translate
0.050 0.050 scale
0 setgray
newpath
1.000 UL
LTb
LCb setrgbcolor
LTb
1078 704 M
63 0 V
5662 0 R
-63 0 V
1078 1111 M
63 0 V
5662 0 R
-63 0 V
1078 1518 M
63 0 V
5662 0 R
-63 0 V
1078 1925 M
63 0 V
5662 0 R
-63 0 V
1078 2332 M
63 0 V
5662 0 R
-63 0 V
1078 2740 M
63 0 V
5662 0 R
-63 0 V
1078 3147 M
63 0 V
5662 0 R
-63 0 V
1078 3554 M
63 0 V
5662 0 R
-63 0 V
1078 3961 M
63 0 V
5662 0 R
-63 0 V
1078 4368 M
63 0 V
5662 0 R
-63 0 V
1078 4775 M
63 0 V
5662 0 R
-63 0 V
1078 704 M
0 63 V
0 4008 R
0 -63 V
1652 704 M
0 31 V
0 4040 R
0 -31 V
1989 704 M
0 31 V
0 4040 R
0 -31 V
2227 704 M
0 31 V
0 4040 R
0 -31 V
2412 704 M
0 31 V
0 4040 R
0 -31 V
2563 704 M
0 31 V
0 4040 R
0 -31 V
2691 704 M
0 31 V
0 4040 R
0 -31 V
2801 704 M
0 31 V
0 4040 R
0 -31 V
2899 704 M
0 31 V
0 4040 R
0 -31 V
2986 704 M
0 63 V
0 4008 R
0 -63 V
3561 704 M
0 31 V
0 4040 R
0 -31 V
3897 704 M
0 31 V
0 4040 R
0 -31 V
4135 704 M
0 31 V
0 4040 R
0 -31 V
4320 704 M
0 31 V
0 4040 R
0 -31 V
4471 704 M
0 31 V
0 4040 R
0 -31 V
4599 704 M
0 31 V
stroke 4599 735 M
0 4040 R
0 -31 V
4710 704 M
0 31 V
0 4040 R
0 -31 V
4807 704 M
0 31 V
0 4040 R
0 -31 V
4895 704 M
0 63 V
0 4008 R
0 -63 V
5469 704 M
0 31 V
0 4040 R
0 -31 V
5805 704 M
0 31 V
0 4040 R
0 -31 V
6044 704 M
0 31 V
0 4040 R
0 -31 V
6229 704 M
0 31 V
0 4040 R
0 -31 V
6380 704 M
0 31 V
0 4040 R
0 -31 V
6507 704 M
0 31 V
0 4040 R
0 -31 V
6618 704 M
0 31 V
0 4040 R
0 -31 V
6716 704 M
0 31 V
0 4040 R
0 -31 V
6803 704 M
0 63 V
0 4008 R
0 -63 V
stroke
1078 4775 N
0 -4071 V
5725 0 V
0 4071 V
-5725 0 V
Z stroke
1.000 UP
1.000 UL
LTb
1.000 UL
LTb
0.58 0.00 0.83 C LCb setrgbcolor
1.000 UL
LTb
0.58 0.00 0.83 C 6368 4594 M
255 0 V
1078 704 M
574 0 V
337 0 V
238 0 V
185 0 V
151 0 V
128 0 V
110 0 V
98 0 V
87 0 V
79 0 V
72 0 V
67 0 V
61 1659 V
57 872 V
54 -553 V
50 359 V
47 -34 V
45 -656 V
43 -68 V
40 -80 V
39 -211 V
37 -228 V
35 -194 V
34 -154 V
32 -165 V
32 -68 V
30 -86 V
29 -137 V
28 -125 V
27 6 V
26 -46 V
26 -28 V
25 0 V
24 -23 V
23 -23 V
23 0 V
22 -6 V
21 -5 V
21 5 V
21 -11 V
20 0 V
19 0 V
19 0 V
19 0 V
18 0 V
18 0 V
17 0 V
17 0 V
17 0 V
151 0 V
128 0 V
111 0 V
97 0 V
88 0 V
574 0 V
336 0 V
239 0 V
185 0 V
151 0 V
127 0 V
111 0 V
98 0 V
87 0 V
stroke
LTb
LCb setrgbcolor
LTb
0.00 0.62 0.45 C LCb setrgbcolor
1.000 UL
LTb
0.00 0.62 0.45 C 6368 4358 M
255 0 V
1078 704 M
574 0 V
337 0 V
238 0 V
185 0 V
151 0 V
128 0 V
110 0 V
98 0 V
87 0 V
79 0 V
72 0 V
67 1778 V
61 718 V
57 29 V
54 148 V
50 -291 V
47 -279 V
45 -234 V
43 120 V
40 -353 V
39 -80 V
37 -91 V
35 -200 V
34 -74 V
32 -68 V
32 -131 V
30 -131 V
29 -46 V
28 68 V
27 -148 V
26 -5 V
26 -29 V
25 -11 V
24 -35 V
23 -108 V
23 148 V
22 -22 V
21 5 V
21 -114 V
21 6 V
20 68 V
19 -22 V
19 -69 V
19 80 V
18 -34 V
18 -46 V
17 34 V
17 -5 V
17 -6 V
151 40 V
128 -74 V
111 -52 V
97 -45 V
88 6 V
574 -143 V
336 -68 V
239 -40 V
185 -34 V
151 -57 V
127 11 V
111 -29 V
98 -11 V
87 6 V
stroke
LTb
LCb setrgbcolor
LTb
0.34 0.71 0.91 C LCb setrgbcolor
1.000 UL
LTb
0.34 0.71 0.91 C 6368 4122 M
255 0 V
1078 704 M
574 0 V
337 0 V
238 0 V
185 0 V
151 0 V
128 0 V
110 0 V
98 0 V
87 0 V
79 0 V
72 0 V
67 2992 V
61 -176 V
57 85 V
54 -348 V
50 -382 V
47 46 V
45 -251 V
43 137 V
40 -256 V
39 -12 V
37 -233 V
35 91 V
34 -205 V
32 34 V
32 -97 V
30 -183 V
29 18 V
28 34 V
27 -74 V
26 -137 V
26 28 V
25 -22 V
24 -46 V
23 63 V
23 -74 V
22 22 V
21 -171 V
21 160 V
21 34 V
20 -91 V
19 -40 V
19 103 V
19 -109 V
18 17 V
18 40 V
17 -34 V
17 46 V
17 -86 V
151 -40 V
128 -102 V
111 -108 V
97 39 V
88 -45 V
574 -279 V
336 -80 V
6044 903 L
185 -39 V
151 -29 V
127 -23 V
111 0 V
98 -11 V
87 -12 V
stroke
LTb
LCb setrgbcolor
LTb
0.90 0.62 0.00 C LCb setrgbcolor
1.000 UL
LTb
0.90 0.62 0.00 C 6368 3886 M
255 0 V
1078 704 M
574 6 V
337 0 V
238 -6 V
185 6 V
151 0 V
128 0 V
110 0 V
98 0 V
87 -6 V
79 6 V
72 330 V
67 2571 V
61 40 V
57 22 V
54 -171 V
50 -193 V
47 -274 V
45 -11 V
43 -183 V
40 34 V
39 23 V
37 -268 V
35 -239 V
34 0 V
32 -6 V
32 -79 V
30 74 V
29 -131 V
28 -69 V
27 34 V
26 -17 V
26 -131 V
25 34 V
24 -40 V
23 46 V
23 0 V
22 -97 V
21 -6 V
21 -45 V
21 0 V
20 34 V
19 0 V
19 -23 V
19 29 V
18 -46 V
18 29 V
17 51 V
17 -103 V
17 -11 V
151 -143 V
128 -131 V
111 -39 V
97 -69 V
88 -57 V
574 -348 V
336 -131 V
239 -45 V
185 -57 V
151 -34 V
127 -12 V
111 -17 V
98 -11 V
87 -17 V
stroke
LTb
LCb setrgbcolor
LTb
0.94 0.89 0.26 C LCb setrgbcolor
1.000 UL
LTb
0.94 0.89 0.26 C 6368 3650 M
255 0 V
1078 704 M
574 0 V
337 0 V
238 6 V
185 -6 V
151 6 V
128 -6 V
110 6 V
98 -6 V
87 0 V
79 0 V
72 3072 V
67 80 V
61 416 V
57 -844 V
54 63 V
50 -63 V
47 -216 V
45 62 V
43 -125 V
40 -108 V
39 -148 V
37 -97 V
35 28 V
34 -51 V
32 -108 V
32 -103 V
30 97 V
29 -40 V
28 -46 V
27 -148 V
26 74 V
26 -239 V
25 160 V
24 -92 V
23 63 V
23 -63 V
22 -74 V
21 120 V
21 -57 V
21 -51 V
20 -35 V
19 -5 V
19 0 V
19 34 V
18 0 V
18 -103 V
17 -17 V
17 0 V
17 -17 V
151 -177 V
128 -136 V
111 -74 V
97 -97 V
88 -103 V
574 -376 V
336 -120 V
239 -97 V
185 -51 V
151 -17 V
127 -23 V
111 -28 V
98 -6 V
87 -11 V
stroke
LTb
LCb setrgbcolor
LTb
0.00 0.45 0.70 C LCb setrgbcolor
1.000 UL
LTb
0.00 0.45 0.70 C 6368 3414 M
255 0 V
1078 710 M
574 0 V
337 0 V
238 0 V
185 0 V
151 0 V
128 0 V
110 -6 V
98 0 V
87 6 V
79 0 V
72 3875 V
67 -570 V
61 -199 V
57 -57 V
54 -217 V
50 -62 V
47 171 V
45 -206 V
43 -119 V
40 -46 V
39 -102 V
37 -274 V
35 103 V
34 -63 V
32 -57 V
32 -12 V
30 -114 V
29 35 V
28 -137 V
27 142 V
26 -114 V
26 -45 V
25 62 V
24 -148 V
23 69 V
23 -126 V
22 57 V
21 -11 V
21 -68 V
21 -23 V
20 45 V
19 -40 V
19 -22 V
19 -29 V
18 6 V
18 -69 V
17 12 V
17 -86 V
17 -34 V
151 -171 V
128 -165 V
111 -137 V
97 -46 V
88 -79 V
574 -451 V
336 -148 V
239 -68 V
185 -57 V
151 -29 V
127 -34 V
111 -17 V
98 -11 V
87 -12 V
stroke
LTb
LCb setrgbcolor
LTb
0.90 0.12 0.06 C LCb setrgbcolor
1.000 UL
LTb
0.90 0.12 0.06 C 6368 3178 M
255 0 V
1078 710 M
574 0 V
337 -6 V
238 6 V
185 -6 V
151 0 V
128 6 V
110 0 V
98 0 V
87 0 V
79 3169 V
72 330 V
67 -68 V
61 -223 V
57 -222 V
54 137 V
50 -285 V
47 46 V
45 -160 V
43 -11 V
40 28 V
39 -34 V
37 -68 V
35 -103 V
34 -137 V
32 6 V
32 -34 V
30 -29 V
29 -40 V
28 -119 V
27 28 V
26 -17 V
26 -34 V
25 -6 V
24 -68 V
23 62 V
23 -125 V
22 -11 V
21 -6 V
21 -46 V
21 -5 V
20 -52 V
19 34 V
19 -56 V
19 -69 V
18 -63 V
18 12 V
17 23 V
17 -74 V
17 22 V
151 -296 V
128 -131 V
111 -171 V
97 -51 V
88 -137 V
574 -439 V
336 -171 V
239 -68 V
185 -69 V
151 -34 V
127 -11 V
111 -29 V
98 -17 V
87 -6 V
stroke
LTb
LCb setrgbcolor
LTb
0.00 0.00 0.00 C LCb setrgbcolor
1.000 UL
LTb
0.00 0.00 0.00 C 6368 2942 M
255 0 V
1078 710 M
574 -6 V
337 6 V
238 0 V
185 0 V
151 0 V
128 0 V
110 0 V
98 0 V
87 0 V
79 3704 V
72 171 V
67 -182 V
61 -296 V
57 28 V
54 -74 V
50 -194 V
47 29 V
45 -92 V
43 -5 V
40 -223 V
39 -56 V
37 34 V
35 -188 V
34 62 V
32 -142 V
32 -74 V
30 -74 V
29 97 V
28 -154 V
27 40 V
26 -52 V
26 0 V
25 -45 V
24 45 V
23 -154 V
23 -17 V
22 -5 V
21 34 V
21 -109 V
21 -22 V
20 85 V
19 -137 V
19 -51 V
19 23 V
18 -80 V
18 -23 V
17 6 V
17 -85 V
17 -109 V
151 -114 V
128 -233 V
111 -149 V
97 -119 V
88 -120 V
574 -467 V
336 -166 V
239 -79 V
185 -69 V
151 -28 V
127 -23 V
111 -23 V
98 -6 V
87 -17 V
stroke
2.000 UL
LTb
LCb setrgbcolor
LTb
1.000 UL
LTb
1078 4775 N
0 -4071 V
5725 0 V
0 4071 V
-5725 0 V
Z stroke
1.000 UP
1.000 UL
LTb
stroke
grestore
end
showpage
%%Trailer
