%!PS-Adobe-2.0 EPSF-2.0
%%Title: exc2_5_6_3d_lost_checksum_err_efficiency/protocol6/exc2_5_6_3d_lost_checksum_err_efficiency.tex
%%Creator: gnuplot 5.0 patchlevel 1
%%CreationDate: Mon Nov  2 07:50:25 2015
%%DocumentFonts: 
%%BoundingBox: 50 50 410 302
%%EndComments
%%BeginProlog
/gnudict 256 dict def
gnudict begin
%
% The following true/false flags may be edited by hand if desired.
% The unit line width and grayscale image gamma correction may also be changed.
%
/Color false def
/Blacktext true def
/Solid false def
/Dashlength 1 def
/Landscape false def
/Level1 false def
/Level3 false def
/Rounded false def
/ClipToBoundingBox false def
/SuppressPDFMark false def
/TransparentPatterns false def
/gnulinewidth 5.000 def
/userlinewidth gnulinewidth def
/Gamma 1.0 def
/BackgroundColor {-1.000 -1.000 -1.000} def
%
/vshift -73 def
/dl1 {
  10.0 Dashlength userlinewidth gnulinewidth div mul mul mul
  Rounded { currentlinewidth 0.75 mul sub dup 0 le { pop 0.01 } if } if
} def
/dl2 {
  10.0 Dashlength userlinewidth gnulinewidth div mul mul mul
  Rounded { currentlinewidth 0.75 mul add } if
} def
/hpt_ 31.5 def
/vpt_ 31.5 def
/hpt hpt_ def
/vpt vpt_ def
/doclip {
  ClipToBoundingBox {
    newpath 50 50 moveto 410 50 lineto 410 302 lineto 50 302 lineto closepath
    clip
  } if
} def
%
% Gnuplot Prolog Version 5.0 (Dec 2014)
%
%/SuppressPDFMark true def
%
/M {moveto} bind def
/L {lineto} bind def
/R {rmoveto} bind def
/V {rlineto} bind def
/N {newpath moveto} bind def
/Z {closepath} bind def
/C {setrgbcolor} bind def
/f {rlineto fill} bind def
/g {setgray} bind def
/Gshow {show} def   % May be redefined later in the file to support UTF-8
/vpt2 vpt 2 mul def
/hpt2 hpt 2 mul def
/Lshow {currentpoint stroke M 0 vshift R 
	Blacktext {gsave 0 setgray textshow grestore} {textshow} ifelse} def
/Rshow {currentpoint stroke M dup stringwidth pop neg vshift R
	Blacktext {gsave 0 setgray textshow grestore} {textshow} ifelse} def
/Cshow {currentpoint stroke M dup stringwidth pop -2 div vshift R 
	Blacktext {gsave 0 setgray textshow grestore} {textshow} ifelse} def
/UP {dup vpt_ mul /vpt exch def hpt_ mul /hpt exch def
  /hpt2 hpt 2 mul def /vpt2 vpt 2 mul def} def
/DL {Color {setrgbcolor Solid {pop []} if 0 setdash}
 {pop pop pop 0 setgray Solid {pop []} if 0 setdash} ifelse} def
/BL {stroke userlinewidth 2 mul setlinewidth
	Rounded {1 setlinejoin 1 setlinecap} if} def
/AL {stroke userlinewidth 2 div setlinewidth
	Rounded {1 setlinejoin 1 setlinecap} if} def
/UL {dup gnulinewidth mul /userlinewidth exch def
	dup 1 lt {pop 1} if 10 mul /udl exch def} def
/PL {stroke userlinewidth setlinewidth
	Rounded {1 setlinejoin 1 setlinecap} if} def
3.8 setmiterlimit
% Classic Line colors (version 5.0)
/LCw {1 1 1} def
/LCb {0 0 0} def
/LCa {0 0 0} def
/LC0 {1 0 0} def
/LC1 {0 1 0} def
/LC2 {0 0 1} def
/LC3 {1 0 1} def
/LC4 {0 1 1} def
/LC5 {1 1 0} def
/LC6 {0 0 0} def
/LC7 {1 0.3 0} def
/LC8 {0.5 0.5 0.5} def
% Default dash patterns (version 5.0)
/LTw {PL [] 1 setgray} def
/LTb {BL [] LCb DL} def
/LTa {AL [1 udl mul 2 udl mul] 0 setdash LCa setrgbcolor} def
/LT0 {PL [] LC0 DL} def
/LT1 {PL [2 dl1 3 dl2] LC1 DL} def
/LT2 {PL [1 dl1 1.5 dl2] LC2 DL} def
/LT3 {PL [6 dl1 2 dl2 1 dl1 2 dl2] LC3 DL} def
/LT4 {PL [1 dl1 2 dl2 6 dl1 2 dl2 1 dl1 2 dl2] LC4 DL} def
/LT5 {PL [4 dl1 2 dl2] LC5 DL} def
/LT6 {PL [1.5 dl1 1.5 dl2 1.5 dl1 1.5 dl2 1.5 dl1 6 dl2] LC6 DL} def
/LT7 {PL [3 dl1 3 dl2 1 dl1 3 dl2] LC7 DL} def
/LT8 {PL [2 dl1 2 dl2 2 dl1 6 dl2] LC8 DL} def
/SL {[] 0 setdash} def
/Pnt {stroke [] 0 setdash gsave 1 setlinecap M 0 0 V stroke grestore} def
/Dia {stroke [] 0 setdash 2 copy vpt add M
  hpt neg vpt neg V hpt vpt neg V
  hpt vpt V hpt neg vpt V closepath stroke
  Pnt} def
/Pls {stroke [] 0 setdash vpt sub M 0 vpt2 V
  currentpoint stroke M
  hpt neg vpt neg R hpt2 0 V stroke
 } def
/Box {stroke [] 0 setdash 2 copy exch hpt sub exch vpt add M
  0 vpt2 neg V hpt2 0 V 0 vpt2 V
  hpt2 neg 0 V closepath stroke
  Pnt} def
/Crs {stroke [] 0 setdash exch hpt sub exch vpt add M
  hpt2 vpt2 neg V currentpoint stroke M
  hpt2 neg 0 R hpt2 vpt2 V stroke} def
/TriU {stroke [] 0 setdash 2 copy vpt 1.12 mul add M
  hpt neg vpt -1.62 mul V
  hpt 2 mul 0 V
  hpt neg vpt 1.62 mul V closepath stroke
  Pnt} def
/Star {2 copy Pls Crs} def
/BoxF {stroke [] 0 setdash exch hpt sub exch vpt add M
  0 vpt2 neg V hpt2 0 V 0 vpt2 V
  hpt2 neg 0 V closepath fill} def
/TriUF {stroke [] 0 setdash vpt 1.12 mul add M
  hpt neg vpt -1.62 mul V
  hpt 2 mul 0 V
  hpt neg vpt 1.62 mul V closepath fill} def
/TriD {stroke [] 0 setdash 2 copy vpt 1.12 mul sub M
  hpt neg vpt 1.62 mul V
  hpt 2 mul 0 V
  hpt neg vpt -1.62 mul V closepath stroke
  Pnt} def
/TriDF {stroke [] 0 setdash vpt 1.12 mul sub M
  hpt neg vpt 1.62 mul V
  hpt 2 mul 0 V
  hpt neg vpt -1.62 mul V closepath fill} def
/DiaF {stroke [] 0 setdash vpt add M
  hpt neg vpt neg V hpt vpt neg V
  hpt vpt V hpt neg vpt V closepath fill} def
/Pent {stroke [] 0 setdash 2 copy gsave
  translate 0 hpt M 4 {72 rotate 0 hpt L} repeat
  closepath stroke grestore Pnt} def
/PentF {stroke [] 0 setdash gsave
  translate 0 hpt M 4 {72 rotate 0 hpt L} repeat
  closepath fill grestore} def
/Circle {stroke [] 0 setdash 2 copy
  hpt 0 360 arc stroke Pnt} def
/CircleF {stroke [] 0 setdash hpt 0 360 arc fill} def
/C0 {BL [] 0 setdash 2 copy moveto vpt 90 450 arc} bind def
/C1 {BL [] 0 setdash 2 copy moveto
	2 copy vpt 0 90 arc closepath fill
	vpt 0 360 arc closepath} bind def
/C2 {BL [] 0 setdash 2 copy moveto
	2 copy vpt 90 180 arc closepath fill
	vpt 0 360 arc closepath} bind def
/C3 {BL [] 0 setdash 2 copy moveto
	2 copy vpt 0 180 arc closepath fill
	vpt 0 360 arc closepath} bind def
/C4 {BL [] 0 setdash 2 copy moveto
	2 copy vpt 180 270 arc closepath fill
	vpt 0 360 arc closepath} bind def
/C5 {BL [] 0 setdash 2 copy moveto
	2 copy vpt 0 90 arc
	2 copy moveto
	2 copy vpt 180 270 arc closepath fill
	vpt 0 360 arc} bind def
/C6 {BL [] 0 setdash 2 copy moveto
	2 copy vpt 90 270 arc closepath fill
	vpt 0 360 arc closepath} bind def
/C7 {BL [] 0 setdash 2 copy moveto
	2 copy vpt 0 270 arc closepath fill
	vpt 0 360 arc closepath} bind def
/C8 {BL [] 0 setdash 2 copy moveto
	2 copy vpt 270 360 arc closepath fill
	vpt 0 360 arc closepath} bind def
/C9 {BL [] 0 setdash 2 copy moveto
	2 copy vpt 270 450 arc closepath fill
	vpt 0 360 arc closepath} bind def
/C10 {BL [] 0 setdash 2 copy 2 copy moveto vpt 270 360 arc closepath fill
	2 copy moveto
	2 copy vpt 90 180 arc closepath fill
	vpt 0 360 arc closepath} bind def
/C11 {BL [] 0 setdash 2 copy moveto
	2 copy vpt 0 180 arc closepath fill
	2 copy moveto
	2 copy vpt 270 360 arc closepath fill
	vpt 0 360 arc closepath} bind def
/C12 {BL [] 0 setdash 2 copy moveto
	2 copy vpt 180 360 arc closepath fill
	vpt 0 360 arc closepath} bind def
/C13 {BL [] 0 setdash 2 copy moveto
	2 copy vpt 0 90 arc closepath fill
	2 copy moveto
	2 copy vpt 180 360 arc closepath fill
	vpt 0 360 arc closepath} bind def
/C14 {BL [] 0 setdash 2 copy moveto
	2 copy vpt 90 360 arc closepath fill
	vpt 0 360 arc} bind def
/C15 {BL [] 0 setdash 2 copy vpt 0 360 arc closepath fill
	vpt 0 360 arc closepath} bind def
/Rec {newpath 4 2 roll moveto 1 index 0 rlineto 0 exch rlineto
	neg 0 rlineto closepath} bind def
/Square {dup Rec} bind def
/Bsquare {vpt sub exch vpt sub exch vpt2 Square} bind def
/S0 {BL [] 0 setdash 2 copy moveto 0 vpt rlineto BL Bsquare} bind def
/S1 {BL [] 0 setdash 2 copy vpt Square fill Bsquare} bind def
/S2 {BL [] 0 setdash 2 copy exch vpt sub exch vpt Square fill Bsquare} bind def
/S3 {BL [] 0 setdash 2 copy exch vpt sub exch vpt2 vpt Rec fill Bsquare} bind def
/S4 {BL [] 0 setdash 2 copy exch vpt sub exch vpt sub vpt Square fill Bsquare} bind def
/S5 {BL [] 0 setdash 2 copy 2 copy vpt Square fill
	exch vpt sub exch vpt sub vpt Square fill Bsquare} bind def
/S6 {BL [] 0 setdash 2 copy exch vpt sub exch vpt sub vpt vpt2 Rec fill Bsquare} bind def
/S7 {BL [] 0 setdash 2 copy exch vpt sub exch vpt sub vpt vpt2 Rec fill
	2 copy vpt Square fill Bsquare} bind def
/S8 {BL [] 0 setdash 2 copy vpt sub vpt Square fill Bsquare} bind def
/S9 {BL [] 0 setdash 2 copy vpt sub vpt vpt2 Rec fill Bsquare} bind def
/S10 {BL [] 0 setdash 2 copy vpt sub vpt Square fill 2 copy exch vpt sub exch vpt Square fill
	Bsquare} bind def
/S11 {BL [] 0 setdash 2 copy vpt sub vpt Square fill 2 copy exch vpt sub exch vpt2 vpt Rec fill
	Bsquare} bind def
/S12 {BL [] 0 setdash 2 copy exch vpt sub exch vpt sub vpt2 vpt Rec fill Bsquare} bind def
/S13 {BL [] 0 setdash 2 copy exch vpt sub exch vpt sub vpt2 vpt Rec fill
	2 copy vpt Square fill Bsquare} bind def
/S14 {BL [] 0 setdash 2 copy exch vpt sub exch vpt sub vpt2 vpt Rec fill
	2 copy exch vpt sub exch vpt Square fill Bsquare} bind def
/S15 {BL [] 0 setdash 2 copy Bsquare fill Bsquare} bind def
/D0 {gsave translate 45 rotate 0 0 S0 stroke grestore} bind def
/D1 {gsave translate 45 rotate 0 0 S1 stroke grestore} bind def
/D2 {gsave translate 45 rotate 0 0 S2 stroke grestore} bind def
/D3 {gsave translate 45 rotate 0 0 S3 stroke grestore} bind def
/D4 {gsave translate 45 rotate 0 0 S4 stroke grestore} bind def
/D5 {gsave translate 45 rotate 0 0 S5 stroke grestore} bind def
/D6 {gsave translate 45 rotate 0 0 S6 stroke grestore} bind def
/D7 {gsave translate 45 rotate 0 0 S7 stroke grestore} bind def
/D8 {gsave translate 45 rotate 0 0 S8 stroke grestore} bind def
/D9 {gsave translate 45 rotate 0 0 S9 stroke grestore} bind def
/D10 {gsave translate 45 rotate 0 0 S10 stroke grestore} bind def
/D11 {gsave translate 45 rotate 0 0 S11 stroke grestore} bind def
/D12 {gsave translate 45 rotate 0 0 S12 stroke grestore} bind def
/D13 {gsave translate 45 rotate 0 0 S13 stroke grestore} bind def
/D14 {gsave translate 45 rotate 0 0 S14 stroke grestore} bind def
/D15 {gsave translate 45 rotate 0 0 S15 stroke grestore} bind def
/DiaE {stroke [] 0 setdash vpt add M
  hpt neg vpt neg V hpt vpt neg V
  hpt vpt V hpt neg vpt V closepath stroke} def
/BoxE {stroke [] 0 setdash exch hpt sub exch vpt add M
  0 vpt2 neg V hpt2 0 V 0 vpt2 V
  hpt2 neg 0 V closepath stroke} def
/TriUE {stroke [] 0 setdash vpt 1.12 mul add M
  hpt neg vpt -1.62 mul V
  hpt 2 mul 0 V
  hpt neg vpt 1.62 mul V closepath stroke} def
/TriDE {stroke [] 0 setdash vpt 1.12 mul sub M
  hpt neg vpt 1.62 mul V
  hpt 2 mul 0 V
  hpt neg vpt -1.62 mul V closepath stroke} def
/PentE {stroke [] 0 setdash gsave
  translate 0 hpt M 4 {72 rotate 0 hpt L} repeat
  closepath stroke grestore} def
/CircE {stroke [] 0 setdash 
  hpt 0 360 arc stroke} def
/Opaque {gsave closepath 1 setgray fill grestore 0 setgray closepath} def
/DiaW {stroke [] 0 setdash vpt add M
  hpt neg vpt neg V hpt vpt neg V
  hpt vpt V hpt neg vpt V Opaque stroke} def
/BoxW {stroke [] 0 setdash exch hpt sub exch vpt add M
  0 vpt2 neg V hpt2 0 V 0 vpt2 V
  hpt2 neg 0 V Opaque stroke} def
/TriUW {stroke [] 0 setdash vpt 1.12 mul add M
  hpt neg vpt -1.62 mul V
  hpt 2 mul 0 V
  hpt neg vpt 1.62 mul V Opaque stroke} def
/TriDW {stroke [] 0 setdash vpt 1.12 mul sub M
  hpt neg vpt 1.62 mul V
  hpt 2 mul 0 V
  hpt neg vpt -1.62 mul V Opaque stroke} def
/PentW {stroke [] 0 setdash gsave
  translate 0 hpt M 4 {72 rotate 0 hpt L} repeat
  Opaque stroke grestore} def
/CircW {stroke [] 0 setdash 
  hpt 0 360 arc Opaque stroke} def
/BoxFill {gsave Rec 1 setgray fill grestore} def
/Density {
  /Fillden exch def
  currentrgbcolor
  /ColB exch def /ColG exch def /ColR exch def
  /ColR ColR Fillden mul Fillden sub 1 add def
  /ColG ColG Fillden mul Fillden sub 1 add def
  /ColB ColB Fillden mul Fillden sub 1 add def
  ColR ColG ColB setrgbcolor} def
/BoxColFill {gsave Rec PolyFill} def
/PolyFill {gsave Density fill grestore grestore} def
/h {rlineto rlineto rlineto gsave closepath fill grestore} bind def
%
% PostScript Level 1 Pattern Fill routine for rectangles
% Usage: x y w h s a XX PatternFill
%	x,y = lower left corner of box to be filled
%	w,h = width and height of box
%	  a = angle in degrees between lines and x-axis
%	 XX = 0/1 for no/yes cross-hatch
%
/PatternFill {gsave /PFa [ 9 2 roll ] def
  PFa 0 get PFa 2 get 2 div add PFa 1 get PFa 3 get 2 div add translate
  PFa 2 get -2 div PFa 3 get -2 div PFa 2 get PFa 3 get Rec
  TransparentPatterns {} {gsave 1 setgray fill grestore} ifelse
  clip
  currentlinewidth 0.5 mul setlinewidth
  /PFs PFa 2 get dup mul PFa 3 get dup mul add sqrt def
  0 0 M PFa 5 get rotate PFs -2 div dup translate
  0 1 PFs PFa 4 get div 1 add floor cvi
	{PFa 4 get mul 0 M 0 PFs V} for
  0 PFa 6 get ne {
	0 1 PFs PFa 4 get div 1 add floor cvi
	{PFa 4 get mul 0 2 1 roll M PFs 0 V} for
 } if
  stroke grestore} def
%
/languagelevel where
 {pop languagelevel} {1} ifelse
dup 2 lt
	{/InterpretLevel1 true def
	 /InterpretLevel3 false def}
	{/InterpretLevel1 Level1 def
	 2 gt
	    {/InterpretLevel3 Level3 def}
	    {/InterpretLevel3 false def}
	 ifelse }
 ifelse
%
% PostScript level 2 pattern fill definitions
%
/Level2PatternFill {
/Tile8x8 {/PaintType 2 /PatternType 1 /TilingType 1 /BBox [0 0 8 8] /XStep 8 /YStep 8}
	bind def
/KeepColor {currentrgbcolor [/Pattern /DeviceRGB] setcolorspace} bind def
<< Tile8x8
 /PaintProc {0.5 setlinewidth pop 0 0 M 8 8 L 0 8 M 8 0 L stroke} 
>> matrix makepattern
/Pat1 exch def
<< Tile8x8
 /PaintProc {0.5 setlinewidth pop 0 0 M 8 8 L 0 8 M 8 0 L stroke
	0 4 M 4 8 L 8 4 L 4 0 L 0 4 L stroke}
>> matrix makepattern
/Pat2 exch def
<< Tile8x8
 /PaintProc {0.5 setlinewidth pop 0 0 M 0 8 L
	8 8 L 8 0 L 0 0 L fill}
>> matrix makepattern
/Pat3 exch def
<< Tile8x8
 /PaintProc {0.5 setlinewidth pop -4 8 M 8 -4 L
	0 12 M 12 0 L stroke}
>> matrix makepattern
/Pat4 exch def
<< Tile8x8
 /PaintProc {0.5 setlinewidth pop -4 0 M 8 12 L
	0 -4 M 12 8 L stroke}
>> matrix makepattern
/Pat5 exch def
<< Tile8x8
 /PaintProc {0.5 setlinewidth pop -2 8 M 4 -4 L
	0 12 M 8 -4 L 4 12 M 10 0 L stroke}
>> matrix makepattern
/Pat6 exch def
<< Tile8x8
 /PaintProc {0.5 setlinewidth pop -2 0 M 4 12 L
	0 -4 M 8 12 L 4 -4 M 10 8 L stroke}
>> matrix makepattern
/Pat7 exch def
<< Tile8x8
 /PaintProc {0.5 setlinewidth pop 8 -2 M -4 4 L
	12 0 M -4 8 L 12 4 M 0 10 L stroke}
>> matrix makepattern
/Pat8 exch def
<< Tile8x8
 /PaintProc {0.5 setlinewidth pop 0 -2 M 12 4 L
	-4 0 M 12 8 L -4 4 M 8 10 L stroke}
>> matrix makepattern
/Pat9 exch def
/Pattern1 {PatternBgnd KeepColor Pat1 setpattern} bind def
/Pattern2 {PatternBgnd KeepColor Pat2 setpattern} bind def
/Pattern3 {PatternBgnd KeepColor Pat3 setpattern} bind def
/Pattern4 {PatternBgnd KeepColor Landscape {Pat5} {Pat4} ifelse setpattern} bind def
/Pattern5 {PatternBgnd KeepColor Landscape {Pat4} {Pat5} ifelse setpattern} bind def
/Pattern6 {PatternBgnd KeepColor Landscape {Pat9} {Pat6} ifelse setpattern} bind def
/Pattern7 {PatternBgnd KeepColor Landscape {Pat8} {Pat7} ifelse setpattern} bind def
} def
%
%
%End of PostScript Level 2 code
%
/PatternBgnd {
  TransparentPatterns {} {gsave 1 setgray fill grestore} ifelse
} def
%
% Substitute for Level 2 pattern fill codes with
% grayscale if Level 2 support is not selected.
%
/Level1PatternFill {
/Pattern1 {0.250 Density} bind def
/Pattern2 {0.500 Density} bind def
/Pattern3 {0.750 Density} bind def
/Pattern4 {0.125 Density} bind def
/Pattern5 {0.375 Density} bind def
/Pattern6 {0.625 Density} bind def
/Pattern7 {0.875 Density} bind def
} def
%
% Now test for support of Level 2 code
%
Level1 {Level1PatternFill} {Level2PatternFill} ifelse
%
/Symbol-Oblique /Symbol findfont [1 0 .167 1 0 0] makefont
dup length dict begin {1 index /FID eq {pop pop} {def} ifelse} forall
currentdict end definefont pop
%
Level1 SuppressPDFMark or 
{} {
/SDict 10 dict def
systemdict /pdfmark known not {
  userdict /pdfmark systemdict /cleartomark get put
} if
SDict begin [
  /Title (exc2_5_6_3d_lost_checksum_err_efficiency/protocol6/exc2_5_6_3d_lost_checksum_err_efficiency.tex)
  /Subject (gnuplot plot)
  /Creator (gnuplot 5.0 patchlevel 1)
  /Author (asiron)
%  /Producer (gnuplot)
%  /Keywords ()
  /CreationDate (Mon Nov  2 07:50:25 2015)
  /DOCINFO pdfmark
end
} ifelse
end
%
% Support for boxed text - Ethan A Merritt May 2005
%
/InitTextBox { userdict /TBy2 3 -1 roll put userdict /TBx2 3 -1 roll put
           userdict /TBy1 3 -1 roll put userdict /TBx1 3 -1 roll put
	   /Boxing true def } def
/ExtendTextBox { Boxing
    { gsave dup false charpath pathbbox
      dup TBy2 gt {userdict /TBy2 3 -1 roll put} {pop} ifelse
      dup TBx2 gt {userdict /TBx2 3 -1 roll put} {pop} ifelse
      dup TBy1 lt {userdict /TBy1 3 -1 roll put} {pop} ifelse
      dup TBx1 lt {userdict /TBx1 3 -1 roll put} {pop} ifelse
      grestore } if } def
/PopTextBox { newpath TBx1 TBxmargin sub TBy1 TBymargin sub M
               TBx1 TBxmargin sub TBy2 TBymargin add L
	       TBx2 TBxmargin add TBy2 TBymargin add L
	       TBx2 TBxmargin add TBy1 TBymargin sub L closepath } def
/DrawTextBox { PopTextBox stroke /Boxing false def} def
/FillTextBox { gsave PopTextBox 1 1 1 setrgbcolor fill grestore /Boxing false def} def
0 0 0 0 InitTextBox
/TBxmargin 20 def
/TBymargin 20 def
/Boxing false def
/textshow { ExtendTextBox Gshow } def
%
%%EndProlog
%%Page: 1 1
gnudict begin
gsave
doclip
50 50 translate
0.050 0.050 scale
0 setgray
newpath
1.000 UL
LTb
LCb setrgbcolor
LTb
1.000 UL
LTb
1046 1384 M
2916 2413 L
6154 1819 M
2916 2413 L
1046 1384 M
0 2057 V
0 -2057 R
50 28 V
2916 2413 M
-50 -27 V
1586 1285 M
49 28 V
3456 2314 M
-50 -27 V
2126 1186 M
49 28 V
3995 2215 M
-50 -27 V
2666 1087 M
49 28 V
4534 2116 M
-49 -27 V
3205 988 M
50 28 V
5074 2017 M
-49 -27 V
3744 889 M
50 28 V
5614 1918 M
-49 -27 V
4284 790 M
50 28 V
6154 1819 M
-50 -27 V
4284 790 M
-55 10 V
1046 1384 M
55 -10 V
4596 962 M
-55 10 V
1358 1556 M
54 -10 V
4907 1133 M
-54 10 V
1669 1727 M
55 -10 V
5219 1305 M
-55 10 V
1981 1899 M
55 -10 V
5531 1476 M
-55 10 V
2293 2070 M
54 -10 V
5842 1648 M
-54 10 V
2604 2242 M
55 -10 V
6154 1819 M
-55 10 V
2916 2413 M
55 -10 V
1046 2070 M
63 0 V
-63 196 R
63 0 V
-63 196 R
63 0 V
-63 195 R
63 0 V
-63 196 R
63 0 V
-63 196 R
63 0 V
-63 196 R
63 0 V
-63 196 R
63 0 V
1.000 UP
1.000 UP
stroke
0.58 0.00 0.83 C 1046 3421 Pls
1108 3436 Pls
1171 3451 Pls
1233 3465 Pls
1295 3461 Pls
1358 3475 Pls
1420 3490 Pls
1482 3505 Pls
1545 3500 Pls
1607 3514 Pls
1669 3510 Pls
1732 3524 Pls
1794 3519 Pls
1856 3514 Pls
1919 3510 Pls
1981 3505 Pls
2043 3500 Pls
2106 3554 Pls
2168 3549 Pls
2230 3544 Pls
2293 3539 Pls
2355 3554 Pls
2417 3568 Pls
2480 3563 Pls
2542 3559 Pls
2604 3593 Pls
2667 3588 Pls
2729 3583 Pls
2791 3598 Pls
2854 3612 Pls
2916 3607 Pls
1154 3382 Pls
1216 3397 Pls
1279 3411 Pls
1341 3406 Pls
1403 3421 Pls
1466 3416 Pls
1528 3431 Pls
1590 3446 Pls
1653 3441 Pls
1715 3455 Pls
1777 3470 Pls
1840 3465 Pls
1902 3480 Pls
1964 3475 Pls
2027 3470 Pls
2089 3485 Pls
2151 3480 Pls
2214 3495 Pls
2276 3490 Pls
2338 3524 Pls
2401 3519 Pls
2463 3534 Pls
2525 3529 Pls
2588 3544 Pls
2650 3519 Pls
2712 3553 Pls
2775 3568 Pls
2837 3563 Pls
2899 3578 Pls
2962 3573 Pls
3024 3588 Pls
1262 3343 Pls
1324 3357 Pls
1387 3352 Pls
1449 3367 Pls
1511 3362 Pls
1574 3377 Pls
1636 3392 Pls
1698 3387 Pls
1761 3382 Pls
1823 3416 Pls
1885 3411 Pls
1948 3426 Pls
2010 3421 Pls
2072 3396 Pls
2135 3411 Pls
2197 3426 Pls
2259 3441 Pls
2322 3455 Pls
2384 3470 Pls
2446 3465 Pls
2509 3460 Pls
2571 3475 Pls
2633 3490 Pls
2696 3465 Pls
2758 3499 Pls
2820 3494 Pls
2883 3509 Pls
2945 3504 Pls
3007 3538 Pls
3070 3534 Pls
3132 3529 Pls
1370 3303 Pls
1432 3298 Pls
1495 3333 Pls
1557 3328 Pls
1619 3323 Pls
1682 3337 Pls
1744 3333 Pls
1806 3347 Pls
1869 3342 Pls
1931 3357 Pls
1993 3372 Pls
2056 3367 Pls
2118 3382 Pls
2180 3377 Pls
2243 3372 Pls
2305 3386 Pls
2367 3401 Pls
2430 3396 Pls
2492 3431 Pls
2554 3406 Pls
2617 3421 Pls
2679 3435 Pls
2741 3450 Pls
2804 3426 Pls
2866 3460 Pls
2928 3475 Pls
2991 3450 Pls
3053 3484 Pls
3115 3499 Pls
3178 3494 Pls
3240 3509 Pls
1478 3244 Pls
1540 3259 Pls
1603 3274 Pls
1665 3288 Pls
1727 3283 Pls
1790 3278 Pls
1852 3293 Pls
1914 3308 Pls
1977 3303 Pls
2039 3318 Pls
2101 3313 Pls
2164 3327 Pls
2226 3323 Pls
2288 3337 Pls
2351 3332 Pls
2413 3347 Pls
2475 3342 Pls
2538 3357 Pls
2600 3372 Pls
2662 3386 Pls
2725 3362 Pls
2787 3357 Pls
2849 3372 Pls
2912 3406 Pls
2974 3401 Pls
3036 3416 Pls
3099 3430 Pls
3161 3445 Pls
3223 3421 Pls
3286 3455 Pls
3348 3489 Pls
1586 3205 Pls
1648 3200 Pls
1711 3215 Pls
1773 3210 Pls
1835 3224 Pls
1898 3219 Pls
1960 3254 Pls
2022 3249 Pls
2085 3244 Pls
2147 3278 Pls
2209 3273 Pls
2272 3268 Pls
2334 3264 Pls
2396 3278 Pls
2459 3293 Pls
2521 3308 Pls
2583 3322 Pls
2646 3317 Pls
2708 3332 Pls
2770 3327 Pls
2833 3342 Pls
2895 3337 Pls
2957 3332 Pls
3020 3366 Pls
3082 3381 Pls
3144 3376 Pls
3207 3391 Pls
3269 3406 Pls
3331 3420 Pls
3394 3435 Pls
3456 3450 Pls
1694 3165 Pls
1756 3160 Pls
1818 3175 Pls
1881 3190 Pls
1943 3185 Pls
2005 3200 Pls
2068 3195 Pls
2130 3209 Pls
2192 3205 Pls
2255 3219 Pls
2317 3214 Pls
2379 3209 Pls
2442 3224 Pls
2504 3239 Pls
2566 3254 Pls
2629 3249 Pls
2691 3263 Pls
2753 3278 Pls
2816 3293 Pls
2878 3288 Pls
2940 3283 Pls
3003 3298 Pls
3065 3332 Pls
3127 3327 Pls
3190 3303 Pls
3252 3356 Pls
3314 3332 Pls
3377 3386 Pls
3439 3361 Pls
3501 3415 Pls
3564 3391 Pls
1802 3106 Pls
1864 3101 Pls
1926 3136 Pls
1989 3131 Pls
2051 3126 Pls
2113 3141 Pls
2176 3136 Pls
2238 3150 Pls
2300 3165 Pls
2363 3160 Pls
2425 3175 Pls
2487 3190 Pls
2550 3185 Pls
2612 3199 Pls
2674 3214 Pls
2737 3209 Pls
2799 3204 Pls
2861 3239 Pls
2924 3234 Pls
2986 3229 Pls
3048 3224 Pls
3111 3258 Pls
3173 3253 Pls
3235 3288 Pls
3298 3302 Pls
3360 3297 Pls
3422 3312 Pls
3485 3346 Pls
3547 3361 Pls
3608 3356 Pls
3671 3351 Pls
1910 3067 Pls
1972 3062 Pls
2034 3057 Pls
2097 3072 Pls
2159 3067 Pls
2221 3101 Pls
2284 3096 Pls
2346 3111 Pls
2408 3106 Pls
2471 3121 Pls
2533 3136 Pls
2595 3131 Pls
2658 3145 Pls
2720 3140 Pls
2782 3155 Pls
2845 3170 Pls
2907 3185 Pls
2969 3199 Pls
3032 3194 Pls
3094 3209 Pls
3156 3204 Pls
3219 3219 Pls
3281 3234 Pls
3343 3248 Pls
3406 3243 Pls
3468 3278 Pls
3530 3292 Pls
3593 3307 Pls
3654 3283 Pls
3716 3317 Pls
3779 3312 Pls
2018 2988 Pls
2080 3023 Pls
2142 3018 Pls
2205 3032 Pls
2267 3028 Pls
2329 3042 Pls
2392 3037 Pls
2454 3072 Pls
2516 3086 Pls
2579 3081 Pls
2641 3077 Pls
2703 3111 Pls
2766 3086 Pls
2828 3140 Pls
2890 3135 Pls
2953 3111 Pls
3015 3126 Pls
3077 3160 Pls
3140 3155 Pls
3202 3150 Pls
3264 3184 Pls
3327 3199 Pls
3389 3194 Pls
3451 3209 Pls
3514 3224 Pls
3576 3258 Pls
3637 3273 Pls
3700 3268 Pls
3762 3282 Pls
3824 3297 Pls
3887 3292 Pls
2126 2949 Pls
2188 2964 Pls
2250 2959 Pls
2313 2973 Pls
2375 2988 Pls
2437 3003 Pls
2500 2998 Pls
2562 3013 Pls
2624 3027 Pls
2687 3022 Pls
2749 3037 Pls
2811 3032 Pls
2874 3047 Pls
2936 3062 Pls
2998 3076 Pls
3061 3071 Pls
3123 3106 Pls
3185 3081 Pls
3248 3116 Pls
3310 3130 Pls
3372 3145 Pls
3435 3160 Pls
3497 3155 Pls
3559 3169 Pls
3621 3184 Pls
3683 3199 Pls
3745 3214 Pls
3808 3228 Pls
3870 3204 Pls
3932 3258 Pls
3995 3272 Pls
2234 2929 Pls
2296 2885 Pls
2358 2919 Pls
2421 2914 Pls
2483 2929 Pls
2545 2944 Pls
2608 2959 Pls
2670 2954 Pls
2732 2968 Pls
2795 2983 Pls
2857 2978 Pls
2919 3012 Pls
2982 3027 Pls
3044 3022 Pls
3106 3017 Pls
3169 3032 Pls
3231 3027 Pls
3293 3061 Pls
3356 3076 Pls
3418 3071 Pls
3480 3086 Pls
3543 3120 Pls
3604 3115 Pls
3666 3130 Pls
3729 3145 Pls
3791 3159 Pls
3853 3174 Pls
3916 3150 Pls
3978 3223 Pls
4040 3199 Pls
4103 3213 Pls
2342 2851 Pls
2404 2865 Pls
2466 2860 Pls
2529 2875 Pls
2591 2890 Pls
2653 2885 Pls
2716 2900 Pls
2778 2914 Pls
2840 2929 Pls
2903 2944 Pls
2965 2939 Pls
3027 2953 Pls
3090 2988 Pls
3152 2963 Pls
3214 2978 Pls
3277 3012 Pls
3339 2988 Pls
3401 3022 Pls
3464 3056 Pls
3526 3051 Pls
3588 3066 Pls
3650 3100 Pls
3712 3076 Pls
3774 3091 Pls
3837 3125 Pls
3899 3100 Pls
3961 3135 Pls
4024 3149 Pls
4086 3164 Pls
4148 3179 Pls
4211 3174 Pls
2450 2792 Pls
2512 2826 Pls
2574 2821 Pls
2637 2836 Pls
2699 2811 Pls
2761 2865 Pls
2824 2841 Pls
2886 2855 Pls
2948 2870 Pls
3011 2885 Pls
3073 2899 Pls
3135 2914 Pls
3198 2929 Pls
3260 2943 Pls
3322 2939 Pls
3385 2953 Pls
3447 2988 Pls
3509 2983 Pls
3572 2997 Pls
3633 3012 Pls
3695 3027 Pls
3758 3022 Pls
3820 3076 Pls
3882 3051 Pls
3945 3086 Pls
4007 3100 Pls
4069 3115 Pls
4132 3130 Pls
4194 3125 Pls
4256 3139 Pls
4319 3154 Pls
2558 2752 Pls
2620 2767 Pls
2682 2762 Pls
2745 2757 Pls
2807 2791 Pls
2869 2786 Pls
2932 2801 Pls
2994 2796 Pls
3056 2811 Pls
3119 2845 Pls
3181 2860 Pls
3243 2855 Pls
3306 2870 Pls
3368 2884 Pls
3430 2899 Pls
3493 2914 Pls
3555 2948 Pls
3616 2924 Pls
3679 2938 Pls
3741 2973 Pls
3803 2968 Pls
3866 2982 Pls
3928 3017 Pls
3990 3031 Pls
4053 3007 Pls
4115 3022 Pls
4177 3076 Pls
4240 3071 Pls
4302 3085 Pls
4364 3120 Pls
4427 3134 Pls
2666 2693 Pls
2728 2708 Pls
2790 2703 Pls
2853 2718 Pls
2915 2713 Pls
2977 2747 Pls
3040 2762 Pls
3102 2757 Pls
3164 2772 Pls
3227 2806 Pls
3289 2801 Pls
3351 2816 Pls
3414 2850 Pls
3476 2825 Pls
3538 2860 Pls
3600 2874 Pls
3662 2889 Pls
3724 2923 Pls
3786 2919 Pls
3849 2933 Pls
3911 2948 Pls
3973 2943 Pls
4036 2958 Pls
4098 2972 Pls
4161 2987 Pls
4223 3002 Pls
4285 3017 Pls
4347 3031 Pls
4410 3046 Pls
4472 3080 Pls
4534 3095 Pls
2773 2654 Pls
2836 2668 Pls
2898 2664 Pls
2960 2678 Pls
3023 2693 Pls
3085 2708 Pls
3147 2703 Pls
3210 2717 Pls
3272 2732 Pls
3334 2747 Pls
3397 2781 Pls
3459 2776 Pls
3521 2791 Pls
3584 2806 Pls
3645 2820 Pls
3707 2835 Pls
3770 2869 Pls
3832 2845 Pls
3894 2879 Pls
3957 2874 Pls
4019 2909 Pls
4081 2923 Pls
4144 2938 Pls
4206 2933 Pls
4268 2967 Pls
4331 2982 Pls
4393 3016 Pls
4455 3011 Pls
4518 3046 Pls
4580 3041 Pls
4642 3075 Pls
2881 2596 Pls
2944 2610 Pls
3006 2625 Pls
3068 2639 Pls
3131 2634 Pls
3193 2649 Pls
3255 2663 Pls
3318 2678 Pls
3380 2693 Pls
3442 2707 Pls
3505 2722 Pls
3567 2717 Pls
3628 2752 Pls
3691 2766 Pls
3753 2781 Pls
3815 2796 Pls
3878 2810 Pls
3940 2825 Pls
4002 2820 Pls
4065 2835 Pls
4127 2850 Pls
4189 2884 Pls
4252 2918 Pls
4314 2913 Pls
4376 2928 Pls
4439 2962 Pls
4501 2957 Pls
4563 2972 Pls
4626 2967 Pls
4688 3021 Pls
4750 3016 Pls
2989 2537 Pls
3052 2552 Pls
3114 2566 Pls
3176 2581 Pls
3239 2596 Pls
3301 2591 Pls
3363 2625 Pls
3426 2620 Pls
3488 2653 Pls
3550 2668 Pls
3612 2663 Pls
3674 2678 Pls
3736 2712 Pls
3799 2707 Pls
3861 2742 Pls
3923 2737 Pls
3986 2751 Pls
4048 2766 Pls
4110 2781 Pls
4173 2815 Pls
4235 2830 Pls
4297 2825 Pls
4360 2879 Pls
4422 2854 Pls
4484 2889 Pls
4547 2903 Pls
4609 2918 Pls
4671 2933 Pls
4734 2947 Pls
4796 2982 Pls
4858 2996 Pls
3097 2497 Pls
3160 2512 Pls
3222 2507 Pls
3284 2542 Pls
3347 2537 Pls
3409 2551 Pls
3471 2566 Pls
3534 2581 Pls
3596 2595 Pls
3657 2630 Pls
3720 2643 Pls
3782 2638 Pls
3844 2673 Pls
3907 2687 Pls
3969 2683 Pls
4031 2717 Pls
4094 2712 Pls
4156 2727 Pls
4218 2741 Pls
4281 2776 Pls
4343 2771 Pls
4405 2805 Pls
4468 2800 Pls
4530 2834 Pls
4592 2849 Pls
4655 2864 Pls
4717 2898 Pls
4779 2893 Pls
4842 2908 Pls
4904 2923 Pls
4966 2957 Pls
3205 2458 Pls
3268 2434 Pls
3330 2468 Pls
3392 2483 Pls
3455 2497 Pls
3517 2512 Pls
3579 2527 Pls
3641 2541 Pls
3703 2556 Pls
3765 2590 Pls
3828 2585 Pls
3890 2600 Pls
3952 2615 Pls
4015 2629 Pls
4077 2625 Pls
4139 2658 Pls
4202 2673 Pls
4264 2687 Pls
4326 2722 Pls
4389 2736 Pls
4451 2751 Pls
4513 2785 Pls
4576 2761 Pls
4638 2775 Pls
4700 2810 Pls
4763 2844 Pls
4825 2859 Pls
4887 2854 Pls
4950 2888 Pls
5012 2922 Pls
5074 2918 Pls
3313 2399 Pls
3376 2433 Pls
3438 2409 Pls
3500 2443 Pls
3563 2438 Pls
3624 2473 Pls
3686 2487 Pls
3749 2482 Pls
3811 2497 Pls
3873 2551 Pls
3936 2546 Pls
3998 2541 Pls
4060 2575 Pls
4123 2590 Pls
4185 2624 Pls
4247 2619 Pls
4310 2633 Pls
4372 2667 Pls
4434 2682 Pls
4497 2697 Pls
4559 2712 Pls
4621 2746 Pls
4684 2761 Pls
4746 2775 Pls
4808 2790 Pls
4871 2805 Pls
4933 2800 Pls
4995 2834 Pls
5058 2849 Pls
5120 2883 Pls
5182 2898 Pls
3421 2340 Pls
3484 2355 Pls
3546 2369 Pls
3607 2404 Pls
3670 2399 Pls
3732 2433 Pls
3794 2428 Pls
3857 2463 Pls
3919 2477 Pls
3981 2492 Pls
4044 2487 Pls
4106 2521 Pls
4168 2536 Pls
4231 2531 Pls
4293 2565 Pls
4355 2580 Pls
4418 2614 Pls
4480 2629 Pls
4542 2643 Pls
4605 2657 Pls
4667 2692 Pls
4729 2687 Pls
4792 2702 Pls
4854 2716 Pls
4916 2751 Pls
4979 2765 Pls
5041 2760 Pls
5103 2795 Pls
5166 2809 Pls
5228 2824 Pls
5290 2839 Pls
3529 2281 Pls
3592 2315 Pls
3653 2330 Pls
3715 2345 Pls
3778 2340 Pls
3840 2374 Pls
3902 2408 Pls
3965 2404 Pls
4027 2418 Pls
4089 2453 Pls
4152 2448 Pls
4214 2482 Pls
4276 2477 Pls
4339 2511 Pls
4401 2506 Pls
4463 2560 Pls
4526 2555 Pls
4588 2590 Pls
4650 2585 Pls
4713 2619 Pls
4775 2633 Pls
4837 2647 Pls
4900 2682 Pls
4962 2677 Pls
5024 2711 Pls
5087 2726 Pls
5149 2741 Pls
5211 2755 Pls
5274 2770 Pls
5336 2804 Pls
5398 2819 Pls
3636 2222 Pls
3699 2276 Pls
3761 2271 Pls
3823 2286 Pls
3886 2320 Pls
3948 2335 Pls
4010 2330 Pls
4073 2384 Pls
4135 2379 Pls
4197 2394 Pls
4260 2408 Pls
4322 2443 Pls
4384 2438 Pls
4447 2472 Pls
4509 2487 Pls
4571 2501 Pls
4634 2516 Pls
4696 2531 Pls
4758 2565 Pls
4821 2560 Pls
4883 2594 Pls
4945 2609 Pls
5008 2624 Pls
5070 2657 Pls
5132 2672 Pls
5195 2686 Pls
5257 2721 Pls
5319 2735 Pls
5382 2750 Pls
5444 2765 Pls
5506 2780 Pls
3744 2222 Pls
3806 2217 Pls
3869 2251 Pls
3931 2246 Pls
3993 2261 Pls
4056 2295 Pls
4118 2290 Pls
4180 2325 Pls
4243 2339 Pls
4305 2354 Pls
4367 2388 Pls
4430 2364 Pls
4492 2418 Pls
4554 2413 Pls
4617 2447 Pls
4679 2462 Pls
4741 2496 Pls
4804 2511 Pls
4866 2506 Pls
4928 2540 Pls
4991 2555 Pls
5053 2589 Pls
5115 2604 Pls
5178 2619 Pls
5240 2632 Pls
5302 2667 Pls
5365 2662 Pls
5427 2716 Pls
5489 2730 Pls
5552 2745 Pls
5614 2760 Pls
3852 2163 Pls
3914 2158 Pls
3977 2192 Pls
4039 2207 Pls
4101 2222 Pls
4164 2236 Pls
4226 2251 Pls
4288 2285 Pls
4351 2280 Pls
4413 2315 Pls
4475 2329 Pls
4538 2325 Pls
4600 2378 Pls
4662 2393 Pls
4725 2408 Pls
4787 2422 Pls
4849 2457 Pls
4912 2471 Pls
4974 2506 Pls
5036 2501 Pls
5099 2516 Pls
5161 2550 Pls
5223 2565 Pls
5286 2579 Pls
5348 2614 Pls
5410 2609 Pls
5473 2642 Pls
5535 2657 Pls
5597 2671 Pls
5660 2706 Pls
5722 2720 Pls
3960 2123 Pls
4022 2138 Pls
4085 2153 Pls
4147 2168 Pls
4209 2202 Pls
4272 2197 Pls
4334 2251 Pls
4396 2226 Pls
4459 2241 Pls
4521 2275 Pls
4583 2290 Pls
4646 2324 Pls
4708 2339 Pls
4770 2354 Pls
4833 2368 Pls
4895 2383 Pls
4957 2417 Pls
5020 2432 Pls
5082 2447 Pls
5144 2461 Pls
5207 2496 Pls
5269 2491 Pls
5331 2525 Pls
5394 2540 Pls
5456 2555 Pls
5518 2589 Pls
5581 2604 Pls
5643 2618 Pls
5705 2632 Pls
5768 2686 Pls
5830 2681 Pls
4068 2064 Pls
4130 2060 Pls
4193 2094 Pls
4255 2128 Pls
4317 2143 Pls
4380 2158 Pls
4442 2172 Pls
4504 2187 Pls
4567 2221 Pls
4629 2216 Pls
4691 2251 Pls
4754 2285 Pls
4816 2300 Pls
4878 2314 Pls
4941 2329 Pls
5003 2344 Pls
5065 2358 Pls
5128 2412 Pls
5190 2407 Pls
5252 2422 Pls
5315 2456 Pls
5377 2471 Pls
5439 2486 Pls
5502 2520 Pls
5564 2535 Pls
5626 2549 Pls
5689 2584 Pls
5751 2598 Pls
5813 2594 Pls
5876 2646 Pls
5938 2661 Pls
4176 2045 Pls
4238 2040 Pls
4301 2074 Pls
4363 2069 Pls
4425 2084 Pls
4488 2099 Pls
4550 2133 Pls
4612 2148 Pls
4675 2182 Pls
4737 2197 Pls
4799 2211 Pls
4862 2226 Pls
4924 2241 Pls
4986 2275 Pls
5049 2290 Pls
5111 2324 Pls
5173 2319 Pls
5236 2353 Pls
5298 2388 Pls
5360 2383 Pls
5423 2397 Pls
5485 2432 Pls
5547 2446 Pls
5610 2481 Pls
5672 2495 Pls
5734 2530 Pls
5797 2525 Pls
5859 2559 Pls
5921 2593 Pls
5984 2608 Pls
6046 2641 Pls
4284 1966 Pls
4346 2000 Pls
4409 2015 Pls
4471 2030 Pls
4533 2044 Pls
4596 2098 Pls
4658 2113 Pls
4720 2108 Pls
4783 2142 Pls
4845 2157 Pls
4907 2172 Pls
4970 2206 Pls
5032 2201 Pls
5094 2236 Pls
5157 2250 Pls
5219 2285 Pls
5281 2299 Pls
5344 2314 Pls
5406 2348 Pls
5468 2363 Pls
5531 2378 Pls
5593 2392 Pls
5655 2427 Pls
5718 2422 Pls
5780 2476 Pls
5842 2471 Pls
5905 2505 Pls
5967 2539 Pls
6029 2554 Pls
6092 2588 Pls
6154 2603 Pls
1.000 UL
LTb
LCb setrgbcolor
LTb
6154 1819 M
4284 790 L
1046 1384 M
4284 790 L
1.000 UP
stroke
grestore
end
showpage
%%Trailer
