%!PS-Adobe-2.0 EPSF-2.0
%%Title: exc1_3_4_3d_lost_checksum_err_3/protocol3/exc1_3_4_3d_lost_checksum_err_3.tex
%%Creator: gnuplot 5.0 patchlevel 1
%%CreationDate: Mon Nov  2 08:59:35 2015
%%DocumentFonts: 
%%BoundingBox: 50 50 410 482
%%EndComments
%%BeginProlog
/gnudict 256 dict def
gnudict begin
%
% The following true/false flags may be edited by hand if desired.
% The unit line width and grayscale image gamma correction may also be changed.
%
/Color false def
/Blacktext true def
/Solid false def
/Dashlength 1 def
/Landscape false def
/Level1 false def
/Level3 false def
/Rounded false def
/ClipToBoundingBox false def
/SuppressPDFMark false def
/TransparentPatterns false def
/gnulinewidth 5.000 def
/userlinewidth gnulinewidth def
/Gamma 1.0 def
/BackgroundColor {-1.000 -1.000 -1.000} def
%
/vshift -53 def
/dl1 {
  10.0 Dashlength userlinewidth gnulinewidth div mul mul mul
  Rounded { currentlinewidth 0.75 mul sub dup 0 le { pop 0.01 } if } if
} def
/dl2 {
  10.0 Dashlength userlinewidth gnulinewidth div mul mul mul
  Rounded { currentlinewidth 0.75 mul add } if
} def
/hpt_ 31.5 def
/vpt_ 31.5 def
/hpt hpt_ def
/vpt vpt_ def
/doclip {
  ClipToBoundingBox {
    newpath 50 50 moveto 410 50 lineto 410 482 lineto 50 482 lineto closepath
    clip
  } if
} def
%
% Gnuplot Prolog Version 5.0 (Dec 2014)
%
%/SuppressPDFMark true def
%
/M {moveto} bind def
/L {lineto} bind def
/R {rmoveto} bind def
/V {rlineto} bind def
/N {newpath moveto} bind def
/Z {closepath} bind def
/C {setrgbcolor} bind def
/f {rlineto fill} bind def
/g {setgray} bind def
/Gshow {show} def   % May be redefined later in the file to support UTF-8
/vpt2 vpt 2 mul def
/hpt2 hpt 2 mul def
/Lshow {currentpoint stroke M 0 vshift R 
	Blacktext {gsave 0 setgray textshow grestore} {textshow} ifelse} def
/Rshow {currentpoint stroke M dup stringwidth pop neg vshift R
	Blacktext {gsave 0 setgray textshow grestore} {textshow} ifelse} def
/Cshow {currentpoint stroke M dup stringwidth pop -2 div vshift R 
	Blacktext {gsave 0 setgray textshow grestore} {textshow} ifelse} def
/UP {dup vpt_ mul /vpt exch def hpt_ mul /hpt exch def
  /hpt2 hpt 2 mul def /vpt2 vpt 2 mul def} def
/DL {Color {setrgbcolor Solid {pop []} if 0 setdash}
 {pop pop pop 0 setgray Solid {pop []} if 0 setdash} ifelse} def
/BL {stroke userlinewidth 2 mul setlinewidth
	Rounded {1 setlinejoin 1 setlinecap} if} def
/AL {stroke userlinewidth 2 div setlinewidth
	Rounded {1 setlinejoin 1 setlinecap} if} def
/UL {dup gnulinewidth mul /userlinewidth exch def
	dup 1 lt {pop 1} if 10 mul /udl exch def} def
/PL {stroke userlinewidth setlinewidth
	Rounded {1 setlinejoin 1 setlinecap} if} def
3.8 setmiterlimit
% Classic Line colors (version 5.0)
/LCw {1 1 1} def
/LCb {0 0 0} def
/LCa {0 0 0} def
/LC0 {1 0 0} def
/LC1 {0 1 0} def
/LC2 {0 0 1} def
/LC3 {1 0 1} def
/LC4 {0 1 1} def
/LC5 {1 1 0} def
/LC6 {0 0 0} def
/LC7 {1 0.3 0} def
/LC8 {0.5 0.5 0.5} def
% Default dash patterns (version 5.0)
/LTw {PL [] 1 setgray} def
/LTb {BL [] LCb DL} def
/LTa {AL [1 udl mul 2 udl mul] 0 setdash LCa setrgbcolor} def
/LT0 {PL [] LC0 DL} def
/LT1 {PL [2 dl1 3 dl2] LC1 DL} def
/LT2 {PL [1 dl1 1.5 dl2] LC2 DL} def
/LT3 {PL [6 dl1 2 dl2 1 dl1 2 dl2] LC3 DL} def
/LT4 {PL [1 dl1 2 dl2 6 dl1 2 dl2 1 dl1 2 dl2] LC4 DL} def
/LT5 {PL [4 dl1 2 dl2] LC5 DL} def
/LT6 {PL [1.5 dl1 1.5 dl2 1.5 dl1 1.5 dl2 1.5 dl1 6 dl2] LC6 DL} def
/LT7 {PL [3 dl1 3 dl2 1 dl1 3 dl2] LC7 DL} def
/LT8 {PL [2 dl1 2 dl2 2 dl1 6 dl2] LC8 DL} def
/SL {[] 0 setdash} def
/Pnt {stroke [] 0 setdash gsave 1 setlinecap M 0 0 V stroke grestore} def
/Dia {stroke [] 0 setdash 2 copy vpt add M
  hpt neg vpt neg V hpt vpt neg V
  hpt vpt V hpt neg vpt V closepath stroke
  Pnt} def
/Pls {stroke [] 0 setdash vpt sub M 0 vpt2 V
  currentpoint stroke M
  hpt neg vpt neg R hpt2 0 V stroke
 } def
/Box {stroke [] 0 setdash 2 copy exch hpt sub exch vpt add M
  0 vpt2 neg V hpt2 0 V 0 vpt2 V
  hpt2 neg 0 V closepath stroke
  Pnt} def
/Crs {stroke [] 0 setdash exch hpt sub exch vpt add M
  hpt2 vpt2 neg V currentpoint stroke M
  hpt2 neg 0 R hpt2 vpt2 V stroke} def
/TriU {stroke [] 0 setdash 2 copy vpt 1.12 mul add M
  hpt neg vpt -1.62 mul V
  hpt 2 mul 0 V
  hpt neg vpt 1.62 mul V closepath stroke
  Pnt} def
/Star {2 copy Pls Crs} def
/BoxF {stroke [] 0 setdash exch hpt sub exch vpt add M
  0 vpt2 neg V hpt2 0 V 0 vpt2 V
  hpt2 neg 0 V closepath fill} def
/TriUF {stroke [] 0 setdash vpt 1.12 mul add M
  hpt neg vpt -1.62 mul V
  hpt 2 mul 0 V
  hpt neg vpt 1.62 mul V closepath fill} def
/TriD {stroke [] 0 setdash 2 copy vpt 1.12 mul sub M
  hpt neg vpt 1.62 mul V
  hpt 2 mul 0 V
  hpt neg vpt -1.62 mul V closepath stroke
  Pnt} def
/TriDF {stroke [] 0 setdash vpt 1.12 mul sub M
  hpt neg vpt 1.62 mul V
  hpt 2 mul 0 V
  hpt neg vpt -1.62 mul V closepath fill} def
/DiaF {stroke [] 0 setdash vpt add M
  hpt neg vpt neg V hpt vpt neg V
  hpt vpt V hpt neg vpt V closepath fill} def
/Pent {stroke [] 0 setdash 2 copy gsave
  translate 0 hpt M 4 {72 rotate 0 hpt L} repeat
  closepath stroke grestore Pnt} def
/PentF {stroke [] 0 setdash gsave
  translate 0 hpt M 4 {72 rotate 0 hpt L} repeat
  closepath fill grestore} def
/Circle {stroke [] 0 setdash 2 copy
  hpt 0 360 arc stroke Pnt} def
/CircleF {stroke [] 0 setdash hpt 0 360 arc fill} def
/C0 {BL [] 0 setdash 2 copy moveto vpt 90 450 arc} bind def
/C1 {BL [] 0 setdash 2 copy moveto
	2 copy vpt 0 90 arc closepath fill
	vpt 0 360 arc closepath} bind def
/C2 {BL [] 0 setdash 2 copy moveto
	2 copy vpt 90 180 arc closepath fill
	vpt 0 360 arc closepath} bind def
/C3 {BL [] 0 setdash 2 copy moveto
	2 copy vpt 0 180 arc closepath fill
	vpt 0 360 arc closepath} bind def
/C4 {BL [] 0 setdash 2 copy moveto
	2 copy vpt 180 270 arc closepath fill
	vpt 0 360 arc closepath} bind def
/C5 {BL [] 0 setdash 2 copy moveto
	2 copy vpt 0 90 arc
	2 copy moveto
	2 copy vpt 180 270 arc closepath fill
	vpt 0 360 arc} bind def
/C6 {BL [] 0 setdash 2 copy moveto
	2 copy vpt 90 270 arc closepath fill
	vpt 0 360 arc closepath} bind def
/C7 {BL [] 0 setdash 2 copy moveto
	2 copy vpt 0 270 arc closepath fill
	vpt 0 360 arc closepath} bind def
/C8 {BL [] 0 setdash 2 copy moveto
	2 copy vpt 270 360 arc closepath fill
	vpt 0 360 arc closepath} bind def
/C9 {BL [] 0 setdash 2 copy moveto
	2 copy vpt 270 450 arc closepath fill
	vpt 0 360 arc closepath} bind def
/C10 {BL [] 0 setdash 2 copy 2 copy moveto vpt 270 360 arc closepath fill
	2 copy moveto
	2 copy vpt 90 180 arc closepath fill
	vpt 0 360 arc closepath} bind def
/C11 {BL [] 0 setdash 2 copy moveto
	2 copy vpt 0 180 arc closepath fill
	2 copy moveto
	2 copy vpt 270 360 arc closepath fill
	vpt 0 360 arc closepath} bind def
/C12 {BL [] 0 setdash 2 copy moveto
	2 copy vpt 180 360 arc closepath fill
	vpt 0 360 arc closepath} bind def
/C13 {BL [] 0 setdash 2 copy moveto
	2 copy vpt 0 90 arc closepath fill
	2 copy moveto
	2 copy vpt 180 360 arc closepath fill
	vpt 0 360 arc closepath} bind def
/C14 {BL [] 0 setdash 2 copy moveto
	2 copy vpt 90 360 arc closepath fill
	vpt 0 360 arc} bind def
/C15 {BL [] 0 setdash 2 copy vpt 0 360 arc closepath fill
	vpt 0 360 arc closepath} bind def
/Rec {newpath 4 2 roll moveto 1 index 0 rlineto 0 exch rlineto
	neg 0 rlineto closepath} bind def
/Square {dup Rec} bind def
/Bsquare {vpt sub exch vpt sub exch vpt2 Square} bind def
/S0 {BL [] 0 setdash 2 copy moveto 0 vpt rlineto BL Bsquare} bind def
/S1 {BL [] 0 setdash 2 copy vpt Square fill Bsquare} bind def
/S2 {BL [] 0 setdash 2 copy exch vpt sub exch vpt Square fill Bsquare} bind def
/S3 {BL [] 0 setdash 2 copy exch vpt sub exch vpt2 vpt Rec fill Bsquare} bind def
/S4 {BL [] 0 setdash 2 copy exch vpt sub exch vpt sub vpt Square fill Bsquare} bind def
/S5 {BL [] 0 setdash 2 copy 2 copy vpt Square fill
	exch vpt sub exch vpt sub vpt Square fill Bsquare} bind def
/S6 {BL [] 0 setdash 2 copy exch vpt sub exch vpt sub vpt vpt2 Rec fill Bsquare} bind def
/S7 {BL [] 0 setdash 2 copy exch vpt sub exch vpt sub vpt vpt2 Rec fill
	2 copy vpt Square fill Bsquare} bind def
/S8 {BL [] 0 setdash 2 copy vpt sub vpt Square fill Bsquare} bind def
/S9 {BL [] 0 setdash 2 copy vpt sub vpt vpt2 Rec fill Bsquare} bind def
/S10 {BL [] 0 setdash 2 copy vpt sub vpt Square fill 2 copy exch vpt sub exch vpt Square fill
	Bsquare} bind def
/S11 {BL [] 0 setdash 2 copy vpt sub vpt Square fill 2 copy exch vpt sub exch vpt2 vpt Rec fill
	Bsquare} bind def
/S12 {BL [] 0 setdash 2 copy exch vpt sub exch vpt sub vpt2 vpt Rec fill Bsquare} bind def
/S13 {BL [] 0 setdash 2 copy exch vpt sub exch vpt sub vpt2 vpt Rec fill
	2 copy vpt Square fill Bsquare} bind def
/S14 {BL [] 0 setdash 2 copy exch vpt sub exch vpt sub vpt2 vpt Rec fill
	2 copy exch vpt sub exch vpt Square fill Bsquare} bind def
/S15 {BL [] 0 setdash 2 copy Bsquare fill Bsquare} bind def
/D0 {gsave translate 45 rotate 0 0 S0 stroke grestore} bind def
/D1 {gsave translate 45 rotate 0 0 S1 stroke grestore} bind def
/D2 {gsave translate 45 rotate 0 0 S2 stroke grestore} bind def
/D3 {gsave translate 45 rotate 0 0 S3 stroke grestore} bind def
/D4 {gsave translate 45 rotate 0 0 S4 stroke grestore} bind def
/D5 {gsave translate 45 rotate 0 0 S5 stroke grestore} bind def
/D6 {gsave translate 45 rotate 0 0 S6 stroke grestore} bind def
/D7 {gsave translate 45 rotate 0 0 S7 stroke grestore} bind def
/D8 {gsave translate 45 rotate 0 0 S8 stroke grestore} bind def
/D9 {gsave translate 45 rotate 0 0 S9 stroke grestore} bind def
/D10 {gsave translate 45 rotate 0 0 S10 stroke grestore} bind def
/D11 {gsave translate 45 rotate 0 0 S11 stroke grestore} bind def
/D12 {gsave translate 45 rotate 0 0 S12 stroke grestore} bind def
/D13 {gsave translate 45 rotate 0 0 S13 stroke grestore} bind def
/D14 {gsave translate 45 rotate 0 0 S14 stroke grestore} bind def
/D15 {gsave translate 45 rotate 0 0 S15 stroke grestore} bind def
/DiaE {stroke [] 0 setdash vpt add M
  hpt neg vpt neg V hpt vpt neg V
  hpt vpt V hpt neg vpt V closepath stroke} def
/BoxE {stroke [] 0 setdash exch hpt sub exch vpt add M
  0 vpt2 neg V hpt2 0 V 0 vpt2 V
  hpt2 neg 0 V closepath stroke} def
/TriUE {stroke [] 0 setdash vpt 1.12 mul add M
  hpt neg vpt -1.62 mul V
  hpt 2 mul 0 V
  hpt neg vpt 1.62 mul V closepath stroke} def
/TriDE {stroke [] 0 setdash vpt 1.12 mul sub M
  hpt neg vpt 1.62 mul V
  hpt 2 mul 0 V
  hpt neg vpt -1.62 mul V closepath stroke} def
/PentE {stroke [] 0 setdash gsave
  translate 0 hpt M 4 {72 rotate 0 hpt L} repeat
  closepath stroke grestore} def
/CircE {stroke [] 0 setdash 
  hpt 0 360 arc stroke} def
/Opaque {gsave closepath 1 setgray fill grestore 0 setgray closepath} def
/DiaW {stroke [] 0 setdash vpt add M
  hpt neg vpt neg V hpt vpt neg V
  hpt vpt V hpt neg vpt V Opaque stroke} def
/BoxW {stroke [] 0 setdash exch hpt sub exch vpt add M
  0 vpt2 neg V hpt2 0 V 0 vpt2 V
  hpt2 neg 0 V Opaque stroke} def
/TriUW {stroke [] 0 setdash vpt 1.12 mul add M
  hpt neg vpt -1.62 mul V
  hpt 2 mul 0 V
  hpt neg vpt 1.62 mul V Opaque stroke} def
/TriDW {stroke [] 0 setdash vpt 1.12 mul sub M
  hpt neg vpt 1.62 mul V
  hpt 2 mul 0 V
  hpt neg vpt -1.62 mul V Opaque stroke} def
/PentW {stroke [] 0 setdash gsave
  translate 0 hpt M 4 {72 rotate 0 hpt L} repeat
  Opaque stroke grestore} def
/CircW {stroke [] 0 setdash 
  hpt 0 360 arc Opaque stroke} def
/BoxFill {gsave Rec 1 setgray fill grestore} def
/Density {
  /Fillden exch def
  currentrgbcolor
  /ColB exch def /ColG exch def /ColR exch def
  /ColR ColR Fillden mul Fillden sub 1 add def
  /ColG ColG Fillden mul Fillden sub 1 add def
  /ColB ColB Fillden mul Fillden sub 1 add def
  ColR ColG ColB setrgbcolor} def
/BoxColFill {gsave Rec PolyFill} def
/PolyFill {gsave Density fill grestore grestore} def
/h {rlineto rlineto rlineto gsave closepath fill grestore} bind def
%
% PostScript Level 1 Pattern Fill routine for rectangles
% Usage: x y w h s a XX PatternFill
%	x,y = lower left corner of box to be filled
%	w,h = width and height of box
%	  a = angle in degrees between lines and x-axis
%	 XX = 0/1 for no/yes cross-hatch
%
/PatternFill {gsave /PFa [ 9 2 roll ] def
  PFa 0 get PFa 2 get 2 div add PFa 1 get PFa 3 get 2 div add translate
  PFa 2 get -2 div PFa 3 get -2 div PFa 2 get PFa 3 get Rec
  TransparentPatterns {} {gsave 1 setgray fill grestore} ifelse
  clip
  currentlinewidth 0.5 mul setlinewidth
  /PFs PFa 2 get dup mul PFa 3 get dup mul add sqrt def
  0 0 M PFa 5 get rotate PFs -2 div dup translate
  0 1 PFs PFa 4 get div 1 add floor cvi
	{PFa 4 get mul 0 M 0 PFs V} for
  0 PFa 6 get ne {
	0 1 PFs PFa 4 get div 1 add floor cvi
	{PFa 4 get mul 0 2 1 roll M PFs 0 V} for
 } if
  stroke grestore} def
%
/languagelevel where
 {pop languagelevel} {1} ifelse
dup 2 lt
	{/InterpretLevel1 true def
	 /InterpretLevel3 false def}
	{/InterpretLevel1 Level1 def
	 2 gt
	    {/InterpretLevel3 Level3 def}
	    {/InterpretLevel3 false def}
	 ifelse }
 ifelse
%
% PostScript level 2 pattern fill definitions
%
/Level2PatternFill {
/Tile8x8 {/PaintType 2 /PatternType 1 /TilingType 1 /BBox [0 0 8 8] /XStep 8 /YStep 8}
	bind def
/KeepColor {currentrgbcolor [/Pattern /DeviceRGB] setcolorspace} bind def
<< Tile8x8
 /PaintProc {0.5 setlinewidth pop 0 0 M 8 8 L 0 8 M 8 0 L stroke} 
>> matrix makepattern
/Pat1 exch def
<< Tile8x8
 /PaintProc {0.5 setlinewidth pop 0 0 M 8 8 L 0 8 M 8 0 L stroke
	0 4 M 4 8 L 8 4 L 4 0 L 0 4 L stroke}
>> matrix makepattern
/Pat2 exch def
<< Tile8x8
 /PaintProc {0.5 setlinewidth pop 0 0 M 0 8 L
	8 8 L 8 0 L 0 0 L fill}
>> matrix makepattern
/Pat3 exch def
<< Tile8x8
 /PaintProc {0.5 setlinewidth pop -4 8 M 8 -4 L
	0 12 M 12 0 L stroke}
>> matrix makepattern
/Pat4 exch def
<< Tile8x8
 /PaintProc {0.5 setlinewidth pop -4 0 M 8 12 L
	0 -4 M 12 8 L stroke}
>> matrix makepattern
/Pat5 exch def
<< Tile8x8
 /PaintProc {0.5 setlinewidth pop -2 8 M 4 -4 L
	0 12 M 8 -4 L 4 12 M 10 0 L stroke}
>> matrix makepattern
/Pat6 exch def
<< Tile8x8
 /PaintProc {0.5 setlinewidth pop -2 0 M 4 12 L
	0 -4 M 8 12 L 4 -4 M 10 8 L stroke}
>> matrix makepattern
/Pat7 exch def
<< Tile8x8
 /PaintProc {0.5 setlinewidth pop 8 -2 M -4 4 L
	12 0 M -4 8 L 12 4 M 0 10 L stroke}
>> matrix makepattern
/Pat8 exch def
<< Tile8x8
 /PaintProc {0.5 setlinewidth pop 0 -2 M 12 4 L
	-4 0 M 12 8 L -4 4 M 8 10 L stroke}
>> matrix makepattern
/Pat9 exch def
/Pattern1 {PatternBgnd KeepColor Pat1 setpattern} bind def
/Pattern2 {PatternBgnd KeepColor Pat2 setpattern} bind def
/Pattern3 {PatternBgnd KeepColor Pat3 setpattern} bind def
/Pattern4 {PatternBgnd KeepColor Landscape {Pat5} {Pat4} ifelse setpattern} bind def
/Pattern5 {PatternBgnd KeepColor Landscape {Pat4} {Pat5} ifelse setpattern} bind def
/Pattern6 {PatternBgnd KeepColor Landscape {Pat9} {Pat6} ifelse setpattern} bind def
/Pattern7 {PatternBgnd KeepColor Landscape {Pat8} {Pat7} ifelse setpattern} bind def
} def
%
%
%End of PostScript Level 2 code
%
/PatternBgnd {
  TransparentPatterns {} {gsave 1 setgray fill grestore} ifelse
} def
%
% Substitute for Level 2 pattern fill codes with
% grayscale if Level 2 support is not selected.
%
/Level1PatternFill {
/Pattern1 {0.250 Density} bind def
/Pattern2 {0.500 Density} bind def
/Pattern3 {0.750 Density} bind def
/Pattern4 {0.125 Density} bind def
/Pattern5 {0.375 Density} bind def
/Pattern6 {0.625 Density} bind def
/Pattern7 {0.875 Density} bind def
} def
%
% Now test for support of Level 2 code
%
Level1 {Level1PatternFill} {Level2PatternFill} ifelse
%
/Symbol-Oblique /Symbol findfont [1 0 .167 1 0 0] makefont
dup length dict begin {1 index /FID eq {pop pop} {def} ifelse} forall
currentdict end definefont pop
%
Level1 SuppressPDFMark or 
{} {
/SDict 10 dict def
systemdict /pdfmark known not {
  userdict /pdfmark systemdict /cleartomark get put
} if
SDict begin [
  /Title (exc1_3_4_3d_lost_checksum_err_3/protocol3/exc1_3_4_3d_lost_checksum_err_3.tex)
  /Subject (gnuplot plot)
  /Creator (gnuplot 5.0 patchlevel 1)
  /Author (asiron)
%  /Producer (gnuplot)
%  /Keywords ()
  /CreationDate (Mon Nov  2 08:59:35 2015)
  /DOCINFO pdfmark
end
} ifelse
end
%
% Support for boxed text - Ethan A Merritt May 2005
%
/InitTextBox { userdict /TBy2 3 -1 roll put userdict /TBx2 3 -1 roll put
           userdict /TBy1 3 -1 roll put userdict /TBx1 3 -1 roll put
	   /Boxing true def } def
/ExtendTextBox { Boxing
    { gsave dup false charpath pathbbox
      dup TBy2 gt {userdict /TBy2 3 -1 roll put} {pop} ifelse
      dup TBx2 gt {userdict /TBx2 3 -1 roll put} {pop} ifelse
      dup TBy1 lt {userdict /TBy1 3 -1 roll put} {pop} ifelse
      dup TBx1 lt {userdict /TBx1 3 -1 roll put} {pop} ifelse
      grestore } if } def
/PopTextBox { newpath TBx1 TBxmargin sub TBy1 TBymargin sub M
               TBx1 TBxmargin sub TBy2 TBymargin add L
	       TBx2 TBxmargin add TBy2 TBymargin add L
	       TBx2 TBxmargin add TBy1 TBymargin sub L closepath } def
/DrawTextBox { PopTextBox stroke /Boxing false def} def
/FillTextBox { gsave PopTextBox 1 1 1 setrgbcolor fill grestore /Boxing false def} def
0 0 0 0 InitTextBox
/TBxmargin 20 def
/TBymargin 20 def
/Boxing false def
/textshow { ExtendTextBox Gshow } def
%
%%EndProlog
%%Page: 1 1
gnudict begin
gsave
doclip
50 50 translate
0.050 0.050 scale
0 setgray
newpath
1.000 UL
LTb
LCb setrgbcolor
LTb
1.000 UL
LTb
908 2281 M
3365 4031 L
6292 2562 M
3365 4031 L
908 2281 M
0 3957 V
stroke
0.200 UL
LTb
908 2281 M
3365 4031 L
stroke
1.000 UL
LTb
908 2281 M
34 24 V
3365 4031 M
-34 -24 V
stroke
0.200 UL
LTb
1396 2036 M
3852 3786 L
stroke
1.000 UL
LTb
1396 2036 M
34 24 V
3852 3786 M
-34 -24 V
stroke
0.200 UL
LTb
1884 1791 M
4340 3542 L
stroke
1.000 UL
LTb
1884 1791 M
34 24 V
4340 3542 M
-34 -24 V
stroke
0.200 UL
LTb
2372 1546 M
4828 3297 L
stroke
1.000 UL
LTb
2372 1546 M
34 25 V
4828 3297 M
-34 -24 V
stroke
0.200 UL
LTb
2860 1302 M
5316 3052 L
stroke
1.000 UL
LTb
2860 1302 M
34 24 V
5316 3052 M
-34 -24 V
stroke
0.200 UL
LTb
3348 1057 M
5804 2807 L
stroke
1.000 UL
LTb
3348 1057 M
34 24 V
5804 2807 M
-34 -24 V
stroke
0.200 UL
LTb
3835 812 M
6292 2562 L
stroke
1.000 UL
LTb
3835 812 M
34 24 V
6292 2562 M
-34 -24 V
stroke
0.200 UL
LTb
3835 812 M
908 2281 L
stroke
1.000 UL
LTb
3835 812 M
-48 24 V
908 2281 M
48 -24 V
stroke
0.200 UL
LTb
4244 1104 M
1318 2573 L
stroke
1.000 UL
LTb
4244 1104 M
-48 24 V
1318 2573 M
48 -25 V
stroke
0.200 UL
LTb
4654 1396 M
1727 2864 L
stroke
1.000 UL
LTb
4654 1396 M
-48 24 V
1727 2864 M
48 -24 V
stroke
0.200 UL
LTb
5063 1687 M
2137 3156 L
stroke
1.000 UL
LTb
5063 1687 M
-48 24 V
2137 3156 M
48 -24 V
stroke
0.200 UL
LTb
5473 1979 M
2546 3448 L
stroke
1.000 UL
LTb
5473 1979 M
-48 24 V
2546 3448 M
48 -24 V
stroke
0.200 UL
LTb
5882 2271 M
2956 3739 L
stroke
1.000 UL
LTb
5882 2271 M
-48 24 V
2956 3739 M
48 -24 V
stroke
0.200 UL
LTb
6292 2562 M
3365 4031 L
stroke
1.000 UL
LTb
6292 2562 M
-48 25 V
3365 4031 M
48 -24 V
908 2281 M
63 0 V
-63 565 R
63 0 V
-63 566 R
63 0 V
-63 565 R
63 0 V
-63 564 R
63 0 V
-63 566 R
63 0 V
-63 565 R
63 0 V
-63 566 R
63 0 V
1.000 UP
1.000 UP
stroke
0.58 0.00 0.83 C 908 6026 Pls
990 5824 Pls
1072 5676 Pls
1154 5580 Pls
1236 5439 Pls
1318 5277 Pls
1400 5191 Pls
1481 5090 Pls
1563 5017 Pls
1645 5004 Pls
1727 4935 Pls
1809 4895 Pls
1891 4868 Pls
1973 4829 Pls
2055 4808 Pls
2137 4772 Pls
2218 4746 Pls
2300 4740 Pls
2382 4749 Pls
2464 4741 Pls
2546 4730 Pls
2628 4708 Pls
2710 4700 Pls
2792 4710 Pls
2874 4712 Pls
2956 4713 Pls
3037 4727 Pls
3119 4744 Pls
3201 4762 Pls
3283 4770 Pls
3365 4799 Pls
1006 5594 Pls
1088 5464 Pls
1170 5296 Pls
1251 5206 Pls
1333 5101 Pls
1415 4994 Pls
1497 4904 Pls
1579 4821 Pls
1661 4780 Pls
1743 4783 Pls
1825 4732 Pls
1907 4676 Pls
1989 4678 Pls
2070 4646 Pls
2152 4625 Pls
2234 4608 Pls
2316 4608 Pls
2398 4601 Pls
2480 4606 Pls
2562 4597 Pls
2644 4600 Pls
2726 4583 Pls
2807 4580 Pls
2889 4576 Pls
2971 4590 Pls
3053 4590 Pls
3135 4607 Pls
3217 4633 Pls
3299 4656 Pls
3381 4668 Pls
3463 4705 Pls
1103 5177 Pls
1185 5128 Pls
1267 4966 Pls
1349 4885 Pls
1431 4797 Pls
1513 4720 Pls
1595 4690 Pls
1677 4638 Pls
1759 4598 Pls
1840 4606 Pls
1922 4546 Pls
2004 4511 Pls
2086 4500 Pls
2168 4488 Pls
2250 4481 Pls
2332 4462 Pls
2414 4439 Pls
2496 4449 Pls
2577 4444 Pls
2659 4463 Pls
2741 4471 Pls
2823 4462 Pls
2905 4460 Pls
2987 4465 Pls
3069 4479 Pls
3151 4492 Pls
3233 4506 Pls
3314 4534 Pls
3396 4550 Pls
3478 4568 Pls
3560 4615 Pls
1201 4869 Pls
1283 4806 Pls
1365 4752 Pls
1447 4648 Pls
1529 4575 Pls
1610 4544 Pls
1692 4504 Pls
1774 4473 Pls
1856 4433 Pls
1938 4449 Pls
2020 4368 Pls
2102 4363 Pls
2184 4349 Pls
2266 4348 Pls
2347 4355 Pls
2429 4324 Pls
2511 4295 Pls
2593 4319 Pls
2675 4326 Pls
2757 4334 Pls
2839 4349 Pls
2921 4352 Pls
3003 4332 Pls
3085 4358 Pls
3166 4380 Pls
3248 4398 Pls
3330 4412 Pls
3412 4438 Pls
3494 4475 Pls
3576 4502 Pls
3657 4544 Pls
1299 4569 Pls
1380 4519 Pls
1462 4486 Pls
1544 4411 Pls
1626 4378 Pls
1708 4358 Pls
1790 4305 Pls
1872 4289 Pls
1954 4263 Pls
2036 4240 Pls
2118 4210 Pls
2199 4213 Pls
2281 4219 Pls
2363 4219 Pls
2445 4201 Pls
2527 4212 Pls
2609 4212 Pls
2691 4228 Pls
2773 4225 Pls
2855 4243 Pls
2936 4245 Pls
3018 4240 Pls
3100 4238 Pls
3182 4267 Pls
3264 4301 Pls
3346 4315 Pls
3428 4321 Pls
3510 4354 Pls
3592 4411 Pls
3672 4429 Pls
3754 4461 Pls
1396 4347 Pls
1478 4289 Pls
1560 4259 Pls
1642 4232 Pls
1724 4173 Pls
1806 4173 Pls
1888 4134 Pls
1969 4105 Pls
2051 4098 Pls
2133 4100 Pls
2215 4069 Pls
2297 4077 Pls
2379 4078 Pls
2461 4082 Pls
2543 4085 Pls
2625 4077 Pls
2706 4083 Pls
2788 4109 Pls
2870 4121 Pls
2952 4117 Pls
3034 4145 Pls
3116 4143 Pls
3198 4155 Pls
3280 4187 Pls
3362 4211 Pls
3443 4227 Pls
3525 4261 Pls
3606 4295 Pls
3688 4336 Pls
3770 4350 Pls
3852 4387 Pls
1494 4155 Pls
1576 4070 Pls
1658 4069 Pls
1739 4011 Pls
1821 3928 Pls
1903 3931 Pls
1985 3943 Pls
2067 3932 Pls
2149 3933 Pls
2231 3953 Pls
2313 3934 Pls
2395 3943 Pls
2476 3937 Pls
2558 3946 Pls
2640 3976 Pls
2722 3970 Pls
2804 3983 Pls
2886 3995 Pls
2968 4008 Pls
3050 4030 Pls
3132 4041 Pls
3214 4059 Pls
3295 4067 Pls
3377 4096 Pls
3459 4121 Pls
3541 4149 Pls
3622 4177 Pls
3704 4213 Pls
3786 4257 Pls
3868 4269 Pls
3950 4314 Pls
1591 3893 Pls
1673 3831 Pls
1755 3788 Pls
1837 3810 Pls
1919 3759 Pls
2001 3759 Pls
2083 3778 Pls
2165 3778 Pls
2247 3795 Pls
2328 3812 Pls
2410 3792 Pls
2492 3788 Pls
2574 3811 Pls
2656 3819 Pls
2738 3831 Pls
2820 3837 Pls
2902 3857 Pls
2984 3878 Pls
3065 3906 Pls
3147 3934 Pls
3229 3957 Pls
3311 3953 Pls
3393 3978 Pls
3475 4009 Pls
3557 4036 Pls
3638 4071 Pls
3720 4099 Pls
3801 4136 Pls
3883 4188 Pls
3965 4214 Pls
4047 4248 Pls
1689 3680 Pls
1771 3663 Pls
1853 3643 Pls
1935 3627 Pls
2017 3615 Pls
2098 3621 Pls
2180 3630 Pls
2262 3642 Pls
2344 3650 Pls
2426 3683 Pls
2508 3677 Pls
2590 3693 Pls
2672 3703 Pls
2754 3692 Pls
2835 3719 Pls
2917 3731 Pls
2999 3757 Pls
3081 3787 Pls
3163 3806 Pls
3245 3833 Pls
3327 3846 Pls
3409 3871 Pls
3491 3893 Pls
3572 3930 Pls
3653 3961 Pls
3735 3991 Pls
3817 4022 Pls
3899 4070 Pls
3981 4103 Pls
4063 4133 Pls
4145 4182 Pls
1787 3545 Pls
1868 3501 Pls
1950 3511 Pls
2032 3473 Pls
2114 3479 Pls
2196 3491 Pls
2278 3512 Pls
2360 3505 Pls
2442 3528 Pls
2524 3555 Pls
2605 3560 Pls
2687 3568 Pls
2769 3584 Pls
2851 3588 Pls
2933 3608 Pls
3015 3644 Pls
3097 3665 Pls
3179 3678 Pls
3261 3705 Pls
3343 3742 Pls
3424 3768 Pls
3506 3795 Pls
3588 3818 Pls
3669 3850 Pls
3751 3881 Pls
3833 3920 Pls
3915 3970 Pls
3997 4002 Pls
4079 4045 Pls
4160 4062 Pls
4242 4107 Pls
1884 3342 Pls
1966 3333 Pls
2048 3330 Pls
2130 3350 Pls
2212 3346 Pls
2294 3340 Pls
2376 3344 Pls
2457 3394 Pls
2539 3370 Pls
2621 3393 Pls
2703 3421 Pls
2785 3447 Pls
2867 3468 Pls
2949 3487 Pls
3031 3509 Pls
3113 3534 Pls
3194 3543 Pls
3276 3588 Pls
3358 3623 Pls
3440 3661 Pls
3522 3689 Pls
3603 3706 Pls
3685 3731 Pls
3767 3775 Pls
3849 3810 Pls
3930 3845 Pls
4012 3887 Pls
4094 3927 Pls
4176 3970 Pls
4258 3998 Pls
4340 4047 Pls
1982 3194 Pls
2064 3232 Pls
2146 3224 Pls
2227 3231 Pls
2309 3245 Pls
2391 3240 Pls
2473 3255 Pls
2555 3257 Pls
2637 3275 Pls
2719 3298 Pls
2801 3322 Pls
2883 3348 Pls
2964 3376 Pls
3046 3393 Pls
3128 3399 Pls
3210 3438 Pls
3292 3475 Pls
3374 3512 Pls
3456 3539 Pls
3538 3580 Pls
3619 3604 Pls
3700 3629 Pls
3782 3661 Pls
3864 3698 Pls
3946 3741 Pls
4028 3774 Pls
4110 3813 Pls
4192 3859 Pls
4274 3900 Pls
4356 3934 Pls
4437 3982 Pls
2079 3094 Pls
2161 3103 Pls
2243 3093 Pls
2325 3095 Pls
2407 3108 Pls
2489 3118 Pls
2571 3142 Pls
2653 3162 Pls
2734 3181 Pls
2816 3210 Pls
2898 3235 Pls
2980 3270 Pls
3062 3283 Pls
3144 3302 Pls
3226 3325 Pls
3308 3367 Pls
3390 3396 Pls
3472 3430 Pls
3553 3466 Pls
3634 3513 Pls
3716 3534 Pls
3798 3562 Pls
3880 3593 Pls
3962 3629 Pls
4044 3670 Pls
4126 3704 Pls
4208 3742 Pls
4289 3792 Pls
4371 3834 Pls
4453 3864 Pls
4535 3914 Pls
2177 2915 Pls
2259 2962 Pls
2341 2935 Pls
2423 2956 Pls
2505 2967 Pls
2586 2997 Pls
2668 3029 Pls
2750 3056 Pls
2832 3078 Pls
2914 3115 Pls
2996 3140 Pls
3078 3168 Pls
3160 3197 Pls
3242 3225 Pls
3323 3247 Pls
3405 3269 Pls
3487 3315 Pls
3569 3346 Pls
3650 3384 Pls
3732 3426 Pls
3814 3461 Pls
3896 3497 Pls
3978 3514 Pls
4059 3552 Pls
4141 3592 Pls
4223 3632 Pls
4305 3669 Pls
4387 3712 Pls
4469 3765 Pls
4551 3797 Pls
4633 3835 Pls
2275 2836 Pls
2356 2842 Pls
2438 2845 Pls
2520 2853 Pls
2602 2876 Pls
2684 2903 Pls
2766 2918 Pls
2848 2957 Pls
2930 2978 Pls
3012 3018 Pls
3093 3041 Pls
3175 3075 Pls
3257 3107 Pls
3339 3138 Pls
3421 3163 Pls
3503 3190 Pls
3585 3228 Pls
3666 3271 Pls
3748 3307 Pls
3829 3347 Pls
3911 3388 Pls
3993 3413 Pls
4075 3444 Pls
4157 3472 Pls
4239 3514 Pls
4321 3549 Pls
4403 3600 Pls
4485 3641 Pls
4566 3691 Pls
4648 3719 Pls
4730 3765 Pls
2372 2683 Pls
2454 2708 Pls
2536 2739 Pls
2618 2754 Pls
2700 2767 Pls
2782 2809 Pls
2863 2837 Pls
2945 2860 Pls
3027 2894 Pls
3109 2937 Pls
3191 2955 Pls
3273 2986 Pls
3355 3013 Pls
3437 3052 Pls
3519 3072 Pls
3600 3106 Pls
3681 3149 Pls
3763 3188 Pls
3845 3234 Pls
3927 3275 Pls
4009 3310 Pls
4091 3340 Pls
4173 3368 Pls
4255 3406 Pls
4337 3448 Pls
4418 3470 Pls
4500 3520 Pls
4582 3578 Pls
4664 3622 Pls
4746 3657 Pls
4828 3697 Pls
2470 2586 Pls
2552 2604 Pls
2634 2647 Pls
2715 2664 Pls
2797 2672 Pls
2879 2707 Pls
2961 2734 Pls
3043 2776 Pls
3125 2819 Pls
3207 2857 Pls
3289 2867 Pls
3371 2894 Pls
3452 2933 Pls
3534 2972 Pls
3615 2997 Pls
3697 3031 Pls
3779 3076 Pls
3861 3112 Pls
3943 3153 Pls
4025 3196 Pls
4107 3229 Pls
4188 3266 Pls
4270 3296 Pls
4352 3334 Pls
4434 3382 Pls
4516 3401 Pls
4598 3447 Pls
4680 3508 Pls
4762 3559 Pls
4844 3575 Pls
4925 3628 Pls
2567 2491 Pls
2649 2522 Pls
2731 2531 Pls
2813 2564 Pls
2895 2589 Pls
2977 2631 Pls
3059 2663 Pls
3141 2701 Pls
3222 2735 Pls
3304 2770 Pls
3386 2795 Pls
3468 2816 Pls
3550 2862 Pls
3631 2897 Pls
3713 2937 Pls
3795 2964 Pls
3877 3007 Pls
3958 3047 Pls
4040 3090 Pls
4122 3135 Pls
4204 3168 Pls
4286 3198 Pls
4368 3230 Pls
4450 3265 Pls
4532 3311 Pls
4614 3350 Pls
4695 3396 Pls
4777 3446 Pls
4859 3492 Pls
4941 3524 Pls
5023 3573 Pls
2665 2393 Pls
2747 2429 Pls
2829 2430 Pls
2911 2477 Pls
2992 2520 Pls
3074 2551 Pls
3156 2567 Pls
3238 2601 Pls
3320 2644 Pls
3402 2691 Pls
3484 2714 Pls
3566 2748 Pls
3647 2776 Pls
3728 2816 Pls
3810 2850 Pls
3892 2896 Pls
3974 2927 Pls
4056 2969 Pls
4138 3012 Pls
4220 3061 Pls
4302 3096 Pls
4384 3132 Pls
4466 3161 Pls
4547 3199 Pls
4629 3246 Pls
4711 3290 Pls
4793 3336 Pls
4875 3381 Pls
4957 3426 Pls
5039 3456 Pls
5121 3514 Pls
2763 2303 Pls
2844 2335 Pls
2926 2365 Pls
3008 2404 Pls
3090 2430 Pls
3172 2463 Pls
3254 2496 Pls
3336 2518 Pls
3418 2576 Pls
3500 2624 Pls
3581 2631 Pls
3662 2672 Pls
3744 2708 Pls
3826 2743 Pls
3908 2780 Pls
3990 2830 Pls
4072 2866 Pls
4154 2902 Pls
4236 2948 Pls
4317 2991 Pls
4399 3028 Pls
4481 3062 Pls
4563 3095 Pls
4645 3132 Pls
4727 3183 Pls
4809 3221 Pls
4891 3276 Pls
4973 3318 Pls
5054 3369 Pls
5136 3406 Pls
5218 3454 Pls
2860 2213 Pls
2942 2246 Pls
3024 2270 Pls
3106 2312 Pls
3188 2357 Pls
3270 2388 Pls
3351 2418 Pls
3433 2439 Pls
3515 2475 Pls
3597 2530 Pls
3678 2556 Pls
3760 2595 Pls
3842 2632 Pls
3924 2674 Pls
4006 2709 Pls
4087 2746 Pls
4169 2786 Pls
4251 2826 Pls
4333 2867 Pls
4415 2915 Pls
4497 2957 Pls
4579 2994 Pls
4661 3027 Pls
4743 3066 Pls
4824 3115 Pls
4906 3157 Pls
4988 3207 Pls
5070 3254 Pls
5152 3299 Pls
5234 3339 Pls
5316 3390 Pls
2958 2131 Pls
3040 2157 Pls
3121 2180 Pls
3203 2214 Pls
3285 2241 Pls
3367 2288 Pls
3449 2328 Pls
3531 2356 Pls
3612 2401 Pls
3694 2446 Pls
3776 2472 Pls
3857 2511 Pls
3939 2549 Pls
4021 2591 Pls
4103 2614 Pls
4185 2664 Pls
4267 2710 Pls
4349 2757 Pls
4431 2799 Pls
4513 2850 Pls
4595 2880 Pls
4676 2918 Pls
4758 2956 Pls
4840 3003 Pls
4922 3050 Pls
5004 3093 Pls
5086 3142 Pls
5168 3191 Pls
5250 3243 Pls
5332 3290 Pls
5413 3336 Pls
3055 2029 Pls
3137 2070 Pls
3219 2084 Pls
3301 2132 Pls
3383 2163 Pls
3465 2201 Pls
3547 2227 Pls
3628 2281 Pls
3709 2324 Pls
3791 2362 Pls
3873 2385 Pls
3955 2428 Pls
4037 2466 Pls
4119 2511 Pls
4201 2536 Pls
4283 2577 Pls
4365 2620 Pls
4446 2668 Pls
4528 2711 Pls
4610 2761 Pls
4692 2803 Pls
4774 2846 Pls
4856 2887 Pls
4938 2931 Pls
5020 2977 Pls
5102 3027 Pls
5183 3074 Pls
5265 3127 Pls
5347 3175 Pls
5429 3218 Pls
5511 3268 Pls
3153 1927 Pls
3235 1972 Pls
3317 1995 Pls
3399 2003 Pls
3480 2060 Pls
3562 2120 Pls
3643 2160 Pls
3725 2190 Pls
3807 2240 Pls
3889 2276 Pls
3971 2307 Pls
4053 2351 Pls
4135 2381 Pls
4216 2433 Pls
4298 2455 Pls
4380 2505 Pls
4462 2552 Pls
4544 2595 Pls
4626 2641 Pls
4708 2690 Pls
4790 2729 Pls
4872 2775 Pls
4953 2818 Pls
5035 2866 Pls
5117 2917 Pls
5199 2962 Pls
5281 3013 Pls
5363 3066 Pls
5445 3110 Pls
5527 3158 Pls
5609 3207 Pls
3250 1856 Pls
3332 1887 Pls
3414 1921 Pls
3496 1953 Pls
3578 1991 Pls
3659 2039 Pls
3741 2080 Pls
3823 2128 Pls
3905 2164 Pls
3986 2214 Pls
4068 2239 Pls
4150 2263 Pls
4232 2307 Pls
4314 2352 Pls
4396 2391 Pls
4478 2440 Pls
4560 2485 Pls
4642 2534 Pls
4724 2576 Pls
4805 2623 Pls
4887 2666 Pls
4969 2718 Pls
5051 2765 Pls
5133 2806 Pls
5215 2856 Pls
5297 2902 Pls
5379 2953 Pls
5461 3006 Pls
5542 3053 Pls
5624 3099 Pls
5706 3152 Pls
3348 1766 Pls
3430 1796 Pls
3512 1828 Pls
3594 1867 Pls
3675 1899 Pls
3757 1946 Pls
3838 1988 Pls
3920 2038 Pls
4002 2083 Pls
4084 2129 Pls
4166 2147 Pls
4248 2191 Pls
4330 2239 Pls
4412 2286 Pls
4494 2323 Pls
4575 2361 Pls
4657 2416 Pls
4739 2463 Pls
4821 2512 Pls
4903 2566 Pls
4985 2611 Pls
5067 2656 Pls
5149 2701 Pls
5231 2745 Pls
5312 2799 Pls
5394 2845 Pls
5476 2893 Pls
5558 2948 Pls
5640 2997 Pls
5722 3041 Pls
5804 3088 Pls
3446 1697 Pls
3528 1725 Pls
3608 1754 Pls
3690 1785 Pls
3772 1828 Pls
3854 1878 Pls
3936 1924 Pls
4018 1966 Pls
4100 2006 Pls
4182 2056 Pls
4264 2085 Pls
4345 2132 Pls
4427 2180 Pls
4509 2222 Pls
4591 2266 Pls
4673 2308 Pls
4755 2356 Pls
4837 2403 Pls
4919 2460 Pls
5001 2510 Pls
5082 2552 Pls
5164 2602 Pls
5246 2644 Pls
5328 2693 Pls
5410 2739 Pls
5492 2786 Pls
5574 2837 Pls
5656 2887 Pls
5738 2936 Pls
5820 2975 Pls
5901 3024 Pls
3543 1616 Pls
3624 1641 Pls
3706 1652 Pls
3788 1716 Pls
3870 1754 Pls
3952 1797 Pls
4034 1831 Pls
4115 1875 Pls
4197 1928 Pls
4279 1972 Pls
4361 2001 Pls
4443 2051 Pls
4525 2092 Pls
4607 2145 Pls
4689 2192 Pls
4771 2242 Pls
4853 2292 Pls
4934 2343 Pls
5016 2396 Pls
5098 2446 Pls
5180 2487 Pls
5262 2535 Pls
5344 2585 Pls
5426 2631 Pls
5508 2676 Pls
5590 2723 Pls
5671 2772 Pls
5753 2824 Pls
5835 2873 Pls
5917 2912 Pls
5999 2964 Pls
3640 1543 Pls
3722 1570 Pls
3804 1585 Pls
3886 1637 Pls
3967 1678 Pls
4049 1724 Pls
4131 1763 Pls
4213 1811 Pls
4295 1855 Pls
4377 1905 Pls
4459 1934 Pls
4541 1985 Pls
4623 2034 Pls
4704 2086 Pls
4786 2123 Pls
4868 2176 Pls
4950 2221 Pls
5032 2277 Pls
5114 2332 Pls
5196 2382 Pls
5278 2427 Pls
5360 2474 Pls
5441 2522 Pls
5523 2566 Pls
5605 2613 Pls
5687 2659 Pls
5769 2713 Pls
5851 2760 Pls
5933 2808 Pls
6015 2849 Pls
6097 2903 Pls
3737 1427 Pls
3819 1470 Pls
3901 1509 Pls
3983 1548 Pls
4065 1599 Pls
4147 1636 Pls
4229 1679 Pls
4311 1722 Pls
4393 1774 Pls
4474 1831 Pls
4556 1872 Pls
4638 1910 Pls
4720 1964 Pls
4802 2015 Pls
4884 2060 Pls
4966 2108 Pls
5048 2152 Pls
5130 2207 Pls
5211 2263 Pls
5293 2311 Pls
5375 2355 Pls
5457 2398 Pls
5539 2456 Pls
5621 2496 Pls
5703 2545 Pls
5785 2591 Pls
5867 2639 Pls
5949 2687 Pls
6030 2737 Pls
6112 2784 Pls
6194 2836 Pls
3835 1363 Pls
3917 1393 Pls
3999 1443 Pls
4081 1476 Pls
4163 1505 Pls
4244 1559 Pls
4326 1608 Pls
4408 1667 Pls
4490 1715 Pls
4572 1767 Pls
4654 1804 Pls
4736 1851 Pls
4818 1902 Pls
4900 1954 Pls
4982 1991 Pls
5063 2044 Pls
5145 2087 Pls
5227 2148 Pls
5309 2201 Pls
5391 2251 Pls
5473 2296 Pls
5555 2343 Pls
5637 2392 Pls
5719 2435 Pls
5800 2480 Pls
5882 2527 Pls
5964 2578 Pls
6046 2628 Pls
6128 2681 Pls
6210 2721 Pls
6292 2776 Pls
1.000 UL
LTb
LCb setrgbcolor
LTb
6292 2562 M
3835 812 L
908 2281 M
3835 812 L
1.000 UP
stroke
grestore
end
showpage
%%Trailer
