set terminal epslatex
set output 'exc1_3_4_timeout_checksum_err/protocol4/exc1_3_4_timeout_checksum_err.tex'
set xlabel 'Timeout [s]'
input_file='exc1_3_4_timeout_checksum_err/protocol4/result.dat'
set key spacing 3.0
set key font ",8"
set ylabel 'Accepted Payloads '
set logscale x 10
plot input_file u 1:2 w l title '\scriptsize{Chk-sum Error 0 \%}', input_file u 1:3 w l title '\scriptsize{Chk-sum Error 3 \%}', input_file u 1:4 w l title '\scriptsize{Chk-sum Error 6 \%}', input_file u 1:5 w l title '\scriptsize{Chk-sum Error 9 \%}', input_file u 1:6 w l title '\scriptsize{Chk-sum Error 12 \%}', input_file u 1:7 w l title '\scriptsize{Chk-sum Error 15 \%}', input_file u 1:8 w l title '\scriptsize{Chk-sum Error 18 \%}', input_file u 1:9 w l title '\scriptsize{Chk-sum Error 21 \%}'
