%!PS-Adobe-2.0 EPSF-2.0
%%Title: exc2_5_6_3d_lost_checksum_err_retransmitted/protocol6/exc2_5_6_3d_lost_checksum_err_retransmitted.tex
%%Creator: gnuplot 5.0 patchlevel 1
%%CreationDate: Mon Nov  2 08:08:43 2015
%%DocumentFonts: 
%%BoundingBox: 50 50 410 302
%%EndComments
%%BeginProlog
/gnudict 256 dict def
gnudict begin
%
% The following true/false flags may be edited by hand if desired.
% The unit line width and grayscale image gamma correction may also be changed.
%
/Color false def
/Blacktext true def
/Solid false def
/Dashlength 1 def
/Landscape false def
/Level1 false def
/Level3 false def
/Rounded false def
/ClipToBoundingBox false def
/SuppressPDFMark false def
/TransparentPatterns false def
/gnulinewidth 5.000 def
/userlinewidth gnulinewidth def
/Gamma 1.0 def
/BackgroundColor {-1.000 -1.000 -1.000} def
%
/vshift -73 def
/dl1 {
  10.0 Dashlength userlinewidth gnulinewidth div mul mul mul
  Rounded { currentlinewidth 0.75 mul sub dup 0 le { pop 0.01 } if } if
} def
/dl2 {
  10.0 Dashlength userlinewidth gnulinewidth div mul mul mul
  Rounded { currentlinewidth 0.75 mul add } if
} def
/hpt_ 31.5 def
/vpt_ 31.5 def
/hpt hpt_ def
/vpt vpt_ def
/doclip {
  ClipToBoundingBox {
    newpath 50 50 moveto 410 50 lineto 410 302 lineto 50 302 lineto closepath
    clip
  } if
} def
%
% Gnuplot Prolog Version 5.0 (Dec 2014)
%
%/SuppressPDFMark true def
%
/M {moveto} bind def
/L {lineto} bind def
/R {rmoveto} bind def
/V {rlineto} bind def
/N {newpath moveto} bind def
/Z {closepath} bind def
/C {setrgbcolor} bind def
/f {rlineto fill} bind def
/g {setgray} bind def
/Gshow {show} def   % May be redefined later in the file to support UTF-8
/vpt2 vpt 2 mul def
/hpt2 hpt 2 mul def
/Lshow {currentpoint stroke M 0 vshift R 
	Blacktext {gsave 0 setgray textshow grestore} {textshow} ifelse} def
/Rshow {currentpoint stroke M dup stringwidth pop neg vshift R
	Blacktext {gsave 0 setgray textshow grestore} {textshow} ifelse} def
/Cshow {currentpoint stroke M dup stringwidth pop -2 div vshift R 
	Blacktext {gsave 0 setgray textshow grestore} {textshow} ifelse} def
/UP {dup vpt_ mul /vpt exch def hpt_ mul /hpt exch def
  /hpt2 hpt 2 mul def /vpt2 vpt 2 mul def} def
/DL {Color {setrgbcolor Solid {pop []} if 0 setdash}
 {pop pop pop 0 setgray Solid {pop []} if 0 setdash} ifelse} def
/BL {stroke userlinewidth 2 mul setlinewidth
	Rounded {1 setlinejoin 1 setlinecap} if} def
/AL {stroke userlinewidth 2 div setlinewidth
	Rounded {1 setlinejoin 1 setlinecap} if} def
/UL {dup gnulinewidth mul /userlinewidth exch def
	dup 1 lt {pop 1} if 10 mul /udl exch def} def
/PL {stroke userlinewidth setlinewidth
	Rounded {1 setlinejoin 1 setlinecap} if} def
3.8 setmiterlimit
% Classic Line colors (version 5.0)
/LCw {1 1 1} def
/LCb {0 0 0} def
/LCa {0 0 0} def
/LC0 {1 0 0} def
/LC1 {0 1 0} def
/LC2 {0 0 1} def
/LC3 {1 0 1} def
/LC4 {0 1 1} def
/LC5 {1 1 0} def
/LC6 {0 0 0} def
/LC7 {1 0.3 0} def
/LC8 {0.5 0.5 0.5} def
% Default dash patterns (version 5.0)
/LTw {PL [] 1 setgray} def
/LTb {BL [] LCb DL} def
/LTa {AL [1 udl mul 2 udl mul] 0 setdash LCa setrgbcolor} def
/LT0 {PL [] LC0 DL} def
/LT1 {PL [2 dl1 3 dl2] LC1 DL} def
/LT2 {PL [1 dl1 1.5 dl2] LC2 DL} def
/LT3 {PL [6 dl1 2 dl2 1 dl1 2 dl2] LC3 DL} def
/LT4 {PL [1 dl1 2 dl2 6 dl1 2 dl2 1 dl1 2 dl2] LC4 DL} def
/LT5 {PL [4 dl1 2 dl2] LC5 DL} def
/LT6 {PL [1.5 dl1 1.5 dl2 1.5 dl1 1.5 dl2 1.5 dl1 6 dl2] LC6 DL} def
/LT7 {PL [3 dl1 3 dl2 1 dl1 3 dl2] LC7 DL} def
/LT8 {PL [2 dl1 2 dl2 2 dl1 6 dl2] LC8 DL} def
/SL {[] 0 setdash} def
/Pnt {stroke [] 0 setdash gsave 1 setlinecap M 0 0 V stroke grestore} def
/Dia {stroke [] 0 setdash 2 copy vpt add M
  hpt neg vpt neg V hpt vpt neg V
  hpt vpt V hpt neg vpt V closepath stroke
  Pnt} def
/Pls {stroke [] 0 setdash vpt sub M 0 vpt2 V
  currentpoint stroke M
  hpt neg vpt neg R hpt2 0 V stroke
 } def
/Box {stroke [] 0 setdash 2 copy exch hpt sub exch vpt add M
  0 vpt2 neg V hpt2 0 V 0 vpt2 V
  hpt2 neg 0 V closepath stroke
  Pnt} def
/Crs {stroke [] 0 setdash exch hpt sub exch vpt add M
  hpt2 vpt2 neg V currentpoint stroke M
  hpt2 neg 0 R hpt2 vpt2 V stroke} def
/TriU {stroke [] 0 setdash 2 copy vpt 1.12 mul add M
  hpt neg vpt -1.62 mul V
  hpt 2 mul 0 V
  hpt neg vpt 1.62 mul V closepath stroke
  Pnt} def
/Star {2 copy Pls Crs} def
/BoxF {stroke [] 0 setdash exch hpt sub exch vpt add M
  0 vpt2 neg V hpt2 0 V 0 vpt2 V
  hpt2 neg 0 V closepath fill} def
/TriUF {stroke [] 0 setdash vpt 1.12 mul add M
  hpt neg vpt -1.62 mul V
  hpt 2 mul 0 V
  hpt neg vpt 1.62 mul V closepath fill} def
/TriD {stroke [] 0 setdash 2 copy vpt 1.12 mul sub M
  hpt neg vpt 1.62 mul V
  hpt 2 mul 0 V
  hpt neg vpt -1.62 mul V closepath stroke
  Pnt} def
/TriDF {stroke [] 0 setdash vpt 1.12 mul sub M
  hpt neg vpt 1.62 mul V
  hpt 2 mul 0 V
  hpt neg vpt -1.62 mul V closepath fill} def
/DiaF {stroke [] 0 setdash vpt add M
  hpt neg vpt neg V hpt vpt neg V
  hpt vpt V hpt neg vpt V closepath fill} def
/Pent {stroke [] 0 setdash 2 copy gsave
  translate 0 hpt M 4 {72 rotate 0 hpt L} repeat
  closepath stroke grestore Pnt} def
/PentF {stroke [] 0 setdash gsave
  translate 0 hpt M 4 {72 rotate 0 hpt L} repeat
  closepath fill grestore} def
/Circle {stroke [] 0 setdash 2 copy
  hpt 0 360 arc stroke Pnt} def
/CircleF {stroke [] 0 setdash hpt 0 360 arc fill} def
/C0 {BL [] 0 setdash 2 copy moveto vpt 90 450 arc} bind def
/C1 {BL [] 0 setdash 2 copy moveto
	2 copy vpt 0 90 arc closepath fill
	vpt 0 360 arc closepath} bind def
/C2 {BL [] 0 setdash 2 copy moveto
	2 copy vpt 90 180 arc closepath fill
	vpt 0 360 arc closepath} bind def
/C3 {BL [] 0 setdash 2 copy moveto
	2 copy vpt 0 180 arc closepath fill
	vpt 0 360 arc closepath} bind def
/C4 {BL [] 0 setdash 2 copy moveto
	2 copy vpt 180 270 arc closepath fill
	vpt 0 360 arc closepath} bind def
/C5 {BL [] 0 setdash 2 copy moveto
	2 copy vpt 0 90 arc
	2 copy moveto
	2 copy vpt 180 270 arc closepath fill
	vpt 0 360 arc} bind def
/C6 {BL [] 0 setdash 2 copy moveto
	2 copy vpt 90 270 arc closepath fill
	vpt 0 360 arc closepath} bind def
/C7 {BL [] 0 setdash 2 copy moveto
	2 copy vpt 0 270 arc closepath fill
	vpt 0 360 arc closepath} bind def
/C8 {BL [] 0 setdash 2 copy moveto
	2 copy vpt 270 360 arc closepath fill
	vpt 0 360 arc closepath} bind def
/C9 {BL [] 0 setdash 2 copy moveto
	2 copy vpt 270 450 arc closepath fill
	vpt 0 360 arc closepath} bind def
/C10 {BL [] 0 setdash 2 copy 2 copy moveto vpt 270 360 arc closepath fill
	2 copy moveto
	2 copy vpt 90 180 arc closepath fill
	vpt 0 360 arc closepath} bind def
/C11 {BL [] 0 setdash 2 copy moveto
	2 copy vpt 0 180 arc closepath fill
	2 copy moveto
	2 copy vpt 270 360 arc closepath fill
	vpt 0 360 arc closepath} bind def
/C12 {BL [] 0 setdash 2 copy moveto
	2 copy vpt 180 360 arc closepath fill
	vpt 0 360 arc closepath} bind def
/C13 {BL [] 0 setdash 2 copy moveto
	2 copy vpt 0 90 arc closepath fill
	2 copy moveto
	2 copy vpt 180 360 arc closepath fill
	vpt 0 360 arc closepath} bind def
/C14 {BL [] 0 setdash 2 copy moveto
	2 copy vpt 90 360 arc closepath fill
	vpt 0 360 arc} bind def
/C15 {BL [] 0 setdash 2 copy vpt 0 360 arc closepath fill
	vpt 0 360 arc closepath} bind def
/Rec {newpath 4 2 roll moveto 1 index 0 rlineto 0 exch rlineto
	neg 0 rlineto closepath} bind def
/Square {dup Rec} bind def
/Bsquare {vpt sub exch vpt sub exch vpt2 Square} bind def
/S0 {BL [] 0 setdash 2 copy moveto 0 vpt rlineto BL Bsquare} bind def
/S1 {BL [] 0 setdash 2 copy vpt Square fill Bsquare} bind def
/S2 {BL [] 0 setdash 2 copy exch vpt sub exch vpt Square fill Bsquare} bind def
/S3 {BL [] 0 setdash 2 copy exch vpt sub exch vpt2 vpt Rec fill Bsquare} bind def
/S4 {BL [] 0 setdash 2 copy exch vpt sub exch vpt sub vpt Square fill Bsquare} bind def
/S5 {BL [] 0 setdash 2 copy 2 copy vpt Square fill
	exch vpt sub exch vpt sub vpt Square fill Bsquare} bind def
/S6 {BL [] 0 setdash 2 copy exch vpt sub exch vpt sub vpt vpt2 Rec fill Bsquare} bind def
/S7 {BL [] 0 setdash 2 copy exch vpt sub exch vpt sub vpt vpt2 Rec fill
	2 copy vpt Square fill Bsquare} bind def
/S8 {BL [] 0 setdash 2 copy vpt sub vpt Square fill Bsquare} bind def
/S9 {BL [] 0 setdash 2 copy vpt sub vpt vpt2 Rec fill Bsquare} bind def
/S10 {BL [] 0 setdash 2 copy vpt sub vpt Square fill 2 copy exch vpt sub exch vpt Square fill
	Bsquare} bind def
/S11 {BL [] 0 setdash 2 copy vpt sub vpt Square fill 2 copy exch vpt sub exch vpt2 vpt Rec fill
	Bsquare} bind def
/S12 {BL [] 0 setdash 2 copy exch vpt sub exch vpt sub vpt2 vpt Rec fill Bsquare} bind def
/S13 {BL [] 0 setdash 2 copy exch vpt sub exch vpt sub vpt2 vpt Rec fill
	2 copy vpt Square fill Bsquare} bind def
/S14 {BL [] 0 setdash 2 copy exch vpt sub exch vpt sub vpt2 vpt Rec fill
	2 copy exch vpt sub exch vpt Square fill Bsquare} bind def
/S15 {BL [] 0 setdash 2 copy Bsquare fill Bsquare} bind def
/D0 {gsave translate 45 rotate 0 0 S0 stroke grestore} bind def
/D1 {gsave translate 45 rotate 0 0 S1 stroke grestore} bind def
/D2 {gsave translate 45 rotate 0 0 S2 stroke grestore} bind def
/D3 {gsave translate 45 rotate 0 0 S3 stroke grestore} bind def
/D4 {gsave translate 45 rotate 0 0 S4 stroke grestore} bind def
/D5 {gsave translate 45 rotate 0 0 S5 stroke grestore} bind def
/D6 {gsave translate 45 rotate 0 0 S6 stroke grestore} bind def
/D7 {gsave translate 45 rotate 0 0 S7 stroke grestore} bind def
/D8 {gsave translate 45 rotate 0 0 S8 stroke grestore} bind def
/D9 {gsave translate 45 rotate 0 0 S9 stroke grestore} bind def
/D10 {gsave translate 45 rotate 0 0 S10 stroke grestore} bind def
/D11 {gsave translate 45 rotate 0 0 S11 stroke grestore} bind def
/D12 {gsave translate 45 rotate 0 0 S12 stroke grestore} bind def
/D13 {gsave translate 45 rotate 0 0 S13 stroke grestore} bind def
/D14 {gsave translate 45 rotate 0 0 S14 stroke grestore} bind def
/D15 {gsave translate 45 rotate 0 0 S15 stroke grestore} bind def
/DiaE {stroke [] 0 setdash vpt add M
  hpt neg vpt neg V hpt vpt neg V
  hpt vpt V hpt neg vpt V closepath stroke} def
/BoxE {stroke [] 0 setdash exch hpt sub exch vpt add M
  0 vpt2 neg V hpt2 0 V 0 vpt2 V
  hpt2 neg 0 V closepath stroke} def
/TriUE {stroke [] 0 setdash vpt 1.12 mul add M
  hpt neg vpt -1.62 mul V
  hpt 2 mul 0 V
  hpt neg vpt 1.62 mul V closepath stroke} def
/TriDE {stroke [] 0 setdash vpt 1.12 mul sub M
  hpt neg vpt 1.62 mul V
  hpt 2 mul 0 V
  hpt neg vpt -1.62 mul V closepath stroke} def
/PentE {stroke [] 0 setdash gsave
  translate 0 hpt M 4 {72 rotate 0 hpt L} repeat
  closepath stroke grestore} def
/CircE {stroke [] 0 setdash 
  hpt 0 360 arc stroke} def
/Opaque {gsave closepath 1 setgray fill grestore 0 setgray closepath} def
/DiaW {stroke [] 0 setdash vpt add M
  hpt neg vpt neg V hpt vpt neg V
  hpt vpt V hpt neg vpt V Opaque stroke} def
/BoxW {stroke [] 0 setdash exch hpt sub exch vpt add M
  0 vpt2 neg V hpt2 0 V 0 vpt2 V
  hpt2 neg 0 V Opaque stroke} def
/TriUW {stroke [] 0 setdash vpt 1.12 mul add M
  hpt neg vpt -1.62 mul V
  hpt 2 mul 0 V
  hpt neg vpt 1.62 mul V Opaque stroke} def
/TriDW {stroke [] 0 setdash vpt 1.12 mul sub M
  hpt neg vpt 1.62 mul V
  hpt 2 mul 0 V
  hpt neg vpt -1.62 mul V Opaque stroke} def
/PentW {stroke [] 0 setdash gsave
  translate 0 hpt M 4 {72 rotate 0 hpt L} repeat
  Opaque stroke grestore} def
/CircW {stroke [] 0 setdash 
  hpt 0 360 arc Opaque stroke} def
/BoxFill {gsave Rec 1 setgray fill grestore} def
/Density {
  /Fillden exch def
  currentrgbcolor
  /ColB exch def /ColG exch def /ColR exch def
  /ColR ColR Fillden mul Fillden sub 1 add def
  /ColG ColG Fillden mul Fillden sub 1 add def
  /ColB ColB Fillden mul Fillden sub 1 add def
  ColR ColG ColB setrgbcolor} def
/BoxColFill {gsave Rec PolyFill} def
/PolyFill {gsave Density fill grestore grestore} def
/h {rlineto rlineto rlineto gsave closepath fill grestore} bind def
%
% PostScript Level 1 Pattern Fill routine for rectangles
% Usage: x y w h s a XX PatternFill
%	x,y = lower left corner of box to be filled
%	w,h = width and height of box
%	  a = angle in degrees between lines and x-axis
%	 XX = 0/1 for no/yes cross-hatch
%
/PatternFill {gsave /PFa [ 9 2 roll ] def
  PFa 0 get PFa 2 get 2 div add PFa 1 get PFa 3 get 2 div add translate
  PFa 2 get -2 div PFa 3 get -2 div PFa 2 get PFa 3 get Rec
  TransparentPatterns {} {gsave 1 setgray fill grestore} ifelse
  clip
  currentlinewidth 0.5 mul setlinewidth
  /PFs PFa 2 get dup mul PFa 3 get dup mul add sqrt def
  0 0 M PFa 5 get rotate PFs -2 div dup translate
  0 1 PFs PFa 4 get div 1 add floor cvi
	{PFa 4 get mul 0 M 0 PFs V} for
  0 PFa 6 get ne {
	0 1 PFs PFa 4 get div 1 add floor cvi
	{PFa 4 get mul 0 2 1 roll M PFs 0 V} for
 } if
  stroke grestore} def
%
/languagelevel where
 {pop languagelevel} {1} ifelse
dup 2 lt
	{/InterpretLevel1 true def
	 /InterpretLevel3 false def}
	{/InterpretLevel1 Level1 def
	 2 gt
	    {/InterpretLevel3 Level3 def}
	    {/InterpretLevel3 false def}
	 ifelse }
 ifelse
%
% PostScript level 2 pattern fill definitions
%
/Level2PatternFill {
/Tile8x8 {/PaintType 2 /PatternType 1 /TilingType 1 /BBox [0 0 8 8] /XStep 8 /YStep 8}
	bind def
/KeepColor {currentrgbcolor [/Pattern /DeviceRGB] setcolorspace} bind def
<< Tile8x8
 /PaintProc {0.5 setlinewidth pop 0 0 M 8 8 L 0 8 M 8 0 L stroke} 
>> matrix makepattern
/Pat1 exch def
<< Tile8x8
 /PaintProc {0.5 setlinewidth pop 0 0 M 8 8 L 0 8 M 8 0 L stroke
	0 4 M 4 8 L 8 4 L 4 0 L 0 4 L stroke}
>> matrix makepattern
/Pat2 exch def
<< Tile8x8
 /PaintProc {0.5 setlinewidth pop 0 0 M 0 8 L
	8 8 L 8 0 L 0 0 L fill}
>> matrix makepattern
/Pat3 exch def
<< Tile8x8
 /PaintProc {0.5 setlinewidth pop -4 8 M 8 -4 L
	0 12 M 12 0 L stroke}
>> matrix makepattern
/Pat4 exch def
<< Tile8x8
 /PaintProc {0.5 setlinewidth pop -4 0 M 8 12 L
	0 -4 M 12 8 L stroke}
>> matrix makepattern
/Pat5 exch def
<< Tile8x8
 /PaintProc {0.5 setlinewidth pop -2 8 M 4 -4 L
	0 12 M 8 -4 L 4 12 M 10 0 L stroke}
>> matrix makepattern
/Pat6 exch def
<< Tile8x8
 /PaintProc {0.5 setlinewidth pop -2 0 M 4 12 L
	0 -4 M 8 12 L 4 -4 M 10 8 L stroke}
>> matrix makepattern
/Pat7 exch def
<< Tile8x8
 /PaintProc {0.5 setlinewidth pop 8 -2 M -4 4 L
	12 0 M -4 8 L 12 4 M 0 10 L stroke}
>> matrix makepattern
/Pat8 exch def
<< Tile8x8
 /PaintProc {0.5 setlinewidth pop 0 -2 M 12 4 L
	-4 0 M 12 8 L -4 4 M 8 10 L stroke}
>> matrix makepattern
/Pat9 exch def
/Pattern1 {PatternBgnd KeepColor Pat1 setpattern} bind def
/Pattern2 {PatternBgnd KeepColor Pat2 setpattern} bind def
/Pattern3 {PatternBgnd KeepColor Pat3 setpattern} bind def
/Pattern4 {PatternBgnd KeepColor Landscape {Pat5} {Pat4} ifelse setpattern} bind def
/Pattern5 {PatternBgnd KeepColor Landscape {Pat4} {Pat5} ifelse setpattern} bind def
/Pattern6 {PatternBgnd KeepColor Landscape {Pat9} {Pat6} ifelse setpattern} bind def
/Pattern7 {PatternBgnd KeepColor Landscape {Pat8} {Pat7} ifelse setpattern} bind def
} def
%
%
%End of PostScript Level 2 code
%
/PatternBgnd {
  TransparentPatterns {} {gsave 1 setgray fill grestore} ifelse
} def
%
% Substitute for Level 2 pattern fill codes with
% grayscale if Level 2 support is not selected.
%
/Level1PatternFill {
/Pattern1 {0.250 Density} bind def
/Pattern2 {0.500 Density} bind def
/Pattern3 {0.750 Density} bind def
/Pattern4 {0.125 Density} bind def
/Pattern5 {0.375 Density} bind def
/Pattern6 {0.625 Density} bind def
/Pattern7 {0.875 Density} bind def
} def
%
% Now test for support of Level 2 code
%
Level1 {Level1PatternFill} {Level2PatternFill} ifelse
%
/Symbol-Oblique /Symbol findfont [1 0 .167 1 0 0] makefont
dup length dict begin {1 index /FID eq {pop pop} {def} ifelse} forall
currentdict end definefont pop
%
Level1 SuppressPDFMark or 
{} {
/SDict 10 dict def
systemdict /pdfmark known not {
  userdict /pdfmark systemdict /cleartomark get put
} if
SDict begin [
  /Title (exc2_5_6_3d_lost_checksum_err_retransmitted/protocol6/exc2_5_6_3d_lost_checksum_err_retransmitted.tex)
  /Subject (gnuplot plot)
  /Creator (gnuplot 5.0 patchlevel 1)
  /Author (asiron)
%  /Producer (gnuplot)
%  /Keywords ()
  /CreationDate (Mon Nov  2 08:08:43 2015)
  /DOCINFO pdfmark
end
} ifelse
end
%
% Support for boxed text - Ethan A Merritt May 2005
%
/InitTextBox { userdict /TBy2 3 -1 roll put userdict /TBx2 3 -1 roll put
           userdict /TBy1 3 -1 roll put userdict /TBx1 3 -1 roll put
	   /Boxing true def } def
/ExtendTextBox { Boxing
    { gsave dup false charpath pathbbox
      dup TBy2 gt {userdict /TBy2 3 -1 roll put} {pop} ifelse
      dup TBx2 gt {userdict /TBx2 3 -1 roll put} {pop} ifelse
      dup TBy1 lt {userdict /TBy1 3 -1 roll put} {pop} ifelse
      dup TBx1 lt {userdict /TBx1 3 -1 roll put} {pop} ifelse
      grestore } if } def
/PopTextBox { newpath TBx1 TBxmargin sub TBy1 TBymargin sub M
               TBx1 TBxmargin sub TBy2 TBymargin add L
	       TBx2 TBxmargin add TBy2 TBymargin add L
	       TBx2 TBxmargin add TBy1 TBymargin sub L closepath } def
/DrawTextBox { PopTextBox stroke /Boxing false def} def
/FillTextBox { gsave PopTextBox 1 1 1 setrgbcolor fill grestore /Boxing false def} def
0 0 0 0 InitTextBox
/TBxmargin 20 def
/TBymargin 20 def
/Boxing false def
/textshow { ExtendTextBox Gshow } def
%
%%EndProlog
%%Page: 1 1
gnudict begin
gsave
doclip
50 50 translate
0.050 0.050 scale
0 setgray
newpath
1.000 UL
LTb
LCb setrgbcolor
LTb
1.000 UL
LTb
1046 1384 M
2916 2413 L
6154 1819 M
2916 2413 L
1046 1384 M
0 2057 V
0 -2057 R
50 28 V
2916 2413 M
-50 -27 V
1586 1285 M
49 28 V
3456 2314 M
-50 -27 V
2126 1186 M
49 28 V
3995 2215 M
-50 -27 V
2666 1087 M
49 28 V
4534 2116 M
-49 -27 V
3205 988 M
50 28 V
5074 2017 M
-49 -27 V
3744 889 M
50 28 V
5614 1918 M
-49 -27 V
4284 790 M
50 28 V
6154 1819 M
-50 -27 V
4284 790 M
-55 10 V
1046 1384 M
55 -10 V
4596 962 M
-55 10 V
1358 1556 M
54 -10 V
4907 1133 M
-54 10 V
1669 1727 M
55 -10 V
5219 1305 M
-55 10 V
1981 1899 M
55 -10 V
5531 1476 M
-55 10 V
2293 2070 M
54 -10 V
5842 1648 M
-54 10 V
2604 2242 M
55 -10 V
6154 1819 M
-55 10 V
2916 2413 M
55 -10 V
1046 2070 M
63 0 V
-63 229 R
63 0 V
-63 228 R
63 0 V
-63 228 R
63 0 V
-63 229 R
63 0 V
-63 228 R
63 0 V
-63 229 R
63 0 V
1.000 UP
1.000 UP
stroke
0.58 0.00 0.83 C 1046 2070 Pls
1108 2107 Pls
1171 2146 Pls
1233 2180 Pls
1295 2240 Pls
1358 2309 Pls
1420 2341 Pls
1482 2415 Pls
1545 2465 Pls
1607 2518 Pls
1669 2614 Pls
1732 2652 Pls
1794 2707 Pls
1856 2808 Pls
1919 2886 Pls
1981 2936 Pls
2043 3030 Pls
2106 3080 Pls
2168 3124 Pls
2230 3242 Pls
2293 3295 Pls
2355 3388 Pls
2417 3425 Pls
2480 3504 Pls
2542 3640 Pls
2604 3694 Pls
2667 3726 Pls
2729 3765 Pls
2791 3855 Pls
2854 3945 Pls
2916 4019 Pls
1154 2060 Pls
1216 2107 Pls
1279 2168 Pls
1341 2225 Pls
1403 2246 Pls
1466 2300 Pls
1528 2376 Pls
1590 2417 Pls
1653 2468 Pls
1715 2591 Pls
1777 2614 Pls
1840 2698 Pls
1902 2804 Pls
1964 2872 Pls
2027 2871 Pls
2089 3047 Pls
2151 3048 Pls
2214 3104 Pls
2276 3239 Pls
2338 3234 Pls
2401 3368 Pls
2463 3395 Pls
2525 3437 Pls
2588 3532 Pls
2650 3562 Pls
2712 3637 Pls
2775 3720 Pls
2837 3810 Pls
2899 3868 Pls
2962 3955 Pls
3024 4025 Pls
1262 2045 Pls
1324 2097 Pls
1387 2154 Pls
1449 2214 Pls
1511 2262 Pls
1574 2341 Pls
1636 2391 Pls
1698 2473 Pls
1761 2525 Pls
1823 2568 Pls
1885 2676 Pls
1948 2718 Pls
2010 2779 Pls
2072 2834 Pls
2135 2970 Pls
2197 2998 Pls
2259 3095 Pls
2322 3104 Pls
2384 3191 Pls
2446 3315 Pls
2509 3333 Pls
2571 3415 Pls
2633 3492 Pls
2696 3528 Pls
2758 3617 Pls
2820 3697 Pls
2883 3748 Pls
2945 3810 Pls
3007 3872 Pls
3070 3931 Pls
3132 3988 Pls
1370 2045 Pls
1432 2114 Pls
1495 2160 Pls
1557 2190 Pls
1619 2291 Pls
1682 2310 Pls
1744 2376 Pls
1806 2468 Pls
1869 2540 Pls
1931 2588 Pls
1993 2652 Pls
2056 2753 Pls
2118 2784 Pls
2180 2887 Pls
2243 2964 Pls
2305 3031 Pls
2367 3074 Pls
2430 3134 Pls
2492 3216 Pls
2554 3300 Pls
2617 3342 Pls
2679 3439 Pls
2741 3499 Pls
2804 3537 Pls
2866 3622 Pls
2928 3666 Pls
2991 3787 Pls
3053 3842 Pls
3115 3883 Pls
3178 3943 Pls
3240 3954 Pls
1478 2057 Pls
1540 2113 Pls
1603 2165 Pls
1665 2228 Pls
1727 2275 Pls
1790 2309 Pls
1852 2417 Pls
1914 2469 Pls
1977 2570 Pls
2039 2633 Pls
2101 2640 Pls
2164 2741 Pls
2226 2843 Pls
2288 2845 Pls
2351 2934 Pls
2413 3046 Pls
2475 3124 Pls
2538 3107 Pls
2600 3267 Pls
2662 3288 Pls
2725 3373 Pls
2787 3433 Pls
2849 3487 Pls
2912 3568 Pls
2974 3609 Pls
3036 3688 Pls
3099 3737 Pls
3161 3827 Pls
3223 3868 Pls
3286 3883 Pls
3348 3992 Pls
1586 2058 Pls
1648 2134 Pls
1711 2212 Pls
1773 2248 Pls
1835 2321 Pls
1898 2362 Pls
1960 2440 Pls
2022 2496 Pls
2085 2561 Pls
2147 2630 Pls
2209 2699 Pls
2272 2760 Pls
2334 2825 Pls
2396 2899 Pls
2459 2963 Pls
2521 3067 Pls
2583 3109 Pls
2646 3184 Pls
2708 3239 Pls
2770 3285 Pls
2833 3384 Pls
2895 3443 Pls
2957 3500 Pls
3020 3560 Pls
3082 3641 Pls
3144 3693 Pls
3207 3755 Pls
3269 3794 Pls
3331 3879 Pls
3394 3930 Pls
3456 3980 Pls
1694 2058 Pls
1756 2126 Pls
1818 2186 Pls
1881 2260 Pls
1943 2307 Pls
2005 2399 Pls
2068 2460 Pls
2130 2496 Pls
2192 2605 Pls
2255 2655 Pls
2317 2714 Pls
2379 2795 Pls
2442 2895 Pls
2504 2883 Pls
2566 3012 Pls
2629 3057 Pls
2691 3100 Pls
2753 3214 Pls
2816 3263 Pls
2878 3313 Pls
2940 3406 Pls
3003 3433 Pls
3065 3489 Pls
3127 3564 Pls
3190 3612 Pls
3252 3667 Pls
3314 3746 Pls
3377 3832 Pls
3439 3884 Pls
3501 3918 Pls
3564 3947 Pls
1802 2051 Pls
1864 2154 Pls
1926 2185 Pls
1989 2262 Pls
2051 2286 Pls
2113 2408 Pls
2176 2467 Pls
2238 2521 Pls
2300 2608 Pls
2363 2681 Pls
2425 2757 Pls
2487 2786 Pls
2550 2878 Pls
2612 2963 Pls
2674 3017 Pls
2737 3060 Pls
2799 3122 Pls
2861 3177 Pls
2924 3267 Pls
2986 3320 Pls
3048 3372 Pls
3111 3437 Pls
3173 3500 Pls
3235 3552 Pls
3298 3648 Pls
3360 3663 Pls
3422 3691 Pls
3485 3786 Pls
3547 3845 Pls
3608 3964 Pls
3671 3953 Pls
1910 2077 Pls
1972 2124 Pls
2034 2213 Pls
2097 2269 Pls
2159 2327 Pls
2221 2425 Pls
2284 2465 Pls
2346 2588 Pls
2408 2621 Pls
2471 2634 Pls
2533 2726 Pls
2595 2834 Pls
2658 2868 Pls
2720 2940 Pls
2782 3009 Pls
2845 3085 Pls
2907 3134 Pls
2969 3215 Pls
3032 3231 Pls
3094 3323 Pls
3156 3397 Pls
3219 3410 Pls
3281 3513 Pls
3343 3556 Pls
3406 3624 Pls
3468 3668 Pls
3530 3710 Pls
3593 3777 Pls
3654 3862 Pls
3716 3924 Pls
3779 3973 Pls
2018 2128 Pls
2080 2156 Pls
2142 2233 Pls
2205 2303 Pls
2267 2350 Pls
2329 2437 Pls
2392 2495 Pls
2454 2581 Pls
2516 2599 Pls
2579 2719 Pls
2641 2759 Pls
2703 2810 Pls
2766 2857 Pls
2828 2928 Pls
2890 3014 Pls
2953 3077 Pls
3015 3123 Pls
3077 3211 Pls
3140 3275 Pls
3202 3365 Pls
3264 3392 Pls
3327 3454 Pls
3389 3525 Pls
3451 3584 Pls
3514 3622 Pls
3576 3675 Pls
3637 3772 Pls
3700 3799 Pls
3762 3822 Pls
3824 3875 Pls
3887 3951 Pls
2126 2086 Pls
2188 2198 Pls
2250 2201 Pls
2313 2309 Pls
2375 2387 Pls
2437 2467 Pls
2500 2521 Pls
2562 2585 Pls
2624 2668 Pls
2687 2712 Pls
2749 2727 Pls
2811 2854 Pls
2874 2948 Pls
2936 2953 Pls
2998 3013 Pls
3061 3107 Pls
3123 3146 Pls
3185 3236 Pls
3248 3313 Pls
3310 3317 Pls
3372 3400 Pls
3435 3418 Pls
3497 3522 Pls
3559 3548 Pls
3621 3648 Pls
3683 3670 Pls
3745 3748 Pls
3808 3813 Pls
3870 3823 Pls
3932 3885 Pls
3995 3970 Pls
2234 2091 Pls
2296 2151 Pls
2358 2221 Pls
2421 2372 Pls
2483 2358 Pls
2545 2457 Pls
2608 2536 Pls
2670 2605 Pls
2732 2683 Pls
2795 2737 Pls
2857 2733 Pls
2919 2866 Pls
2982 2914 Pls
3044 2993 Pls
3106 2973 Pls
3169 3065 Pls
3231 3175 Pls
3293 3193 Pls
3356 3269 Pls
3418 3319 Pls
3480 3394 Pls
3543 3444 Pls
3604 3498 Pls
3666 3560 Pls
3729 3631 Pls
3791 3698 Pls
3853 3759 Pls
3916 3814 Pls
3978 3869 Pls
4040 3894 Pls
4103 3968 Pls
2342 2157 Pls
2404 2175 Pls
2466 2257 Pls
2529 2358 Pls
2591 2424 Pls
2653 2519 Pls
2716 2550 Pls
2778 2622 Pls
2840 2705 Pls
2903 2715 Pls
2965 2813 Pls
3027 2844 Pls
3090 2943 Pls
3152 2979 Pls
3214 3018 Pls
3277 3099 Pls
3339 3176 Pls
3401 3205 Pls
3464 3292 Pls
3526 3331 Pls
3588 3361 Pls
3650 3433 Pls
3712 3514 Pls
3774 3565 Pls
3837 3652 Pls
3899 3713 Pls
3961 3740 Pls
4024 3776 Pls
4086 3838 Pls
4148 3901 Pls
4211 3913 Pls
2450 2165 Pls
2512 2217 Pls
2574 2274 Pls
2637 2350 Pls
2699 2414 Pls
2761 2509 Pls
2824 2523 Pls
2886 2653 Pls
2948 2688 Pls
3011 2731 Pls
3073 2795 Pls
3135 2851 Pls
3198 2889 Pls
3260 2984 Pls
3322 3031 Pls
3385 3064 Pls
3447 3162 Pls
3509 3205 Pls
3572 3275 Pls
3633 3324 Pls
3695 3414 Pls
3758 3428 Pls
3820 3540 Pls
3882 3560 Pls
3945 3591 Pls
4007 3691 Pls
4069 3754 Pls
4132 3788 Pls
4194 3825 Pls
4256 3870 Pls
4319 3941 Pls
2558 2194 Pls
2620 2211 Pls
2682 2301 Pls
2745 2355 Pls
2807 2432 Pls
2869 2534 Pls
2932 2559 Pls
2994 2674 Pls
3056 2682 Pls
3119 2749 Pls
3181 2829 Pls
3243 2852 Pls
3306 2913 Pls
3368 3001 Pls
3430 3037 Pls
3493 3119 Pls
3555 3177 Pls
3616 3185 Pls
3679 3250 Pls
3741 3291 Pls
3803 3400 Pls
3866 3439 Pls
3928 3493 Pls
3990 3554 Pls
4053 3601 Pls
4115 3640 Pls
4177 3709 Pls
4240 3783 Pls
4302 3829 Pls
4364 3878 Pls
4427 3943 Pls
2666 2176 Pls
2728 2242 Pls
2790 2325 Pls
2853 2384 Pls
2915 2454 Pls
2977 2536 Pls
3040 2563 Pls
3102 2658 Pls
3164 2698 Pls
3227 2746 Pls
3289 2781 Pls
3351 2859 Pls
3414 2938 Pls
3476 2995 Pls
3538 3057 Pls
3600 3144 Pls
3662 3172 Pls
3724 3233 Pls
3786 3261 Pls
3849 3385 Pls
3911 3402 Pls
3973 3439 Pls
4036 3495 Pls
4098 3555 Pls
4161 3640 Pls
4223 3673 Pls
4285 3736 Pls
4347 3771 Pls
4410 3858 Pls
4472 3914 Pls
4534 3945 Pls
2773 2226 Pls
2836 2291 Pls
2898 2346 Pls
2960 2439 Pls
3023 2457 Pls
3085 2565 Pls
3147 2617 Pls
3210 2690 Pls
3272 2712 Pls
3334 2737 Pls
3397 2840 Pls
3459 2857 Pls
3521 2932 Pls
3584 3034 Pls
3645 3036 Pls
3707 3093 Pls
3770 3167 Pls
3832 3266 Pls
3894 3291 Pls
3957 3377 Pls
4019 3393 Pls
4081 3483 Pls
4144 3512 Pls
4206 3573 Pls
4268 3618 Pls
4331 3652 Pls
4393 3726 Pls
4455 3753 Pls
4518 3821 Pls
4580 3880 Pls
4642 3940 Pls
2881 2198 Pls
2944 2296 Pls
3006 2365 Pls
3068 2366 Pls
3131 2494 Pls
3193 2544 Pls
3255 2608 Pls
3318 2670 Pls
3380 2701 Pls
3442 2740 Pls
3505 2846 Pls
3567 2929 Pls
3628 2930 Pls
3691 2989 Pls
3753 3033 Pls
3815 3101 Pls
3878 3199 Pls
3940 3229 Pls
4002 3284 Pls
4065 3328 Pls
4127 3398 Pls
4189 3477 Pls
4252 3507 Pls
4314 3561 Pls
4376 3630 Pls
4439 3660 Pls
4501 3726 Pls
4563 3769 Pls
4626 3820 Pls
4688 3867 Pls
4750 3937 Pls
2989 2279 Pls
3052 2321 Pls
3114 2372 Pls
3176 2422 Pls
3239 2503 Pls
3301 2526 Pls
3363 2591 Pls
3426 2694 Pls
3488 2745 Pls
3550 2762 Pls
3612 2844 Pls
3674 2898 Pls
3736 2958 Pls
3799 3026 Pls
3861 3072 Pls
3923 3086 Pls
3986 3148 Pls
4048 3222 Pls
4110 3256 Pls
4173 3351 Pls
4235 3381 Pls
4297 3434 Pls
4360 3519 Pls
4422 3539 Pls
4484 3621 Pls
4547 3658 Pls
4609 3723 Pls
4671 3774 Pls
4734 3802 Pls
4796 3870 Pls
4858 3918 Pls
3097 2276 Pls
3160 2327 Pls
3222 2393 Pls
3284 2452 Pls
3347 2502 Pls
3409 2566 Pls
3471 2650 Pls
3534 2721 Pls
3596 2749 Pls
3657 2784 Pls
3720 2854 Pls
3782 2910 Pls
3844 2982 Pls
3907 3030 Pls
3969 3080 Pls
4031 3144 Pls
4094 3158 Pls
4156 3257 Pls
4218 3276 Pls
4281 3313 Pls
4343 3429 Pls
4405 3422 Pls
4468 3515 Pls
4530 3574 Pls
4592 3576 Pls
4655 3675 Pls
4717 3737 Pls
4779 3756 Pls
4842 3770 Pls
4904 3846 Pls
4966 3903 Pls
3205 2264 Pls
3268 2336 Pls
3330 2423 Pls
3392 2480 Pls
3455 2527 Pls
3517 2568 Pls
3579 2654 Pls
3641 2660 Pls
3703 2789 Pls
3765 2793 Pls
3828 2870 Pls
3890 2906 Pls
3952 2994 Pls
4015 3050 Pls
4077 3096 Pls
4139 3135 Pls
4202 3165 Pls
4264 3215 Pls
4326 3304 Pls
4389 3358 Pls
4451 3392 Pls
4513 3451 Pls
4576 3515 Pls
4638 3534 Pls
4700 3628 Pls
4763 3648 Pls
4825 3712 Pls
4887 3732 Pls
4950 3814 Pls
5012 3861 Pls
5074 3901 Pls
3313 2316 Pls
3376 2343 Pls
3438 2430 Pls
3500 2471 Pls
3563 2533 Pls
3624 2570 Pls
3686 2645 Pls
3749 2719 Pls
3811 2762 Pls
3873 2811 Pls
3936 2877 Pls
3998 2926 Pls
4060 2935 Pls
4123 3058 Pls
4185 3122 Pls
4247 3138 Pls
4310 3177 Pls
4372 3224 Pls
4434 3310 Pls
4497 3358 Pls
4559 3401 Pls
4621 3437 Pls
4684 3500 Pls
4746 3550 Pls
4808 3599 Pls
4871 3685 Pls
4933 3689 Pls
4995 3747 Pls
5058 3824 Pls
5120 3838 Pls
5182 3925 Pls
3421 2332 Pls
3484 2355 Pls
3546 2443 Pls
3607 2483 Pls
3670 2539 Pls
3732 2549 Pls
3794 2655 Pls
3857 2737 Pls
3919 2765 Pls
3981 2803 Pls
4044 2872 Pls
4106 2916 Pls
4168 2966 Pls
4231 3029 Pls
4293 3057 Pls
4355 3147 Pls
4418 3230 Pls
4480 3280 Pls
4542 3306 Pls
4605 3338 Pls
4667 3383 Pls
4729 3445 Pls
4792 3475 Pls
4854 3559 Pls
4916 3638 Pls
4979 3629 Pls
5041 3678 Pls
5103 3733 Pls
5166 3791 Pls
5228 3847 Pls
5290 3904 Pls
3529 2339 Pls
3592 2398 Pls
3653 2451 Pls
3715 2485 Pls
3778 2577 Pls
3840 2632 Pls
3902 2651 Pls
3965 2741 Pls
4027 2771 Pls
4089 2827 Pls
4152 2908 Pls
4214 2954 Pls
4276 2981 Pls
4339 3045 Pls
4401 3065 Pls
4463 3120 Pls
4526 3233 Pls
4588 3266 Pls
4650 3310 Pls
4713 3366 Pls
4775 3402 Pls
4837 3470 Pls
4900 3475 Pls
4962 3558 Pls
5024 3601 Pls
5087 3604 Pls
5149 3716 Pls
5211 3744 Pls
5274 3796 Pls
5336 3834 Pls
5398 3897 Pls
3636 2370 Pls
3699 2401 Pls
3761 2409 Pls
3823 2514 Pls
3886 2563 Pls
3948 2569 Pls
4010 2675 Pls
4073 2748 Pls
4135 2798 Pls
4197 2853 Pls
4260 2877 Pls
4322 2928 Pls
4384 2969 Pls
4447 3061 Pls
4509 3120 Pls
4571 3164 Pls
4634 3220 Pls
4696 3252 Pls
4758 3294 Pls
4821 3358 Pls
4883 3402 Pls
4945 3445 Pls
5008 3464 Pls
5070 3543 Pls
5132 3589 Pls
5195 3621 Pls
5257 3680 Pls
5319 3708 Pls
5382 3798 Pls
5444 3805 Pls
5506 3852 Pls
3744 2327 Pls
3806 2417 Pls
3869 2459 Pls
3931 2524 Pls
3993 2565 Pls
4056 2647 Pls
4118 2674 Pls
4180 2716 Pls
4243 2785 Pls
4305 2846 Pls
4367 2889 Pls
4430 2937 Pls
4492 2947 Pls
4554 3010 Pls
4617 3103 Pls
4679 3144 Pls
4741 3185 Pls
4804 3221 Pls
4866 3290 Pls
4928 3380 Pls
4991 3408 Pls
5053 3418 Pls
5115 3462 Pls
5178 3537 Pls
5240 3571 Pls
5302 3624 Pls
5365 3666 Pls
5427 3740 Pls
5489 3765 Pls
5552 3819 Pls
5614 3846 Pls
3852 2362 Pls
3914 2393 Pls
3977 2461 Pls
4039 2535 Pls
4101 2616 Pls
4164 2638 Pls
4226 2684 Pls
4288 2719 Pls
4351 2774 Pls
4413 2845 Pls
4475 2870 Pls
4538 2935 Pls
4600 2979 Pls
4662 3044 Pls
4725 3098 Pls
4787 3156 Pls
4849 3193 Pls
4912 3247 Pls
4974 3279 Pls
5036 3326 Pls
5099 3377 Pls
5161 3442 Pls
5223 3506 Pls
5286 3510 Pls
5348 3561 Pls
5410 3632 Pls
5473 3684 Pls
5535 3723 Pls
5597 3760 Pls
5660 3812 Pls
5722 3858 Pls
3960 2406 Pls
4022 2425 Pls
4085 2469 Pls
4147 2514 Pls
4209 2620 Pls
4272 2631 Pls
4334 2692 Pls
4396 2755 Pls
4459 2792 Pls
4521 2815 Pls
4583 2909 Pls
4646 2953 Pls
4708 2994 Pls
4770 3043 Pls
4833 3098 Pls
4895 3140 Pls
4957 3181 Pls
5020 3229 Pls
5082 3301 Pls
5144 3341 Pls
5207 3387 Pls
5269 3410 Pls
5331 3481 Pls
5394 3538 Pls
5456 3581 Pls
5518 3605 Pls
5581 3656 Pls
5643 3720 Pls
5705 3739 Pls
5768 3798 Pls
5830 3851 Pls
4068 2372 Pls
4130 2445 Pls
4193 2502 Pls
4255 2544 Pls
4317 2581 Pls
4380 2625 Pls
4442 2701 Pls
4504 2732 Pls
4567 2779 Pls
4629 2837 Pls
4691 2856 Pls
4754 2946 Pls
4816 3004 Pls
4878 3040 Pls
4941 3098 Pls
5003 3134 Pls
5065 3193 Pls
5128 3218 Pls
5190 3272 Pls
5252 3304 Pls
5315 3386 Pls
5377 3417 Pls
5439 3444 Pls
5502 3537 Pls
5564 3577 Pls
5626 3632 Pls
5689 3676 Pls
5751 3721 Pls
5813 3749 Pls
5876 3789 Pls
5938 3801 Pls
4176 2338 Pls
4238 2417 Pls
4301 2501 Pls
4363 2496 Pls
4425 2567 Pls
4488 2632 Pls
4550 2666 Pls
4612 2761 Pls
4675 2815 Pls
4737 2859 Pls
4799 2880 Pls
4862 2977 Pls
4924 3018 Pls
4986 3040 Pls
5049 3083 Pls
5111 3121 Pls
5173 3182 Pls
5236 3221 Pls
5298 3257 Pls
5360 3334 Pls
5423 3351 Pls
5485 3447 Pls
5547 3447 Pls
5610 3523 Pls
5672 3579 Pls
5734 3589 Pls
5797 3634 Pls
5859 3673 Pls
5921 3746 Pls
5984 3794 Pls
6046 3813 Pls
4284 2424 Pls
4346 2461 Pls
4409 2499 Pls
4471 2538 Pls
4533 2608 Pls
4596 2615 Pls
4658 2679 Pls
4720 2756 Pls
4783 2798 Pls
4845 2857 Pls
4907 2927 Pls
4970 2923 Pls
5032 2989 Pls
5094 3043 Pls
5157 3090 Pls
5219 3139 Pls
5281 3207 Pls
5344 3203 Pls
5406 3283 Pls
5468 3338 Pls
5531 3365 Pls
5593 3420 Pls
5655 3470 Pls
5718 3508 Pls
5780 3561 Pls
5842 3606 Pls
5905 3650 Pls
5967 3672 Pls
6029 3725 Pls
6092 3768 Pls
6154 3821 Pls
1.000 UL
LTb
LCb setrgbcolor
LTb
6154 1819 M
4284 790 L
1046 1384 M
4284 790 L
1.000 UP
stroke
grestore
end
showpage
%%Trailer
