\BOOKMARK [1][-]{section*.2}{Introduction}{}% 1
\BOOKMARK [1][-]{section*.4}{Exercise 1}{}% 2
\BOOKMARK [1][-]{section*.14}{Exercise 2}{}% 3
\BOOKMARK [1][-]{section*.27}{Exercise 3}{}% 4
\BOOKMARK [1][-]{section*.28}{Exercise 4}{}% 5
\BOOKMARK [1][-]{section*.33}{Exercise 5}{}% 6
\BOOKMARK [1][-]{section*.34}{Exercise 6}{}% 7
\BOOKMARK [1][-]{section*.37}{Appendix A - Simulator Modifications}{}% 8
\BOOKMARK [1][-]{section*.40}{Appendix B - Graph Generation Tool}{}% 9
