\relax 
\providecommand\hyper@newdestlabel[2]{}
\providecommand\zref@newlabel[2]{}
\providecommand\HyperFirstAtBeginDocument{\AtBeginDocument}
\HyperFirstAtBeginDocument{\ifx\hyper@anchor\@undefined
\global\let\oldcontentsline\contentsline
\gdef\contentsline#1#2#3#4{\oldcontentsline{#1}{#2}{#3}}
\global\let\oldnewlabel\newlabel
\gdef\newlabel#1#2{\newlabelxx{#1}#2}
\gdef\newlabelxx#1#2#3#4#5#6{\oldnewlabel{#1}{{#2}{#3}}}
\AtEndDocument{\ifx\hyper@anchor\@undefined
\let\contentsline\oldcontentsline
\let\newlabel\oldnewlabel
\fi}
\fi}
\global\let\hyper@last\relax 
\gdef\HyperFirstAtBeginDocument#1{#1}
\providecommand\HyField@AuxAddToFields[1]{}
\providecommand\HyField@AuxAddToCoFields[2]{}
\@writefile{toc}{\contentsline {section}{Introduction}{3}{section*.2}}
\@writefile{toc}{\contentsline {subsection}{Graph Generation Tool}{3}{section*.3}}
\@writefile{toc}{\contentsline {section}{Exercise 1}{3}{section*.4}}
\@writefile{toc}{\contentsline {subsection}{Protocol 3 - Stop--and--Wait for Noisy Channel}{3}{section*.5}}
\newlabel{p3_1}{{}{3}{Protocol 3 - Stop--and--Wait for Noisy Channel}{section*.5}{}}
\@writefile{lof}{\contentsline {figure}{\numberline {1}{\ignorespaces [Protocol 3] Payloads accepted with respect to timeout and loss packet rate. Checksum error rate is 0.}}{4}{figure.1}}
\newlabel{fig:3_timeout_lost}{{1}{4}{[Protocol 3] Payloads accepted with respect to timeout and loss packet rate. Checksum error rate is 0}{figure.1}{}}
\@writefile{toc}{\contentsline {subsubsection}{P3: Timeout and Loss Package Rate}{4}{section*.6}}
\newlabel{p3_loss}{{}{4}{P3: Timeout and Loss Package Rate}{section*.6}{}}
\@writefile{lof}{\contentsline {figure}{\numberline {2}{\ignorespaces [Protocol 3] Payloads accepted with respect to timeout and checksum error rate. Loss packet rate is 0.}}{5}{figure.2}}
\newlabel{fig:3_timeout_checksum}{{2}{5}{[Protocol 3] Payloads accepted with respect to timeout and checksum error rate. Loss packet rate is 0}{figure.2}{}}
\@writefile{toc}{\contentsline {subsubsection}{P3: Timeout and Checksum Error Rate}{5}{section*.7}}
\newlabel{p3_check}{{}{5}{P3: Timeout and Checksum Error Rate}{section*.7}{}}
\@writefile{toc}{\contentsline {subsubsection}{P3: Both Error Rates}{5}{section*.8}}
\newlabel{p3_3d}{{}{5}{P3: Both Error Rates}{section*.8}{}}
\@writefile{toc}{\contentsline {subsection}{Protocol 4 - One--bit Sliding Window}{5}{section*.9}}
\newlabel{p4_1}{{}{5}{Protocol 4 - One--bit Sliding Window}{section*.9}{}}
\@writefile{lof}{\contentsline {figure}{\numberline {3}{\ignorespaces [Protocol 3] Payloads accepted with respect to loss packet and checksum error rates. Timeout is 50.}}{6}{figure.3}}
\newlabel{fig:3_3d_errors}{{3}{6}{[Protocol 3] Payloads accepted with respect to loss packet and checksum error rates. Timeout is 50}{figure.3}{}}
\@writefile{toc}{\contentsline {subsubsection}{P4: Timeout and Loss Packet Rate}{6}{section*.10}}
\newlabel{p4_loss}{{}{6}{P4: Timeout and Loss Packet Rate}{section*.10}{}}
\@writefile{lof}{\contentsline {figure}{\numberline {4}{\ignorespaces [Protocol 4] Payloads accepted with respect to timeout and loss packet error rate. Checksum error rate is 0.}}{7}{figure.4}}
\newlabel{fig:4_timeout_lost}{{4}{7}{[Protocol 4] Payloads accepted with respect to timeout and loss packet error rate. Checksum error rate is 0}{figure.4}{}}
\@writefile{toc}{\contentsline {subsubsection}{P4: Timeout and Checksum Error Rate}{7}{section*.11}}
\@writefile{toc}{\contentsline {subsubsection}{P4: Both Error Rates}{7}{section*.12}}
\@writefile{lof}{\contentsline {figure}{\numberline {5}{\ignorespaces [Protocol 4] Payloads accepted with respect to timeout and checksum error rate.}}{8}{figure.5}}
\newlabel{fig:4_timeout_checksum}{{5}{8}{[Protocol 4] Payloads accepted with respect to timeout and checksum error rate}{figure.5}{}}
\@writefile{toc}{\contentsline {subsection}{Protocol 3 and 4 - Comparison}{8}{section*.13}}
\@writefile{toc}{\contentsline {section}{Exercise 2}{8}{section*.14}}
\@writefile{toc}{\contentsline {subsection}{Protocol 5 - Go--Back--N}{8}{section*.15}}
\@writefile{lof}{\contentsline {figure}{\numberline {6}{\ignorespaces [Protocol 4] Payloads accepted with respect to loss packet and checksum error rates. Timeout is 50.}}{9}{figure.6}}
\newlabel{fig:4_3d_errors}{{6}{9}{[Protocol 4] Payloads accepted with respect to loss packet and checksum error rates. Timeout is 50}{figure.6}{}}
\@writefile{toc}{\contentsline {subsubsection}{P5: Efficiency with Checksum Error Rate and Timeout}{9}{section*.16}}
\@writefile{lof}{\contentsline {figure}{\numberline {7}{\ignorespaces [Protocol 4] Payloads accepted with respect to timeout and checksum error rate. Loss packet rate is 0.}}{10}{figure.7}}
\newlabel{fig:p_3_4_comparison}{{7}{10}{[Protocol 4] Payloads accepted with respect to timeout and checksum error rate. Loss packet rate is 0}{figure.7}{}}
\@writefile{lof}{\contentsline {figure}{\numberline {8}{\ignorespaces [Protocol 5] Efficiency with respect to Checksum Error Rate and Timeout. Loss packet rate is 0\%.}}{10}{figure.8}}
\newlabel{fig:p_5_chk_eff}{{8}{10}{[Protocol 5] Efficiency with respect to Checksum Error Rate and Timeout. Loss packet rate is 0\%}{figure.8}{}}
\@writefile{lof}{\contentsline {figure}{\numberline {9}{\ignorespaces [Protocol 5] Payloads accepted with respect to Loss Rate and Timeout. Checksum error rate is 0\%.}}{11}{figure.9}}
\newlabel{fig:p_5_loss_pay}{{9}{11}{[Protocol 5] Payloads accepted with respect to Loss Rate and Timeout. Checksum error rate is 0\%}{figure.9}{}}
\@writefile{toc}{\contentsline {subsubsection}{P5: Payloads with Loss Packet Rate and Timeout}{11}{section*.17}}
\@writefile{toc}{\contentsline {subsubsection}{P5: Retransmitted Frames with Checksum Error Rate and Timeout}{11}{section*.18}}
\@writefile{toc}{\contentsline {subsection}{Protocol 5 - Selective Repeat}{11}{section*.19}}
\@writefile{lof}{\contentsline {figure}{\numberline {10}{\ignorespaces [Protocol 5] Frames retransmitted with respect to Checksum Error Rate and Timeout. Loss packet rate is 0\%.}}{12}{figure.10}}
\newlabel{fig:p_5_chk_frames}{{10}{12}{[Protocol 5] Frames retransmitted with respect to Checksum Error Rate and Timeout. Loss packet rate is 0\%}{figure.10}{}}
\@writefile{toc}{\contentsline {subsubsection}{P6: Efficiency with Checksum Error Rate and Timeout}{12}{section*.20}}
\@writefile{toc}{\contentsline {subsubsection}{P6: Payloads with Loss Packet Rate and Timeout}{12}{section*.21}}
\@writefile{toc}{\contentsline {subsubsection}{P6: Retransmitted Frames with Checksum Error Rate and Timeout}{12}{section*.22}}
\@writefile{lof}{\contentsline {figure}{\numberline {11}{\ignorespaces [Protocol 6] Efficiency with respect to Checksum Error Rate and Timeout. Loss packet rate is 0\%.}}{13}{figure.11}}
\newlabel{fig:p_6_chk_eff}{{11}{13}{[Protocol 6] Efficiency with respect to Checksum Error Rate and Timeout. Loss packet rate is 0\%}{figure.11}{}}
\@writefile{lof}{\contentsline {figure}{\numberline {12}{\ignorespaces [Protocol 6] Payloads accepted with respect to Loss Rate and Timeout. Checksum error rate is 0\%.}}{13}{figure.12}}
\newlabel{fig:p_6_loss_pay}{{12}{13}{[Protocol 6] Payloads accepted with respect to Loss Rate and Timeout. Checksum error rate is 0\%}{figure.12}{}}
\@writefile{lof}{\contentsline {figure}{\numberline {13}{\ignorespaces [Protocol 6] Frames retransmitted with respect to Checksum Error Rate and Timeout. Loss packet rate is 0\%.}}{14}{figure.13}}
\newlabel{fig:p_6_chk_frames}{{13}{14}{[Protocol 6] Frames retransmitted with respect to Checksum Error Rate and Timeout. Loss packet rate is 0\%}{figure.13}{}}
\@writefile{toc}{\contentsline {subsection}{Protocol 5 and 6 - Comparison}{14}{section*.23}}
\@writefile{toc}{\contentsline {subsubsection}{P6: Efficiency with Checksum Error Rate and Timeout}{14}{section*.24}}
\@writefile{toc}{\contentsline {subsubsection}{P6: Payloads with Loss Packet Rate and Timeout}{14}{section*.25}}
\@writefile{toc}{\contentsline {subsubsection}{P6: Retransmitted Frames with Checksum Error Rate and Timeout}{14}{section*.26}}
\@writefile{lof}{\contentsline {figure}{\numberline {14}{\ignorespaces [Protocol 5 and 6] Efficiency with respect to Checksum Error Rate and Timeout. Loss packet rate is 0\%.}}{15}{figure.14}}
\newlabel{fig:p_5_6_eff}{{14}{15}{[Protocol 5 and 6] Efficiency with respect to Checksum Error Rate and Timeout. Loss packet rate is 0\%}{figure.14}{}}
\@writefile{lof}{\contentsline {figure}{\numberline {15}{\ignorespaces [Protocol 5 and 6] Payloads with respect to Loss Packet Rate and Timeout. Checksum error rate is 0\%.}}{15}{figure.15}}
\newlabel{fig:p_5_6_pay}{{15}{15}{[Protocol 5 and 6] Payloads with respect to Loss Packet Rate and Timeout. Checksum error rate is 0\%}{figure.15}{}}
\@writefile{lof}{\contentsline {figure}{\numberline {16}{\ignorespaces [Protocol 5 and 6] Retransmitted Frames with respect to Checksum Error Rate and Timeout. Loss packet rate is 0\%.}}{16}{figure.16}}
\newlabel{fig:p_5_6_frames}{{16}{16}{[Protocol 5 and 6] Retransmitted Frames with respect to Checksum Error Rate and Timeout. Loss packet rate is 0\%}{figure.16}{}}
\@writefile{toc}{\contentsline {section}{Exercise 3}{16}{section*.27}}
\@writefile{lof}{\contentsline {figure}{\numberline {17}{\ignorespaces Reordering if statements, worker process}}{16}{figure.17}}
\newlabel{lst:reorder}{{17}{16}{Reordering if statements, worker process}{figure.17}{}}
\@writefile{lof}{\contentsline {figure}{\numberline {18}{\ignorespaces [Protocol 6 and Protocol 6 Reordered] Payloads accepted with respect to Timeout and Checksum Error Rate. Loss packet rate is 0\%.}}{17}{figure.18}}
\newlabel{fig:p_zad3}{{18}{17}{[Protocol 6 and Protocol 6 Reordered] Payloads accepted with respect to Timeout and Checksum Error Rate. Loss packet rate is 0\%}{figure.18}{}}
\@writefile{toc}{\contentsline {section}{Exercise 4}{17}{section*.28}}
\@writefile{toc}{\contentsline {subsection}{Protocol 5 - Optimum for retransmitted frames}{17}{section*.29}}
\@writefile{toc}{\contentsline {subsubsection}{Protocol 5 - Timeout and Checksum Error Rate}{17}{section*.30}}
\@writefile{toc}{\contentsline {subsubsection}{Protocol 6 - Timeout and Checksum Error Rate}{17}{section*.31}}
\@writefile{toc}{\contentsline {subsubsection}{Protocol 6 - Timeout and Loss Packet Rate}{17}{section*.32}}
\@writefile{lof}{\contentsline {figure}{\numberline {19}{\ignorespaces [Protocol 5] Retransmitted Frames with respect to Timeout and Checksum Error Rate. Loss packet rate is 0\%.}}{18}{figure.19}}
\newlabel{fig:p_5_zad_4}{{19}{18}{[Protocol 5] Retransmitted Frames with respect to Timeout and Checksum Error Rate. Loss packet rate is 0\%}{figure.19}{}}
\@writefile{lof}{\contentsline {figure}{\numberline {20}{\ignorespaces [Protocol 6] Retransmitted Frames with respect to Timeout and Checksum Error Rate. Loss packet rate is 0\%.}}{18}{figure.20}}
\newlabel{fig:p_6_zad_4}{{20}{18}{[Protocol 6] Retransmitted Frames with respect to Timeout and Checksum Error Rate. Loss packet rate is 0\%}{figure.20}{}}
\@writefile{lof}{\contentsline {figure}{\numberline {21}{\ignorespaces [Protocol 6] Retransmitted Frames with respect to Timeout and Loss Packet Rate. Loss packet rate is 0\%.}}{19}{figure.21}}
\newlabel{fig:p_6_zad_4_1}{{21}{19}{[Protocol 6] Retransmitted Frames with respect to Timeout and Loss Packet Rate. Loss packet rate is 0\%}{figure.21}{}}
\@writefile{lof}{\contentsline {figure}{\numberline {22}{\ignorespaces Screenshot representing actual real-time of the simulation for sped up and not sped up simulator}}{19}{figure.22}}
\newlabel{fig:screen}{{22}{19}{Screenshot representing actual real-time of the simulation for sped up and not sped up simulator}{figure.22}{}}
\@writefile{toc}{\contentsline {section}{Exercise 5}{19}{section*.33}}
\@writefile{lof}{\contentsline {figure}{\numberline {23}{\ignorespaces [Protocol 5] Retransmitted Frames with respect to Timeout and Delay. Error rates are 10\%.}}{20}{figure.23}}
\newlabel{fig:p_5_zad_6_1}{{23}{20}{[Protocol 5] Retransmitted Frames with respect to Timeout and Delay. Error rates are 10\%}{figure.23}{}}
\@writefile{toc}{\contentsline {section}{Exercise 6}{20}{section*.34}}
\@writefile{toc}{\contentsline {subsection}{Protocol 5 - Accepted Payloads with respect to Timeout and Delay with Constant Error Rates}{20}{section*.35}}
\@writefile{toc}{\contentsline {subsection}{Protocol 6 - Accepted Payloads with respect to Timeout and Delay with Constant Error Rates}{20}{section*.36}}
\@writefile{lof}{\contentsline {figure}{\numberline {24}{\ignorespaces [Protocol 6] Retransmitted Frames with respect to Timeout and Delay. Error rates are 10\%.}}{21}{figure.24}}
\newlabel{fig:p_5_zad_6_2}{{24}{21}{[Protocol 6] Retransmitted Frames with respect to Timeout and Delay. Error rates are 10\%}{figure.24}{}}
\@writefile{toc}{\contentsline {section}{\\Appendix A - Simulator Modifications}{21}{section*.37}}
\newlabel{App:AppendixA}{{}{21}{\\Appendix A - Simulator Modifications}{section*.37}{}}
\@writefile{toc}{\contentsline {subsection}{Exercise 5. Simulation Speed Up}{21}{section*.38}}
\@writefile{lof}{\contentsline {figure}{\numberline {25}{\ignorespaces Simulator speed up, main process}}{22}{figure.25}}
\newlabel{lst:sped_up_1}{{25}{22}{Simulator speed up, main process}{figure.25}{}}
\@writefile{lof}{\contentsline {figure}{\numberline {26}{\ignorespaces Simulator speed up, worker process}}{22}{figure.26}}
\newlabel{lst:sped_up_2}{{26}{22}{Simulator speed up, worker process}{figure.26}{}}
\@writefile{toc}{\contentsline {subsection}{Exercise 6. Adding propagation delay}{22}{section*.39}}
\@writefile{lof}{\contentsline {figure}{\numberline {27}{\ignorespaces Adding propagation delay, worker process}}{23}{figure.27}}
\newlabel{lst:prop_delay_1}{{27}{23}{Adding propagation delay, worker process}{figure.27}{}}
\@writefile{toc}{\contentsline {section}{\\Appendix B - Graph Generation Tool}{23}{section*.40}}
\newlabel{App:AppendixB}{{}{23}{\\Appendix B - Graph Generation Tool}{section*.40}{}}
\@writefile{lol}{\contentsline {lstlisting}{../run\textunderscore sim\textunderscore tests.py}{23}{lstlisting.-5}}
\newlabel{LastPage}{{}{29}{}{page.29}{}}
\xdef\lastpage@lastpage{29}
\xdef\lastpage@lastpageHy{29}
