%!PS-Adobe-2.0 EPSF-2.0
%%Title: exc1_3_4_3d_lost_checksum_err/protocol3/exc1_3_4_3d_lost_checksum_err.tex
%%Creator: gnuplot 5.0 patchlevel 1
%%CreationDate: Mon Nov  2 02:53:49 2015
%%DocumentFonts: 
%%BoundingBox: 50 50 410 482
%%EndComments
%%BeginProlog
/gnudict 256 dict def
gnudict begin
%
% The following true/false flags may be edited by hand if desired.
% The unit line width and grayscale image gamma correction may also be changed.
%
/Color false def
/Blacktext true def
/Solid false def
/Dashlength 1 def
/Landscape false def
/Level1 false def
/Level3 false def
/Rounded false def
/ClipToBoundingBox false def
/SuppressPDFMark false def
/TransparentPatterns false def
/gnulinewidth 5.000 def
/userlinewidth gnulinewidth def
/Gamma 1.0 def
/BackgroundColor {-1.000 -1.000 -1.000} def
%
/vshift -53 def
/dl1 {
  10.0 Dashlength userlinewidth gnulinewidth div mul mul mul
  Rounded { currentlinewidth 0.75 mul sub dup 0 le { pop 0.01 } if } if
} def
/dl2 {
  10.0 Dashlength userlinewidth gnulinewidth div mul mul mul
  Rounded { currentlinewidth 0.75 mul add } if
} def
/hpt_ 31.5 def
/vpt_ 31.5 def
/hpt hpt_ def
/vpt vpt_ def
/doclip {
  ClipToBoundingBox {
    newpath 50 50 moveto 410 50 lineto 410 482 lineto 50 482 lineto closepath
    clip
  } if
} def
%
% Gnuplot Prolog Version 5.0 (Dec 2014)
%
%/SuppressPDFMark true def
%
/M {moveto} bind def
/L {lineto} bind def
/R {rmoveto} bind def
/V {rlineto} bind def
/N {newpath moveto} bind def
/Z {closepath} bind def
/C {setrgbcolor} bind def
/f {rlineto fill} bind def
/g {setgray} bind def
/Gshow {show} def   % May be redefined later in the file to support UTF-8
/vpt2 vpt 2 mul def
/hpt2 hpt 2 mul def
/Lshow {currentpoint stroke M 0 vshift R 
	Blacktext {gsave 0 setgray textshow grestore} {textshow} ifelse} def
/Rshow {currentpoint stroke M dup stringwidth pop neg vshift R
	Blacktext {gsave 0 setgray textshow grestore} {textshow} ifelse} def
/Cshow {currentpoint stroke M dup stringwidth pop -2 div vshift R 
	Blacktext {gsave 0 setgray textshow grestore} {textshow} ifelse} def
/UP {dup vpt_ mul /vpt exch def hpt_ mul /hpt exch def
  /hpt2 hpt 2 mul def /vpt2 vpt 2 mul def} def
/DL {Color {setrgbcolor Solid {pop []} if 0 setdash}
 {pop pop pop 0 setgray Solid {pop []} if 0 setdash} ifelse} def
/BL {stroke userlinewidth 2 mul setlinewidth
	Rounded {1 setlinejoin 1 setlinecap} if} def
/AL {stroke userlinewidth 2 div setlinewidth
	Rounded {1 setlinejoin 1 setlinecap} if} def
/UL {dup gnulinewidth mul /userlinewidth exch def
	dup 1 lt {pop 1} if 10 mul /udl exch def} def
/PL {stroke userlinewidth setlinewidth
	Rounded {1 setlinejoin 1 setlinecap} if} def
3.8 setmiterlimit
% Classic Line colors (version 5.0)
/LCw {1 1 1} def
/LCb {0 0 0} def
/LCa {0 0 0} def
/LC0 {1 0 0} def
/LC1 {0 1 0} def
/LC2 {0 0 1} def
/LC3 {1 0 1} def
/LC4 {0 1 1} def
/LC5 {1 1 0} def
/LC6 {0 0 0} def
/LC7 {1 0.3 0} def
/LC8 {0.5 0.5 0.5} def
% Default dash patterns (version 5.0)
/LTw {PL [] 1 setgray} def
/LTb {BL [] LCb DL} def
/LTa {AL [1 udl mul 2 udl mul] 0 setdash LCa setrgbcolor} def
/LT0 {PL [] LC0 DL} def
/LT1 {PL [2 dl1 3 dl2] LC1 DL} def
/LT2 {PL [1 dl1 1.5 dl2] LC2 DL} def
/LT3 {PL [6 dl1 2 dl2 1 dl1 2 dl2] LC3 DL} def
/LT4 {PL [1 dl1 2 dl2 6 dl1 2 dl2 1 dl1 2 dl2] LC4 DL} def
/LT5 {PL [4 dl1 2 dl2] LC5 DL} def
/LT6 {PL [1.5 dl1 1.5 dl2 1.5 dl1 1.5 dl2 1.5 dl1 6 dl2] LC6 DL} def
/LT7 {PL [3 dl1 3 dl2 1 dl1 3 dl2] LC7 DL} def
/LT8 {PL [2 dl1 2 dl2 2 dl1 6 dl2] LC8 DL} def
/SL {[] 0 setdash} def
/Pnt {stroke [] 0 setdash gsave 1 setlinecap M 0 0 V stroke grestore} def
/Dia {stroke [] 0 setdash 2 copy vpt add M
  hpt neg vpt neg V hpt vpt neg V
  hpt vpt V hpt neg vpt V closepath stroke
  Pnt} def
/Pls {stroke [] 0 setdash vpt sub M 0 vpt2 V
  currentpoint stroke M
  hpt neg vpt neg R hpt2 0 V stroke
 } def
/Box {stroke [] 0 setdash 2 copy exch hpt sub exch vpt add M
  0 vpt2 neg V hpt2 0 V 0 vpt2 V
  hpt2 neg 0 V closepath stroke
  Pnt} def
/Crs {stroke [] 0 setdash exch hpt sub exch vpt add M
  hpt2 vpt2 neg V currentpoint stroke M
  hpt2 neg 0 R hpt2 vpt2 V stroke} def
/TriU {stroke [] 0 setdash 2 copy vpt 1.12 mul add M
  hpt neg vpt -1.62 mul V
  hpt 2 mul 0 V
  hpt neg vpt 1.62 mul V closepath stroke
  Pnt} def
/Star {2 copy Pls Crs} def
/BoxF {stroke [] 0 setdash exch hpt sub exch vpt add M
  0 vpt2 neg V hpt2 0 V 0 vpt2 V
  hpt2 neg 0 V closepath fill} def
/TriUF {stroke [] 0 setdash vpt 1.12 mul add M
  hpt neg vpt -1.62 mul V
  hpt 2 mul 0 V
  hpt neg vpt 1.62 mul V closepath fill} def
/TriD {stroke [] 0 setdash 2 copy vpt 1.12 mul sub M
  hpt neg vpt 1.62 mul V
  hpt 2 mul 0 V
  hpt neg vpt -1.62 mul V closepath stroke
  Pnt} def
/TriDF {stroke [] 0 setdash vpt 1.12 mul sub M
  hpt neg vpt 1.62 mul V
  hpt 2 mul 0 V
  hpt neg vpt -1.62 mul V closepath fill} def
/DiaF {stroke [] 0 setdash vpt add M
  hpt neg vpt neg V hpt vpt neg V
  hpt vpt V hpt neg vpt V closepath fill} def
/Pent {stroke [] 0 setdash 2 copy gsave
  translate 0 hpt M 4 {72 rotate 0 hpt L} repeat
  closepath stroke grestore Pnt} def
/PentF {stroke [] 0 setdash gsave
  translate 0 hpt M 4 {72 rotate 0 hpt L} repeat
  closepath fill grestore} def
/Circle {stroke [] 0 setdash 2 copy
  hpt 0 360 arc stroke Pnt} def
/CircleF {stroke [] 0 setdash hpt 0 360 arc fill} def
/C0 {BL [] 0 setdash 2 copy moveto vpt 90 450 arc} bind def
/C1 {BL [] 0 setdash 2 copy moveto
	2 copy vpt 0 90 arc closepath fill
	vpt 0 360 arc closepath} bind def
/C2 {BL [] 0 setdash 2 copy moveto
	2 copy vpt 90 180 arc closepath fill
	vpt 0 360 arc closepath} bind def
/C3 {BL [] 0 setdash 2 copy moveto
	2 copy vpt 0 180 arc closepath fill
	vpt 0 360 arc closepath} bind def
/C4 {BL [] 0 setdash 2 copy moveto
	2 copy vpt 180 270 arc closepath fill
	vpt 0 360 arc closepath} bind def
/C5 {BL [] 0 setdash 2 copy moveto
	2 copy vpt 0 90 arc
	2 copy moveto
	2 copy vpt 180 270 arc closepath fill
	vpt 0 360 arc} bind def
/C6 {BL [] 0 setdash 2 copy moveto
	2 copy vpt 90 270 arc closepath fill
	vpt 0 360 arc closepath} bind def
/C7 {BL [] 0 setdash 2 copy moveto
	2 copy vpt 0 270 arc closepath fill
	vpt 0 360 arc closepath} bind def
/C8 {BL [] 0 setdash 2 copy moveto
	2 copy vpt 270 360 arc closepath fill
	vpt 0 360 arc closepath} bind def
/C9 {BL [] 0 setdash 2 copy moveto
	2 copy vpt 270 450 arc closepath fill
	vpt 0 360 arc closepath} bind def
/C10 {BL [] 0 setdash 2 copy 2 copy moveto vpt 270 360 arc closepath fill
	2 copy moveto
	2 copy vpt 90 180 arc closepath fill
	vpt 0 360 arc closepath} bind def
/C11 {BL [] 0 setdash 2 copy moveto
	2 copy vpt 0 180 arc closepath fill
	2 copy moveto
	2 copy vpt 270 360 arc closepath fill
	vpt 0 360 arc closepath} bind def
/C12 {BL [] 0 setdash 2 copy moveto
	2 copy vpt 180 360 arc closepath fill
	vpt 0 360 arc closepath} bind def
/C13 {BL [] 0 setdash 2 copy moveto
	2 copy vpt 0 90 arc closepath fill
	2 copy moveto
	2 copy vpt 180 360 arc closepath fill
	vpt 0 360 arc closepath} bind def
/C14 {BL [] 0 setdash 2 copy moveto
	2 copy vpt 90 360 arc closepath fill
	vpt 0 360 arc} bind def
/C15 {BL [] 0 setdash 2 copy vpt 0 360 arc closepath fill
	vpt 0 360 arc closepath} bind def
/Rec {newpath 4 2 roll moveto 1 index 0 rlineto 0 exch rlineto
	neg 0 rlineto closepath} bind def
/Square {dup Rec} bind def
/Bsquare {vpt sub exch vpt sub exch vpt2 Square} bind def
/S0 {BL [] 0 setdash 2 copy moveto 0 vpt rlineto BL Bsquare} bind def
/S1 {BL [] 0 setdash 2 copy vpt Square fill Bsquare} bind def
/S2 {BL [] 0 setdash 2 copy exch vpt sub exch vpt Square fill Bsquare} bind def
/S3 {BL [] 0 setdash 2 copy exch vpt sub exch vpt2 vpt Rec fill Bsquare} bind def
/S4 {BL [] 0 setdash 2 copy exch vpt sub exch vpt sub vpt Square fill Bsquare} bind def
/S5 {BL [] 0 setdash 2 copy 2 copy vpt Square fill
	exch vpt sub exch vpt sub vpt Square fill Bsquare} bind def
/S6 {BL [] 0 setdash 2 copy exch vpt sub exch vpt sub vpt vpt2 Rec fill Bsquare} bind def
/S7 {BL [] 0 setdash 2 copy exch vpt sub exch vpt sub vpt vpt2 Rec fill
	2 copy vpt Square fill Bsquare} bind def
/S8 {BL [] 0 setdash 2 copy vpt sub vpt Square fill Bsquare} bind def
/S9 {BL [] 0 setdash 2 copy vpt sub vpt vpt2 Rec fill Bsquare} bind def
/S10 {BL [] 0 setdash 2 copy vpt sub vpt Square fill 2 copy exch vpt sub exch vpt Square fill
	Bsquare} bind def
/S11 {BL [] 0 setdash 2 copy vpt sub vpt Square fill 2 copy exch vpt sub exch vpt2 vpt Rec fill
	Bsquare} bind def
/S12 {BL [] 0 setdash 2 copy exch vpt sub exch vpt sub vpt2 vpt Rec fill Bsquare} bind def
/S13 {BL [] 0 setdash 2 copy exch vpt sub exch vpt sub vpt2 vpt Rec fill
	2 copy vpt Square fill Bsquare} bind def
/S14 {BL [] 0 setdash 2 copy exch vpt sub exch vpt sub vpt2 vpt Rec fill
	2 copy exch vpt sub exch vpt Square fill Bsquare} bind def
/S15 {BL [] 0 setdash 2 copy Bsquare fill Bsquare} bind def
/D0 {gsave translate 45 rotate 0 0 S0 stroke grestore} bind def
/D1 {gsave translate 45 rotate 0 0 S1 stroke grestore} bind def
/D2 {gsave translate 45 rotate 0 0 S2 stroke grestore} bind def
/D3 {gsave translate 45 rotate 0 0 S3 stroke grestore} bind def
/D4 {gsave translate 45 rotate 0 0 S4 stroke grestore} bind def
/D5 {gsave translate 45 rotate 0 0 S5 stroke grestore} bind def
/D6 {gsave translate 45 rotate 0 0 S6 stroke grestore} bind def
/D7 {gsave translate 45 rotate 0 0 S7 stroke grestore} bind def
/D8 {gsave translate 45 rotate 0 0 S8 stroke grestore} bind def
/D9 {gsave translate 45 rotate 0 0 S9 stroke grestore} bind def
/D10 {gsave translate 45 rotate 0 0 S10 stroke grestore} bind def
/D11 {gsave translate 45 rotate 0 0 S11 stroke grestore} bind def
/D12 {gsave translate 45 rotate 0 0 S12 stroke grestore} bind def
/D13 {gsave translate 45 rotate 0 0 S13 stroke grestore} bind def
/D14 {gsave translate 45 rotate 0 0 S14 stroke grestore} bind def
/D15 {gsave translate 45 rotate 0 0 S15 stroke grestore} bind def
/DiaE {stroke [] 0 setdash vpt add M
  hpt neg vpt neg V hpt vpt neg V
  hpt vpt V hpt neg vpt V closepath stroke} def
/BoxE {stroke [] 0 setdash exch hpt sub exch vpt add M
  0 vpt2 neg V hpt2 0 V 0 vpt2 V
  hpt2 neg 0 V closepath stroke} def
/TriUE {stroke [] 0 setdash vpt 1.12 mul add M
  hpt neg vpt -1.62 mul V
  hpt 2 mul 0 V
  hpt neg vpt 1.62 mul V closepath stroke} def
/TriDE {stroke [] 0 setdash vpt 1.12 mul sub M
  hpt neg vpt 1.62 mul V
  hpt 2 mul 0 V
  hpt neg vpt -1.62 mul V closepath stroke} def
/PentE {stroke [] 0 setdash gsave
  translate 0 hpt M 4 {72 rotate 0 hpt L} repeat
  closepath stroke grestore} def
/CircE {stroke [] 0 setdash 
  hpt 0 360 arc stroke} def
/Opaque {gsave closepath 1 setgray fill grestore 0 setgray closepath} def
/DiaW {stroke [] 0 setdash vpt add M
  hpt neg vpt neg V hpt vpt neg V
  hpt vpt V hpt neg vpt V Opaque stroke} def
/BoxW {stroke [] 0 setdash exch hpt sub exch vpt add M
  0 vpt2 neg V hpt2 0 V 0 vpt2 V
  hpt2 neg 0 V Opaque stroke} def
/TriUW {stroke [] 0 setdash vpt 1.12 mul add M
  hpt neg vpt -1.62 mul V
  hpt 2 mul 0 V
  hpt neg vpt 1.62 mul V Opaque stroke} def
/TriDW {stroke [] 0 setdash vpt 1.12 mul sub M
  hpt neg vpt 1.62 mul V
  hpt 2 mul 0 V
  hpt neg vpt -1.62 mul V Opaque stroke} def
/PentW {stroke [] 0 setdash gsave
  translate 0 hpt M 4 {72 rotate 0 hpt L} repeat
  Opaque stroke grestore} def
/CircW {stroke [] 0 setdash 
  hpt 0 360 arc Opaque stroke} def
/BoxFill {gsave Rec 1 setgray fill grestore} def
/Density {
  /Fillden exch def
  currentrgbcolor
  /ColB exch def /ColG exch def /ColR exch def
  /ColR ColR Fillden mul Fillden sub 1 add def
  /ColG ColG Fillden mul Fillden sub 1 add def
  /ColB ColB Fillden mul Fillden sub 1 add def
  ColR ColG ColB setrgbcolor} def
/BoxColFill {gsave Rec PolyFill} def
/PolyFill {gsave Density fill grestore grestore} def
/h {rlineto rlineto rlineto gsave closepath fill grestore} bind def
%
% PostScript Level 1 Pattern Fill routine for rectangles
% Usage: x y w h s a XX PatternFill
%	x,y = lower left corner of box to be filled
%	w,h = width and height of box
%	  a = angle in degrees between lines and x-axis
%	 XX = 0/1 for no/yes cross-hatch
%
/PatternFill {gsave /PFa [ 9 2 roll ] def
  PFa 0 get PFa 2 get 2 div add PFa 1 get PFa 3 get 2 div add translate
  PFa 2 get -2 div PFa 3 get -2 div PFa 2 get PFa 3 get Rec
  TransparentPatterns {} {gsave 1 setgray fill grestore} ifelse
  clip
  currentlinewidth 0.5 mul setlinewidth
  /PFs PFa 2 get dup mul PFa 3 get dup mul add sqrt def
  0 0 M PFa 5 get rotate PFs -2 div dup translate
  0 1 PFs PFa 4 get div 1 add floor cvi
	{PFa 4 get mul 0 M 0 PFs V} for
  0 PFa 6 get ne {
	0 1 PFs PFa 4 get div 1 add floor cvi
	{PFa 4 get mul 0 2 1 roll M PFs 0 V} for
 } if
  stroke grestore} def
%
/languagelevel where
 {pop languagelevel} {1} ifelse
dup 2 lt
	{/InterpretLevel1 true def
	 /InterpretLevel3 false def}
	{/InterpretLevel1 Level1 def
	 2 gt
	    {/InterpretLevel3 Level3 def}
	    {/InterpretLevel3 false def}
	 ifelse }
 ifelse
%
% PostScript level 2 pattern fill definitions
%
/Level2PatternFill {
/Tile8x8 {/PaintType 2 /PatternType 1 /TilingType 1 /BBox [0 0 8 8] /XStep 8 /YStep 8}
	bind def
/KeepColor {currentrgbcolor [/Pattern /DeviceRGB] setcolorspace} bind def
<< Tile8x8
 /PaintProc {0.5 setlinewidth pop 0 0 M 8 8 L 0 8 M 8 0 L stroke} 
>> matrix makepattern
/Pat1 exch def
<< Tile8x8
 /PaintProc {0.5 setlinewidth pop 0 0 M 8 8 L 0 8 M 8 0 L stroke
	0 4 M 4 8 L 8 4 L 4 0 L 0 4 L stroke}
>> matrix makepattern
/Pat2 exch def
<< Tile8x8
 /PaintProc {0.5 setlinewidth pop 0 0 M 0 8 L
	8 8 L 8 0 L 0 0 L fill}
>> matrix makepattern
/Pat3 exch def
<< Tile8x8
 /PaintProc {0.5 setlinewidth pop -4 8 M 8 -4 L
	0 12 M 12 0 L stroke}
>> matrix makepattern
/Pat4 exch def
<< Tile8x8
 /PaintProc {0.5 setlinewidth pop -4 0 M 8 12 L
	0 -4 M 12 8 L stroke}
>> matrix makepattern
/Pat5 exch def
<< Tile8x8
 /PaintProc {0.5 setlinewidth pop -2 8 M 4 -4 L
	0 12 M 8 -4 L 4 12 M 10 0 L stroke}
>> matrix makepattern
/Pat6 exch def
<< Tile8x8
 /PaintProc {0.5 setlinewidth pop -2 0 M 4 12 L
	0 -4 M 8 12 L 4 -4 M 10 8 L stroke}
>> matrix makepattern
/Pat7 exch def
<< Tile8x8
 /PaintProc {0.5 setlinewidth pop 8 -2 M -4 4 L
	12 0 M -4 8 L 12 4 M 0 10 L stroke}
>> matrix makepattern
/Pat8 exch def
<< Tile8x8
 /PaintProc {0.5 setlinewidth pop 0 -2 M 12 4 L
	-4 0 M 12 8 L -4 4 M 8 10 L stroke}
>> matrix makepattern
/Pat9 exch def
/Pattern1 {PatternBgnd KeepColor Pat1 setpattern} bind def
/Pattern2 {PatternBgnd KeepColor Pat2 setpattern} bind def
/Pattern3 {PatternBgnd KeepColor Pat3 setpattern} bind def
/Pattern4 {PatternBgnd KeepColor Landscape {Pat5} {Pat4} ifelse setpattern} bind def
/Pattern5 {PatternBgnd KeepColor Landscape {Pat4} {Pat5} ifelse setpattern} bind def
/Pattern6 {PatternBgnd KeepColor Landscape {Pat9} {Pat6} ifelse setpattern} bind def
/Pattern7 {PatternBgnd KeepColor Landscape {Pat8} {Pat7} ifelse setpattern} bind def
} def
%
%
%End of PostScript Level 2 code
%
/PatternBgnd {
  TransparentPatterns {} {gsave 1 setgray fill grestore} ifelse
} def
%
% Substitute for Level 2 pattern fill codes with
% grayscale if Level 2 support is not selected.
%
/Level1PatternFill {
/Pattern1 {0.250 Density} bind def
/Pattern2 {0.500 Density} bind def
/Pattern3 {0.750 Density} bind def
/Pattern4 {0.125 Density} bind def
/Pattern5 {0.375 Density} bind def
/Pattern6 {0.625 Density} bind def
/Pattern7 {0.875 Density} bind def
} def
%
% Now test for support of Level 2 code
%
Level1 {Level1PatternFill} {Level2PatternFill} ifelse
%
/Symbol-Oblique /Symbol findfont [1 0 .167 1 0 0] makefont
dup length dict begin {1 index /FID eq {pop pop} {def} ifelse} forall
currentdict end definefont pop
%
Level1 SuppressPDFMark or 
{} {
/SDict 10 dict def
systemdict /pdfmark known not {
  userdict /pdfmark systemdict /cleartomark get put
} if
SDict begin [
  /Title (exc1_3_4_3d_lost_checksum_err/protocol3/exc1_3_4_3d_lost_checksum_err.tex)
  /Subject (gnuplot plot)
  /Creator (gnuplot 5.0 patchlevel 1)
  /Author (asiron)
%  /Producer (gnuplot)
%  /Keywords ()
  /CreationDate (Mon Nov  2 02:53:49 2015)
  /DOCINFO pdfmark
end
} ifelse
end
%
% Support for boxed text - Ethan A Merritt May 2005
%
/InitTextBox { userdict /TBy2 3 -1 roll put userdict /TBx2 3 -1 roll put
           userdict /TBy1 3 -1 roll put userdict /TBx1 3 -1 roll put
	   /Boxing true def } def
/ExtendTextBox { Boxing
    { gsave dup false charpath pathbbox
      dup TBy2 gt {userdict /TBy2 3 -1 roll put} {pop} ifelse
      dup TBx2 gt {userdict /TBx2 3 -1 roll put} {pop} ifelse
      dup TBy1 lt {userdict /TBy1 3 -1 roll put} {pop} ifelse
      dup TBx1 lt {userdict /TBx1 3 -1 roll put} {pop} ifelse
      grestore } if } def
/PopTextBox { newpath TBx1 TBxmargin sub TBy1 TBymargin sub M
               TBx1 TBxmargin sub TBy2 TBymargin add L
	       TBx2 TBxmargin add TBy2 TBymargin add L
	       TBx2 TBxmargin add TBy1 TBymargin sub L closepath } def
/DrawTextBox { PopTextBox stroke /Boxing false def} def
/FillTextBox { gsave PopTextBox 1 1 1 setrgbcolor fill grestore /Boxing false def} def
0 0 0 0 InitTextBox
/TBxmargin 20 def
/TBymargin 20 def
/Boxing false def
/textshow { ExtendTextBox Gshow } def
%
%%EndProlog
%%Page: 1 1
gnudict begin
gsave
doclip
50 50 translate
0.050 0.050 scale
0 setgray
newpath
gsave % colour palette begin
/maxcolors 0 def
/HSV2RGB {  exch dup 0.0 eq {pop exch pop dup dup} % achromatic gray
  { /HSVs exch def /HSVv exch def 6.0 mul dup floor dup 3 1 roll sub
     /HSVf exch def /HSVi exch cvi def /HSVp HSVv 1.0 HSVs sub mul def
	 /HSVq HSVv 1.0 HSVs HSVf mul sub mul def 
	 /HSVt HSVv 1.0 HSVs 1.0 HSVf sub mul sub mul def
	 /HSVi HSVi 6 mod def 0 HSVi eq {HSVv HSVt HSVp}
	 {1 HSVi eq {HSVq HSVv HSVp}{2 HSVi eq {HSVp HSVv HSVt}
	 {3 HSVi eq {HSVp HSVq HSVv}{4 HSVi eq {HSVt HSVp HSVv}
	 {HSVv HSVp HSVq} ifelse} ifelse} ifelse} ifelse} ifelse
  } ifelse} def
/Constrain {
  dup 0 lt {0 exch pop}{dup 1 gt {1 exch pop} if} ifelse} def
/YIQ2RGB {
  3 copy -1.702 mul exch -1.105 mul add add Constrain 4 1 roll
  3 copy -0.647 mul exch -0.272 mul add add Constrain 5 1 roll
  0.621 mul exch -0.956 mul add add Constrain 3 1 roll } def
/CMY2RGB {  1 exch sub exch 1 exch sub 3 2 roll 1 exch sub 3 1 roll exch } def
/XYZ2RGB {  3 copy -0.9017 mul exch -0.1187 mul add exch 0.0585 mul exch add
  Constrain 4 1 roll 3 copy -0.0279 mul exch 1.999 mul add exch
  -0.9844 mul add Constrain 5 1 roll -0.2891 mul exch -0.5338 mul add
  exch 1.91 mul exch add Constrain 3 1 roll} def
/SelectSpace {ColorSpace (HSV) eq {HSV2RGB}{ColorSpace (XYZ) eq {
  XYZ2RGB}{ColorSpace (CMY) eq {CMY2RGB}{ColorSpace (YIQ) eq {YIQ2RGB}
  if} ifelse} ifelse} ifelse} def
/InterpolatedColor false def
/cF7 {sqrt} bind def	% sqrt(x)
/cF5 {dup dup mul mul} bind def	% x^3
/cF15 {360 mul sin} bind def	% sin(360x)
/pm3dround {maxcolors 0 gt {dup 1 ge
	{pop 1} {maxcolors mul floor maxcolors 1 sub div} ifelse} if} def
/pm3dGamma 1.0 1.5 Gamma mul div def
/ColorSpace (RGB) def
Color InterpolatedColor or { % COLOUR vs. GRAY map
  InterpolatedColor { %% Interpolation vs. RGB-Formula
    /g {stroke pm3dround /grayv exch def interpolate
        SelectSpace setrgbcolor} bind def
  }{
  /g {stroke pm3dround dup cF7 Constrain exch dup cF5 Constrain exch cF15 Constrain 
       SelectSpace setrgbcolor} bind def
  } ifelse
}{
  /g {stroke pm3dround pm3dGamma exp setgray} bind def
} ifelse
1.000 UL
LTb
LCb setrgbcolor
LTb
1.000 UL
LTb
1260 1614 M
989 2207 V
5940 3230 M
2249 3821 L
1260 1614 M
0 3956 V
2249 3821 M
0 257 V
5940 3230 M
0 22 V
1260 1614 M
14 30 V
975 2177 R
-13 -31 V
1998 1495 M
14 31 V
976 2177 R
-14 -31 V
2737 1377 M
13 31 V
975 2176 R
-14 -30 V
3475 1259 M
14 30 V
974 2177 R
-13 -30 V
4212 1141 M
14 30 V
976 2177 R
-14 -31 V
4951 1022 M
13 31 V
976 2177 R
-14 -31 V
4951 1022 M
-61 10 V
1260 1614 M
61 -10 V
5149 1464 M
-61 10 V
1458 2055 M
61 -10 V
5346 1905 M
-60 10 V
1656 2497 M
61 -10 V
5544 2347 M
-61 9 V
1854 2938 M
60 -10 V
5742 2788 M
-61 10 V
2051 3379 M
61 -9 V
5940 3230 M
-61 9 V
2249 3821 M
61 -10 V
1260 1614 M
63 0 V
-63 565 R
63 0 V
-63 566 R
63 0 V
-63 565 R
63 0 V
-63 565 R
63 0 V
-63 565 R
63 0 V
-63 565 R
63 0 V
-63 565 R
63 0 V
1.000 UP
stroke
LTw
LCw setrgbcolor
LTb
LCb setrgbcolor
0 g %pm3d_map_begin
1.000 UL
LTw
LCw setrgbcolor
LTb
LCb setrgbcolor
0 g .0907 g 2139 3951 N -27 -38 102 -17 28 32 h
.0898 g 2242 3928 N -28 -45 103 -17 27 38 h
.0888 g 2344 3904 N -27 -52 102 -16 28 45 h
.0879 g 2447 3881 N -27 -58 103 -17 27 52 h
.084 g 2167 3983 N -28 -39 103 -10 27 32 h
.0848 g 2269 3966 N -27 -46 102 -10 28 39 h
.0856 g 2372 3949 N -28 -51 103 -11 27 46 h
.0863 g 2474 3933 N -27 -58 102 -10 28 51 h
.0774 g 2194 4015 N -27 -38 102 -3 28 31 h
.0799 g 2297 4005 N -28 -45 103 -3 27 38 h
.0823 g 2399 3995 N -27 -52 102 -4 28 45 h
.0848 g 2502 3984 N -28 -59 103 -3 27 52 h
.0708 g 2222 4046 N -28 -38 103 3 27 32 h
.0749 g 2324 4043 N -27 -45 102 4 28 38 h
.0791 g 2427 4040 N -28 -52 103 3 27 45 h
.0832 g 2529 4036 N -27 -58 102 3 28 52 h
.1016 g 2029 3741 N -27 -53 102 -25 28 53 h
.0994 g 2132 3716 N -28 -53 103 -25 27 53 h
.0973 g 2234 3691 N -28 -54 103 -24 28 53 h
.0952 g 2337 3666 N -27 -54 102 -25 28 54 h
.0994 g 2057 3794 N -28 -53 103 -24 27 52 h
.0974 g 2159 3769 N -27 -54 102 -24 28 53 h
.0953 g 2262 3744 N -27 -53 103 -25 27 54 h
.0933 g 2365 3720 N -28 -54 103 -24 27 53 h
.0972 g 2084 3846 N -27 -53 102 -24 28 53 h
.0953 g 2187 3822 N -28 -53 103 -24 27 53 h
.0934 g 2289 3798 N -27 -54 102 -24 28 53 h
.0915 g 2392 3773 N -27 -54 103 -24 27 54 h
.0951 g 2112 3899 N -28 -53 103 -23 27 52 h
.0933 g 2214 3875 N -27 -53 102 -24 28 53 h
.0914 g 2317 3851 N -28 -54 103 -23 27 53 h
.0896 g 2419 3827 N -28 -55 103 -23 28 54 h
.1114 g 1919 3535 N -28 -52 103 -25 28 52 h
.1093 g 2022 3510 N -27 -51 102 -25 28 52 h
.1071 g 2125 3486 N -28 -51 103 -25 27 51 h
.105 g 2227 3461 N -27 -51 102 -25 28 51 h
.1089 g 1947 3587 N -27 -51 103 -25 27 51 h
.1068 g 2050 3562 N -28 -51 103 -25 27 51 h
.1046 g 2152 3537 N -27 -51 102 -25 28 51 h
.1024 g 2255 3512 N -28 -51 103 -25 27 51 h
.1064 g 1974 3638 N -27 -52 102 -25 28 52 h
.1042 g 2077 3613 N -27 -52 103 -25 27 52 h
.1021 g 2180 3588 N -28 -51 103 -26 27 52 h
.0999 g 2282 3563 N -27 -51 102 -25 28 51 h
.1039 g 2002 3690 N -28 -51 103 -25 27 51 h
.1017 g 2104 3665 N -27 -51 102 -25 28 51 h
.0995 g 2207 3640 N -27 -52 103 -25 27 51 h
.0974 g 2310 3614 N -28 -52 103 -25 27 52 h
.1265 g 1810 3353 N -28 -46 103 -26 27 46 h
.124 g 1912 3327 N -27 -46 102 -26 28 46 h
.1216 g 2015 3301 N -28 -47 103 -26 27 46 h
.1191 g 2117 3274 N -27 -47 102 -26 28 47 h
.1225 g 1837 3399 N -27 -46 102 -25 28 45 h
.1202 g 1940 3373 N -28 -46 103 -26 27 46 h
.1178 g 2042 3347 N -27 -46 102 -26 28 46 h
.1154 g 2145 3321 N -28 -47 103 -25 27 46 h
.1186 g 1865 3444 N -28 -46 103 -25 27 46 h
.1163 g 1967 3419 N -27 -46 102 -26 28 46 h
.114 g 2070 3393 N -28 -47 103 -25 27 46 h
.1118 g 2172 3367 N -27 -47 102 -25 28 47 h
.1146 g 1892 3490 N -27 -45 103 -25 27 45 h
.1125 g 1995 3465 N -28 -47 103 -24 27 45 h
.1103 g 2097 3439 N -27 -47 102 -25 28 47 h
.1081 g 2200 3414 N -28 -47 103 -25 27 47 h
.1461 g 1700 3189 N -28 -42 103 -28 27 41 h
.1429 g 1802 3160 N -27 -42 102 -29 28 42 h
.1398 g 1905 3131 N -28 -44 103 -28 27 42 h
.1366 g 2007 3101 N -27 -44 102 -29 28 44 h
.141 g 1727 3230 N -27 -41 102 -28 28 41 h
.1381 g 1830 3202 N -28 -43 103 -27 27 41 h
.1351 g 1932 3173 N -27 -43 102 -28 28 43 h
.1322 g 2035 3145 N -28 -44 103 -28 27 43 h
.136 g 1755 3271 N -28 -42 103 -27 27 41 h
.1332 g 1857 3243 N -27 -42 102 -27 28 42 h
.1304 g 1960 3216 N -28 -43 103 -27 27 42 h
.1277 g 2062 3188 N -27 -44 102 -27 28 43 h
.1309 g 1782 3312 N -27 -42 102 -26 28 41 h
.1284 g 1885 3285 N -28 -43 103 -26 27 42 h
.1258 g 1987 3258 N -27 -43 102 -27 28 43 h
.1232 g 2090 3231 N -28 -44 103 -26 27 43 h
.1668 g 1590 3027 N -28 -41 103 -31 27 41 h
.1632 g 1692 2996 N -27 -42 102 -30 28 41 h
.1596 g 1795 2965 N -28 -42 103 -31 27 42 h
.156 g 1897 2934 N -27 -42 102 -30 28 42 h
.1616 g 1617 3068 N -27 -41 102 -30 28 40 h
.1581 g 1720 3037 N -28 -41 103 -30 27 41 h
.1546 g 1822 3007 N -27 -42 102 -30 28 41 h
.1511 g 1925 2976 N -28 -42 103 -30 27 42 h
.1564 g 1645 3108 N -28 -41 103 -30 27 41 h
.153 g 1747 3078 N -27 -41 102 -30 28 41 h
.1496 g 1850 3048 N -28 -42 103 -29 27 41 h
.1462 g 1952 3018 N -27 -42 102 -30 28 42 h
.1512 g 1672 3149 N -27 -41 102 -29 28 40 h
.1479 g 1775 3119 N -28 -42 103 -29 27 41 h
.1446 g 1877 3089 N -27 -41 102 -30 28 42 h
.1413 g 1980 3060 N -28 -42 103 -29 27 41 h
.2038 g 1480 2946 N -28 -24 103 -45 27 21 h
.1962 g 1582 2898 N -27 -29 102 -44 28 24 h
.1886 g 1685 2849 N -28 -34 103 -44 27 29 h
.181 g 1787 2800 N -28 -38 103 -45 28 34 h
.194 g 1507 2967 N -27 -25 102 -40 28 20 h
.1875 g 1610 2922 N -28 -29 103 -40 27 25 h
.181 g 1712 2878 N -27 -33 102 -40 28 29 h
.1745 g 1815 2834 N -27 -38 103 -40 27 33 h
.1842 g 1535 2987 N -28 -25 103 -35 27 20 h
.1788 g 1637 2947 N -27 -29 102 -36 28 25 h
.1735 g 1740 2907 N -28 -34 103 -35 27 29 h
.1681 g 1842 2867 N -27 -39 102 -35 28 34 h
.1743 g 1562 3007 N -27 -24 102 -31 28 20 h
.1701 g 1665 2972 N -28 -29 103 -31 27 24 h
.1659 g 1767 2936 N -27 -33 102 -31 28 29 h
.1617 g 1870 2901 N -28 -38 103 -30 27 33 h
.2219 g 1370 2757 N -28 -45 103 -43 27 47 h
.2153 g 1472 2716 N -28 -44 103 -43 28 45 h
.2087 g 1575 2674 N -27 -41 102 -44 28 44 h
.2022 g 1678 2633 N -28 -40 103 -43 27 41 h
.2181 g 1397 2804 N -27 -46 102 -45 28 48 h
.2111 g 1500 2761 N -27 -44 103 -45 27 46 h
.2041 g 1603 2718 N -28 -42 103 -46 27 44 h
.197 g 1705 2674 N -27 -40 102 -45 28 42 h
.2144 g 1425 2852 N -28 -45 103 -47 27 47 h
.2069 g 1527 2807 N -27 -43 102 -47 28 45 h
.1994 g 1630 2762 N -27 -42 103 -47 27 43 h
.1919 g 1733 2716 N -28 -40 103 -47 27 42 h
.2106 g 1452 2899 N -27 -46 102 -48 28 47 h
.2027 g 1555 2852 N -28 -44 103 -49 27 46 h
.1947 g 1657 2805 N -27 -42 102 -49 28 44 h
.1868 g 1760 2758 N -27 -40 103 -49 27 42 h
.7501 g 1260 5226 N -27 450 103 -542 27 -618 h
.5959 g 1363 4516 N -28 284 103 -543 27 -450 h
.4418 g 1465 3807 N -27 116 102 -542 28 -284 h
.2877 g 1568 3097 N -28 -51 103 -543 27 -116 h
.5997 g 1287 4608 N -28 450 103 -376 28 -616 h
.4878 g 1390 4066 N -27 283 102 -376 28 -450 h
.3759 g 1493 3523 N -28 116 103 -375 27 -283 h
.264 g 1595 2981 N -27 -51 102 -376 28 -116 h
.4493 g 1315 3992 N -27 450 103 -209 27 -617 h
.3796 g 1418 3616 N -28 283 103 -209 27 -450 h
.31 g 1520 3240 N -27 116 102 -208 28 -283 h
.2403 g 1623 2865 N -28 -51 103 -209 27 -116 h
.2989 g 1342 3375 N -27 450 102 -41 28 -618 h
.2715 g 1445 3166 N -27 283 103 -42 27 -450 h
.244 g 1548 2957 N -28 116 103 -41 27 -283 h
.2166 g 1650 2749 N -27 -51 102 -42 28 -116 h
.0865 g 2550 3858 N -28 -58 103 -24 27 58 h
.0846 g 2652 3834 N -27 -58 102 -24 28 58 h
.0827 g 2755 3810 N -28 -58 103 -24 27 58 h
.0808 g 2857 3786 N -27 -57 102 -25 28 58 h
.0857 g 2577 3916 N -27 -58 103 -24 27 58 h
.0837 g 2680 3892 N -28 -57 103 -25 27 58 h
.0817 g 2782 3868 N -27 -57 102 -24 28 57 h
.0797 g 2885 3844 N -28 -57 103 -25 27 57 h
.0849 g 2604 3974 N -27 -58 102 -25 28 59 h
.0829 g 2707 3950 N -27 -58 103 -25 27 58 h
.0808 g 2810 3925 N -28 -57 103 -25 27 58 h
.0787 g 2912 3901 N -27 -57 102 -25 28 57 h
.0842 g 2632 4033 N -28 -58 103 -25 27 58 h
.082 g 2734 4008 N -28 -58 103 -25 28 58 h
.0798 g 2837 3983 N -27 -57 102 -26 28 58 h
.0776 g 2940 3958 N -28 -57 103 -25 27 57 h
.093 g 2440 3641 N -28 -55 103 -25 27 54 h
.0908 g 2542 3615 N -27 -55 102 -25 28 55 h
.0886 g 2645 3590 N -28 -55 103 -25 27 55 h
.0864 g 2747 3565 N -27 -55 102 -25 28 55 h
.0912 g 2467 3695 N -27 -55 102 -24 28 54 h
.0892 g 2570 3670 N -28 -55 103 -25 27 55 h
.0871 g 2672 3645 N -27 -56 102 -24 28 55 h
.085 g 2775 3620 N -28 -56 103 -25 27 56 h
.0895 g 2495 3749 N -28 -54 103 -24 27 54 h
.0875 g 2597 3725 N -27 -55 102 -24 28 54 h
.0855 g 2700 3700 N -28 -55 103 -24 27 55 h
.0835 g 2802 3676 N -27 -56 102 -24 28 55 h
.0878 g 2522 3803 N -27 -55 102 -24 28 55 h
.0859 g 2625 3779 N -28 -55 103 -24 27 55 h
.084 g 2727 3755 N -27 -55 102 -24 28 55 h
.0821 g 2830 3731 N -28 -55 103 -24 27 55 h
.1026 g 2330 3436 N -28 -51 103 -27 27 51 h
.1 g 2432 3409 N -27 -52 102 -26 28 51 h
.0973 g 2535 3382 N -28 -53 103 -27 27 52 h
.0946 g 2637 3354 N -27 -53 102 -27 28 53 h
.1001 g 2357 3487 N -27 -52 102 -26 28 51 h
.0976 g 2460 3460 N -28 -52 103 -26 27 52 h
.095 g 2562 3434 N -27 -53 102 -26 28 52 h
.0925 g 2665 3407 N -28 -53 103 -27 27 53 h
.0976 g 2385 3538 N -28 -52 103 -25 27 51 h
.0952 g 2487 3512 N -27 -52 102 -26 28 52 h
.0928 g 2590 3486 N -28 -52 103 -26 27 52 h
.0904 g 2692 3460 N -27 -53 102 -26 28 52 h
.0951 g 2412 3589 N -27 -51 102 -26 28 52 h
.0928 g 2515 3564 N -28 -52 103 -25 27 51 h
.0905 g 2617 3538 N -27 -53 102 -25 28 52 h
.0882 g 2720 3512 N -28 -54 103 -25 27 53 h
.1162 g 2220 3248 N -28 -48 103 -29 27 47 h
.1128 g 2322 3218 N -27 -48 102 -30 28 48 h
.1095 g 2425 3188 N -28 -49 103 -29 27 48 h
.1061 g 2527 3158 N -27 -49 102 -30 28 49 h
.1127 g 2247 3295 N -27 -47 102 -29 28 47 h
.1095 g 2350 3266 N -28 -49 103 -28 27 47 h
.1063 g 2452 3236 N -27 -49 102 -29 28 49 h
.1031 g 2555 3207 N -28 -50 103 -29 27 49 h
.1091 g 2275 3342 N -28 -48 103 -28 27 47 h
.1062 g 2377 3313 N -27 -48 102 -28 28 48 h
.1032 g 2480 3285 N -28 -49 103 -28 27 48 h
.1002 g 2582 3256 N -27 -50 102 -28 28 49 h
.1056 g 2302 3389 N -27 -48 102 -27 28 47 h
.1028 g 2405 3361 N -28 -49 103 -27 27 48 h
.1 g 2507 3333 N -27 -49 102 -28 28 49 h
.0972 g 2610 3305 N -28 -50 103 -27 27 49 h
.133 g 2110 3072 N -28 -45 103 -32 27 44 h
.1289 g 2212 3039 N -27 -46 102 -32 28 45 h
.1249 g 2315 3006 N -27 -46 103 -32 27 46 h
.1208 g 2418 2974 N -28 -46 103 -33 27 46 h
.1287 g 2137 3116 N -27 -45 102 -31 28 44 h
.1248 g 2240 3084 N -28 -45 103 -32 27 45 h
.1209 g 2342 3052 N -27 -46 102 -31 28 45 h
.117 g 2445 3020 N -27 -47 103 -32 27 46 h
.1244 g 2165 3160 N -28 -44 103 -31 27 44 h
.1207 g 2267 3129 N -27 -45 102 -31 28 44 h
.117 g 2370 3097 N -28 -46 103 -30 27 45 h
.1132 g 2472 3066 N -27 -47 102 -31 28 46 h
.1201 g 2192 3204 N -27 -45 102 -30 28 44 h
.1166 g 2295 3173 N -28 -46 103 -30 27 45 h
.113 g 2397 3142 N -27 -46 102 -30 28 46 h
.1095 g 2500 3112 N -28 -47 103 -30 27 46 h
.1516 g 2000 2904 N -28 -43 103 -36 27 42 h
.1466 g 2102 2867 N -28 -44 103 -36 28 43 h
.1415 g 2205 2830 N -27 -45 102 -36 28 44 h
.1365 g 2308 2793 N -28 -46 103 -36 27 45 h
.1469 g 2027 2946 N -27 -43 102 -35 28 42 h
.1421 g 2130 2910 N -27 -44 103 -35 27 43 h
.1373 g 2233 2874 N -28 -45 103 -35 27 44 h
.1325 g 2335 2838 N -27 -46 102 -35 28 45 h
.1422 g 2055 2988 N -28 -43 103 -34 27 42 h
.1377 g 2157 2953 N -27 -44 102 -34 28 43 h
.1331 g 2260 2918 N -27 -45 103 -34 27 44 h
.1286 g 2363 2883 N -28 -46 103 -34 27 45 h
.1375 g 2082 3030 N -27 -43 102 -33 28 42 h
.1332 g 2185 2996 N -28 -44 103 -33 27 43 h
.1289 g 2287 2962 N -28 -46 103 -32 28 44 h
.1247 g 2390 2928 N -27 -47 102 -33 28 46 h
.174 g 1890 2751 N -27 -40 102 -40 28 38 h
.1677 g 1993 2709 N -28 -41 103 -41 27 40 h
.1614 g 2095 2667 N -27 -42 102 -41 28 41 h
.155 g 2198 2625 N -28 -43 103 -41 27 42 h
.1683 g 1918 2789 N -28 -39 103 -39 27 38 h
.1623 g 2020 2749 N -27 -40 102 -40 28 39 h
.1563 g 2123 2708 N -28 -42 103 -39 27 40 h
.1503 g 2225 2667 N -27 -43 102 -40 28 42 h
.1626 g 1945 2827 N -27 -39 103 -39 27 39 h
.1569 g 2048 2788 N -28 -41 103 -38 27 39 h
.1512 g 2150 2748 N -27 -42 102 -38 28 41 h
.1456 g 2253 2709 N -28 -43 103 -39 27 42 h
.1569 g 1972 2866 N -27 -40 102 -37 28 38 h
.1515 g 2075 2827 N -27 -41 103 -37 27 40 h
.1462 g 2178 2789 N -28 -42 103 -37 27 41 h
.1408 g 2280 2751 N -27 -44 102 -37 28 42 h
.1949 g 1780 2591 N -27 -42 102 -47 28 40 h
.1868 g 1883 2542 N -28 -43 103 -48 27 42 h
.1787 g 1985 2493 N -27 -46 102 -47 28 43 h
.1707 g 2088 2443 N -28 -47 103 -48 27 46 h
.1897 g 1808 2631 N -28 -42 103 -45 27 40 h
.1821 g 1910 2584 N -27 -44 102 -46 28 42 h
.1745 g 2013 2536 N -28 -45 103 -46 27 44 h
.1669 g 2115 2489 N -27 -48 102 -45 28 45 h
.1846 g 1835 2671 N -27 -41 102 -44 28 40 h
.1774 g 1938 2626 N -28 -44 103 -43 27 41 h
.1703 g 2040 2580 N -27 -46 102 -44 28 44 h
.1631 g 2143 2534 N -28 -47 103 -44 27 46 h
.1795 g 1863 2711 N -28 -42 103 -42 27 40 h
.1727 g 1965 2667 N -27 -43 102 -42 28 42 h
.166 g 2068 2624 N -28 -45 103 -42 27 43 h
.1593 g 2170 2580 N -27 -47 102 -42 28 45 h
.2069 g 1670 2387 N -27 -51 102 -46 28 51 h
.1995 g 1773 2341 N -28 -49 103 -47 27 51 h
.1921 g 1875 2296 N -27 -48 102 -46 28 49 h
.1847 g 1978 2251 N -28 -47 103 -46 27 48 h
.2042 g 1698 2438 N -28 -50 103 -47 27 51 h
.1965 g 1800 2392 N -27 -49 102 -48 28 50 h
.1889 g 1903 2345 N -28 -48 103 -47 27 49 h
.1812 g 2005 2299 N -27 -47 102 -47 28 48 h
.2015 g 1725 2489 N -27 -50 102 -48 28 51 h
.1936 g 1828 2442 N -28 -49 103 -49 27 50 h
.1857 g 1930 2394 N -27 -48 102 -48 28 49 h
.1778 g 2033 2347 N -28 -47 103 -48 27 48 h
.1988 g 1753 2540 N -28 -50 103 -49 27 51 h
.1906 g 1855 2492 N -27 -50 102 -49 28 50 h
.1825 g 1958 2443 N -28 -48 103 -50 27 50 h
.1743 g 2060 2395 N -27 -47 102 -49 28 48 h
.0791 g 2960 3762 N -28 -57 103 -22 27 57 h
.0775 g 3062 3740 N -27 -58 102 -22 28 57 h
.076 g 3165 3717 N -28 -59 103 -22 27 58 h
.0745 g 3267 3694 N -27 -60 102 -22 28 59 h
.0781 g 2987 3819 N -27 -58 102 -21 28 57 h
.0767 g 3090 3797 N -28 -58 103 -22 27 58 h
.0753 g 3192 3775 N -27 -59 102 -21 28 58 h
.074 g 3295 3753 N -28 -59 103 -22 27 59 h
.077 g 3015 3876 N -28 -57 103 -21 27 57 h
.0758 g 3117 3855 N -27 -59 102 -20 28 57 h
.0747 g 3220 3833 N -28 -59 103 -21 27 59 h
.0735 g 3322 3812 N -27 -60 102 -21 28 59 h
.076 g 3042 3933 N -27 -58 102 -20 28 57 h
.075 g 3145 3912 N -28 -58 103 -20 27 58 h
.074 g 3247 3892 N -27 -59 102 -20 28 58 h
.073 g 3350 3871 N -28 -60 103 -20 27 59 h
.0844 g 2850 3540 N -28 -56 103 -23 27 55 h
.0826 g 2952 3516 N -27 -56 102 -24 28 56 h
.0807 g 3055 3492 N -28 -57 103 -23 27 56 h
.0789 g 3157 3468 N -27 -57 102 -24 28 57 h
.083 g 2877 3595 N -27 -56 102 -23 28 56 h
.0813 g 2980 3572 N -28 -56 103 -24 27 56 h
.0795 g 3082 3548 N -27 -56 102 -23 28 56 h
.0777 g 3185 3525 N -28 -57 103 -23 27 56 h
.0817 g 2905 3651 N -28 -56 103 -23 27 56 h
.0799 g 3007 3628 N -27 -57 102 -23 28 56 h
.0782 g 3110 3604 N -28 -56 103 -24 27 57 h
.0765 g 3212 3581 N -27 -56 102 -23 28 56 h
.0803 g 2932 3707 N -27 -56 102 -22 28 55 h
.0786 g 3035 3684 N -28 -56 103 -23 27 56 h
.077 g 3137 3661 N -27 -57 102 -23 28 56 h
.0753 g 3240 3637 N -28 -57 103 -23 27 57 h
.0922 g 2740 3327 N -28 -53 103 -25 27 53 h
.0899 g 2842 3302 N -27 -54 102 -25 28 53 h
.0876 g 2945 3276 N -27 -55 103 -25 27 54 h
.0854 g 3048 3250 N -28 -55 103 -25 27 55 h
.0902 g 2767 3380 N -27 -54 102 -24 28 53 h
.088 g 2870 3355 N -28 -54 103 -25 27 54 h
.0859 g 2972 3330 N -27 -54 102 -25 28 54 h
.0837 g 3075 3305 N -27 -54 103 -25 27 54 h
.0881 g 2795 3433 N -28 -53 103 -24 27 53 h
.0861 g 2897 3409 N -27 -54 102 -24 28 53 h
.0841 g 3000 3384 N -28 -55 103 -24 27 54 h
.082 g 3102 3359 N -28 -55 103 -25 28 55 h
.0861 g 2822 3486 N -27 -54 102 -24 28 54 h
.0842 g 2925 3462 N -28 -54 103 -24 27 54 h
.0823 g 3027 3438 N -27 -54 102 -24 28 54 h
.0803 g 3130 3414 N -27 -55 103 -24 27 54 h
.1029 g 2630 3128 N -27 -51 103 -27 27 49 h
.1 g 2733 3099 N -28 -52 103 -28 27 51 h
.097 g 2835 3070 N -27 -52 102 -28 28 52 h
.0941 g 2938 3042 N -28 -53 103 -28 27 52 h
.1002 g 2657 3177 N -27 -50 102 -27 28 50 h
.0974 g 2760 3150 N -27 -51 103 -27 27 50 h
.0946 g 2863 3122 N -28 -52 103 -27 27 51 h
.0918 g 2965 3094 N -27 -53 102 -27 28 52 h
.0974 g 2685 3227 N -28 -51 103 -26 27 50 h
.0948 g 2787 3200 N -27 -52 102 -26 28 51 h
.0922 g 2890 3173 N -27 -52 103 -27 27 52 h
.0896 g 2993 3146 N -28 -53 103 -26 27 52 h
.0946 g 2712 3277 N -27 -51 102 -25 28 50 h
.0922 g 2815 3251 N -28 -51 103 -26 27 51 h
.0898 g 2917 3225 N -28 -52 103 -26 28 51 h
.0873 g 3020 3198 N -27 -53 102 -25 28 52 h
.1169 g 2520 2941 N -27 -47 102 -31 28 46 h
.1131 g 2623 2909 N -28 -48 103 -31 27 47 h
.1093 g 2725 2877 N -27 -49 102 -31 28 48 h
.1056 g 2828 2845 N -28 -50 103 -30 27 49 h
.1133 g 2548 2987 N -28 -48 103 -30 27 47 h
.1097 g 2650 2956 N -27 -49 102 -30 28 48 h
.1062 g 2753 2925 N -28 -50 103 -30 27 49 h
.1026 g 2855 2894 N -27 -50 102 -30 28 50 h
.1097 g 2575 3034 N -27 -47 103 -30 27 47 h
.1063 g 2678 3004 N -28 -48 103 -29 27 47 h
.103 g 2780 2974 N -27 -49 102 -29 28 48 h
.0996 g 2883 2944 N -28 -50 103 -29 27 49 h
.1061 g 2602 3081 N -28 -48 103 -29 28 47 h
.103 g 2705 3051 N -27 -48 102 -29 28 48 h
.0998 g 2808 3022 N -28 -49 103 -28 27 48 h
.0967 g 2910 2993 N -27 -49 102 -29 28 49 h
.1318 g 2410 2756 N -27 -47 102 -33 28 46 h
.1275 g 2513 2722 N -28 -47 103 -34 27 47 h
.1231 g 2615 2688 N -27 -48 102 -33 28 47 h
.1188 g 2718 2654 N -28 -48 103 -33 27 48 h
.128 g 2438 2802 N -28 -46 103 -33 27 46 h
.1238 g 2540 2769 N -27 -48 102 -32 28 46 h
.1196 g 2643 2735 N -28 -48 103 -33 27 48 h
.1154 g 2745 2702 N -27 -48 102 -33 28 48 h
.1243 g 2465 2848 N -27 -47 102 -32 28 46 h
.1202 g 2568 2815 N -28 -47 103 -32 27 47 h
.1162 g 2670 2783 N -27 -48 102 -32 28 47 h
.1121 g 2773 2750 N -28 -48 103 -33 27 48 h
.1205 g 2493 2894 N -28 -47 103 -32 27 47 h
.1166 g 2595 2862 N -27 -47 102 -32 28 47 h
.1127 g 2698 2830 N -28 -47 103 -32 27 47 h
.1087 g 2800 2798 N -27 -49 102 -31 28 47 h
.1492 g 2300 2583 N -27 -44 102 -37 28 43 h
.1438 g 2403 2545 N -28 -46 103 -37 27 44 h
.1384 g 2505 2506 N -27 -47 102 -37 28 46 h
.133 g 2608 2468 N -28 -47 103 -38 27 47 h
.1447 g 2328 2626 N -28 -44 103 -36 27 43 h
.1396 g 2430 2589 N -27 -45 102 -36 28 44 h
.1345 g 2533 2552 N -28 -46 103 -36 27 45 h
.1294 g 2635 2515 N -27 -48 102 -36 28 46 h
.1403 g 2355 2669 N -27 -45 102 -34 28 43 h
.1355 g 2458 2633 N -28 -46 103 -35 27 45 h
.1307 g 2560 2597 N -27 -47 102 -35 28 46 h
.1259 g 2663 2561 N -28 -48 103 -35 27 47 h
.1359 g 2383 2712 N -28 -44 103 -34 27 44 h
.1313 g 2485 2678 N -27 -45 102 -34 28 44 h
.1268 g 2588 2643 N -28 -46 103 -34 27 45 h
.1223 g 2690 2608 N -27 -48 102 -33 28 46 h
.1635 g 2190 2394 N -27 -48 102 -40 28 47 h
.1574 g 2293 2353 N -28 -48 103 -41 27 48 h
.1512 g 2395 2312 N -27 -50 102 -40 28 48 h
.145 g 2498 2270 N -27 -50 103 -41 27 50 h
.1601 g 2218 2441 N -28 -48 103 -40 27 48 h
.1541 g 2320 2401 N -27 -49 102 -40 28 48 h
.1481 g 2423 2360 N -28 -49 103 -40 27 49 h
.1421 g 2525 2320 N -27 -50 102 -40 28 49 h
.1566 g 2245 2489 N -27 -48 102 -39 28 47 h
.1508 g 2348 2449 N -28 -49 103 -39 27 48 h
.145 g 2450 2409 N -27 -50 102 -39 28 49 h
.1392 g 2553 2369 N -28 -50 103 -40 27 50 h
.1531 g 2273 2536 N -28 -48 103 -38 27 47 h
.1475 g 2375 2497 N -27 -48 102 -39 28 48 h
.1419 g 2478 2458 N -28 -49 103 -38 27 48 h
.1362 g 2580 2419 N -27 -51 102 -38 28 49 h
.177 g 2080 2206 N -27 -49 102 -47 28 47 h
.1691 g 2183 2157 N -27 -51 103 -47 27 49 h
.1611 g 2286 2108 N -28 -53 103 -47 27 51 h
.1532 g 2388 2059 N -27 -55 102 -47 28 53 h
.1737 g 2108 2253 N -28 -49 103 -45 27 47 h
.1662 g 2210 2206 N -27 -51 102 -45 28 49 h
.1587 g 2313 2159 N -27 -53 103 -45 27 51 h
.1512 g 2416 2112 N -28 -55 103 -45 27 53 h
.1703 g 2135 2300 N -27 -49 102 -43 28 47 h
.1633 g 2238 2255 N -28 -51 103 -43 27 49 h
.1563 g 2340 2210 N -27 -53 102 -43 28 51 h
.1493 g 2443 2165 N -27 -54 103 -44 27 53 h
.167 g 2163 2347 N -28 -49 103 -41 27 47 h
.1604 g 2265 2304 N -27 -51 102 -41 28 49 h
.1539 g 2368 2261 N -28 -52 103 -42 27 51 h
.1474 g 2470 2218 N -28 -55 103 -41 28 52 h
.0729 g 3370 3671 N -28 -60 103 -23 27 60 h
.0713 g 3472 3648 N -26 -60 101 -23 28 60 h
.0697 g 3575 3625 N -27 -60 103 -22 26 60 h
.0681 g 3677 3603 N -28 -60 103 -23 27 60 h
.0725 g 3397 3731 N -27 -60 102 -22 28 59 h
.071 g 3500 3708 N -28 -60 102 -23 27 60 h
.0694 g 3601 3685 N -27 -60 102 -22 28 60 h
.0678 g 3704 3663 N -27 -60 103 -23 27 60 h
.0721 g 3425 3790 N -28 -60 103 -22 27 60 h
.0706 g 3527 3768 N -27 -60 101 -23 28 60 h
.0691 g 3629 3745 N -28 -60 103 -22 27 60 h
.0675 g 3731 3723 N -28 -61 103 -22 28 60 h
.0717 g 3452 3850 N -27 -60 102 -22 28 60 h
.0702 g 3555 3828 N -28 -60 102 -23 27 60 h
.0688 g 3656 3805 N -27 -60 102 -22 28 60 h
.0673 g 3759 3783 N -27 -60 103 -22 27 60 h
.077 g 3260 3444 N -27 -57 103 -24 27 57 h
.0751 g 3363 3420 N -28 -57 103 -24 27 57 h
.0732 g 3465 3396 N -27 -58 102 -23 28 57 h
.0713 g 3568 3372 N -28 -58 102 -24 27 58 h
.0759 g 3287 3501 N -27 -57 102 -24 28 57 h
.0741 g 3390 3477 N -27 -58 103 -23 27 57 h
.0723 g 3493 3453 N -27 -57 102 -24 27 58 h
.0705 g 3595 3430 N -27 -58 102 -23 27 57 h
.0748 g 3315 3558 N -28 -57 103 -23 27 56 h
.0731 g 3417 3534 N -28 -57 103 -23 28 57 h
.0713 g 3520 3511 N -27 -58 101 -23 28 57 h
.0696 g 3622 3487 N -28 -58 103 -23 27 58 h
.0737 g 3342 3614 N -27 -57 102 -23 28 57 h
.072 g 3445 3591 N -27 -57 103 -23 27 57 h
.0704 g 3548 3568 N -28 -58 102 -22 27 57 h
.0687 g 3649 3545 N -27 -58 102 -23 28 58 h
.0831 g 3150 3225 N -27 -56 102 -25 28 55 h
.0809 g 3253 3199 N -28 -56 103 -25 27 56 h
.0787 g 3355 3174 N -27 -56 102 -25 28 56 h
.0765 g 3458 3149 N -28 -56 103 -25 27 56 h
.0816 g 3178 3280 N -28 -55 103 -24 27 54 h
.0794 g 3280 3255 N -27 -55 102 -25 28 55 h
.0773 g 3383 3230 N -28 -55 103 -25 27 55 h
.0752 g 3485 3205 N -26 -56 101 -24 28 55 h
.08 g 3205 3334 N -27 -55 102 -24 28 55 h
.0779 g 3308 3310 N -28 -56 103 -24 27 55 h
.0759 g 3410 3285 N -27 -56 102 -25 28 56 h
.0738 g 3513 3260 N -28 -56 102 -24 27 56 h
.0784 g 3233 3389 N -28 -55 103 -24 27 55 h
.0764 g 3335 3365 N -27 -55 102 -24 28 55 h
.0744 g 3438 3341 N -28 -56 103 -24 27 55 h
.0725 g 3540 3316 N -27 -56 101 -24 28 56 h
.0913 g 3040 3013 N -27 -53 102 -26 28 53 h
.0887 g 3143 2987 N -28 -53 103 -27 27 53 h
.0861 g 3245 2960 N -27 -54 102 -26 28 53 h
.0835 g 3348 2933 N -28 -54 103 -27 27 54 h
.0892 g 3068 3066 N -28 -53 103 -26 27 53 h
.0867 g 3170 3040 N -27 -54 102 -26 28 53 h
.0842 g 3273 3013 N -28 -54 103 -26 27 54 h
.0817 g 3375 2987 N -27 -55 102 -26 28 54 h
.0871 g 3095 3119 N -27 -53 102 -26 28 53 h
.0847 g 3198 3093 N -28 -53 103 -26 27 53 h
.0823 g 3300 3067 N -27 -54 102 -25 28 53 h
.0799 g 3403 3041 N -28 -54 103 -26 27 54 h
.085 g 3123 3172 N -28 -53 103 -26 27 53 h
.0827 g 3225 3146 N -27 -54 102 -25 28 53 h
.0804 g 3328 3120 N -28 -54 103 -25 27 54 h
.0781 g 3430 3095 N -27 -55 102 -25 28 54 h
.1021 g 2930 2814 N -27 -50 102 -29 28 50 h
.0991 g 3033 2785 N -28 -51 103 -28 27 50 h
.096 g 3135 2756 N -27 -51 102 -29 28 51 h
.0929 g 3238 2727 N -28 -52 103 -28 27 51 h
.0993 g 2958 2864 N -28 -51 103 -28 27 50 h
.0964 g 3060 2835 N -27 -51 102 -28 28 51 h
.0934 g 3163 2807 N -28 -52 103 -28 27 51 h
.0905 g 3265 2778 N -27 -52 102 -28 28 52 h
.0965 g 2985 2914 N -27 -50 102 -28 28 50 h
.0937 g 3088 2886 N -28 -51 103 -27 27 50 h
.0909 g 3190 2858 N -27 -51 102 -28 28 51 h
.088 g 3293 2830 N -28 -52 103 -27 27 51 h
.0937 g 3013 2964 N -28 -51 103 -26 27 49 h
.091 g 3115 2936 N -27 -51 102 -27 28 51 h
.0883 g 3218 2909 N -28 -52 103 -27 27 51 h
.0856 g 3320 2881 N -27 -52 102 -27 28 52 h
.1148 g 2820 2621 N -27 -49 102 -31 28 48 h
.1111 g 2923 2589 N -28 -49 103 -31 27 49 h
.1074 g 3025 2558 N -27 -50 102 -30 28 49 h
.1038 g 3128 2527 N -27 -51 103 -31 27 50 h
.1116 g 2848 2669 N -28 -49 103 -30 27 48 h
.1081 g 2950 2638 N -27 -50 102 -30 28 49 h
.1045 g 3053 2607 N -28 -50 103 -30 27 50 h
.101 g 3155 2577 N -27 -51 102 -30 28 50 h
.1084 g 2875 2717 N -27 -49 102 -29 28 48 h
.105 g 2978 2687 N -28 -49 103 -30 27 49 h
.1016 g 3080 2657 N -27 -50 102 -29 28 49 h
.0982 g 3183 2627 N -28 -50 103 -30 27 50 h
.1051 g 2903 2765 N -28 -49 103 -29 27 49 h
.1019 g 3005 2736 N -27 -50 102 -29 28 49 h
.0987 g 3108 2706 N -28 -50 103 -29 27 50 h
.0955 g 3210 2677 N -27 -51 102 -29 28 50 h
.1282 g 2710 2430 N -27 -48 102 -33 28 47 h
.1239 g 2813 2396 N -27 -49 103 -33 27 48 h
.1196 g 2916 2362 N -28 -49 103 -33 27 49 h
.1153 g 3018 2329 N -27 -50 102 -33 28 49 h
.1248 g 2738 2477 N -28 -49 103 -32 27 48 h
.1207 g 2840 2444 N -27 -49 102 -33 28 49 h
.1166 g 2943 2411 N -27 -50 103 -32 27 49 h
.1124 g 3046 2378 N -28 -50 103 -33 27 50 h
.1215 g 2765 2525 N -27 -48 102 -32 28 48 h
.1175 g 2868 2493 N -28 -49 103 -32 27 48 h
.1135 g 2970 2460 N -28 -49 103 -32 28 49 h
.1095 g 3073 2428 N -27 -50 102 -32 28 49 h
.1181 g 2793 2573 N -28 -48 103 -32 27 48 h
.1143 g 2895 2541 N -27 -49 102 -31 28 48 h
.1104 g 2998 2509 N -27 -50 103 -31 27 49 h
.1066 g 3101 2477 N -28 -50 103 -32 27 50 h
.1395 g 2601 2229 N -28 -51 103 -35 27 50 h
.1347 g 2703 2193 N -27 -51 102 -35 28 51 h
.13 g 2806 2158 N -28 -52 103 -35 27 51 h
.1252 g 2908 2122 N -27 -52 102 -35 28 52 h
.1367 g 2628 2279 N -27 -51 103 -34 27 50 h
.1321 g 2731 2244 N -28 -51 103 -35 27 51 h
.1274 g 2833 2209 N -27 -52 102 -34 28 51 h
.1228 g 2936 2174 N -28 -52 103 -35 27 52 h
.134 g 2655 2329 N -27 -50 102 -34 28 50 h
.1295 g 2758 2295 N -27 -51 103 -34 27 50 h
.1249 g 2861 2260 N -28 -51 103 -34 27 51 h
.1204 g 2963 2226 N -27 -52 102 -34 28 51 h
.1312 g 2683 2379 N -28 -51 103 -34 27 51 h
.1268 g 2785 2345 N -28 -51 103 -34 28 51 h
.1224 g 2888 2311 N -27 -52 102 -33 28 51 h
.118 g 2991 2277 N -28 -52 103 -34 27 52 h
.1467 g 2491 2010 N -28 -54 103 -36 27 55 h
.1418 g 2593 1975 N -27 -54 102 -36 28 54 h
.1369 g 2696 1939 N -28 -55 103 -35 27 54 h
.132 g 2798 1903 N -27 -55 102 -36 28 55 h
.1451 g 2518 2065 N -27 -55 102 -36 28 55 h
.1402 g 2621 2029 N -28 -55 103 -36 27 55 h
.1353 g 2723 1993 N -27 -55 102 -35 28 55 h
.1304 g 2826 1958 N -28 -55 103 -36 27 55 h
.1434 g 2546 2120 N -28 -55 103 -35 27 54 h
.1385 g 2648 2084 N -27 -55 102 -36 28 55 h
.1337 g 2751 2048 N -28 -54 103 -36 27 55 h
.1288 g 2853 2013 N -27 -55 102 -35 28 54 h
.1417 g 2573 2174 N -27 -54 102 -36 28 55 h
.1369 g 2676 2139 N -28 -55 103 -35 27 54 h
.132 g 2778 2103 N -27 -55 102 -36 28 55 h
.1272 g 2881 2067 N -28 -55 103 -35 27 55 h
.0666 g 3779 3580 N -27 -61 102 -22 28 60 h
.065 g 3882 3557 N -28 -60 103 -23 27 61 h
.0635 g 3984 3535 N -27 -61 102 -22 28 60 h
.062 g 4087 3512 N -28 -62 103 -22 27 61 h
.0663 g 3807 3640 N -28 -60 103 -22 27 60 h
.0649 g 3909 3618 N -27 -61 102 -22 28 60 h
.0634 g 4012 3595 N -28 -61 103 -22 27 61 h
.0619 g 4114 3573 N -27 -61 102 -22 28 61 h
.0661 g 3834 3700 N -27 -61 102 -22 28 61 h
.0647 g 3937 3678 N -28 -61 103 -22 27 61 h
.0633 g 4039 3656 N -27 -61 102 -22 28 61 h
.0619 g 4142 3634 N -28 -61 103 -22 27 61 h
.0658 g 3862 3761 N -28 -60 103 -22 27 60 h
.0645 g 3964 3739 N -27 -61 102 -21 28 60 h
.0632 g 4067 3717 N -28 -61 103 -22 27 61 h
.0619 g 4169 3695 N -27 -62 102 -21 28 61 h
.0695 g 3669 3348 N -27 -58 102 -24 28 58 h
.0677 g 3772 3324 N -28 -59 103 -23 27 58 h
.0659 g 3874 3300 N -27 -58 102 -24 28 59 h
.0641 g 3977 3277 N -28 -59 103 -23 27 58 h
.0687 g 3697 3406 N -28 -59 103 -23 27 58 h
.0669 g 3799 3382 N -27 -58 102 -24 28 59 h
.0652 g 3902 3359 N -28 -59 103 -23 27 58 h
.0635 g 4004 3335 N -27 -59 102 -23 28 59 h
.0679 g 3724 3464 N -27 -58 102 -23 28 58 h
.0662 g 3827 3441 N -28 -59 103 -23 27 58 h
.0645 g 3929 3417 N -27 -59 102 -23 28 59 h
.0629 g 4032 3394 N -28 -59 103 -23 27 59 h
.0671 g 3752 3522 N -28 -58 103 -23 27 58 h
.0655 g 3854 3499 N -27 -59 102 -22 28 58 h
.0639 g 3957 3476 N -28 -59 103 -23 27 59 h
.0623 g 4059 3453 N -27 -59 102 -23 28 59 h
.0744 g 3560 3124 N -27 -56 101 -25 28 56 h
.0724 g 3662 3099 N -28 -57 103 -24 27 56 h
.0703 g 3764 3074 N -27 -56 102 -25 28 57 h
.0683 g 3867 3050 N -28 -57 103 -24 27 56 h
.0731 g 3588 3180 N -28 -56 103 -25 26 56 h
.0711 g 3689 3155 N -27 -56 102 -24 28 56 h
.0691 g 3792 3131 N -28 -57 103 -24 27 56 h
.0672 g 3894 3106 N -27 -57 102 -24 28 57 h
.0718 g 3614 3236 N -27 -57 102 -24 28 56 h
.0699 g 3717 3211 N -28 -57 103 -24 27 57 h
.068 g 3819 3187 N -27 -57 102 -24 28 57 h
.066 g 3922 3163 N -28 -57 103 -24 27 57 h
.0705 g 3642 3292 N -28 -56 103 -24 27 56 h
.0687 g 3744 3268 N -27 -56 102 -24 28 56 h
.0668 g 3847 3244 N -28 -57 103 -23 27 56 h
.0649 g 3949 3220 N -27 -57 102 -24 28 57 h
.081 g 3450 2906 N -27 -55 102 -25 28 54 h
.0787 g 3553 2880 N -28 -55 102 -26 27 55 h
.0763 g 3654 2854 N -27 -55 102 -26 28 55 h
.0739 g 3757 2828 N -27 -56 103 -25 27 55 h
.0793 g 3478 2960 N -27 -54 102 -26 27 55 h
.077 g 3580 2935 N -27 -55 102 -25 27 54 h
.0748 g 3682 2909 N -28 -56 103 -25 27 55 h
.0725 g 3784 2883 N -28 -56 103 -25 28 56 h
.0776 g 3505 3015 N -27 -55 101 -25 28 54 h
.0754 g 3607 2989 N -28 -55 103 -25 27 55 h
.0732 g 3709 2964 N -27 -55 102 -25 28 55 h
.071 g 3812 2939 N -27 -55 103 -25 27 55 h
.0759 g 3533 3069 N -28 -55 102 -25 27 55 h
.0738 g 3634 3044 N -27 -55 102 -25 28 55 h
.0717 g 3737 3019 N -28 -56 103 -24 27 55 h
.0696 g 3839 2994 N -27 -56 102 -25 28 56 h
.0899 g 3340 2698 N -27 -53 102 -27 28 52 h
.0871 g 3443 2670 N -27 -53 103 -28 27 53 h
.0843 g 3546 2642 N -28 -53 102 -27 27 53 h
.0815 g 3647 2615 N -27 -54 102 -27 28 53 h
.0876 g 3368 2750 N -28 -52 103 -27 27 52 h
.0849 g 3470 2723 N -27 -53 102 -27 28 52 h
.0822 g 3573 2695 N -27 -53 102 -27 27 53 h
.0795 g 3675 2668 N -28 -53 103 -27 27 53 h
.0853 g 3395 2802 N -27 -53 102 -26 28 52 h
.0827 g 3498 2775 N -27 -53 102 -27 27 53 h
.0802 g 3600 2748 N -28 -54 103 -26 27 53 h
.0776 g 3702 2721 N -27 -54 102 -27 28 54 h
.083 g 3423 2854 N -28 -52 103 -26 27 52 h
.0806 g 3525 2828 N -27 -53 101 -26 28 52 h
.0781 g 3627 2801 N -27 -53 103 -26 27 53 h
.0756 g 3730 2775 N -28 -54 103 -26 27 53 h
.1002 g 3231 2495 N -28 -52 103 -29 27 51 h
.0969 g 3333 2465 N -27 -52 102 -30 28 52 h
.0936 g 3436 2435 N -28 -53 103 -29 27 52 h
.0902 g 3538 2405 N -27 -52 101 -30 28 53 h
.0976 g 3258 2546 N -27 -51 103 -29 27 51 h
.0944 g 3361 2517 N -28 -52 103 -29 27 51 h
.0912 g 3463 2487 N -27 -52 102 -29 28 52 h
.088 g 3566 2458 N -28 -53 102 -29 27 52 h
.095 g 3285 2597 N -28 -51 103 -28 28 50 h
.0919 g 3388 2568 N -27 -52 102 -28 28 51 h
.0889 g 3491 2539 N -27 -52 102 -29 27 52 h
.0858 g 3593 2510 N -27 -53 102 -28 27 52 h
.0924 g 3313 2647 N -27 -51 103 -28 27 51 h
.0895 g 3416 2619 N -28 -51 103 -28 27 51 h
.0865 g 3518 2591 N -27 -53 101 -27 28 51 h
.0836 g 3620 2562 N -28 -53 103 -28 27 53 h
.1111 g 3121 2295 N -28 -51 103 -32 27 50 h
.107 g 3223 2262 N -27 -51 102 -33 28 51 h
.1029 g 3326 2229 N -28 -52 103 -32 27 51 h
.0988 g 3428 2196 N -27 -53 102 -32 28 52 h
.1084 g 3148 2345 N -27 -51 102 -31 28 50 h
.1045 g 3251 2313 N -28 -52 103 -32 27 51 h
.1006 g 3353 2280 N -27 -53 102 -31 28 52 h
.0966 g 3456 2248 N -28 -53 103 -32 27 53 h
.1057 g 3176 2395 N -28 -51 103 -30 27 50 h
.1019 g 3278 2364 N -27 -52 102 -31 28 51 h
.0982 g 3381 2332 N -28 -52 103 -31 27 52 h
.0945 g 3483 2301 N -26 -53 101 -31 28 52 h
.1029 g 3203 2445 N -27 -50 102 -30 28 50 h
.0994 g 3306 2415 N -28 -51 103 -30 27 50 h
.0959 g 3408 2384 N -27 -52 102 -30 28 51 h
.0924 g 3511 2353 N -28 -54 102 -29 27 52 h
.1205 g 3011 2087 N -28 -52 103 -35 27 52 h
.1159 g 3113 2052 N -27 -53 102 -34 28 52 h
.1113 g 3216 2017 N -28 -54 103 -34 27 53 h
.1067 g 3318 1982 N -27 -53 102 -35 28 54 h
.1182 g 3038 2139 N -27 -53 102 -34 28 52 h
.1137 g 3141 2104 N -28 -53 103 -34 27 53 h
.1092 g 3243 2070 N -27 -53 102 -34 28 53 h
.1048 g 3346 2036 N -28 -54 103 -34 27 53 h
.1159 g 3066 2191 N -28 -52 103 -34 27 52 h
.1116 g 3168 2157 N -27 -53 102 -33 28 52 h
.1072 g 3271 2123 N -28 -53 103 -34 27 53 h
.1028 g 3373 2089 N -27 -54 102 -33 28 53 h
.1136 g 3093 2243 N -27 -53 102 -33 28 52 h
.1094 g 3196 2209 N -28 -53 103 -33 27 53 h
.1051 g 3298 2176 N -27 -54 102 -33 28 53 h
.1008 g 3401 2142 N -28 -54 103 -33 27 54 h
.1271 g 2901 1867 N -28 -55 103 -36 27 55 h
.1222 g 3003 1831 N -27 -55 102 -36 28 55 h
.1173 g 3106 1795 N -28 -56 103 -35 27 55 h
.1123 g 3208 1759 N -27 -56 102 -36 28 56 h
.1255 g 2928 1922 N -27 -55 102 -36 28 55 h
.1207 g 3031 1886 N -28 -56 103 -35 27 55 h
.1159 g 3133 1850 N -27 -55 102 -36 28 56 h
.111 g 3236 1815 N -28 -56 103 -35 27 55 h
.124 g 2956 1977 N -28 -56 103 -35 27 55 h
.1192 g 3058 1941 N -27 -56 102 -35 28 56 h
.1145 g 3161 1906 N -28 -56 103 -36 27 56 h
.1097 g 3263 1870 N -27 -56 102 -35 28 56 h
.1224 g 2983 2032 N -27 -55 102 -35 28 55 h
.1177 g 3086 1997 N -28 -55 103 -35 27 55 h
.1131 g 3188 1962 N -27 -56 102 -35 28 55 h
.1084 g 3291 1926 N -28 -57 103 -34 27 56 h
.0607 g 4189 3489 N -27 -61 102 -21 28 62 h
.0596 g 4292 3469 N -28 -62 103 -20 27 61 h
.0585 g 4394 3448 N -27 -62 102 -21 28 62 h
.0575 g 4497 3427 N -28 -62 103 -21 27 62 h
.0607 g 4217 3551 N -28 -62 103 -20 27 61 h
.0597 g 4319 3530 N -27 -61 102 -21 28 62 h
.0587 g 4422 3510 N -28 -62 103 -20 27 61 h
.0577 g 4524 3489 N -27 -63 102 -20 28 62 h
.0607 g 4244 3612 N -27 -61 102 -20 28 61 h
.0598 g 4347 3592 N -28 -62 103 -20 27 61 h
.0588 g 4449 3571 N -27 -62 102 -20 28 62 h
.0579 g 4552 3551 N -28 -62 103 -20 27 62 h
.0608 g 4272 3673 N -28 -62 103 -20 27 62 h
.0599 g 4374 3653 N -27 -62 102 -20 28 62 h
.059 g 4477 3633 N -28 -62 103 -20 27 62 h
.0581 g 4579 3613 N -27 -62 102 -20 28 62 h
.0626 g 4079 3253 N -27 -59 102 -21 28 59 h
.0613 g 4182 3232 N -28 -60 103 -21 27 59 h
.0601 g 4284 3210 N -28 -60 103 -21 28 60 h
.0589 g 4387 3189 N -27 -60 102 -21 28 60 h
.062 g 4107 3312 N -28 -59 103 -21 27 59 h
.0608 g 4209 3291 N -27 -59 102 -21 28 59 h
.0597 g 4312 3270 N -27 -59 103 -21 27 59 h
.0585 g 4415 3249 N -28 -59 103 -21 27 59 h
.0615 g 4134 3371 N -27 -59 102 -21 28 59 h
.0603 g 4237 3350 N -28 -59 103 -21 27 59 h
.0592 g 4339 3329 N -27 -60 102 -20 28 59 h
.058 g 4442 3308 N -27 -60 103 -21 27 60 h
.0609 g 4162 3430 N -28 -60 103 -20 27 59 h
.0598 g 4264 3409 N -27 -60 102 -21 28 60 h
.0587 g 4367 3388 N -28 -59 103 -21 27 60 h
.0576 g 4469 3368 N -27 -59 102 -21 28 59 h
.0666 g 3969 3025 N -27 -57 102 -22 28 57 h
.0652 g 4072 3003 N -27 -57 103 -22 27 57 h
.0638 g 4175 2981 N -28 -58 103 -21 27 57 h
.0624 g 4277 2959 N -27 -58 102 -22 28 58 h
.0655 g 3997 3082 N -28 -57 103 -22 27 57 h
.0642 g 4099 3060 N -28 -58 103 -21 28 57 h
.0628 g 4202 3038 N -27 -57 102 -22 28 58 h
.0615 g 4305 3017 N -28 -58 103 -21 27 57 h
.0644 g 4024 3139 N -27 -58 102 -21 28 57 h
.0631 g 4127 3117 N -27 -57 103 -22 27 58 h
.0619 g 4230 3096 N -28 -58 103 -21 27 57 h
.0606 g 4332 3074 N -27 -57 102 -22 28 58 h
.0634 g 4052 3196 N -28 -57 103 -21 27 57 h
.0621 g 4154 3175 N -27 -57 102 -22 28 57 h
.0609 g 4257 3153 N -27 -57 103 -21 27 57 h
.0596 g 4360 3132 N -28 -58 103 -21 27 57 h
.072 g 3860 2802 N -28 -56 103 -23 27 56 h
.0703 g 3962 2779 N -27 -56 102 -23 28 56 h
.0687 g 4065 2756 N -28 -57 103 -22 27 56 h
.0671 g 4167 2733 N -27 -57 102 -23 28 57 h
.0706 g 3887 2858 N -27 -56 102 -23 28 56 h
.069 g 3990 2835 N -28 -57 103 -22 27 56 h
.0675 g 4092 2812 N -27 -56 102 -23 28 57 h
.0659 g 4195 2790 N -28 -57 103 -22 27 56 h
.0692 g 3915 2914 N -28 -56 103 -22 27 55 h
.0677 g 4017 2891 N -27 -56 102 -22 28 56 h
.0662 g 4120 2869 N -28 -57 103 -22 27 56 h
.0647 g 4222 2846 N -27 -56 102 -23 28 57 h
.0678 g 3942 2969 N -27 -56 103 -22 27 56 h
.0664 g 4045 2947 N -28 -56 103 -22 27 56 h
.0649 g 4147 2925 N -27 -56 102 -22 28 56 h
.0635 g 4250 2903 N -28 -57 103 -22 27 56 h
.0791 g 3750 2587 N -28 -54 103 -24 27 54 h
.0772 g 3852 2563 N -27 -55 102 -24 28 54 h
.0752 g 3955 2538 N -28 -55 103 -24 27 55 h
.0733 g 4057 2514 N -27 -55 102 -24 28 55 h
.0773 g 3777 2641 N -27 -54 102 -23 28 53 h
.0754 g 3880 2617 N -28 -54 103 -24 27 54 h
.0736 g 3982 2593 N -27 -55 102 -23 28 54 h
.0717 g 4085 2569 N -28 -55 103 -24 27 55 h
.0754 g 3805 2694 N -28 -54 103 -23 27 54 h
.0736 g 3907 2671 N -27 -55 102 -23 28 54 h
.0719 g 4010 2647 N -28 -55 103 -23 27 55 h
.0701 g 4112 2624 N -27 -55 102 -24 28 55 h
.0736 g 3832 2748 N -27 -54 102 -23 28 54 h
.0719 g 3935 2725 N -28 -54 103 -23 27 54 h
.0702 g 4037 2702 N -27 -54 102 -23 28 54 h
.0685 g 4140 2679 N -28 -55 103 -23 27 54 h
.0874 g 3640 2376 N -28 -53 103 -25 27 52 h
.085 g 3742 2350 N -27 -53 102 -26 28 53 h
.0827 g 3845 2324 N -28 -54 103 -25 27 53 h
.0803 g 3947 2298 N -27 -54 102 -26 28 54 h
.0853 g 3667 2428 N -27 -53 102 -25 28 53 h
.083 g 3770 2403 N -28 -54 103 -25 27 53 h
.0808 g 3872 2377 N -27 -54 102 -25 28 54 h
.0786 g 3975 2352 N -28 -55 103 -25 27 54 h
.0832 g 3695 2481 N -28 -53 103 -25 27 53 h
.081 g 3797 2456 N -27 -54 102 -24 28 53 h
.0789 g 3900 2431 N -28 -54 103 -25 27 54 h
.0768 g 4002 2406 N -27 -54 102 -25 28 54 h
.0811 g 3722 2534 N -27 -54 102 -24 28 53 h
.079 g 3825 2509 N -28 -53 103 -25 27 54 h
.077 g 3927 2485 N -27 -54 102 -24 28 53 h
.075 g 4030 2460 N -28 -55 103 -24 27 54 h
.0954 g 3531 2163 N -28 -54 102 -27 27 53 h
.0926 g 3632 2135 N -27 -54 102 -27 28 54 h
.0899 g 3735 2108 N -28 -55 103 -27 27 54 h
.0872 g 3837 2080 N -27 -55 102 -27 28 55 h
.0934 g 3558 2216 N -27 -53 101 -27 28 53 h
.0907 g 3660 2189 N -28 -54 103 -26 27 53 h
.0881 g 3762 2162 N -27 -54 102 -27 28 54 h
.0855 g 3865 2135 N -28 -54 103 -27 27 54 h
.0914 g 3586 2269 N -28 -54 103 -26 26 53 h
.0889 g 3687 2242 N -27 -54 102 -26 28 54 h
.0863 g 3790 2216 N -28 -55 103 -26 27 54 h
.0838 g 3892 2189 N -27 -55 102 -27 28 55 h
.0894 g 3612 2322 N -27 -54 102 -26 28 54 h
.087 g 3715 2296 N -28 -54 103 -26 27 54 h
.0845 g 3817 2270 N -27 -54 102 -26 28 54 h
.0821 g 3920 2244 N -28 -55 103 -26 27 54 h
.1029 g 3421 1948 N -28 -54 103 -28 27 53 h
.0998 g 3523 1919 N -27 -55 101 -28 28 54 h
.0968 g 3625 1890 N -27 -54 103 -29 27 55 h
.0937 g 3728 1862 N -28 -55 103 -28 27 54 h
.101 g 3448 2001 N -27 -54 102 -28 28 54 h
.0981 g 3551 1973 N -28 -54 102 -28 27 54 h
.0951 g 3652 1945 N -28 -55 103 -28 28 54 h
.0921 g 3755 1916 N -27 -55 102 -28 28 55 h
.0992 g 3476 2055 N -27 -54 102 -28 27 54 h
.0963 g 3578 2027 N -27 -54 102 -28 27 54 h
.0934 g 3680 1999 N -27 -55 103 -27 27 54 h
.0905 g 3783 1971 N -28 -55 103 -28 27 55 h
.0973 g 3503 2109 N -27 -54 101 -28 28 54 h
.0945 g 3605 2081 N -28 -55 103 -27 27 54 h
.0917 g 3707 2053 N -27 -54 102 -28 28 55 h
.0889 g 3810 2026 N -27 -55 103 -27 27 54 h
.1083 g 3311 1723 N -27 -56 103 -29 27 56 h
.1052 g 3414 1694 N -28 -57 103 -28 27 56 h
.1022 g 3516 1665 N -27 -56 101 -29 28 57 h
.0991 g 3618 1637 N -28 -56 103 -29 27 56 h
.107 g 3338 1779 N -28 -56 103 -29 28 56 h
.104 g 3441 1750 N -27 -56 102 -28 28 56 h
.1009 g 3544 1722 N -28 -56 102 -29 27 56 h
.0978 g 3645 1693 N -27 -56 102 -29 28 56 h
.1058 g 3366 1835 N -27 -57 103 -28 27 56 h
.1027 g 3469 1806 N -28 -56 103 -29 27 57 h
.0996 g 3571 1778 N -27 -56 101 -29 28 56 h
.0965 g 3673 1749 N -28 -57 103 -28 27 56 h
.1045 g 3393 1891 N -27 -56 102 -29 28 57 h
.1014 g 3496 1863 N -26 -56 102 -29 27 56 h
.0983 g 3599 1834 N -28 -57 103 -28 26 56 h
.0952 g 3700 1805 N -27 -56 102 -29 28 57 h
.0564 g 4599 3406 N -28 -62 103 -20 28 62 h
.0555 g 4702 3386 N -27 -62 102 -20 28 62 h
.0546 g 4805 3366 N -28 -61 103 -21 27 62 h
.0536 g 4907 3346 N -27 -61 102 -20 28 61 h
.0566 g 4627 3468 N -27 -62 103 -21 27 63 h
.0556 g 4730 3448 N -28 -61 103 -21 27 62 h
.0545 g 4832 3428 N -27 -61 102 -21 28 61 h
.0535 g 4935 3407 N -28 -61 103 -20 27 61 h
.0568 g 4654 3531 N -27 -62 102 -21 28 62 h
.0557 g 4757 3510 N -27 -62 103 -21 27 62 h
.0545 g 4860 3489 N -28 -61 103 -22 27 62 h
.0534 g 4962 3468 N -27 -60 102 -21 28 61 h
.057 g 4682 3593 N -28 -62 103 -21 27 62 h
.0558 g 4784 3572 N -27 -61 102 -22 28 62 h
.0545 g 4887 3551 N -27 -62 103 -21 27 61 h
.0533 g 4990 3529 N -28 -61 103 -22 27 62 h
.0578 g 4490 3168 N -28 -60 103 -21 27 60 h
.0567 g 4592 3147 N -27 -60 102 -21 28 60 h
.0557 g 4695 3126 N -28 -60 103 -20 27 60 h
.0546 g 4797 3106 N -27 -60 102 -21 28 60 h
.0574 g 4517 3228 N -27 -60 102 -20 28 59 h
.0564 g 4620 3207 N -28 -60 103 -21 27 60 h
.0553 g 4722 3186 N -27 -60 102 -20 28 60 h
.0543 g 4825 3166 N -28 -61 103 -20 27 60 h
.057 g 4545 3287 N -28 -59 103 -21 27 60 h
.056 g 4647 3267 N -27 -60 102 -20 28 59 h
.055 g 4750 3246 N -28 -60 103 -20 27 60 h
.0541 g 4852 3226 N -27 -60 102 -20 28 60 h
.0566 g 4572 3347 N -27 -60 103 -20 27 59 h
.0556 g 4675 3326 N -28 -60 103 -20 27 60 h
.0547 g 4777 3306 N -27 -60 102 -20 28 60 h
.0538 g 4880 3286 N -28 -60 103 -20 27 60 h
.0612 g 4380 2937 N -28 -58 103 -21 27 58 h
.0601 g 4482 2916 N -27 -58 102 -21 28 58 h
.0589 g 4585 2895 N -28 -58 103 -21 27 58 h
.0578 g 4687 2874 N -27 -58 102 -21 28 58 h
.0603 g 4407 2995 N -27 -58 102 -21 28 58 h
.0592 g 4510 2974 N -28 -58 103 -21 27 58 h
.058 g 4612 2953 N -27 -58 102 -21 28 58 h
.0569 g 4715 2932 N -28 -58 103 -21 27 58 h
.0594 g 4435 3053 N -28 -57 103 -21 27 57 h
.0583 g 4537 3032 N -27 -58 102 -20 28 57 h
.0571 g 4640 3011 N -28 -58 103 -21 27 58 h
.056 g 4742 2990 N -27 -58 102 -21 28 58 h
.0585 g 4462 3110 N -27 -58 102 -21 28 58 h
.0574 g 4565 3089 N -28 -57 103 -21 27 58 h
.0563 g 4667 3069 N -27 -58 102 -20 28 57 h
.0551 g 4770 3048 N -28 -58 103 -21 27 58 h
.0657 g 4270 2710 N -28 -57 103 -21 27 57 h
.0644 g 4372 2689 N -27 -57 102 -22 28 57 h
.0631 g 4475 2667 N -28 -57 103 -21 27 57 h
.0618 g 4577 2646 N -27 -57 102 -22 28 57 h
.0645 g 4297 2767 N -27 -56 102 -22 28 57 h
.0633 g 4400 2746 N -28 -57 103 -21 27 56 h
.062 g 4502 2724 N -27 -57 102 -21 28 57 h
.0608 g 4605 2703 N -28 -58 103 -21 27 57 h
.0634 g 4325 2824 N -28 -57 103 -21 27 56 h
.0622 g 4427 2802 N -27 -57 102 -21 28 57 h
.061 g 4530 2781 N -28 -57 103 -21 27 57 h
.0598 g 4632 2760 N -27 -57 102 -21 28 57 h
.0622 g 4352 2880 N -27 -57 102 -21 28 57 h
.0611 g 4455 2859 N -28 -57 103 -21 27 57 h
.0599 g 4557 2838 N -27 -57 102 -21 28 57 h
.0587 g 4660 2817 N -28 -57 103 -21 27 57 h
.0716 g 4160 2490 N -28 -56 103 -22 27 55 h
.0701 g 4262 2467 N -27 -55 102 -23 28 56 h
.0686 g 4365 2445 N -28 -56 103 -22 27 55 h
.0671 g 4467 2422 N -28 -56 103 -22 28 56 h
.0701 g 4187 2545 N -27 -55 102 -22 28 55 h
.0686 g 4290 2523 N -28 -56 103 -22 27 55 h
.0672 g 4392 2500 N -27 -56 102 -22 28 56 h
.0657 g 4495 2478 N -27 -56 103 -22 27 56 h
.0685 g 4215 2600 N -28 -55 103 -22 27 55 h
.0671 g 4317 2578 N -27 -56 102 -21 28 55 h
.0657 g 4420 2556 N -28 -56 103 -22 27 56 h
.0643 g 4522 2534 N -27 -56 102 -22 28 56 h
.067 g 4242 2655 N -27 -56 102 -21 28 55 h
.0657 g 4345 2633 N -28 -55 103 -22 27 56 h
.0643 g 4447 2612 N -27 -56 102 -21 28 55 h
.063 g 4550 2590 N -28 -56 103 -22 27 56 h
.0783 g 4050 2272 N -28 -54 103 -23 27 54 h
.0766 g 4152 2249 N -28 -55 103 -23 28 54 h
.0749 g 4255 2225 N -27 -55 102 -23 28 55 h
.0732 g 4358 2202 N -28 -55 103 -23 27 55 h
.0766 g 4077 2326 N -27 -55 102 -23 28 55 h
.075 g 4180 2303 N -27 -55 103 -23 27 55 h
.0733 g 4283 2280 N -28 -55 103 -23 27 55 h
.0716 g 4385 2257 N -27 -55 102 -23 28 55 h
.0749 g 4105 2381 N -28 -55 103 -22 27 54 h
.0733 g 4207 2358 N -27 -55 102 -23 28 55 h
.0717 g 4310 2335 N -27 -55 103 -23 27 55 h
.0701 g 4413 2312 N -28 -56 103 -22 27 55 h
.0732 g 4132 2435 N -27 -54 102 -23 28 55 h
.0716 g 4235 2413 N -28 -55 103 -22 27 54 h
.0701 g 4337 2390 N -27 -55 102 -23 28 55 h
.0685 g 4440 2367 N -27 -55 103 -22 27 55 h
.0849 g 3940 2053 N -27 -55 103 -24 27 55 h
.0829 g 4043 2029 N -28 -56 103 -24 27 55 h
.0809 g 4145 2004 N -27 -56 102 -24 28 56 h
.079 g 4248 1980 N -28 -56 103 -24 27 56 h
.0832 g 3967 2108 N -28 -55 103 -23 28 54 h
.0813 g 4070 2084 N -27 -55 102 -24 28 55 h
.0795 g 4173 2060 N -28 -55 103 -24 27 55 h
.0776 g 4275 2036 N -27 -55 102 -24 28 55 h
.0816 g 3995 2162 N -27 -55 103 -23 27 55 h
.0798 g 4098 2139 N -28 -55 103 -24 27 55 h
.078 g 4200 2115 N -27 -56 102 -23 28 55 h
.0761 g 4303 2091 N -28 -56 103 -24 27 56 h
.08 g 4022 2217 N -27 -55 102 -23 28 55 h
.0782 g 4125 2194 N -27 -55 103 -24 27 55 h
.0765 g 4228 2170 N -28 -55 103 -23 27 55 h
.0747 g 4330 2147 N -27 -56 102 -23 28 55 h
.0911 g 3830 1833 N -27 -55 102 -25 28 55 h
.089 g 3933 1808 N -28 -55 103 -25 27 55 h
.0868 g 4035 1783 N -27 -55 102 -25 28 55 h
.0847 g 4138 1758 N -28 -55 103 -25 27 55 h
.0896 g 3858 1888 N -28 -55 103 -25 27 55 h
.0875 g 3960 1863 N -27 -56 102 -24 28 55 h
.0854 g 4063 1838 N -28 -56 103 -25 27 56 h
.0833 g 4165 1813 N -27 -56 102 -25 28 56 h
.088 g 3885 1943 N -27 -55 102 -25 28 55 h
.086 g 3988 1918 N -28 -55 103 -24 27 55 h
.0839 g 4090 1894 N -27 -56 102 -24 28 55 h
.0818 g 4193 1869 N -28 -56 103 -25 27 56 h
.0865 g 3913 1998 N -28 -56 103 -24 27 55 h
.0844 g 4015 1973 N -27 -55 102 -25 28 56 h
.0824 g 4118 1949 N -28 -55 103 -24 27 55 h
.0804 g 4220 1925 N -27 -56 102 -24 28 55 h
.0964 g 3720 1608 N -27 -56 102 -25 28 56 h
.0942 g 3823 1583 N -28 -57 103 -25 27 56 h
.0919 g 3925 1557 N -27 -56 102 -26 28 57 h
.0896 g 4028 1532 N -28 -57 103 -25 27 56 h
.0951 g 3748 1664 N -28 -56 103 -25 27 56 h
.0929 g 3850 1639 N -27 -56 102 -25 28 56 h
.0907 g 3953 1614 N -28 -57 103 -25 27 56 h
.0884 g 4055 1588 N -27 -57 102 -25 28 57 h
.0939 g 3775 1720 N -27 -57 102 -25 28 57 h
.0916 g 3878 1695 N -28 -56 103 -26 27 57 h
.0894 g 3980 1670 N -27 -56 102 -25 28 56 h
.0872 g 4083 1645 N -28 -56 103 -25 27 56 h
.0926 g 3803 1777 N -28 -56 103 -25 27 56 h
.0904 g 3905 1752 N -27 -57 102 -25 28 56 h
.0882 g 4008 1726 N -28 -57 103 -25 27 57 h
.086 g 4110 1701 N -27 -57 102 -25 28 57 h
.053 g 5010 3326 N -28 -62 103 -17 27 61 h
.0527 g 5112 3308 N -27 -62 102 -18 28 62 h
.0524 g 5215 3290 N -28 -63 103 -17 27 62 h
.0521 g 5317 3272 N -27 -63 102 -17 28 63 h
.0529 g 5037 3387 N -27 -61 102 -17 28 61 h
.0528 g 5140 3370 N -28 -62 103 -17 27 61 h
.0526 g 5242 3352 N -27 -63 102 -16 28 62 h
.0525 g 5345 3335 N -28 -63 103 -17 27 63 h
.0528 g 5065 3448 N -28 -61 103 -16 27 60 h
.0528 g 5167 3431 N -27 -62 102 -16 28 61 h
.0529 g 5270 3414 N -28 -62 103 -16 27 62 h
.0529 g 5372 3398 N -27 -63 102 -16 28 62 h
.0527 g 5092 3508 N -27 -62 102 -15 28 61 h
.0529 g 5195 3492 N -28 -62 103 -16 27 62 h
.0531 g 5297 3476 N -27 -63 102 -15 28 62 h
.0533 g 5400 3460 N -28 -63 103 -16 27 63 h
.0539 g 4900 3085 N -28 -60 103 -18 27 60 h
.0536 g 5002 3067 N -27 -61 102 -17 28 60 h
.0532 g 5105 3049 N -28 -60 103 -18 27 61 h
.0529 g 5207 3032 N -27 -60 102 -18 28 60 h
.0536 g 4927 3145 N -27 -61 102 -18 28 61 h
.0533 g 5030 3127 N -28 -60 103 -18 27 61 h
.053 g 5132 3110 N -27 -60 102 -18 28 60 h
.0526 g 5235 3092 N -28 -60 103 -18 27 60 h
.0534 g 4955 3206 N -28 -60 103 -18 27 60 h
.053 g 5057 3188 N -27 -60 102 -18 28 60 h
.0527 g 5160 3170 N -28 -60 103 -18 27 60 h
.0523 g 5262 3152 N -27 -60 102 -18 28 60 h
.0531 g 4982 3266 N -27 -60 102 -18 28 60 h
.0528 g 5085 3248 N -28 -60 103 -18 27 60 h
.0524 g 5187 3230 N -27 -60 102 -18 28 60 h
.052 g 5290 3212 N -28 -61 103 -17 27 60 h
.057 g 4790 2853 N -28 -58 103 -18 27 58 h
.0565 g 4892 2835 N -27 -58 102 -18 28 58 h
.056 g 4995 2817 N -27 -58 103 -19 27 58 h
.0555 g 5098 2798 N -28 -58 103 -18 27 58 h
.0561 g 4817 2911 N -27 -58 102 -18 28 58 h
.0557 g 4920 2893 N -28 -58 103 -18 27 58 h
.0553 g 5022 2875 N -27 -59 102 -18 28 58 h
.0548 g 5125 2856 N -27 -59 103 -18 27 59 h
.0553 g 4845 2969 N -28 -58 103 -18 27 58 h
.0549 g 4947 2951 N -27 -58 102 -18 28 58 h
.0545 g 5050 2933 N -28 -58 103 -18 27 58 h
.0541 g 5152 2915 N -27 -58 102 -18 28 58 h
.0544 g 4872 3027 N -27 -58 102 -18 28 58 h
.0541 g 4975 3009 N -28 -58 103 -18 27 58 h
.0537 g 5077 2991 N -27 -59 102 -17 28 58 h
.0534 g 5180 2973 N -28 -59 103 -18 27 59 h
.0608 g 4680 2624 N -28 -58 103 -18 27 57 h
.0602 g 4782 2605 N -28 -58 103 -19 28 58 h
.0596 g 4885 2586 N -27 -58 102 -19 28 58 h
.059 g 4988 2567 N -28 -58 103 -19 27 58 h
.0599 g 4707 2681 N -27 -57 102 -19 28 58 h
.0593 g 4810 2663 N -27 -57 103 -19 27 57 h
.0587 g 4913 2644 N -28 -58 103 -18 27 57 h
.0581 g 5015 2625 N -27 -58 102 -19 28 58 h
.0589 g 4735 2739 N -28 -57 103 -19 27 57 h
.0583 g 4837 2720 N -27 -58 102 -18 28 57 h
.0578 g 4940 2701 N -27 -57 103 -19 27 58 h
.0572 g 5043 2683 N -28 -58 103 -18 27 57 h
.0579 g 4762 2796 N -27 -58 102 -18 28 57 h
.0574 g 4865 2777 N -28 -58 103 -18 27 58 h
.0568 g 4967 2759 N -28 -58 103 -19 28 58 h
.0563 g 5070 2740 N -27 -58 102 -18 28 58 h
.0659 g 4570 2400 N -27 -57 102 -19 28 56 h
.0652 g 4673 2380 N -28 -56 103 -20 27 57 h
.0644 g 4775 2361 N -27 -57 102 -19 28 56 h
.0637 g 4878 2341 N -28 -57 103 -19 27 57 h
.0646 g 4598 2456 N -28 -56 103 -19 27 56 h
.0639 g 4700 2437 N -27 -56 102 -20 28 56 h
.0632 g 4803 2417 N -28 -56 103 -19 27 56 h
.0625 g 4905 2398 N -27 -56 102 -19 28 56 h
.0633 g 4625 2512 N -27 -56 103 -19 27 56 h
.0626 g 4728 2493 N -28 -57 103 -19 27 56 h
.0619 g 4830 2473 N -27 -57 102 -19 28 57 h
.0613 g 4933 2454 N -28 -57 103 -19 27 57 h
.062 g 4652 2568 N -27 -56 102 -19 28 56 h
.0613 g 4755 2549 N -27 -56 103 -19 27 56 h
.0607 g 4858 2530 N -28 -56 103 -19 27 56 h
.0601 g 4960 2511 N -27 -56 102 -19 28 56 h
.0719 g 4460 2179 N -27 -56 102 -20 28 55 h
.0709 g 4563 2158 N -28 -56 103 -20 27 56 h
.0699 g 4665 2138 N -27 -56 102 -21 28 56 h
.0689 g 4768 2117 N -28 -56 103 -20 27 56 h
.0704 g 4488 2234 N -28 -55 103 -20 27 55 h
.0694 g 4590 2214 N -27 -55 102 -20 28 55 h
.0685 g 4693 2194 N -28 -56 103 -20 27 55 h
.0676 g 4795 2173 N -27 -56 102 -20 28 56 h
.0688 g 4515 2289 N -27 -56 102 -20 28 56 h
.068 g 4618 2269 N -28 -56 103 -20 27 56 h
.0671 g 4720 2249 N -27 -56 102 -20 28 56 h
.0662 g 4823 2229 N -28 -57 103 -19 27 56 h
.0673 g 4543 2345 N -28 -55 103 -20 27 55 h
.0665 g 4645 2325 N -27 -56 102 -19 28 55 h
.0657 g 4748 2305 N -28 -56 103 -20 27 56 h
.0649 g 4850 2285 N -27 -56 102 -19 28 56 h
.0774 g 4350 1956 N -27 -55 102 -22 28 56 h
.0762 g 4453 1935 N -28 -56 103 -21 27 55 h
.075 g 4555 1913 N -27 -56 102 -21 28 56 h
.0738 g 4658 1892 N -28 -56 103 -21 27 56 h
.076 g 4378 2012 N -28 -56 103 -21 27 55 h
.0749 g 4480 1990 N -27 -57 102 -20 28 56 h
.0737 g 4583 1969 N -28 -57 103 -21 27 57 h
.0726 g 4685 1948 N -27 -57 102 -21 28 57 h
.0747 g 4405 2067 N -27 -56 102 -21 28 56 h
.0736 g 4508 2046 N -28 -56 103 -20 27 56 h
.0725 g 4610 2026 N -27 -56 102 -21 28 56 h
.0714 g 4713 2005 N -28 -56 103 -21 27 56 h
.0733 g 4433 2123 N -28 -56 103 -21 27 56 h
.0722 g 4535 2102 N -27 -56 102 -20 28 56 h
.0712 g 4638 2082 N -28 -56 103 -21 27 56 h
.0701 g 4740 2061 N -27 -57 102 -20 28 56 h
.0829 g 4240 1733 N -27 -56 102 -21 28 55 h
.0816 g 4343 1711 N -28 -56 103 -22 27 56 h
.0802 g 4445 1689 N -27 -56 102 -22 28 56 h
.0788 g 4548 1667 N -28 -56 103 -22 27 56 h
.0816 g 4268 1788 N -28 -56 103 -21 27 56 h
.0802 g 4370 1767 N -27 -56 102 -22 28 56 h
.0789 g 4473 1745 N -28 -56 103 -22 27 56 h
.0776 g 4575 1723 N -27 -57 102 -21 28 56 h
.0802 g 4295 1844 N -27 -56 102 -21 28 56 h
.0789 g 4398 1823 N -28 -56 103 -22 27 56 h
.0776 g 4500 1801 N -27 -57 102 -21 28 56 h
.0763 g 4603 1779 N -28 -56 103 -22 27 57 h
.0788 g 4323 1900 N -28 -56 103 -21 27 56 h
.0776 g 4425 1879 N -27 -56 102 -22 28 56 h
.0763 g 4528 1857 N -28 -56 103 -21 27 56 h
.0751 g 4630 1836 N -27 -57 102 -21 28 56 h
.0878 g 4130 1506 N -27 -57 102 -22 28 57 h
.0864 g 4233 1484 N -28 -57 103 -22 27 57 h
.085 g 4335 1462 N -28 -57 103 -22 28 57 h
.0836 g 4438 1440 N -27 -57 102 -22 28 57 h
.0866 g 4158 1563 N -28 -57 103 -22 27 57 h
.0852 g 4260 1541 N -27 -57 102 -22 28 57 h
.0838 g 4363 1519 N -27 -57 103 -22 27 57 h
.0824 g 4466 1497 N -28 -57 103 -22 27 57 h
.0854 g 4185 1620 N -27 -56 102 -22 28 56 h
.084 g 4288 1598 N -28 -56 103 -22 27 56 h
.0826 g 4390 1576 N -27 -56 102 -22 28 56 h
.0812 g 4493 1554 N -27 -56 103 -22 27 56 h
.0842 g 4213 1676 N -28 -57 103 -22 27 57 h
.0828 g 4315 1654 N -27 -57 102 -22 28 57 h
.0814 g 4418 1632 N -28 -57 103 -22 27 57 h
.08 g 4520 1610 N -27 -57 102 -22 28 57 h
.0514 g 5420 3255 N -28 -51 103 -27 27 63 h
.0502 g 5522 3240 N -27 -39 102 -27 28 51 h
.0491 g 5625 3225 N -27 -27 103 -27 27 39 h
.048 g 5728 3210 N -28 -15 103 -27 27 27 h
.0503 g 5447 3318 N -27 -51 102 -39 28 63 h
.0461 g 5550 3291 N -28 -38 103 -40 27 51 h
.0418 g 5652 3264 N -27 -26 102 -39 28 38 h
.0376 g 5755 3237 N -27 -14 103 -39 27 26 h
.0492 g 5475 3381 N -28 -51 103 -51 27 63 h
.0419 g 5577 3342 N -27 -39 102 -52 28 51 h
.0346 g 5680 3302 N -28 -27 103 -51 27 39 h
.0272 g 5782 3263 N -28 -14 103 -52 28 27 h
.0482 g 5502 3444 N -27 -51 102 -63 28 63 h
.0377 g 5605 3393 N -28 -39 103 -64 27 51 h
.0273 g 5707 3341 N -27 -26 102 -64 28 39 h
.0169 g 5810 3290 N -27 -14 103 -64 27 26 h
.0527 g 5310 3014 N -27 -61 103 -16 27 60 h
.0526 g 5413 2997 N -28 -61 103 -17 27 61 h
.0524 g 5515 2980 N -27 -62 102 -17 28 61 h
.0523 g 5618 2962 N -28 -63 103 -16 27 62 h
.0525 g 5337 3074 N -27 -60 102 -16 28 60 h
.0525 g 5440 3058 N -27 -61 103 -16 27 60 h
.0525 g 5543 3041 N -28 -62 103 -16 27 61 h
.0525 g 5645 3024 N -27 -62 102 -16 28 62 h
.0522 g 5365 3134 N -28 -61 103 -15 27 60 h
.0524 g 5467 3118 N -27 -62 102 -15 28 61 h
.0526 g 5570 3102 N -27 -62 103 -16 27 62 h
.0528 g 5673 3086 N -28 -63 103 -15 27 62 h
.052 g 5392 3194 N -27 -61 102 -15 28 61 h
.0524 g 5495 3179 N -28 -61 103 -15 27 61 h
.0527 g 5597 3164 N -28 -62 103 -15 28 61 h
.053 g 5700 3148 N -27 -62 102 -15 28 62 h
.0554 g 5200 2780 N -27 -58 102 -16 28 58 h
.0556 g 5303 2764 N -28 -58 103 -15 27 58 h
.0558 g 5405 2749 N -27 -57 102 -16 28 58 h
.056 g 5508 2734 N -28 -57 103 -16 27 57 h
.0546 g 5228 2838 N -28 -59 103 -16 27 59 h
.0547 g 5330 2822 N -27 -57 102 -17 28 59 h
.0548 g 5433 2807 N -28 -57 103 -16 27 57 h
.0549 g 5535 2791 N -27 -57 102 -16 28 57 h
.0539 g 5255 2897 N -27 -58 103 -16 27 58 h
.0539 g 5358 2881 N -28 -58 103 -17 27 58 h
.0539 g 5460 2864 N -27 -57 102 -17 28 58 h
.0538 g 5563 2848 N -28 -56 103 -17 27 57 h
.0532 g 5282 2955 N -28 -58 103 -17 28 59 h
.053 g 5385 2939 N -27 -58 102 -17 28 58 h
.0529 g 5488 2922 N -28 -57 103 -18 27 58 h
.0527 g 5590 2905 N -27 -57 102 -17 28 57 h
.0587 g 5090 2548 N -27 -58 102 -16 28 58 h
.0588 g 5193 2532 N -28 -58 103 -16 27 58 h
.0589 g 5295 2516 N -27 -59 102 -16 28 58 h
.0589 g 5398 2499 N -28 -59 103 -16 27 59 h
.0579 g 5118 2606 N -28 -58 103 -16 27 58 h
.058 g 5220 2590 N -27 -58 102 -16 28 58 h
.0581 g 5323 2574 N -28 -59 103 -15 27 58 h
.0583 g 5425 2558 N -27 -59 102 -16 28 59 h
.057 g 5145 2664 N -27 -58 102 -16 28 58 h
.0572 g 5248 2648 N -28 -59 103 -15 27 58 h
.0574 g 5350 2632 N -27 -58 102 -16 28 59 h
.0576 g 5453 2617 N -28 -58 103 -16 27 58 h
.0562 g 5173 2722 N -28 -58 103 -16 27 58 h
.0564 g 5275 2706 N -27 -58 102 -15 28 58 h
.0567 g 5378 2691 N -28 -59 103 -15 27 58 h
.0569 g 5480 2675 N -27 -59 102 -16 28 59 h
.0633 g 4980 2322 N -27 -57 102 -17 28 57 h
.0632 g 5083 2305 N -28 -57 103 -17 27 57 h
.0631 g 5185 2288 N -27 -57 102 -17 28 57 h
.063 g 5288 2271 N -28 -58 103 -16 27 57 h
.0621 g 5008 2379 N -28 -57 103 -16 27 56 h
.062 g 5110 2362 N -27 -57 102 -17 28 57 h
.062 g 5213 2345 N -28 -57 103 -17 27 57 h
.0619 g 5315 2328 N -27 -57 102 -16 28 57 h
.0609 g 5035 2435 N -27 -56 102 -17 28 57 h
.0609 g 5138 2419 N -28 -57 103 -16 27 56 h
.0609 g 5240 2402 N -27 -57 102 -17 28 57 h
.0609 g 5343 2385 N -28 -57 103 -16 27 57 h
.0598 g 5063 2492 N -28 -57 103 -16 27 56 h
.0598 g 5165 2475 N -27 -57 102 -16 28 57 h
.0598 g 5268 2459 N -28 -57 103 -17 27 57 h
.0598 g 5370 2442 N -27 -57 102 -16 28 57 h
.0683 g 4870 2097 N -27 -56 102 -17 28 56 h
.0681 g 4973 2080 N -28 -56 103 -17 27 56 h
.068 g 5075 2063 N -27 -56 102 -17 28 56 h
.0678 g 5178 2046 N -27 -57 103 -17 27 56 h
.067 g 4898 2153 N -28 -56 103 -17 27 56 h
.0669 g 5000 2136 N -27 -56 102 -17 28 56 h
.0667 g 5103 2119 N -28 -56 103 -17 27 56 h
.0666 g 5205 2102 N -27 -56 102 -17 28 56 h
.0657 g 4925 2209 N -27 -57 102 -17 28 57 h
.0656 g 5028 2192 N -28 -57 103 -17 27 57 h
.0655 g 5130 2175 N -27 -57 102 -17 28 57 h
.0653 g 5233 2158 N -28 -57 103 -17 27 57 h
.0645 g 4953 2266 N -28 -56 103 -17 27 56 h
.0644 g 5055 2249 N -27 -56 102 -17 28 56 h
.0642 g 5158 2232 N -28 -56 103 -17 27 56 h
.0641 g 5260 2215 N -27 -56 102 -17 28 56 h
.0728 g 4760 1871 N -27 -57 102 -19 28 56 h
.072 g 4863 1851 N -27 -58 103 -19 27 57 h
.0713 g 4966 1831 N -28 -59 103 -19 27 58 h
.0705 g 5068 1811 N -27 -59 102 -20 28 59 h
.0717 g 4788 1927 N -28 -57 103 -19 27 57 h
.0711 g 4890 1908 N -27 -58 102 -18 28 57 h
.0705 g 4993 1889 N -27 -58 103 -19 27 58 h
.0699 g 5096 1870 N -28 -60 103 -18 27 58 h
.0706 g 4815 1984 N -27 -58 102 -17 28 56 h
.0702 g 4918 1965 N -28 -58 103 -18 27 58 h
.0697 g 5020 1947 N -27 -59 102 -18 28 58 h
.0693 g 5123 1928 N -27 -59 103 -18 27 59 h
.0695 g 4843 2040 N -28 -57 103 -17 27 57 h
.0692 g 4945 2023 N -27 -58 102 -17 28 57 h
.069 g 5048 2005 N -28 -59 103 -17 27 58 h
.0687 g 5150 1987 N -28 -59 103 -18 28 59 h
.0779 g 4650 1645 N -28 -56 103 -18 28 56 h
.0773 g 4753 1627 N -27 -56 102 -19 28 56 h
.0768 g 4856 1608 N -28 -55 103 -19 27 56 h
.0763 g 4958 1590 N -27 -55 102 -18 28 55 h
.0766 g 4678 1701 N -27 -56 103 -19 27 57 h
.076 g 4781 1683 N -28 -56 103 -19 27 56 h
.0753 g 4883 1664 N -27 -56 102 -19 28 56 h
.0747 g 4986 1645 N -28 -54 103 -20 27 56 h
.0753 g 4705 1758 N -27 -56 102 -19 28 56 h
.0746 g 4808 1739 N -27 -55 103 -20 27 56 h
.0739 g 4911 1720 N -28 -55 103 -19 27 55 h
.0731 g 5013 1701 N -27 -55 102 -20 28 55 h
.074 g 4733 1814 N -28 -56 103 -20 27 57 h
.0732 g 4835 1795 N -28 -56 103 -20 28 56 h
.0724 g 4938 1775 N -27 -55 102 -20 28 56 h
.0715 g 5041 1756 N -28 -55 103 -20 27 55 h
.0785 g 4541 1418 N -28 -67 103 -46 27 57 h
.0697 g 4643 1362 N -27 -75 102 -47 28 67 h
.0609 g 4746 1307 N -28 -85 103 -46 27 75 h
.0521 g 4848 1251 N -27 -94 102 -47 28 85 h
.0785 g 4568 1475 N -27 -66 102 -37 28 57 h
.0721 g 4671 1429 N -28 -75 103 -38 27 66 h
.0657 g 4773 1382 N -27 -84 102 -37 28 75 h
.0593 g 4876 1336 N -28 -94 103 -37 27 84 h
.0785 g 4596 1532 N -28 -66 103 -27 27 56 h
.0745 g 4698 1495 N -27 -76 102 -28 28 66 h
.0704 g 4801 1457 N -28 -85 103 -28 27 76 h
.0664 g 4903 1420 N -27 -94 102 -28 28 85 h
.0785 g 4623 1588 N -27 -66 103 -18 27 57 h
.0768 g 4726 1561 N -28 -75 103 -19 27 66 h
.0752 g 4828 1533 N -27 -85 102 -18 28 75 h
.0735 g 4931 1505 N -28 -95 103 -18 27 85 h
%pm3d_map_end
1.000 UL
LTb
LCb setrgbcolor
LTb
5940 3230 M
4951 1022 L
1260 1614 M
4951 1022 L
0 173 V
stroke gsave	%% draw gray scale smooth box
maxcolors 0 gt {/imax maxcolors def} {/imax 1024 def} ifelse
6309 3728 translate 264 2943 scale 0 setlinewidth
/ystep 1 imax div def /y0 0 def /ii 0 def
{ y0 g 0 y0 N 1 0 V 0 ystep V -1 0 f
/y0 y0 ystep add def /ii ii 1 add def
ii imax ge {exit} if } loop
grestore 0 setgray
stroke
6309 3728 N
264 0 V
0 2943 V
-264 0 V
0 -2943 V
Z stroke
1.000 UL
LTb
1.000 UL
LTb
6573 3728 M
-63 0 V
-201 0 R
63 0 V
201 420 R
-63 0 V
-201 0 R
63 0 V
201 420 R
-63 0 V
-201 0 R
63 0 V
201 421 R
-63 0 V
-201 0 R
63 0 V
201 420 R
-63 0 V
-201 0 R
63 0 V
201 421 R
-63 0 V
-201 0 R
63 0 V
201 420 R
-63 0 V
-201 0 R
63 0 V
201 421 R
-63 0 V
-201 0 R
63 0 V
1.000 UP
stroke
grestore % colour palette end
stroke
grestore
end
showpage
%%Trailer
